,hyp,dice,dark_dice1,dark_dice2
0,1t,-1.0,-1.0,-1.0
1,1,-1.0,-1.0,-1.0
2,2t,-1.0,-1.0,-1.0
3,2,-1.0,-1.0,-1.0
4,3t,-1.0,-1.0,-1.0
5,3,-1.0,-1.0,-1.0
6,4t,-1.0,-1.0,-1.0
7,4,-1.0,-1.0,-1.0
8,5t,-1.0,-1.0,-1.0
9,5,-1.0,-1.0,-1.0
10,6t,-1.0,-1.0,-1.0
11,6,-1.0,-1.0,-1.0
12,7t,-1.0,-1.0,-1.0
13,7,-1.0,-1.0,-1.0
14,8t,-1.0,-1.0,-1.0
15,8,-1.0,-1.0,-1.0
16,9t,-1.0,-1.0,-1.0
