,hyp,dice,dark_dice1,dark_dice2
0,1t,1.0,0.02834467120181406,0.08498583569405099
1,1,1.0,0.0,0.0
2,2t,1.0,0.0,0.07856076675308352
3,2,1.0,0.0,0.0
4,3t,1.0,0.02834467120181406,0.08498583569405099
5,3,1.0,0.0,0.0
6,4t,1.0,0.0,0.07856076675308352
7,4,1.0,0.0,0.0
8,5t,1.0,0.0,0.03438592469482492
9,5,1.0,0.0,0.0
10,6t,1.0,0.0,0.0
11,6,1.0,0.0,0.0
12,7t,1.0,0.0,0.03438592469482492
13,7,1.0,0.0,0.0
