,hyp,dice,dark_dice1,dark_dice2
0,1t,1.0,0.08498583569405099,0.02834467120181406
1,1,1.0,0.0,0.0
2,2t,1.0,0.07856076675308352,0.0
3,2,1.0,0.0,0.0
4,3t,1.0,0.08498583569405099,0.02834467120181406
5,3,1.0,0.0,0.0
6,4t,1.0,0.07856076675308352,0.0
