,hyp,dice,dark_dice1,dark_dice2
0,1t,1.0,0.0,0.0
1,1,1.0,0.0,0.0
2,2t,1.0,0.0,0.0
3,2,1.0,0.0,0.0
4,3t,1.0,0.0,0.0
5,3,1.0,0.0,0.0
6,4t,1.0,0.0,0.0
7,4,1.0,0.0,0.0
8,5t,1.0,0.0,0.0
9,5,1.0,0.0,0.0
10,6t,1.0,0.0,0.0
11,6,1.0,0.0,0.0
12,7t,1.0,0.0,0.0
13,7,1.0,0.0,0.0
