,hyp,dice,dark_dice1,dark_dice2
0,1t,1.0,0.02834467120181406,0.08498583569405099
1,1,1.0,0.0,0.0
2,2t,1.0,0.0,0.07856076675308352
3,2,1.0,0.0,0.0
4,3t,1.0,0.02834467120181406,0.08498583569405099
5,3,1.0,0.0,0.0
