,sag_mean,sag_std,sag_max,sag_min,sag_nb_elements,sag_non_zero_elements,hor_mean,hor_std,hor_max,hor_min,hor_nb_elements,hor_non_zero_elements,frt_mean,frt_std,frt_max,frt_min,frt_nb_elements,frt_non_zero_elements
0,0.0,0.0,0.0,0.0,9315.0,0.0,0.0,0.0,0.0,0.0,7857,0,4.7570971938218307e-07,2.097109925986733e-05,0.0012595653533935547,-0.00021988153457641602,11155.0,8.0
1,0.0,0.0,0.0,0.0,9315.0,0.0,0.0,0.0,0.0,0.0,7857,0,1.3413725914254096e-06,4.321133894232821e-05,0.0013892650604248047,-0.0006390810012817383,11155.0,26.0
2,0.0,0.0,0.0,0.0,9315.0,0.0,0.0,0.0,0.0,0.0,7857,0,1.001517329714e-06,3.873817497030293e-05,0.0011502504348754883,-0.0008792877197265625,11155.0,36.0
3,0.0,0.0,0.0,0.0,9315.0,0.0,0.0,0.0,0.0,0.0,7857,0,-2.0882431192282655e-07,3.6989740724367444e-05,0.0009804964065551758,-0.0010300874710083008,11155.0,52.0
4,0.0,0.0,0.0,0.0,9315.0,0.0,0.0,0.0,0.0,0.0,7857,0,-1.2500598151712662e-06,4.1295652248154376e-05,0.000793755054473877,-0.0014798641204833984,11155.0,62.0
5,0.0,0.0,0.0,0.0,9315.0,0.0,0.0,0.0,0.0,0.0,7857,0,-1.2286580662384583e-06,4.889292963873886e-05,0.0011052191257476807,-0.0017944574356079102,11155.0,72.0
6,0.0,0.0,0.0,0.0,9315.0,0.0,0.0,0.0,0.0,0.0,7857,0,-8.616642796875703e-07,4.704959873979853e-05,0.0010325908660888672,-0.0016438961029052734,11155.0,93.0
7,0.0,0.0,0.0,0.0,9315.0,0.0,0.0,0.0,0.0,0.0,7857,0,5.974811896287717e-07,7.163567036868956e-05,0.0015121698379516602,-0.0015439987182617188,11155.0,191.0
8,0.0,0.0,0.0,0.0,9315.0,0.0,0.0,0.0,0.0,0.0,7857,0,-1.363542663219002e-06,0.00010653935592634951,0.0011340975761413574,-0.0013145208358764648,11155.0,416.0
9,0.0,0.0,0.0,0.0,9315.0,0.0,0.0,0.0,0.0,0.0,7857,0,-3.470307828024437e-06,0.00012976645634482173,0.0013767480850219727,-0.0013686418533325195,11155.0,584.0
10,4.165222487395896e-07,1.39914662509131e-05,1.39914662509131e-05,-7.039308547973633e-05,9315.0,11.0,0.0,0.0,0.0,0.0,7857,0,-8.161001889254683e-07,0.00013557673174413985,0.0017729401588439941,-0.0012330040335655212,11155.0,714.0
11,-1.2590597377179198e-06,7.584559619862681e-05,7.584559619862681e-05,-0.001327425241470337,9315.0,273.0,2.0908262920589018e-07,1.0060399415932725e-05,0.0003237128257751465,-0.0003752708435058594,7857,21,2.8182145926701877e-06,0.00013186165661446564,0.0014874935150146484,-0.0016779899597167969,11155.0,833.0
12,2.2836694402907144e-06,9.279625728009578e-05,9.279625728009578e-05,-0.0012246295809745789,9315.0,545.0,1.295532939242728e-06,4.0408177945120305e-05,0.001029372215270996,-0.0004105567932128906,7857,103,2.701816172850394e-06,0.0001411960870223094,0.0012445449829101562,-0.0021140575408935547,11155.0,945.0
13,1.888563961462506e-06,0.00011094715994766444,0.00011094715994766444,-0.0009774565696716309,9315.0,768.0,6.027662758776496e-06,7.333766614639589e-05,0.0016796588897705078,-0.00038123130798339844,7857,222,-3.1676150086961588e-06,0.0001422300137472037,0.0013823509216308594,-0.0013537406921386719,11155.0,1040.0
14,2.5374030079982546e-06,0.00011589421893361571,0.00011589421893361571,-0.0009993314743041992,9315.0,947.0,9.755439562273796e-06,8.490004784755225e-05,0.001440286636352539,-0.0003647804260253906,7857,348,-9.019368322727286e-06,0.00013975786926350697,0.001079261302947998,-0.001250147819519043,11155.0,1094.0
15,5.007334757382295e-06,0.0001231189911455215,0.0001231189911455215,-0.0009393692016601562,9315.0,1115.0,9.496746655537933e-06,8.873535870170034e-05,0.0011570453643798828,-0.0007560253143310547,7857,491,-1.2675785915742422e-05,0.00015450836691402036,0.0017472505569458008,-0.001755833625793457,11155.0,1193.0
16,5.716381123722133e-06,0.00014173040280255546,0.00014173040280255546,-0.0010358095169067383,9315.0,1277.0,5.136681241736592e-06,9.844291970123018e-05,0.0009527206420898438,-0.0010986328125,7857,617,-1.1726462745918809e-05,0.00018269936285949563,0.001767665147781372,-0.0018051862716674805,11155.0,1321.0
17,4.089327896002858e-06,0.00016264415502417168,0.00016264415502417168,-0.0012357234954833984,9315.0,1459.0,-8.036538161289014e-07,0.00011757263389101217,0.000941932201385498,-0.0014109611511230469,7857,757,-1.04683311092565e-05,0.00018379603936105515,0.0015567243099212646,-0.0021350085735321045,11155.0,1466.0
18,3.5829179091913944e-06,0.0001736133840987482,0.0001736133840987482,-0.0011768341064453125,9315.0,1623.0,-3.697049677911546e-06,0.00013148183203796825,0.0016050338745117188,-0.0013518333435058594,7857,893,-1.3619501746695027e-05,0.0001776449285145809,0.0013218522071838379,-0.0019428730010986328,11155.0,1592.0
19,5.0152738949047e-06,0.0001819852270498721,0.0001819852270498721,-0.0016502141952514648,9315.0,1787.0,-4.626100294247404e-06,0.00014908421323228064,0.001462697982788086,-0.0015474557876586914,7857,1128,-1.091983337978574e-05,0.00020094010176581977,0.0017547011375427246,-0.001959562301635742,11155.0,1778.0
20,6.389877432982287e-06,0.00019723925576642343,0.00019723925576642343,-0.0015811920166015625,9315.0,1950.0,8.555183459044382e-07,0.00015237348494775437,0.001214742660522461,-0.0013846158981323242,7857,1369,-8.59271039487481e-08,0.00022852109437681336,0.0023076534271240234,-0.0017886757850646973,11155.0,2088.0
21,1.078310378357744e-05,0.00021619311301210417,0.00021619311301210417,-0.0015759468078613281,9315.0,2137.0,7.297084246585125e-06,0.00016545803376763043,0.0015152692794799805,-0.001336812973022461,7857,1567,1.1825551058581924e-05,0.00024638141907789256,0.00203704833984375,-0.001768745481967926,11155.0,2319.0
22,1.4996594839961227e-05,0.0002277440373152645,0.0002277440373152645,-0.0016339123249053955,9315.0,2330.0,9.943982658570423e-06,0.00018339694927946952,0.002329111099243164,-0.0014810562133789062,7857,1768,1.9815767665678505e-05,0.00026187036142696554,0.0016994476318359375,-0.0015426874160766602,11155.0,2583.0
23,1.8652157962962864e-05,0.0002343998869213022,0.0002343998869213022,-0.0014619380235671997,9315.0,2490.0,1.1886317381904069e-05,0.00019725479229609077,0.0014042854309082031,-0.0019326210021972656,7857,1950,2.958450890485363e-05,0.0002797339484892176,0.0016351938247680664,-0.0017254352569580078,11155.0,3093.0
24,2.105883216895053e-05,0.00023342059036344912,0.00023342059036344912,-0.0014232397079467773,9315.0,2625.0,1.2989720533580248e-05,0.0002119753198455168,0.0016326904296875,-0.002139568328857422,7857,2108,3.727293150238142e-05,0.00030049907496039355,0.001920938491821289,-0.0015996694564819336,11155.0,3617.0
25,2.327936327047906e-05,0.0002341516240521496,0.0002341516240521496,-0.0015232563018798828,9315.0,2772.0,1.0606415932615196e-05,0.0002218642805925466,0.0012459754943847656,-0.0021109580993652344,7857,2250,4.4379809159394e-05,0.00031220860767629184,0.001955270767211914,-0.0021004676818847656,11155.0,4070.0
26,2.456849444181655e-05,0.00024383148456590323,0.00024383148456590323,-0.0015823841094970703,9315.0,2886.0,5.717318424386284e-06,0.00022861594061196526,0.0011398792266845703,-0.0018933415412902832,7857,2396,4.4479179225280944e-05,0.0003180731011862244,0.0022842884063720703,-0.0017142295837402344,11155.0,4437.0
27,2.6361563869290077e-05,0.00025364408386712725,0.00025364408386712725,-0.0015772581100463867,9315.0,2993.0,3.5535541845612872e-06,0.0002312360193371742,0.0016236305236816406,-0.001571565866470337,7857,2521,3.818268004657159e-05,0.0003323064638895387,0.0019069015979766846,-0.0016820430755615234,11155.0,4818.0
28,2.493433780784224e-05,0.00025887690844357656,0.00025887690844357656,-0.0014733970165252686,9315.0,3086.0,2.6191425811657244e-06,0.0002372550489459685,0.0015225410461425781,-0.0014732927083969116,7857,2640,3.0465009869351827e-05,0.0003425608763151807,0.0019866228103637695,-0.0016170740127563477,11155.0,5023.0
29,1.718427343052508e-05,0.0002689433177495042,0.0002689433177495042,-0.0014994144439697266,9315.0,3172.0,1.3647255459232583e-06,0.00025136290846143556,0.0015659332275390625,-0.0020525455474853516,7857,2751,2.6357269556612673e-05,0.0003469547793290776,0.0021659135818481445,-0.0015988349914550781,11155.0,5143.0
30,5.573060812695542e-07,0.0002833884716794954,0.0002833884716794954,-0.0016758441925048828,9315.0,3250.0,3.1717892002499953e-07,0.0002607985768273984,0.001203775405883789,-0.002351522445678711,7857,2841,3.154696150209874e-05,0.0003555533599594828,0.0020148754119873047,-0.001621246337890625,11155.0,5244.0
31,-2.029603920198109e-05,0.0002970474927609968,0.0002970474927609968,-0.002254962921142578,9315.0,3309.0,1.5287617445593033e-06,0.0002693711932066754,0.0013089179992675781,-0.0018355846405029297,7857,2938,3.8728804991495804e-05,0.0003716150917317251,0.0023270249366760254,-0.0019375085830688477,11155.0,5345.0
32,-3.576922284380967e-05,0.0003027066241070428,0.0003027066241070428,-0.001956254243850708,9315.0,3368.0,5.686443583062849e-06,0.00028496409466456397,0.0017077922821044922,-0.0016057491302490234,7857,3016,3.686708182350132e-05,0.00037893416562804344,0.0023781340569257736,-0.002162158489227295,11155.0,5425.0
33,-4.214630852779848e-05,0.0003027054488349155,0.0003027054488349155,-0.002162158489227295,9315.0,3405.0,9.85766985419646e-06,0.0003059016588364207,0.0020394325256347656,-0.0015039443969726562,7857,3092,2.801416856426694e-05,0.00036762974108772907,0.001825958490371704,-0.001986086368560791,11155.0,5496.0
34,-4.069346335014929e-05,0.00030230252147688897,0.00030230252147688897,-0.0020728111267089844,9315.0,3453.0,1.4291768752543908e-05,0.0003158455348218323,0.0022842884063720703,-0.001735687255859375,7857,3170,2.7909746227835204e-05,0.00035130907479476934,0.002329111099243164,-0.0016339123249053955,11155.0,5558.0
35,-3.736634983446687e-05,0.00031146515064685857,0.00031146515064685857,-0.0021140575408935547,9315.0,3491.0,1.8440518413600543e-05,0.0003073816396563315,0.0021767616271972656,-0.0021140575408935547,7857,3253,3.093983796327765e-05,0.0003533863760156592,0.001997649669647217,-0.001956939697265625,11155.0,5572.0
36,-3.489274340408815e-05,0.00033020588487567027,0.00033020588487567027,-0.001959562301635742,9315.0,3521.0,1.920302418075773e-05,0.00029888560672842806,0.0017461776733398438,-0.0019502639770507812,7857,3308,2.6626271729623454e-05,0.0003686397463547488,0.002298593521118164,-0.002139568328857422,11155.0,5577.0
37,-3.412713510139535e-05,0.0003443843997840847,0.0003443843997840847,-0.002349853515625,9315.0,3548.0,1.6850872948514818e-05,0.00029568974778312174,0.0017664432525634766,-0.0016306638717651367,7857,3381,1.332251971854913e-05,0.00037970516936526236,0.0018546581268310547,-0.002351522445678711,11155.0,5547.0
38,-3.319555752379775e-05,0.00035100466915335895,0.00035100466915335895,-0.0026816129684448242,9315.0,3574.0,1.3781620499040123e-05,0.0002894734635492314,0.0016093254089355469,-0.0017944574356079102,7857,3428,-6.17451561694812e-07,0.00038284505163392753,0.0017771720886230469,-0.0022678375244140625,11155.0,5506.0
39,-3.253408705163172e-05,0.00034777449574402116,0.00034777449574402116,-0.0023870468139648438,9315.0,3589.0,1.5455250534295004e-05,0.0002878930268677106,0.0014913082122802734,-0.001920461654663086,7857,3486,-4.778053264097315e-06,0.00038000262185576344,0.0017774105072021484,-0.0019559860229492188,11155.0,5456.0
40,-2.8781503875195577e-05,0.0003291567972495137,0.0003291567972495137,-0.0016402006149291992,9315.0,3576.0,2.502690207888245e-05,0.0003001279146411743,0.0018634796142578125,-0.001959562301635742,7857,3515,-6.620412226870709e-08,0.0003756389675568457,0.0020096302032470703,-0.0020728111267089844,11155.0,5395.0
41,-1.966654067480751e-05,0.0003145774422621683,0.0003145774422621683,-0.001746058464050293,9315.0,3591.0,3.8226890026305934e-05,0.00032692384023614646,0.0021469593048095703,-0.001768745481967926,7857,3537,2.2884390964153997e-06,0.0003705205339455314,0.0017399787902832031,-0.002254962921142578,11155.0,5348.0
42,-9.319753568170575e-06,0.0003196018401101767,0.0003196018401101767,-0.0020203590393066406,9315.0,3605.0,4.5482187670664154e-05,0.0003512699108694477,0.0021491050720214844,-0.001755833625793457,7857,3541,-5.058437372352592e-06,0.00036419912876477423,0.0019614696502685547,-0.0020308494567871094,11155.0,5277.0
43,2.0139590506874308e-06,0.0003311002033104257,0.0003311002033104257,-0.0019178390502929688,9315.0,3618.0,4.702997482269598e-05,0.0003578625151939522,0.0017998218536376953,-0.0021350085735321045,7857,3518,-1.6218403766013076e-05,0.00035538980619948007,0.002313375473022461,-0.0018267631530761719,11155.0,5181.0
44,1.2738645282087591e-05,0.00032154780327395624,0.00032154780327395624,-0.0017254352569580078,9315.0,3611.0,4.8808768359071576e-05,0.000346179081412295,0.0016252994537353516,-0.001433044672012329,7857,3414,-2.2061025947774875e-05,0.00033709144343606025,0.00194549560546875,-0.0018486380577087402,11155.0,5085.0
45,2.0492142167590234e-05,0.0002964321300586904,0.0002964321300586904,-0.0017042160034179688,9315.0,3588.0,5.3226541338337446e-05,0.000334395186675062,0.0018100738525390625,-0.001651763916015625,7857,3299,-2.0607097872637997e-05,0.0003142968613484118,0.0014934539794921875,-0.0020368099212646484,11155.0,4975.0
46,2.5202808130955048e-05,0.0002735272877355632,0.0002735272877355632,-0.0015662312507629395,9315.0,3523.0,6.0376316407232594e-05,0.00033828125022779406,0.0018429756164550781,-0.0017254352569580078,7857,3194,-1.6284471791837045e-05,0.00030412688671178467,0.0013549327850341797,-0.002391815185546875,11155.0,4870.0
47,2.910711517471518e-05,0.0002648291993392076,0.0002648291993392076,-0.0014861822128295898,9315.0,3450.0,7.231691346663934e-05,0.0003514429161180348,0.0018062591552734375,-0.0017993450164794922,7857,3088,-1.1177013117021868e-05,0.00029977329442031894,0.0016050338745117188,-0.0026816129684448242,11155.0,4757.0
48,3.35940269742589e-05,0.00026949322116866513,0.00026949322116866513,-0.0015044212341308594,9315.0,3397.0,7.756158142458835e-05,0.0003539670597938953,0.0020096302032470703,-0.0016632080078125,7857,3027,-1.7063113895773175e-06,0.0002971990697398248,0.0014781653881072998,-0.0022932887077331543,11155.0,4633.0
49,3.66747558362616e-05,0.00028958570568763986,0.00028958570568763986,-0.0014791488647460938,9315.0,3427.0,7.731857995342748e-05,0.00033477922913349576,0.001997649669647217,-0.0014851093292236328,7857,2988,8.352834427439541e-06,0.00030107159308059703,0.0015532970428466797,-0.0019714832305908203,11155.0,4495.0
50,3.317442234711531e-05,0.00031297234082517316,0.00031297234082517316,-0.0016736984252929688,9315.0,3503.0,7.32572612485383e-05,0.0003073749837108284,0.0019249320030212402,-0.0013365745544433594,7857,2971,1.9320816525550544e-05,0.0002989830637907125,0.0022139549255371094,-0.002188444137573242,11155.0,4352.0
51,2.2906567922618862e-05,0.0003244318807058941,0.0003244318807058941,-0.0019174814224243164,9315.0,3573.0,6.899672328729234e-05,0.0002908196314523963,0.0016198158264160156,-0.0012253522872924805,7857,2941,3.012140174632193e-05,0.0002917652302256879,0.002725839614868164,-0.0017049312591552734,11155.0,4196.0
52,1.1880880926972966e-05,0.00032764032411730756,0.00032764032411730756,-0.001857161521911621,9315.0,3599.0,6.500576397998998e-05,0.0002819624269436871,0.0015555620193481445,-0.0015232563018798828,7857,2919,3.055137064385573e-05,0.00028790888537590174,0.0029685497283935547,-0.001842498779296875,11155.0,4031.0
53,3.6019737741890424e-06,0.0003279386223011388,0.0003279386223011388,-0.0016248226165771484,9315.0,3604.0,6.405601248526193e-05,0.00028329224161339865,0.001489102840423584,-0.0017254352569580078,7857,2904,2.4074223518692182e-05,0.0002782453131485713,0.0021686553955078125,-0.0019174814224243164,11155.0,3862.0
54,-1.7124258536952675e-06,0.0003257485634129449,0.0003257485634129449,-0.0014653205871582031,9315.0,3586.0,6.856788025069658e-05,0.00028806484967916024,0.0016887187957763672,-0.0016558170318603516,7857,2886,1.5942771540343567e-05,0.0002646991503084792,0.001653432846069336,-0.0016191154718399048,11155.0,3679.0
55,-5.460963268292907e-06,0.00032863499373419217,0.00032863499373419217,-0.0016976594924926758,9315.0,3576.0,7.080348559598281e-05,0.0002980779355920363,0.0018639564514160156,-0.0015044212341308594,7857,2866,7.501956676969956e-06,0.0002533799827819891,0.0014514923095703125,-0.0016140937805175781,11155.0,3466.0
56,-1.0837402157995388e-05,0.00032675502834830214,0.00032675502834830214,-0.0019974708557128906,9315.0,3568.0,6.608658742723353e-05,0.00031607096427382626,0.001977682113647461,-0.0016120672225952148,7857,2853,2.399871535253795e-06,0.00024096532908096977,0.0014510154724121094,-0.0017254352569580078,11155.0,3246.0
57,-1.750190379757932e-05,0.00032439051369342447,0.00032439051369342447,-0.002007603645324707,9315.0,3573.0,5.735319589878816e-05,0.00033028496960122247,0.0022839903831481934,-0.001649409532546997,7857,2856,2.514237326465285e-06,0.00022631645306375845,0.0016736984252929688,-0.0013911724090576172,11155.0,3019.0
58,-2.2180950335902824e-05,0.0003247706402807927,0.0003247706402807927,-0.0018938183784484863,9315.0,3558.0,4.861139456349875e-05,0.00032849376724063736,0.00215756893157959,-0.0014296621084213257,7857,2859,7.700355159321651e-06,0.00021607053533942395,0.0017664432525634766,-0.0014188289642333984,11155.0,2774.0
59,-2.4664232011340993e-05,0.00032951181924446914,0.00032951181924446914,-0.002139568328857422,9315.0,3536.0,3.971409759251549e-05,0.0003145233281994535,0.0020158886909484863,-0.0015058517456054688,7857,2852,1.4871387487400118e-05,0.00020960894129184852,0.0014922618865966797,-0.0020203590393066406,11155.0,2508.0
60,-2.4146263683724685e-05,0.00032477741426993145,0.00032477741426993145,-0.0019404888153076172,9315.0,3521.0,3.224551603382965e-05,0.0003002099196227481,0.0021659135818481445,-0.0014879703521728516,7857,2838,2.033786460171161e-05,0.00019828535173864893,0.0014002323150634766,-0.0015265941619873047,11155.0,2248.0
61,-2.1305329610518133e-05,0.0003061173949811573,0.0003061173949811573,-0.0016014575958251953,9315.0,3479.0,2.6629544605482742e-05,0.00029569302658785223,0.0020530223846435547,-0.0017663240432739258,7857,2817,2.03195869630843e-05,0.00018504466689703416,0.0018429756164550781,-0.0012295246124267578,11155.0,2004.0
62,-1.6689140190117865e-05,0.00029442922554176123,0.00029442922554176123,-0.0018858909606933594,9315.0,3428.0,2.304444879369185e-05,0.00029721464858520363,0.0017995834350585938,-0.001842498779296875,7857,2814,1.6792277888578987e-05,0.00016409887526964273,0.0016188621520996094,-0.0009798109531402588,11155.0,1746.0
63,-1.169334272481601e-05,0.0002942458829413328,0.0002942458829413328,-0.0019805431365966797,9315.0,3365.0,2.073731353986272e-05,0.00030016607023649884,0.0015528202056884766,-0.0016906261444091797,7857,2804,1.1379820563565774e-05,0.00013899932471151844,0.0013148784637451172,-0.0009846687316894531,11155.0,1487.0
64,-2.5034958394959176e-06,0.0002984781561582945,0.0002984781561582945,-0.0022678375244140625,9315.0,3322.0,1.8630890491356546e-05,0.0003130027583090356,0.0016067028045654297,-0.0021004676818847656,7857,2782,6.600522069057599e-06,0.00012359630807395593,0.0014607906341552734,-0.001078099012374878,11155.0,1215.0
65,1.097167935822273e-05,0.0003019812754772587,0.0003019812754772587,-0.002351522445678711,9315.0,3271.0,1.7191749363607284e-05,0.00033267882051609234,0.002186998724937439,-0.0019307136535644531,7857,2768,4.117515201420293e-06,0.00011672217294666952,0.0018100738525390625,-0.0010510683059692383,11155.0,942.0
66,2.6524054308702357e-05,0.00030666870744369224,0.00030666870744369224,-0.002068042755126953,9315.0,3210.0,1.8898367191195124e-05,0.0003384837908100845,0.0027132034301757812,-0.0018486380577087402,7857,2731,4.1139442409989425e-06,0.00010040323623108116,0.0012087821960449219,-0.0009398460388183594,11155.0,686.0
67,3.703795313119249e-05,0.0003007699513734622,0.0003007699513734622,-0.0017066001892089844,9315.0,3138.0,2.631648737237179e-05,0.0003247478162384035,0.0029685497283935547,-0.002188444137573242,7857,2705,2.8706681699642737e-06,7.033496462618312e-05,0.0011181831359863281,-0.0010290145874023438,11155.0,381.0
68,4.231050746516393e-05,0.00028680813769483947,0.00028680813769483947,-0.0018486380577087402,9315.0,3065.0,3.5094485666113716e-05,0.0003062734441647426,0.002313375473022461,-0.0021524429321289062,7857,2677,-3.086088257806283e-07,3.339755541249037e-05,0.0005857944488525391,-0.001050412654876709,11155.0,109.0
69,4.033376117823301e-05,0.0002680505203994117,0.0002680505203994117,-0.001705944538116455,9315.0,2973.0,4.471030256790246e-05,0.00030188358658105404,0.0023076534271240234,-0.0018723011016845703,7857,2635,0.0,0.0,0.0,0.0,11155.0,0.0
70,3.457100526042287e-05,0.0002558981877317427,0.0002558981877317427,-0.0017993450164794922,9315.0,2864.0,4.9219159751745155e-05,0.0003047272681085374,0.0018892288208007812,-0.001705944538116455,7857,2609,0.0,0.0,0.0,0.0,11155.0,0.0
71,3.264122490496292e-05,0.00025307639054340266,0.00025307639054340266,-0.0020012259483337402,9315.0,2751.0,4.272688147848392e-05,0.00030451333803877955,0.0018546581268310547,-0.001550137996673584,7857,2563,0.0,0.0,0.0,0.0,11155.0,0.0
72,3.671422129585915e-05,0.00024771653950198853,0.00024771653950198853,-0.0021350085735321045,9315.0,2617.0,2.6080727823790075e-05,0.00029764371493493845,0.0016568172723054886,-0.0013992786407470703,7857,2505,0.0,0.0,0.0,0.0,11155.0,0.0
73,4.400639443333854e-05,0.00024393967154658525,0.00024393967154658525,-0.0017183423042297363,9315.0,2483.0,4.3682887516591015e-06,0.0002910436849231379,0.00194549560546875,-0.0020412206649780273,7857,2433,0.0,0.0,0.0,0.0,11155.0,0.0
74,4.851548051785516e-05,0.00024283107854552403,0.00024283107854552403,-0.0017170906066894531,9315.0,2321.0,-1.5059142460850789e-05,0.0002975764931725083,0.0016143321990966797,-0.0026816129684448242,7857,2371,0.0,0.0,0.0,0.0,11155.0,0.0
75,5.264649320206938e-05,0.00024715541699306035,0.00024715541699306035,-0.001556396484375,9315.0,2127.0,-2.892411852273718e-05,0.00031040148258100654,0.001346290111541748,-0.0026553869247436523,7857,2302,0.0,0.0,0.0,0.0,11155.0,0.0
76,5.6271990749600555e-05,0.0002464935379400906,0.0002464935379400906,-0.0012454986572265625,9315.0,1926.0,-3.588748843690284e-05,0.0003122913694605262,0.0013152360916137695,-0.002106606960296631,7857,2240,0.0,0.0,0.0,0.0,11155.0,0.0
77,5.4989514174564706e-05,0.00024164403277172956,0.00024164403277172956,-0.0009984970092773438,9315.0,1764.0,-3.772250015290488e-05,0.0002933891220585996,0.001374959945678711,-0.0018938183784484863,7857,2179,0.0,0.0,0.0,0.0,11155.0,0.0
78,5.053754100717641e-05,0.0002265183554860222,0.0002265183554860222,-0.0009095668792724609,9315.0,1589.0,-3.767848404127224e-05,0.0002669577117330519,0.0013602972030639648,-0.0016402006149291992,7857,2103,0.0,0.0,0.0,0.0,11155.0,0.0
79,4.5319096264251925e-05,0.0002033025142634189,0.0002033025142634189,-0.0010085105895996094,9315.0,1407.0,-3.486693984116144e-05,0.00025681389776416655,0.0012812614440917969,-0.0017955303192138672,7857,2013,0.0,0.0,0.0,0.0,11155.0,0.0
80,4.2615714154900585e-05,0.00019563150169256825,0.00019563150169256825,-0.0012886524200439453,9315.0,1258.0,-3.087707589901638e-05,0.0002534225354598949,0.0015577077865600586,-0.0018122196197509766,7857,1953,0.0,0.0,0.0,0.0,11155.0,0.0
81,3.863606532966649e-05,0.00018971514693394501,0.00018971514693394501,-0.0015726089477539062,9315.0,1098.0,-2.9523048870421593e-05,0.00025101988497046367,0.0017564892768859863,-0.0017735958099365234,7857,1927,,,,,,
82,3.640844336807352e-05,0.00019421898490063833,0.00019421898490063833,-0.001483917236328125,9315.0,945.0,-3.184196225774533e-05,0.0002501600698285734,0.001805126667022705,-0.0019818544387817383,7857,1898,,,,,,
83,3.1902005366573106e-05,0.00018400007665603016,0.00018400007665603016,-0.0010180473327636719,9315.0,773.0,-3.5359471181597345e-05,0.00026127273535378074,0.002298593521118164,-0.0020728111267089844,7857,1856,,,,,,
84,2.2574857285249253e-05,0.00015993447854340876,0.00015993447854340876,-0.001064300537109375,9315.0,587.0,-3.745341001015989e-05,0.0002714163719041555,0.002177000045776367,-0.0019559860229492188,7857,1825,,,,,,
85,8.23842775490549e-06,9.660826576399205e-05,9.660826576399205e-05,-0.0012390613555908203,9315.0,276.0,-3.803111515598806e-05,0.0002730993699128372,0.0017657279968261719,-0.002162158489227295,7857,1767,,,,,,
86,3.698495403132129e-09,3.917427007983315e-05,3.917427007983315e-05,-0.0014879703521728516,9315.0,26.0,-3.996420149474841e-05,0.0002689212165523483,0.001553565263748169,-0.00205075740814209,7857,1716,,,,,,
87,0.0,0.0,0.0,0.0,9315.0,0.0,-4.1801947084454e-05,0.0002565197633842532,0.001555800437927246,-0.0019049644470214844,7857,1663,,,,,,
88,0.0,0.0,0.0,0.0,9315.0,0.0,-4.4170230264878934e-05,0.000232648051778681,0.0016880035400390625,-0.0018275976181030273,7857,1602,,,,,,
89,0.0,0.0,0.0,0.0,9315.0,0.0,-4.5994531589767526e-05,0.00020797809315984612,0.0015320777893066406,-0.0015714168548583984,7857,1532,,,,,,
90,0.0,0.0,0.0,0.0,9315.0,0.0,-4.750618925542152e-05,0.00019561581000389336,0.0012001991271972656,-0.0013642311096191406,7857,1460,,,,,,
91,0.0,0.0,0.0,0.0,9315.0,0.0,-4.891112214872969e-05,0.00019813655497099767,0.0009351968765258789,-0.0015759468078613281,7857,1394,,,,,,
92,0.0,0.0,0.0,0.0,9315.0,0.0,-4.703641730116862e-05,0.00019959702480075572,0.000983595848083496,-0.0015602707862854004,7857,1313,,,,,,
93,0.0,0.0,0.0,0.0,9315.0,0.0,-4.0959516098985724e-05,0.00019743332779456087,0.0010570287704467773,-0.0016740262508392334,7857,1253,,,,,,
94,0.0,0.0,0.0,0.0,9315.0,0.0,-3.1120910292764066e-05,0.00018780968874290154,0.001172780990600586,-0.0019174814224243164,7857,1201,,,,,,
95,0.0,0.0,0.0,0.0,9315.0,0.0,-2.011075066091995e-05,0.00017522673096004863,0.001134343445301056,-0.001629948616027832,7857,1131,,,,,,
96,0.0,0.0,0.0,0.0,9315.0,0.0,-1.5025548933470849e-05,0.00017438522407068536,0.0014816224575042725,-0.0013930797576904297,7857,1044,,,,,,
97,,,,,,,-1.477540224227299e-05,0.0001752821362163901,0.0018302202224731445,-0.0013934522867202759,7857,950,,,,,,
98,,,,,,,-1.784010325753235e-05,0.00016990244150079967,0.0018860101699829102,-0.0014818906784057617,7857,851,,,,,,
99,,,,,,,-1.8938386413820284e-05,0.00015175799381068338,0.001585245132446289,-0.0015250444412231445,7857,725,,,,,,
100,,,,,,,-1.576698178455539e-05,0.00012639288897193097,0.0009951591491699219,-0.0013511180877685547,7857,590,,,,,,
101,,,,,,,-1.1604543581161165e-05,0.00010606796367663929,0.0010747909545898438,-0.0014982223510742188,7857,460,,,,,,
102,,,,,,,-9.165045710329611e-06,8.846292852085253e-05,0.0005461350083351135,-0.0014481544494628906,7857,341,,,,,,
103,,,,,,,-5.215751955916744e-06,6.584280140186177e-05,0.0005215480923652649,-0.0012890100479125977,7857,177,,,,,,
104,,,,,,,-1.0990450343391406e-06,3.311918191381446e-05,0.0003458261489868164,-0.0011445283889770508,7857,41,,,,,,
105,,,,,,,0.0,0.0,0.0,0.0,7857,0,,,,,,
106,,,,,,,0.0,0.0,0.0,0.0,7857,0,,,,,,
107,,,,,,,0.0,0.0,0.0,0.0,7857,0,,,,,,
108,,,,,,,0.0,0.0,0.0,0.0,7857,0,,,,,,
109,,,,,,,0.0,0.0,0.0,0.0,7857,0,,,,,,
110,,,,,,,0.0,0.0,0.0,0.0,7857,0,,,,,,
111,,,,,,,0.0,0.0,0.0,0.0,7857,0,,,,,,
112,,,,,,,0.0,0.0,0.0,0.0,7857,0,,,,,,
113,,,,,,,0.0,0.0,0.0,0.0,7857,0,,,,,,
114,,,,,,,0.0,0.0,0.0,0.0,7857,0,,,,,,
