,sag_mean,sag_std,sag_max,sag_min,sag_nb_elements,sag_non_zero_elements,hor_mean,hor_std,hor_max,hor_min,hor_nb_elements,hor_non_zero_elements,frt_mean,frt_std,frt_max,frt_min,frt_nb_elements,frt_non_zero_elements
0,0.0,0.0,0.0,0.0,9315.0,0.0,0.0,0.0,0.0,0.0,7857,0,-4.7570971938218307e-07,2.097109925986733e-05,0.00021988153457641602,-0.0012595653533935547,11155.0,8.0
1,0.0,0.0,0.0,0.0,9315.0,0.0,0.0,0.0,0.0,0.0,7857,0,-1.3413725914254096e-06,4.321133894232821e-05,0.0006390810012817383,-0.0013892650604248047,11155.0,26.0
2,0.0,0.0,0.0,0.0,9315.0,0.0,0.0,0.0,0.0,0.0,7857,0,-1.001517329714e-06,3.873817497030293e-05,0.0008792877197265625,-0.0011502504348754883,11155.0,36.0
3,0.0,0.0,0.0,0.0,9315.0,0.0,0.0,0.0,0.0,0.0,7857,0,2.0882431192282655e-07,3.6989740724367444e-05,0.0010300874710083008,-0.0009804964065551758,11155.0,52.0
4,0.0,0.0,0.0,0.0,9315.0,0.0,0.0,0.0,0.0,0.0,7857,0,1.2500705017951612e-06,4.129582441855006e-05,0.0014798641204833984,-0.000793755054473877,11155.0,62.0
5,0.0,0.0,0.0,0.0,9315.0,0.0,0.0,0.0,0.0,0.0,7857,0,1.2286580662384583e-06,4.889292963873886e-05,0.0017944574356079102,-0.0011052191257476807,11155.0,72.0
6,0.0,0.0,0.0,0.0,9315.0,0.0,0.0,0.0,0.0,0.0,7857,0,8.616642796875703e-07,4.704959873979853e-05,0.0016438961029052734,-0.0010325908660888672,11155.0,93.0
7,0.0,0.0,0.0,0.0,9315.0,0.0,0.0,0.0,0.0,0.0,7857,0,-5.97475846316824e-07,7.163558428913186e-05,0.0015439987182617188,-0.0015121698379516602,11155.0,191.0
8,0.0,0.0,0.0,0.0,9315.0,0.0,0.0,0.0,0.0,0.0,7857,0,1.363542663219002e-06,0.00010653935592634951,0.0013145208358764648,-0.0011340975761413574,11155.0,416.0
9,0.0,0.0,0.0,0.0,9315.0,0.0,0.0,0.0,0.0,0.0,7857,0,3.470310499680411e-06,0.00012976645720140772,0.0013686418533325195,-0.0013767480850219727,11155.0,584.0
10,-4.165222487395896e-07,1.39914662509131e-05,1.39914662509131e-05,-0.0005763769149780273,9315.0,11.0,0.0,0.0,0.0,0.0,7857,0,8.161001889254683e-07,0.00013557673174413985,0.0012330040335655212,-0.0017729401588439941,11155.0,714.0
11,1.2590597377179198e-06,7.584559619862681e-05,7.584559619862681e-05,-0.0009667873382568359,9315.0,273.0,-2.0908262920589018e-07,1.0060399415932725e-05,0.0003752708435058594,-0.0003237128257751465,7857,21,-2.8181665028626592e-06,0.00013186155680199846,0.0016779899597167969,-0.0014874935150146484,11155.0,833.0
12,-2.2836694402907144e-06,9.279625728009578e-05,9.279625728009578e-05,-0.0007903575897216797,9315.0,545.0,-1.295532939242728e-06,4.0408177945120305e-05,0.0004105567932128906,-0.001029372215270996,7857,103,-2.7017947996026034e-06,0.0001411961444355734,0.0021140575408935547,-0.0012445449829101562,11155.0,945.0
13,-1.888563961462506e-06,0.00011094715994766444,0.00011094715994766444,-0.0008806437253952026,9315.0,768.0,-6.027647586409237e-06,7.333762974616806e-05,0.00038123130798339844,-0.0016796588897705078,7857,222,3.1675829488244734e-06,0.00014222999586213333,0.0013537406921386719,-0.0013823509216308594,11155.0,1040.0
14,-2.5374030079982546e-06,0.00011589421893361571,0.00011589421893361571,-0.0010069608688354492,9315.0,947.0,-9.755439562273796e-06,8.490004784755225e-05,0.0003647804260253906,-0.001440286636352539,7857,348,9.019372330211246e-06,0.0001397578336693543,0.001250147819519043,-0.001079261302947998,11155.0,1094.0
15,-5.007331557991808e-06,0.00012311898873893816,0.00012311898873893816,-0.0012555122375488281,9315.0,1115.0,-9.496746655537933e-06,8.873535870170034e-05,0.0007560253143310547,-0.0011570453643798828,7857,491,1.2675785915742422e-05,0.00015450836691402036,0.001755833625793457,-0.0017472505569458008,11155.0,1193.0
16,-5.7163813236840385e-06,0.0001417304035176228,0.0001417304035176228,-0.0015811920166015625,9315.0,1277.0,-5.136666069369333e-06,9.844284647744451e-05,0.0010986328125,-0.0009527206420898438,7857,617,1.1726465417574783e-05,0.00018269937409633863,0.0018051862716674805,-0.001767665147781372,11155.0,1321.0
17,-4.0893086996599355e-06,0.00016264418018420077,0.00016264418018420077,-0.0015912055969238281,9315.0,1459.0,8.036651954043453e-07,0.00011757267146499803,0.0014109611511230469,-0.000941932201385498,7857,757,1.04683311092565e-05,0.00018379603936105515,0.0021350085735321045,-0.0015567243099212646,11155.0,1466.0
18,-3.582937105534317e-06,0.00017361342570684592,0.00017361342570684592,-0.0013790130615234375,9315.0,1623.0,3.6970506261845e-06,0.0001314818314147109,0.0013518333435058594,-0.0016050338745117188,7857,893,1.3619528463254764e-05,0.0001776449144232245,0.0019428730010986328,-0.0013218522071838379,11155.0,1592.0
19,-5.015270695514213e-06,0.00018198522408845261,0.00018198522408845261,-0.0012760162353515625,9315.0,1787.0,4.626100294247404e-06,0.00014908421323228064,0.0015474557876586914,-0.001462697982788086,7857,1128,1.0919863769872443e-05,0.0002009402563869964,0.001959562301635742,-0.0017547011375427246,11155.0,1778.0
20,-6.3898742335917995e-06,0.00019723924270753106,0.00019723924270753106,-0.0016326904296875,9315.0,1950.0,-8.555183459044382e-07,0.00015237348494775437,0.0013846158981323242,-0.001214742660522461,7857,1369,8.59142466043742e-08,0.00022852106354427903,0.0017886757850646973,-0.0023076534271240234,11155.0,2088.0
21,-1.078310378357744e-05,0.00021619311301210417,0.00021619311301210417,-0.0014042854309082031,9315.0,2137.0,-7.2970690742178664e-06,0.00016545805191060033,0.001336812973022461,-0.0015152692794799805,7857,1567,-1.1825537366345057e-05,0.00024638144273407504,0.001768745481967926,-0.00203704833984375,11155.0,2319.0
22,-1.4996556447275381e-05,0.0002277440534115706,0.0002277440534115706,-0.0016236305236816406,9315.0,2330.0,-9.943997830937682e-06,0.00018339690657720716,0.0014810562133789062,-0.002329111099243164,7857,1768,-1.9815743954731738e-05,0.00026187035102642417,0.0015426874160766602,-0.0016994476318359375,11155.0,2583.0
23,-1.8652154763572377e-05,0.00023439987606732948,0.00023439987606732948,-0.0013873577117919922,9315.0,2490.0,-1.1886317381904069e-05,0.00019725478208837432,0.0019326210021972656,-0.0014042854309082031,7857,1950,-2.9584502225713694e-05,0.00027973394040715997,0.0017254352569580078,-0.0016351938247680664,11155.0,3093.0
24,-2.1058792576493254e-05,0.00023342055374525052,0.00023342055374525052,-0.0013477802276611328,9315.0,2625.0,-1.2989735705947507e-05,0.00021197529861259135,0.002139568328857422,-0.0016326904296875,7857,2108,-3.7272875397605965e-05,0.0003004990736707041,0.0015996694564819336,-0.001920938491821289,11155.0,3617.0
25,-2.327936007108857e-05,0.00023415162749822928,0.00023415162749822928,-0.0013315677642822266,9315.0,2772.0,-1.0606409294704521e-05,0.00022186428093161155,0.0021109580993652344,-0.0012459754943847656,7857,2250,-4.437980181234007e-05,0.00031220860576444573,0.0021004676818847656,-0.001955270767211914,11155.0,4070.0
26,-2.456849444181655e-05,0.00024383148456590323,0.00024383148456590323,-0.001491546630859375,9315.0,2886.0,-5.717333596753542e-06,0.00022861589837691615,0.0018933415412902832,-0.0011398792266845703,7857,2396,-4.447920076550723e-05,0.00031807306771325914,0.0017142295837402344,-0.0022842884063720703,11155.0,4437.0
27,-2.63615462726424e-05,0.00025364415311926594,0.00025364415311926594,-0.0015251636505126953,9315.0,2993.0,-3.553569356928546e-06,0.00023123601127827644,0.001571565866470337,-0.0016236305236816406,7857,2521,-3.8182679378657594e-05,0.0003323064533498659,0.0016820430755615234,-0.0019069015979766846,11155.0,4818.0
28,-2.493431601199455e-05,0.00025887687244867635,0.00025887687244867635,-0.0013942718505859375,9315.0,3086.0,-2.619140684619817e-06,0.00023725504986604791,0.0014732927083969116,-0.0015225410461425781,7857,2640,-3.0465015212663774e-05,0.0003425608682375342,0.0016170740127563477,-0.0019866228103637695,11155.0,5023.0
29,-1.7184257733515502e-05,0.0002689433274454426,0.0002689433274454426,-0.001506805419921875,9315.0,3172.0,-1.364717959739629e-06,0.000251362920978757,0.0020525455474853516,-0.0015659332275390625,7857,2751,-2.6357269556612673e-05,0.00034695478981823193,0.0015988349914550781,-0.0021659135818481445,11155.0,5143.0
30,-5.572322953264447e-07,0.00028338845356036855,0.00028338845356036855,-0.0014462471008300781,9315.0,3250.0,-3.1716422179421777e-07,0.0002607985506709287,0.002351522445678711,-0.001203775405883789,7857,2841,-3.154696333886222e-05,0.0003555533638495067,0.001621246337890625,-0.0020148754119873047,11155.0,5244.0
31,2.0296066396800232e-05,0.0002970474514595138,0.0002970474514595138,-0.0016835927963256836,9315.0,3309.0,-1.5287285550059252e-06,0.0002693711775676828,0.0018355846405029297,-0.0013089179992675781,7857,2938,-3.872879096530194e-05,0.0003716150892782743,0.0019375085830688477,-0.0023270249366760254,11155.0,5345.0
32,3.57691908499048e-05,0.0003027065521409085,0.0003027065521409085,-0.00197756290435791,9315.0,3368.0,-5.686409445236518e-06,0.00028496409171823144,0.0016057491302490234,-0.0017077922821044922,7857,3016,-3.68670938459532e-05,0.00037893418193457156,0.002162158489227295,-0.0023781340569257736,11155.0,5425.0
33,4.214630132916989e-05,0.00030270548404681837,0.00030270548404681837,-0.0023076534271240234,9315.0,3405.0,-9.857647095645572e-06,0.0003059016631513965,0.0015039443969726562,-0.0020394325256347656,7857,3092,-2.8014119806545418e-05,0.0003676297914602038,0.001986086368560791,-0.001825958490371704,11155.0,5496.0
34,4.069348894527319e-05,0.0003023026241202827,0.0003023026241202827,-0.0017430782318115234,9315.0,3453.0,-1.4291780131819353e-05,0.0003158454763005952,0.001735687255859375,-0.0022842884063720703,7857,3170,-2.7909748899491178e-05,0.00035130907781727417,0.0016339123249053955,-0.002329111099243164,11155.0,5558.0
35,3.736633863660017e-05,0.0003114651423232058,0.0003114651423232058,-0.0016973018646240234,9315.0,3491.0,-1.844051462050873e-05,0.00030738164044012597,0.0021140575408935547,-0.0021767616271972656,7857,3253,-3.093982560686877e-05,0.0003533864051072644,0.001956939697265625,-0.001997649669647217,11155.0,5572.0
36,3.4892780996926375e-05,0.0003302059127792311,0.0003302059127792311,-0.001920938491821289,9315.0,3521.0,-1.9203018491120008e-05,0.0002988856112955205,0.0019502639770507812,-0.0017461776733398438,7857,3308,-2.6626271729623454e-05,0.00036863974328599935,0.002139568328857422,-0.002298593521118164,11155.0,5577.0
37,3.412710910634764e-05,0.00034438439886412737,0.00034438439886412737,-0.0016629695892333984,9315.0,3548.0,-1.685087674160663e-05,0.00029568979998579594,0.0016306638717651367,-0.0017664432525634766,7857,3381,-1.3322511703581209e-05,0.00037970518427833905,0.002351522445678711,-0.0018546581268310547,11155.0,5547.0
38,3.319554872547391e-05,0.0003510046576979869,0.0003510046576979869,-0.0017024427652359009,9315.0,3574.0,-1.378155506820632e-05,0.00028947337204125566,0.0017944574356079102,-0.0016093254089355469,7857,3428,6.174789461685433e-07,0.00038284499164179404,0.0022678375244140625,-0.0017771720886230469,11155.0,5506.0
39,3.253405505772685e-05,0.00034777449972733077,0.00034777449972733077,-0.001997649669647217,9315.0,3589.0,-1.5455219241287533e-05,0.00028789299262406437,0.001920461654663086,-0.0014913082122802734,7857,3486,4.7780419095594256e-06,0.000380002584837529,0.0019559860229492188,-0.0017774105072021484,11155.0,5456.0
40,2.878153306963377e-05,0.0003291568189998614,0.0003291568189998614,-0.0019136667251586914,9315.0,3576.0,-2.5026869837602023e-05,0.0003001278594371468,0.001959562301635742,-0.0018634796142578125,7857,3515,6.622282386052367e-08,0.00037563896222638974,0.0020728111267089844,-0.0020096302032470703,11155.0,5395.0
41,1.966654067480751e-05,0.0003145774484140919,0.0003145774484140919,-0.0019605159759521484,9315.0,3591.0,-3.8226852569524266e-05,0.0003269239660799766,0.001768745481967926,-0.0021469593048095703,7857,3537,-2.288429077705498e-06,0.00037052054931288456,0.002254962921142578,-0.0017399787902832031,11155.0,5348.0
42,9.319768765275388e-06,0.0003196017893578237,0.0003196017893578237,-0.0022842884063720703,9315.0,3605.0,-4.548208644252635e-05,0.00035126975724163704,0.001755833625793457,-0.0021491050720214844,7857,3541,5.058441379836553e-06,0.0003641991253829326,0.0020308494567871094,-0.0019614696502685547,11155.0,5277.0
43,-2.0139494525159694e-06,0.00033110020493957857,0.00033110020493957857,-0.002031564712524414,9315.0,3618.0,-4.702995585723691e-05,0.0003578625007858061,0.0021350085735321045,-0.0017998218536376953,7857,3518,1.6218373041969378e-05,0.00035538978542436504,0.0018267631530761719,-0.002313375473022461,11155.0,5181.0
44,-1.2738641682773293e-05,0.00032154779760788923,0.00032154779760788923,-0.002298593521118164,9315.0,3611.0,-4.880876266943386e-05,0.00034617910423360564,0.001433044672012329,-0.0016252994537353516,7857,3414,2.2061007914097052e-05,0.0003370913970776752,0.0018486380577087402,-0.00194549560546875,11155.0,5085.0
45,-2.0492143767285477e-05,0.00029643213015971423,0.00029643213015971423,-0.0021646618843078613,9315.0,3588.0,-5.3226537545245636e-05,0.00033439518340254546,0.001651763916015625,-0.0018100738525390625,7857,3299,2.0607070488164264e-05,0.0003142968912113155,0.0020368099212646484,-0.0014934539794921875,11155.0,4975.0
46,-2.5202800132478828e-05,0.0002735273059763198,0.0002735273059763198,-0.0020161867141723633,9315.0,3523.0,-6.03763102434584e-05,0.00033828125796037193,0.0017254352569580078,-0.0018429756164550781,7857,3194,1.628446511269711e-05,0.0003041268915540187,0.002391815185546875,-0.0013549327850341797,11155.0,4870.0
47,-2.910708318081031e-05,0.0002648291767951636,0.0002648291767951636,-0.002006053924560547,9315.0,3450.0,-7.231694760446567e-05,0.00035144290845592576,0.0017993450164794922,-0.0018062591552734375,7857,3088,1.1177013117021868e-05,0.0002997732848372583,0.0026816129684448242,-0.0016050338745117188,11155.0,4757.0
48,-3.3594039771820844e-05,0.00026949320811418516,0.00026949320811418516,-0.0020515918731689453,9315.0,3397.0,-7.756157028238116e-05,0.0003539671094463458,0.0016632080078125,-0.0020096302032470703,7857,3027,1.70638352428861e-06,0.0002971990193049817,0.0022932887077331543,-0.0014781653881072998,11155.0,4633.0
49,-3.667470464601381e-05,0.00028958567547649535,0.00028958567547649535,-0.0019439756870269775,9315.0,3427.0,-7.731855340178477e-05,0.0003347792473285836,0.0014851093292236328,-0.001997649669647217,7857,2988,-8.35285713651532e-06,0.00030107156632905145,0.0019714832305908203,-0.0015532970428466797,11155.0,4495.0
50,-3.317443194528677e-05,0.00031297236564073314,0.00031297236564073314,-0.0020870864391326904,9315.0,3503.0,-7.325722711071197e-05,0.00030737496541633066,0.0013365745544433594,-0.0019249320030212402,7857,2971,-1.9320805171012655e-05,0.000298983058411423,0.002188444137573242,-0.0022139549255371094,11155.0,4352.0
51,-2.2906542327494965e-05,0.00032443189304098727,0.00032443189304098727,-0.0023781340569257736,9315.0,3573.0,-6.899675363202686e-05,0.0002908197910789066,0.0012253522872924805,-0.0016198158264160156,7857,2941,-3.0121341634062523e-05,0.0002917651822692673,0.0017049312591552734,-0.002725839614868164,11155.0,4196.0
52,-1.1880871328801504e-05,0.00032764035253084997,0.00032764035253084997,-0.0023542388807982206,9315.0,3599.0,-6.500574880762271e-05,0.00028196242018032236,0.0015232563018798828,-0.0015555620193481445,7857,2919,-3.055135732732049e-05,0.0002879088283834346,0.001842498779296875,-0.0029685497283935547,11155.0,4031.0
53,-3.6018521973505314e-06,0.00032793832183490086,0.00032793832183490086,-0.0021491050720214844,9315.0,3604.0,-6.405601248526193e-05,0.0002832922642369711,0.0017254352569580078,-0.001489102840423584,7857,2904,-2.407421817538023e-05,0.00027824532589899165,0.0019174814224243164,-0.0021686553955078125,11155.0,3862.0
54,1.7124066573523448e-06,0.0003257485469560143,0.0003257485469560143,-0.0019707679748535156,9315.0,3586.0,-6.85678347335948e-05,0.0002880648658222439,0.0016558170318603516,-0.0016887187957763672,7857,2886,-1.594271543556812e-05,0.0002646991324932701,0.0016191154718399048,-0.001653432846069336,11155.0,3679.0
55,5.460910478349869e-06,0.000328635015076745,0.000328635015076745,-0.0017971992492675781,9315.0,3576.0,-7.080351594071733e-05,0.0002980779497550521,0.0015044212341308594,-0.0018639564514160156,7857,2866,-7.501959348625931e-06,0.00025337998061744914,0.0016140937805175781,-0.0014514923095703125,11155.0,3466.0
56,1.083739855868109e-05,0.00032675503511950396,0.00032675503511950396,-0.0019297599792480469,9315.0,3568.0,-6.608659122032535e-05,0.0003160708040517176,0.0016120672225952148,-0.001977682113647461,7857,2853,-2.3998668598558407e-06,0.00024096531362308366,0.0017254352569580078,-0.0014510154724121094,11155.0,3246.0
57,1.750186300535061e-05,0.00032439041908167716,0.00032439041908167716,-0.0019211769104003906,9315.0,3573.0,-5.735319589878816e-05,0.00033028496960122247,0.001649409532546997,-0.0022839903831481934,7857,2856,-2.5142212965294424e-06,0.0002263164533480888,0.0013911724090576172,-0.0016736984252929688,11155.0,3019.0
58,2.2180937538340874e-05,0.000324770620667858,0.000324770620667858,-0.0018860101699829102,9315.0,3558.0,-4.861137464976672e-05,0.0003284938164280278,0.0014296621084213257,-0.00215756893157959,7857,2859,-7.700352654644176e-06,0.00021607049483042727,0.0014188289642333984,-0.0017664432525634766,11155.0,2774.0
59,2.4664227212255263e-05,0.00032951178665131207,0.00032951178665131207,-0.0017664432525634766,9315.0,3536.0,-3.9714082183079996e-05,0.0003145233635517202,0.0015058517456054688,-0.0020158886909484863,7857,2852,-1.4871352755872458e-05,0.00020960879773145285,0.0020203590393066406,-0.0014922618865966797,11155.0,2508.0
60,2.4146264483572307e-05,0.00032477741300478217,0.00032477741300478217,-0.0018038749694824219,9315.0,3521.0,-3.2245517930375556e-05,0.00030020992880939974,0.0014879703521728516,-0.0021659135818481445,7857,2838,-2.0337863933797618e-05,0.0001982853512415095,0.0015265941619873047,-0.0014002323150634766,11155.0,2248.0
61,2.1305329610518133e-05,0.0003061173949811573,0.0003061173949811573,-0.0018429756164550781,9315.0,3479.0,-2.6629547450301602e-05,0.00029569300819457255,0.0017663240432739258,-0.0020530223846435547,7857,2817,-2.031961994133773e-05,0.00018504470467639106,0.0012295246124267578,-0.0018429756164550781,11155.0,2004.0
62,1.668913999015596e-05,0.0002944292277000989,0.0002944292277000989,-0.0017170906066894531,9315.0,3428.0,-2.304435906336361e-05,0.00029721450097425396,0.001842498779296875,-0.0017995834350585938,7857,2814,-1.6792277888578987e-05,0.00016409887526964273,0.0009798109531402588,-0.0016188621520996094,11155.0,1746.0
63,1.1693355522377959e-05,0.0002942458969607208,0.0002942458969607208,-0.0016067028045654297,9315.0,3365.0,-2.0737253798666638e-05,0.0003001660673440617,0.0016906261444091797,-0.0015528202056884766,7857,2804,-1.1379820563565774e-05,0.00013899932081176181,0.0009846687316894531,-0.0013148784637451172,11155.0,1487.0
64,2.503520634772193e-06,0.00029847813230932997,0.00029847813230932997,-0.0018100738525390625,9315.0,3322.0,-1.8630886698264732e-05,0.0003130027377164933,0.0021004676818847656,-0.0016067028045654297,7857,2782,-6.6005274123695466e-06,0.00012359631150567405,0.001078099012374878,-0.0014607906341552734,11155.0,1215.0
65,-1.0971661761575052e-05,0.0003019813012860492,0.0003019813012860492,-0.0020362138748168945,9315.0,3271.0,-1.7191726605056395e-05,0.00033267882504868404,0.0019307136535644531,-0.002186998724937439,7857,2768,-4.117515201420293e-06,0.00011672217294666952,0.0010510683059692383,-0.0018100738525390625,11155.0,942.0
66,-2.652405110931187e-05,0.00030666870538488056,0.00030666870538488056,-0.0021659135818481445,9315.0,3210.0,-1.889837098428694e-05,0.00033848378079048515,0.0018486380577087402,-0.0027132034301757812,7857,2731,-4.113937561859008e-06,0.00010040324390509607,0.0009398460388183594,-0.0012087821960449219,11155.0,686.0
67,-3.7037944332868655e-05,0.00030076995019875756,0.00030076995019875756,-0.0019616493809735402,9315.0,3138.0,-2.6316442803542968e-05,0.00032474785530535493,0.002188444137573242,-0.0029685497283935547,7857,2705,-2.8706681699642737e-06,7.033496462618312e-05,0.0010290145874023438,-0.0011181831359863281,11155.0,381.0
68,-4.2310494667601985e-05,0.00028680811836848287,0.00028680811836848287,-0.001767665147781372,9315.0,3065.0,-3.509447428683828e-05,0.0003062734046921415,0.0021524429321289062,-0.002313375473022461,7857,2677,3.086088257806283e-07,3.339755541249037e-05,0.001050412654876709,-0.0005857944488525391,11155.0,109.0
69,-4.033373558310911e-05,0.00026805052326042065,0.00026805052326042065,-0.0017042160034179688,9315.0,2973.0,-4.471029504098589e-05,0.00030188358834925606,0.0018723011016845703,-0.0023076534271240234,7857,2635,0.0,0.0,0.0,0.0,11155.0,0.0
70,-3.45709853142228e-05,0.0002558982057966387,0.0002558982057966387,-0.0016789436340332031,9315.0,2864.0,-4.921915406210743e-05,0.0003047272690705986,0.001705944538116455,-0.0018892288208007812,7857,2609,0.0,0.0,0.0,0.0,11155.0,0.0
71,-3.264123050389627e-05,0.0002530763861370502,0.0002530763861370502,-0.001977682113647461,9315.0,2751.0,-4.272688147848392e-05,0.00030451333803877955,0.001550137996673584,-0.0018546581268310547,7857,2563,0.0,0.0,0.0,0.0,11155.0,0.0
72,-3.67142340934211e-05,0.00024771652073567966,0.00024771652073567966,-0.0018787384033203125,9315.0,2617.0,-2.6080742996157334e-05,0.0002976436876299236,0.0013992786407470703,-0.0016568172723054886,7857,2505,0.0,0.0,0.0,0.0,11155.0,0.0
73,-4.4006396033033785e-05,0.0002439397285380386,0.0002439397285380386,-0.002329111099243164,9315.0,2483.0,-4.368284010294333e-06,0.00029104369593923804,0.0020412206649780273,-0.00194549560546875,7857,2433,0.0,0.0,0.0,0.0,11155.0,0.0
74,-4.851545892196937e-05,0.00024283099683009474,0.00024283099683009474,-0.0017547011375427246,9315.0,2321.0,1.5059153840126232e-05,0.00029757649939058794,0.0026816129684448242,-0.0016143321990966797,7857,2371,0.0,0.0,0.0,0.0,11155.0,0.0
75,-5.2646486803288405e-05,0.00024715541572885525,0.00024715541572885525,-0.0018358230590820312,9315.0,2127.0,2.892411852273718e-05,0.0003104014415965767,0.0026553869247436523,-0.001346290111541748,7857,2302,0.0,0.0,0.0,0.0,11155.0,0.0
76,-5.627199394899104e-05,0.0002464935512698321,0.0002464935512698321,-0.0021920204162597656,9315.0,1926.0,3.5887473264535583e-05,0.000312291343471055,0.002106606960296631,-0.0013152360916137695,7857,2240,0.0,0.0,0.0,0.0,11155.0,0.0
77,-5.4989499777307516e-05,0.00024164406965552628,0.00024164406965552628,-0.0027132034301757812,9315.0,1764.0,3.7722501101177834e-05,0.00029338911901483414,0.0018938183784484863,-0.001374959945678711,7857,2179,0.0,0.0,0.0,0.0,11155.0,0.0
78,-5.053753780778592e-05,0.00022651832125157,0.00022651832125157,-0.0029685497283935547,9315.0,1589.0,3.7678453696537724e-05,0.00026695769285495344,0.0016402006149291992,-0.0013602972030639648,7857,2103,0.0,0.0,0.0,0.0,11155.0,0.0
79,-4.531904827339462e-05,0.000203302510951016,0.000203302510951016,-0.0021495819091796875,9315.0,1407.0,3.4866928461885995e-05,0.00025681389103359835,0.0017955303192138672,-0.0012812614440917969,7857,2013,0.0,0.0,0.0,0.0,11155.0,0.0
80,-4.2615714154900585e-05,0.00019563150169256825,0.00019563150169256825,-0.0017629265785217285,9315.0,1258.0,3.087706641628684e-05,0.00025342250551544645,0.0018122196197509766,-0.0015577077865600586,7857,1953,0.0,0.0,0.0,0.0,11155.0,0.0
81,-3.863605253210454e-05,0.00018971514283764332,0.00018971514283764332,-0.0016407966613769531,9315.0,1098.0,2.95230242153248e-05,0.00025101989147800676,0.0017735958099365234,-0.0017564892768859863,7857,1927,,,,,,
82,-3.64084681633498e-05,0.0001942190473790391,0.0001942190473790391,-0.0018546581268310547,9315.0,945.0,3.1841917688916505e-05,0.00025016001965091656,0.0019818544387817383,-0.001805126667022705,7857,1898,,,,,,
83,-3.1902005366573106e-05,0.00018400007665603016,0.00018400007665603016,-0.002313375473022461,9315.0,773.0,3.5359474974689155e-05,0.00026127274878147893,0.0020728111267089844,-0.002298593521118164,7857,1856,,,,,,
84,-2.2574857285249253e-05,0.00015993447854340876,0.00015993447854340876,-0.0018601417541503906,9315.0,587.0,3.7453402423976265e-05,0.00027141635093768404,0.0019559860229492188,-0.002177000045776367,7857,1825,,,,,,
85,-8.23842775490549e-06,9.660826576399205e-05,9.660826576399205e-05,-0.0010759830474853516,9315.0,276.0,3.803111136289624e-05,0.0002730993715990115,0.002162158489227295,-0.0017657279968261719,7857,1767,,,,,,
86,-3.698495403132129e-09,3.917427007983315e-05,3.917427007983315e-05,-0.0010724067687988281,9315.0,26.0,3.9964203628362557e-05,0.0002689212171479072,0.00205075740814209,-0.001553565263748169,7857,1716,,,,,,
87,0.0,0.0,0.0,0.0,9315.0,0.0,4.180196699818603e-05,0.0002565197535410109,0.0019049644470214844,-0.001555800437927246,7857,1663,,,,,,
88,0.0,0.0,0.0,0.0,9315.0,0.0,4.4170222678695306e-05,0.00023264804576241053,0.0018275976181030273,-0.0016880035400390625,7857,1602,,,,,,
89,0.0,0.0,0.0,0.0,9315.0,0.0,4.5994564779320906e-05,0.00020797816660283908,0.0015714168548583984,-0.0015320777893066406,7857,1532,,,,,,
90,0.0,0.0,0.0,0.0,9315.0,0.0,4.7506158910687e-05,0.00019561582322604091,0.0013642311096191406,-0.0012001991271972656,7857,1460,,,,,,
91,0.0,0.0,0.0,0.0,9315.0,0.0,4.8911121200456734e-05,0.0001981365559519977,0.0015759468078613281,-0.0009351968765258789,7857,1394,,,,,,
92,0.0,0.0,0.0,0.0,9315.0,0.0,4.7036421094260435e-05,0.0001995970385905122,0.0015602707862854004,-0.000983595848083496,7857,1313,,,,,,
93,0.0,0.0,0.0,0.0,9315.0,0.0,4.0959535064444796e-05,0.00019743334139614744,0.0016740262508392334,-0.0010570287704467773,7857,1253,,,,,,
94,0.0,0.0,0.0,0.0,9315.0,0.0,3.112090270658043e-05,0.00018780967518716818,0.0019174814224243164,-0.001172780990600586,7857,1201,,,,,,
95,0.0,0.0,0.0,0.0,9315.0,0.0,2.011075824710358e-05,0.00017522671281490054,0.001629948616027832,-0.001134343445301056,7857,1131,,,,,,
96,0.0,0.0,0.0,0.0,9315.0,0.0,1.5025556519654478e-05,0.0001743852243595736,0.0013930797576904297,-0.0014816224575042725,7857,1044,,,,,,
97,,,,,,,1.4775400345727083e-05,0.00017528216055212972,0.0013934522867202759,-0.0018302202224731445,7857,950,,,,,,
98,,,,,,,1.784010325753235e-05,0.00016990244150079967,0.0014818906784057617,-0.0018860101699829102,7857,851,,,,,,
99,,,,,,,1.8938386413820284e-05,0.00015175799381068338,0.0015250444412231445,-0.001585245132446289,7857,725,,,,,,
100,,,,,,,1.576698178455539e-05,0.00012639288897193097,0.0013511180877685547,-0.0009951591491699219,7857,590,,,,,,
101,,,,,,,1.1604545477707074e-05,0.00010606797659410575,0.0014982223510742188,-0.0010747909545898438,7857,460,,,,,,
102,,,,,,,9.165045710329611e-06,8.846292852085253e-05,0.0014481544494628906,-0.0005461350083351135,7857,341,,,,,,
103,,,,,,,5.215751955916744e-06,6.584280140186177e-05,0.0012890100479125977,-0.0005215480923652649,7857,177,,,,,,
104,,,,,,,1.0990450343391406e-06,3.311918191381446e-05,0.0011445283889770508,-0.0003458261489868164,7857,41,,,,,,
105,,,,,,,0.0,0.0,0.0,0.0,7857,0,,,,,,
106,,,,,,,0.0,0.0,0.0,0.0,7857,0,,,,,,
107,,,,,,,0.0,0.0,0.0,0.0,7857,0,,,,,,
108,,,,,,,0.0,0.0,0.0,0.0,7857,0,,,,,,
109,,,,,,,0.0,0.0,0.0,0.0,7857,0,,,,,,
110,,,,,,,0.0,0.0,0.0,0.0,7857,0,,,,,,
111,,,,,,,0.0,0.0,0.0,0.0,7857,0,,,,,,
112,,,,,,,0.0,0.0,0.0,0.0,7857,0,,,,,,
113,,,,,,,0.0,0.0,0.0,0.0,7857,0,,,,,,
114,,,,,,,0.0,0.0,0.0,0.0,7857,0,,,,,,
