,sag_mean,sag_std,sag_max,sag_min,sag_nb_elements,sag_non_zero_elements,hor_mean,hor_std,hor_max,hor_min,hor_nb_elements,hor_non_zero_elements,frt_mean,frt_std,frt_max,frt_min,frt_nb_elements,frt_non_zero_elements
0,0.0,0.0,0.0,0.0,9315.0,0.0,0.0,0.0,0.0,0.0,7857,0,-2.555742839802973e-07,1.3067942986870686e-05,0.0,-0.0008829832077026367,11155.0,5.0
1,0.0,0.0,0.0,0.0,9315.0,0.0,0.0,0.0,0.0,0.0,7857,0,-1.326397709224535e-06,3.5219428395257313e-05,7.700920104980469e-05,-0.0014472007751464844,11155.0,20.0
2,0.0,0.0,0.0,0.0,9315.0,0.0,0.0,0.0,0.0,0.0,7857,0,-2.19138075440207e-06,5.686027240502048e-05,0.0006254315376281738,-0.0026330947875976562,11155.0,41.0
3,0.0,0.0,0.0,0.0,9315.0,0.0,0.0,0.0,0.0,0.0,7857,0,-3.3296915192819934e-07,8.412332840687496e-05,0.00170174241065979,-0.0032994747161865234,11155.0,61.0
4,0.0,0.0,0.0,0.0,9315.0,0.0,0.0,0.0,0.0,0.0,7857,0,4.495665570240967e-06,0.00011210918238175182,0.0023935511708259583,-0.0024961233139038086,11155.0,82.0
5,0.0,0.0,0.0,0.0,9315.0,0.0,0.0,0.0,0.0,0.0,7857,0,5.9723590238913996e-06,0.00011074115198457487,0.0025784075260162354,-0.0015958547592163086,11155.0,99.0
6,0.0,0.0,0.0,0.0,9315.0,0.0,0.0,0.0,0.0,0.0,7857,0,4.661795217752563e-06,9.519037070357443e-05,0.002146899700164795,-0.0013388246297836304,11155.0,111.0
7,0.0,0.0,0.0,0.0,9315.0,0.0,0.0,0.0,0.0,0.0,7857,0,3.221071338183353e-06,7.812747524550628e-05,0.0018669366836547852,-0.0013108253479003906,11155.0,132.0
8,0.0,0.0,0.0,0.0,9315.0,0.0,0.0,0.0,0.0,0.0,7857,0,4.539928966335842e-06,7.938659391408981e-05,0.0016393661499023438,-0.0008809566497802734,11155.0,207.0
9,0.0,0.0,0.0,0.0,9315.0,0.0,0.0,0.0,0.0,0.0,7857,0,9.403594929523722e-06,0.00010531040214399542,0.0014139413833618164,-0.0009055137634277344,11155.0,399.0
10,-1.1543926777407103e-06,2.792714823834357e-05,2.792714823834357e-05,-0.0007697343826293945,9315.0,66.0,0.0,0.0,0.0,0.0,7857,0,1.4965010546849133e-05,0.0001269497153942561,0.001535564661026001,-0.0007004737854003906,11155.0,550.0
11,-3.941938392225587e-06,6.756494757297902e-05,6.756494757297902e-05,-0.0010360479354858398,9315.0,286.0,-1.8019646887896366e-06,3.557528655318129e-05,0.00011360645294189453,-0.001190781593322754,7857,33,1.9661586518305075e-05,0.00016948838418033734,0.0022045373916625977,-0.0008096694946289062,11155.0,670.0
12,-1.132161345510827e-05,0.00011306269180762262,0.00011306269180762262,-0.0014085769653320312,9315.0,569.0,-4.99002392484029e-06,7.000313655186151e-05,0.0006285607814788818,-0.0014865398406982422,7857,123,2.0961801081909186e-05,0.00019957450320851763,0.0022527575492858887,-0.0011802315711975098,11155.0,786.0
13,-1.5936883579353714e-05,0.00013147075574789014,0.00013147075574789014,-0.0014693737030029297,9315.0,759.0,-3.906241640025641e-06,9.387888240110444e-05,0.0011868476867675781,-0.0015717744827270508,7857,257,1.6943735526795347e-05,0.0002052491735106818,0.002262592315673828,-0.0017342567443847656,11155.0,896.0
14,-2.3235064209851283e-05,0.00014965471626249884,0.00014965471626249884,-0.0012679100036621094,9315.0,929.0,1.6401138462944615e-06,0.00011673094880761077,0.0012693405151367188,-0.0013883113861083984,7857,405,1.0183148970222164e-05,0.00020053388926696248,0.0020341873168945312,-0.0019217729568481445,11155.0,1009.0
15,-3.3179625505866445e-05,0.00017596717349414536,0.00017596717349414536,-0.0017409920692443848,9315.0,1110.0,4.329805179294381e-06,0.00012324907148445895,0.0011413097381591797,-0.0011739730834960938,7857,534,-1.3564544233544854e-07,0.000193608273233504,0.0015819072723388672,-0.0018451213836669922,11155.0,1112.0
16,-4.2015577414509466e-05,0.00019568732677665426,0.00019568732677665426,-0.0016268491744995117,9315.0,1268.0,3.0993768827750497e-06,0.00011918497621569167,0.0010730624198913574,-0.0010489225387573242,7857,649,-7.479144507624185e-06,0.00018137045174790032,0.00140458345413208,-0.0021523386240005493,11155.0,1261.0
17,-5.230983923940699e-05,0.00021566911879302266,0.00021566911879302266,-0.0016345977783203125,9315.0,1465.0,1.2059866352225133e-06,0.00011959529955405754,0.0009435117244720459,-0.0008224248886108398,7857,760,-8.722055216659243e-06,0.00018620782252788985,0.0013583898544311523,-0.00234869122505188,11155.0,1404.0
18,-6.129284135865321e-05,0.0002313297090250956,0.0002313297090250956,-0.0019559860229492188,9315.0,1643.0,1.1139715025674391e-07,0.00012559670680797408,0.0009630918502807617,-0.0007691383361816406,7857,884,-5.01008438184344e-06,0.000195731751941644,0.0014122724533081055,-0.0019653737545013428,11155.0,1531.0
19,-6.874644221378425e-05,0.00024541424599358965,0.00024541424599358965,-0.0021462440490722656,9315.0,1806.0,3.4332135757432572e-06,0.0001472180039155899,0.001631319522857666,-0.0008281469345092773,7857,1041,-3.09059639026777e-06,0.00020734867612681084,0.0016950368881225586,-0.0014883875846862793,11155.0,1653.0
20,-7.714386150201906e-05,0.0002549987993317512,0.0002549987993317512,-0.0019598007202148438,9315.0,1959.0,5.736385296806892e-06,0.00015876649625724972,0.0013322234153747559,-0.0008701086044311523,7857,1281,-1.6783605020155972e-05,0.00023413430126585248,0.001631319522857666,-0.002305150032043457,11155.0,1962.0
21,-8.38315459313216e-05,0.00026193962061098886,0.00026193962061098886,-0.0016570091247558594,9315.0,2150.0,6.176888635952205e-06,0.0001611776607242479,0.0010461807250976562,-0.0009529590606689453,7857,1475,-2.7086709125918397e-05,0.00023554274557909398,0.0016825199127197266,-0.0018545985221862793,11155.0,2279.0
22,-8.91298861050055e-05,0.0002692481695931645,0.0002692481695931645,-0.0017578303813934326,9315.0,2316.0,5.46789386341569e-06,0.00017094685499076604,0.0011320114135742188,-0.0013575553894042969,7857,1656,-2.2071268359292673e-05,0.0002303443780540455,0.0015349388122558594,-0.0014885663986206055,11155.0,2581.0
23,-9.071919675896437e-05,0.00027283769243576227,0.00027283769243576227,-0.0018764138221740723,9315.0,2472.0,4.283288597825436e-06,0.00017887855899381778,0.0012286901473999023,-0.0013260841369628906,7857,1824,-2.0812176291007217e-05,0.00024675906225510747,0.0016862154006958008,-0.0014350414276123047,11155.0,3175.0
24,-9.19323367698061e-05,0.00028089472922967953,0.00028089472922967953,-0.0019778013229370117,9315.0,2614.0,1.4132157019560569e-06,0.000189161796298206,0.0013382136821746826,-0.00150299072265625,7857,1981,-3.008630253298758e-05,0.00026693131386163014,0.001756429672241211,-0.0019516944885253906,11155.0,3729.0
25,-9.426478432992327e-05,0.0002937523727304413,0.0002937523727304413,-0.0020189285278320312,9315.0,2755.0,-3.9596618263984254e-06,0.00020997506305455756,0.0013066604733467102,-0.0015604496002197266,7857,2127,-3.958583578483232e-05,0.0002782371622751675,0.00222170352935791,-0.0019148588180541992,11155.0,4270.0
26,-9.869894113914539e-05,0.0002978407400452273,0.0002978407400452273,-0.0019701123237609863,9315.0,2870.0,-1.0262619389907503e-05,0.00024079649704953187,0.0013544559478759766,-0.001603841781616211,7857,2271,-4.8073386278375814e-05,0.00028619797981626423,0.0023027658462524414,-0.001913994550704956,11155.0,4664.0
27,-0.00010669435311263298,0.00029390010705578377,0.00029390010705578377,-0.0017931163311004639,9315.0,2990.0,-1.6034439978254604e-05,0.00026782400528623673,0.0014990270137786865,-0.0019217729568481445,7857,2390,-5.364942166649073e-05,0.00030452360354543055,0.0022768378257751465,-0.0018544197082519531,11155.0,4937.0
28,-0.00011433247038056015,0.0002934486644093471,0.0002934486644093471,-0.0018431544303894043,9315.0,3091.0,-1.876583095504578e-05,0.00029157329194868544,0.0016725659370422363,-0.0017962455749511719,7857,2506,-6.280989146148844e-05,0.0003294333287276069,0.0017562508583068848,-0.0020815134048461914,11155.0,5081.0
29,-0.00011857552815007914,0.00030403817315449814,0.00030403817315449814,-0.0019185543060302734,9315.0,3171.0,-2.2418156235512125e-05,0.0003235895201332457,0.0016950368881225586,-0.0018601417541503906,7857,2632,-6.99719155115647e-05,0.0003593751230704445,0.0013382136821746826,-0.0021208524703979492,11155.0,5163.0
30,-0.00012023467625142263,0.00031675940531074857,0.00031675940531074857,-0.002305150032043457,9315.0,3248.0,-2.831775430741938e-05,0.0003499371135366649,0.0020961761474609375,-0.001764535903930664,7857,2746,-7.009740542077322e-05,0.00036474046576275666,0.0013830065727233887,-0.0019335150718688965,11155.0,5216.0
31,-0.00011764314651521252,0.0003212007779421669,0.0003212007779421669,-0.002025425434112549,9315.0,3308.0,-3.326486208981911e-05,0.00035402630768781643,0.0022389888763427734,-0.0018184185028076172,7857,2854,-7.703279025881066e-05,0.0003525394675554285,0.0014662742614746094,-0.0020189285278320312,11155.0,5310.0
32,-0.00011149386909340548,0.00031760097230692353,0.00031760097230692353,-0.001849532127380371,9315.0,3358.0,-3.5701843120141244e-05,0.00034036120804212564,0.0022527575492858887,-0.0017235279083251953,7857,2956,-9.55549902519556e-05,0.0003428380749471898,0.0015107393264770508,-0.0021245479583740234,11155.0,5420.0
33,-0.00010336055847562405,0.0003126031154052574,0.0003126031154052574,-0.0018229186534881592,9315.0,3396.0,-3.4043543258099536e-05,0.0003175426615416906,0.002262592315673828,-0.0015283823013305664,7857,3037,-0.00011525536134972589,0.0003442365706760778,0.0010874271392822266,-0.002037644386291504,11155.0,5486.0
34,-9.680423087556222e-05,0.0003127577246739584,0.0003127577246739584,-0.0017830133438110352,9315.0,3444.0,-2.988872765609064e-05,0.0003011982445461554,0.0019168853759765625,-0.0014604628086090088,7857,3119,-0.00012498289389457096,0.0003553730709844223,0.0015883445739746094,-0.0023040175437927246,11155.0,5546.0
35,-9.205924891376838e-05,0.00032092067152325176,0.00032092067152325176,-0.0017557144165039062,9315.0,3473.0,-2.7545009613398874e-05,0.0003006046966885552,0.0020673274993896484,-0.00164109468460083,7857,3198,-0.00012702417759420282,0.00036072216232925275,0.0018515586853027344,-0.0023839175701141357,11155.0,5570.0
36,-8.727749869455116e-05,0.0003322678701150629,0.0003322678701150629,-0.0018396377563476562,9315.0,3505.0,-3.108922324269115e-05,0.0003119949040050843,0.0018985271453857422,-0.0019654035568237305,7857,3260,-0.0001253204633145652,0.0003493239009186291,0.0014338493347167969,-0.002088002860546112,11155.0,5555.0
37,-8.099381431989208e-05,0.000341389422869252,0.000341389422869252,-0.0019745826721191406,9315.0,3530.0,-4.0830445470230216e-05,0.00033034909403905743,0.0018534064292907715,-0.0019241571426391602,7857,3349,-0.00012177432845276708,0.000344993076114661,0.0013544559478759766,-0.0016745924949645996,11155.0,5539.0
38,-7.521728982355834e-05,0.00034668068920364764,0.00034668068920364764,-0.0020951032638549805,9315.0,3538.0,-5.519591323795233e-05,0.0003479898016350551,0.0025784075260162354,-0.001918196678161621,7857,3412,-0.00011739972574070544,0.0003511277443096839,0.0014878511428833008,-0.002094566822052002,11155.0,5523.0
39,-7.077954602425281e-05,0.00035349309735882,0.00035349309735882,-0.0019190311431884766,9315.0,3549.0,-7.258051028870402e-05,0.0003546624741424499,0.0023935511708259583,-0.0018431544303894043,7857,3443,-0.0001115565914663823,0.00035615990992031796,0.0017873048782348633,-0.0022736191749572754,11155.0,5471.0
40,-6.402428381600414e-05,0.0003580696615130264,0.0003580696615130264,-0.0019025877118110657,9315.0,3538.0,-8.829665053136362e-05,0.00034693028135084053,0.002174854278564453,-0.0019233226776123047,7857,3469,-0.00010491727606681643,0.00035447966493168853,0.0023322105407714844,-0.0020737648010253906,11155.0,5402.0
41,-5.0940922744458686e-05,0.00035219044959833827,0.00035219044959833827,-0.0020690560340881348,9315.0,3528.0,-0.00010104176666707547,0.00032600700913962933,0.0016685724258422852,-0.0021208524703979492,7857,3495,-9.998567319134478e-05,0.0003428067775429078,0.0016091465950012207,-0.0017409920692443848,11155.0,5318.0
42,-3.601291636486202e-05,0.00033034803442659846,0.00033034803442659846,-0.0018489360809326172,9315.0,3546.0,-0.00010656418735140088,0.00031422715826178653,0.0008766651153564453,-0.0024493932723999023,7857,3504,-9.714485739818213e-05,0.000336346826849113,0.0013995766639709473,-0.0016415119171142578,11155.0,5243.0
43,-2.9730147453298932e-05,0.0003173199190231027,0.0003173199190231027,-0.0032994747161865234,9315.0,3574.0,-0.0001046537334358172,0.00031967453572968326,0.0009590387344360352,-0.0032994747161865234,7857,3496,-9.676924286006751e-05,0.00033468054492243596,0.0014729499816894531,-0.001929163932800293,11155.0,5156.0
44,-2.8467076726585738e-05,0.0003080764073281798,0.0003080764073281798,-0.0027157068252563477,9315.0,3589.0,-0.00010305034983853386,0.0003161598251341116,0.0011744499206542969,-0.0026993751525878906,7857,3430,-9.257269007580022e-05,0.0003200680234606113,0.0014455318450927734,-0.0019241571426391602,11155.0,5062.0
45,-2.848839401544916e-05,0.0002900844452426017,0.0002900844452426017,-0.002237975597381592,9315.0,3553.0,-0.00010408479996529317,0.00030922216327272406,0.0011779814958572388,-0.00234869122505188,7857,3364,-8.467988889407264e-05,0.0003006561910744176,0.0013713836669921875,-0.0019654035568237305,11155.0,4952.0
46,-2.5863625567764598e-05,0.00027370896703930497,0.00027370896703930497,-0.0019418299198150635,9315.0,3496.0,-0.00011063513095731615,0.00030864762536846995,0.001125037670135498,-0.0022054286673665047,7857,3277,-8.112500177470718e-05,0.00028471748118677833,0.001410067081451416,-0.0018763840198516846,11155.0,4844.0
47,-2.2169802895528668e-05,0.00026655481418316914,0.00026655481418316914,-0.0021245479583740234,9315.0,3435.0,-0.00011315409084938469,0.0003053684765083839,0.0011991262435913086,-0.0018451213836669922,7857,3152,-8.26769443456349e-05,0.000260413996426998,0.0010497570037841797,-0.0016971826553344727,11155.0,4717.0
48,-1.9698237123065822e-05,0.00026452979014063153,0.00026452979014063153,-0.0019911527633666992,9315.0,3409.0,-0.00010824547257936758,0.00031294159262929125,0.0017458200454711914,-0.0018754005432128906,7857,3042,-8.543211769405293e-05,0.00025709521620569196,0.0008984804153442383,-0.0015779733657836914,11155.0,4594.0
49,-1.6699000287656553e-05,0.0002595860438744176,0.0002595860438744176,-0.0017991065979003906,9315.0,3450.0,-0.00010372911661784384,0.0003285468771213144,0.0023322105407714844,-0.0021462440490722656,7857,3014,-8.754249574686317e-05,0.00026246340946668153,0.0009860992431640625,-0.0019295215606689453,11155.0,4461.0
50,-1.5492535800379623e-05,0.0002591455383641505,0.0002591455383641505,-0.0017168521881103516,9315.0,3526.0,-9.627062357027549e-05,0.00032856219402541224,0.002068758010864258,-0.0022680461406707764,7857,2982,-9.027208836731663e-05,0.0002612737515983347,0.0011309981346130371,-0.0018053054809570312,11155.0,4313.0
51,-2.1861254984512427e-05,0.0002700161916108292,0.0002700161916108292,-0.0019516944885253906,9315.0,3585.0,-8.538823080797884e-05,0.00032385222047605935,0.0015218257904052734,-0.0023839175701141357,7857,2958,-9.518566080669616e-05,0.00026140226422026507,0.0009109377861022949,-0.0019707679748535156,11155.0,4159.0
52,-3.3975118146084034e-05,0.0002749497838544518,0.0002749497838544518,-0.0018134117126464844,9315.0,3601.0,-7.553095619469031e-05,0.00031074883991485486,0.0012857913970947266,-0.0020714998245239258,7857,2953,-0.00010133903900819698,0.00027134222527306457,0.0008829236030578613,-0.0021462440490722656,11155.0,3994.0
53,-4.3448561789883854e-05,0.0002736152236165945,0.0002736152236165945,-0.001958101987838745,9315.0,3580.0,-6.74522885348872e-05,0.00029010411612418716,0.0011165142059326172,-0.0019442439079284668,7857,2913,-0.00010640510218698032,0.0002833476165629482,0.0010377764701843262,-0.0024312734603881836,11155.0,3819.0
54,-4.500614090383221e-05,0.0002726983021962676,0.0002726983021962676,-0.0019401311874389648,9315.0,3558.0,-6.25103378223154e-05,0.0002772693564669991,0.0011970996856689453,-0.001674354076385498,7857,2881,-0.00010651508742578245,0.0002881935911931146,0.001099228858947754,-0.0022649765014648438,11155.0,3640.0
55,-4.2370363839326346e-05,0.0002747880715161462,0.0002747880715161462,-0.002079010009765625,9315.0,3552.0,-5.9701997254957e-05,0.00027449401312974427,0.001811981201171875,-0.0015178918838500977,7857,2853,-9.91063389312668e-05,0.00027989799557257705,0.0009306073188781738,-0.002079010009765625,11155.0,3435.0
56,-4.050990525244171e-05,0.0002857016522981528,0.0002857016522981528,-0.0022649765014648438,9315.0,3558.0,-5.4468711543213294e-05,0.00027243826923080986,0.0023027658462524414,-0.0013866350054740906,7857,2846,-8.841212608770925e-05,0.000265631318271595,0.0007569789886474609,-0.0017664432525634766,11155.0,3223.0
57,-4.1361026765460724e-05,0.00030472259672208526,0.00030472259672208526,-0.0024312734603881836,9315.0,3561.0,-4.897002795152805e-05,0.0002657080266543592,0.0019812285900115967,-0.0013710260391235352,7857,2844,-7.997173292983778e-05,0.00025113204664967413,0.00145721435546875,-0.0015788078308105469,11155.0,3004.0
58,-4.411313027419426e-05,0.00031725410959251133,0.00031725410959251133,-0.002094969153404236,9315.0,3539.0,-5.144038603583189e-05,0.00026345881039539917,0.0010850876569747925,-0.0016309469938278198,7857,2843,-7.42914339923853e-05,0.0002306874476658439,0.0011017322540283203,-0.0015680789947509766,11155.0,2768.0
59,-4.9612573917877176e-05,0.00031834109611072765,0.00031834109611072765,-0.0023839175701141357,9315.0,3511.0,-6.236570979101899e-05,0.0002742097527524067,0.0010398626327514648,-0.0022197961807250977,7857,2835,-6.634150329599068e-05,0.00021201250833131048,0.0006134510040283203,-0.0015250444412231445,11155.0,2519.0
60,-5.582007982045944e-05,0.0003101544910632856,0.0003101544910632856,-0.002326667308807373,9315.0,3482.0,-7.210637340857911e-05,0.0002930383307001302,0.001189887523651123,-0.0024312734603881836,7857,2827,-5.249163152492726e-05,0.00019384222902624603,0.0005285739898681641,-0.0014276504516601562,11155.0,2278.0
61,-6.586529874848727e-05,0.0003024356259589501,0.0003024356259589501,-0.002254784107208252,9315.0,3463.0,-7.649761749952612e-05,0.0003030797450599806,0.0012331008911132812,-0.002087712287902832,7857,2811,-3.686690530733463e-05,0.00017373301527279426,0.000789642333984375,-0.0016075372695922852,11155.0,2022.0
62,-7.608622869689636e-05,0.0002998088720197448,0.0002998088720197448,-0.002049863338470459,9315.0,3424.0,-7.63025379248852e-05,0.00030519762312513824,0.0013995766639709473,-0.002113848924636841,7857,2803,-2.8127052494358558e-05,0.0001604982039596544,0.000796973705291748,-0.0015643835067749023,11155.0,1753.0
63,-7.956400785940863e-05,0.0002991406901341581,0.0002991406901341581,-0.0017375946044921875,9315.0,3383.0,-8.016152396765893e-05,0.00031236738774677737,0.0016862154006958008,-0.002305150032043457,7857,2785,-2.2991789614047867e-05,0.0001470856049863548,0.0011074244976043701,-0.0015094280242919922,11155.0,1488.0
64,-7.639924829039158e-05,0.000295193184950155,0.000295193184950155,-0.0016937702894210815,9315.0,3336.0,-9.132527720523446e-05,0.0003220322460088992,0.001522839069366455,-0.0021554231643676758,7857,2760,-1.9097656601432967e-05,0.00014595735866984737,0.0009845495223999023,-0.001521766185760498,11155.0,1220.0
65,-6.945767918623129e-05,0.0002862495457101846,0.0002862495457101846,-0.0018516778945922852,9315.0,3281.0,-0.00010527551274443683,0.0003295786097054672,0.0016973018646240234,-0.001913994550704956,7857,2725,-1.2783348395024538e-05,0.00013862620242988545,0.0010513663291931152,-0.0015852749347686768,11155.0,967.0
66,-6.147674553417983e-05,0.00027432082789587077,0.00027432082789587077,-0.001967400312423706,9315.0,3207.0,-0.00011208027184439061,0.000326817646746232,0.0015474557876586914,-0.0017101764678955078,7857,2710,-5.4422152741694865e-06,0.00010899114098236988,0.0010241270065307617,-0.0014996528625488281,11155.0,663.0
67,-5.3572690067387884e-05,0.0002634113224073018,0.0002634113224073018,-0.0021208524703979492,9315.0,3116.0,-0.00010989297676129287,0.00031464043873397155,0.001385718584060669,-0.0017830133438110352,7857,2664,-2.592305015356805e-06,9.671748536717091e-05,0.0009263753890991211,-0.0015398859977722168,11155.0,353.0
68,-4.8667096900358126e-05,0.0002595979408508628,0.0002595979408508628,-0.001960277557373047,9315.0,3026.0,-0.00010465053904131771,0.0003046225618754617,0.0012058913707733154,-0.0019295215606689453,7857,2634,-2.7880828171394054e-06,5.733114860951909e-05,0.0004177093505859375,-0.0014951229095458984,11155.0,95.0
69,-4.954248515792067e-05,0.00025833213759310055,0.00025833213759310055,-0.002037644386291504,9315.0,2920.0,-9.841459963348726e-05,0.0002962678537768499,0.0014722347259521484,-0.0018085241317749023,7857,2607,0.0,0.0,0.0,0.0,11155.0,0.0
70,-5.1121461811069035e-05,0.00025247000895475634,0.00025247000895475634,-0.001824796199798584,9315.0,2804.0,-9.471226540450193e-05,0.0002906355447632355,0.0015107393264770508,-0.001682877540588379,7857,2592,0.0,0.0,0.0,0.0,11155.0,0.0
71,-5.0674886190893864e-05,0.00023680763904834138,0.00023680763904834138,-0.001713685691356659,9315.0,2683.0,-8.811582231063388e-05,0.0002780081254897442,0.001287221908569336,-0.0016971826553344727,7857,2559,0.0,0.0,0.0,0.0,11155.0,0.0
72,-4.6320082767258166e-05,0.00021599719848311465,0.00021599719848311465,-0.001558750867843628,9315.0,2544.0,-8.036856374003434e-05,0.00026293995545735783,0.0010148286819458008,-0.0017409920692443848,7857,2509,0.0,0.0,0.0,0.0,11155.0,0.0
73,-4.2518047356622626e-05,0.000197783879217715,0.000197783879217715,-0.0015454292297363281,9315.0,2414.0,-7.25050720197323e-05,0.0002529589094926194,0.0009454637765884399,-0.001792997121810913,7857,2455,0.0,0.0,0.0,0.0,11155.0,0.0
74,-4.1755650173237205e-05,0.00018850101894351702,0.00018850101894351702,-0.001603841781616211,9315.0,2268.0,-6.594456497590363e-05,0.000248017435291097,0.0009136199951171875,-0.002199888229370117,7857,2386,0.0,0.0,0.0,0.0,11155.0,0.0
75,-4.214742686786957e-05,0.00018586531718494824,0.00018586531718494824,-0.00136566162109375,9315.0,2093.0,-6.0838652806014224e-05,0.0002487267329052649,0.0010050535202026367,-0.0022736191749572754,7857,2320,0.0,0.0,0.0,0.0,11155.0,0.0
76,-3.996637861793776e-05,0.00018273658637201368,0.00018273658637201368,-0.001285448670387268,9315.0,1923.0,-5.3591396458193554e-05,0.0002447816258863339,0.0013682842254638672,-0.0017181634902954102,7857,2251,0.0,0.0,0.0,0.0,11155.0,0.0
77,-3.5414745326549356e-05,0.00017362732633707575,0.00017362732633707575,-0.0013508796691894531,9315.0,1747.0,-4.7898492865647046e-05,0.00024168873831089408,0.0018515586853027344,-0.0014548301696777344,7857,2180,0.0,0.0,0.0,0.0,11155.0,0.0
78,-3.0218117100037174e-05,0.00016583238023884235,0.00016583238023884235,-0.0013391375541687012,9315.0,1568.0,-4.5913869862484884e-05,0.00023139624909652976,0.001750946044921875,-0.0015178918838500977,7857,2098,0.0,0.0,0.0,0.0,11155.0,0.0
79,-2.6534332150680384e-05,0.00015932176201928437,0.00015932176201928437,-0.001514345407485962,9315.0,1397.0,-4.781957971664904e-05,0.00021415231859761826,0.0011625289916992188,-0.0014222487807273865,7857,2007,0.0,0.0,0.0,0.0,11155.0,0.0
80,-2.237465255106417e-05,0.00014934498456991479,0.00014934498456991479,-0.0018919706344604492,9315.0,1221.0,-5.127969855571016e-05,0.00020591442717779674,0.0011570081114768982,-0.0016113817691802979,7857,1935,0.0,0.0,0.0,0.0,11155.0,0.0
81,-1.876735683294114e-05,0.00013429152310790682,0.00013429152310790682,-0.0022736191749572754,9315.0,1038.0,-5.3375329980189315e-05,0.00021598475753292426,0.0013375282287597656,-0.002098679542541504,7857,1910,,,,,,
82,-1.5146521025577732e-05,0.00011167890831234943,0.00011167890831234943,-0.0016691088676452637,9315.0,865.0,-5.2287454412198925e-05,0.000225829698692095,0.0013513565063476562,-0.0021245479583740234,7857,1887,,,,,,
83,-1.1058157080308531e-05,9.469701963538656e-05,9.469701963538656e-05,-0.001112431287765503,9315.0,682.0,-5.1609176119402584e-05,0.0002318183139910853,0.0011718273162841797,-0.001958101987838745,7857,1872,,,,,,
84,-9.389626991025748e-06,8.121224273151851e-05,8.121224273151851e-05,-0.0008591413497924805,9315.0,492.0,-5.4225819669810294e-05,0.00023405196348301585,0.0009772777557373047,-0.0019326210021972656,7857,1851,,,,,,
85,-8.794278810245659e-06,7.459452118265511e-05,7.459452118265511e-05,-0.001149296760559082,9315.0,234.0,-5.7449182802330014e-05,0.00023135515037066827,0.0008327960968017578,-0.0017671585083007812,7857,1815,,,,,,
86,-1.9964484584888205e-06,3.70311239858326e-05,3.70311239858326e-05,-0.0009891986846923828,9315.0,30.0,-5.683537939483546e-05,0.0002276322349163768,0.0008696913719177246,-0.0018413066864013672,7857,1761,,,,,,
87,0.0,0.0,0.0,0.0,9315.0,0.0,-5.5494966973384435e-05,0.0002218249453317402,0.0008721649646759033,-0.001674652099609375,7857,1699,,,,,,
88,0.0,0.0,0.0,0.0,9315.0,0.0,-5.637480406996455e-05,0.000220302375357153,0.0008702278137207031,-0.001443028450012207,7857,1632,,,,,,
89,0.0,0.0,0.0,0.0,9315.0,0.0,-6.0437553360360305e-05,0.00022519993261353532,0.0008436441421508789,-0.0018544197082519531,7857,1555,,,,,,
90,0.0,0.0,0.0,0.0,9315.0,0.0,-6.51337434705768e-05,0.00023283281052010203,0.0007843971252441406,-0.0020951032638549805,7857,1490,,,,,,
91,0.0,0.0,0.0,0.0,9315.0,0.0,-6.64476166917036e-05,0.00023252157330710493,0.0008525848388671875,-0.0019436478614807129,7857,1416,,,,,,
92,0.0,0.0,0.0,0.0,9315.0,0.0,-6.415646563790714e-05,0.00022543515377386423,0.0007615089416503906,-0.0017554759979248047,7857,1337,,,,,,
93,0.0,0.0,0.0,0.0,9315.0,0.0,-6.035054318272113e-05,0.00021856102274409522,0.0008689165115356445,-0.0016647577285766602,7857,1264,,,,,,
94,0.0,0.0,0.0,0.0,9315.0,0.0,-5.756224564588855e-05,0.00021749815122109562,0.0009657144546508789,-0.0018780827522277832,7857,1189,,,,,,
95,0.0,0.0,0.0,0.0,9315.0,0.0,-5.583616438141835e-05,0.00021616526868747663,0.0009000301361083984,-0.0019025877118110657,7857,1107,,,,,,
96,0.0,0.0,0.0,0.0,9315.0,0.0,-5.3529265025303205e-05,0.00020692824410962248,0.00066375732421875,-0.0020690560340881348,7857,1024,,,,,,
97,,,,,,,-4.6803669772157466e-05,0.0001836682570187487,0.00070958212018013,-0.0018489360809326172,7857,942,,,,,,
98,,,,,,,-3.353047625563419e-05,0.00014344500831564057,0.0007765591144561768,-0.0013085603713989258,7857,837,,,,,,
99,,,,,,,-1.932293240303823e-05,0.00010926321255231306,0.0006744861602783203,-0.001185297966003418,7857,730,,,,,,
100,,,,,,,-8.592460187386963e-06,9.983349748361423e-05,0.0009181499481201172,-0.0011606216430664062,7857,613,,,,,,
101,,,,,,,-5.34666043338664e-06,0.00010319089437657582,0.0008285045623779297,-0.0011348724365234375,7857,479,,,,,,
102,,,,,,,-4.704078675772953e-06,9.65967683503248e-05,0.0009038448333740234,-0.0011272430419921875,7857,319,,,,,,
103,,,,,,,-2.413605011130041e-06,7.730475799624061e-05,0.0011212825775146484,-0.0010477304458618164,7857,198,,,,,,
104,,,,,,,-3.4288032767698937e-07,3.48154097003022e-05,0.001275777816772461,-0.0006663799285888672,7857,69,,,,,,
105,,,,,,,0.0,0.0,0.0,0.0,7857,0,,,,,,
106,,,,,,,0.0,0.0,0.0,0.0,7857,0,,,,,,
107,,,,,,,0.0,0.0,0.0,0.0,7857,0,,,,,,
108,,,,,,,0.0,0.0,0.0,0.0,7857,0,,,,,,
109,,,,,,,0.0,0.0,0.0,0.0,7857,0,,,,,,
110,,,,,,,0.0,0.0,0.0,0.0,7857,0,,,,,,
111,,,,,,,0.0,0.0,0.0,0.0,7857,0,,,,,,
112,,,,,,,0.0,0.0,0.0,0.0,7857,0,,,,,,
113,,,,,,,0.0,0.0,0.0,0.0,7857,0,,,,,,
114,,,,,,,0.0,0.0,0.0,0.0,7857,0,,,,,,
