,sag_mean,sag_std,sag_max,sag_min,sag_nb_elements,sag_non_zero_elements,hor_mean,hor_std,hor_max,hor_min,hor_nb_elements,hor_non_zero_elements,frt_mean,frt_std,frt_max,frt_min,frt_nb_elements,frt_non_zero_elements
0,0.0,0.0,0.0,0.0,9315.0,0.0,0.0,0.0,0.0,0.0,7857,0,0.0,0.0,0.0,0.0,11155.0,0.0
1,0.0,0.0,0.0,0.0,9315.0,0.0,0.0,0.0,0.0,0.0,7857,0,0.0,0.0,0.0,0.0,11155.0,0.0
2,0.0,0.0,0.0,0.0,9315.0,0.0,0.0,0.0,0.0,0.0,7857,0,0.0,0.0,0.0,0.0,11155.0,0.0
3,0.0,0.0,0.0,0.0,9315.0,0.0,0.0,0.0,0.0,0.0,7857,0,0.0,0.0,0.0,0.0,11155.0,0.0
4,0.0,0.0,0.0,0.0,9315.0,0.0,0.0,0.0,0.0,0.0,7857,0,0.0,0.0,0.0,0.0,11155.0,0.0
5,0.0,0.0,0.0,0.0,9315.0,0.0,0.0,0.0,0.0,0.0,7857,0,0.0,0.0,0.0,0.0,11155.0,0.0
6,0.0,0.0,0.0,0.0,9315.0,0.0,0.0,0.0,0.0,0.0,7857,0,0.0,0.0,0.0,0.0,11155.0,0.0
7,0.0,0.0,0.0,0.0,9315.0,0.0,0.0,0.0,0.0,0.0,7857,0,0.0,0.0,0.0,0.0,11155.0,0.0
8,0.0,0.0,0.0,0.0,9315.0,0.0,0.0,0.0,0.0,0.0,7857,0,0.0,0.0,0.0,0.0,11155.0,0.0
9,0.0,0.0,0.0,0.0,9315.0,0.0,0.0,0.0,0.0,0.0,7857,0,0.0,0.0,0.0,0.0,11155.0,0.0
10,0.0,0.0,0.0,0.0,9315.0,0.0,0.0,0.0,0.0,0.0,7857,0,0.0,0.0,0.0,0.0,11155.0,0.0
11,0.0,0.0,0.0,0.0,9315.0,0.0,0.0,0.0,0.0,0.0,7857,0,0.0,0.0,0.0,0.0,11155.0,0.0
12,0.0,0.0,0.0,0.0,9315.0,0.0,0.0,0.0,0.0,0.0,7857,0,-1.0686623895184334e-11,1.128641058224912e-09,0.0,-1.1920928955078125e-07,11155.0,1.0
13,1.2797561948554079e-11,1.2350807626537692e-09,1.2350807626537692e-09,0.0,9315.0,1.0,0.0,0.0,0.0,0.0,7857,0,0.0,0.0,0.0,0.0,11155.0,0.0
14,0.0,0.0,0.0,0.0,9315.0,0.0,0.0,0.0,0.0,0.0,7857,0,-3.2059871685553004e-11,2.523627622260095e-09,0.0,-2.384185791015625e-07,11155.0,2.0
15,-1.119786670498482e-11,7.718856942045765e-10,7.718856942045765e-10,-5.960464477539063e-08,9315.0,2.0,0.0,0.0,0.0,0.0,7857,0,-1.1771984134538993e-11,1.1344368334258971e-09,0.0,-1.1920928955078125e-07,11155.0,2.0
16,0.0,0.0,0.0,0.0,9315.0,0.0,0.0,0.0,0.0,0.0,7857,0,-5.343311947592167e-12,1.2619043156353374e-09,5.960464477539063e-08,-1.1920928955078125e-07,11155.0,2.0
17,-7.9984762178463e-12,1.6700006217294211e-09,1.6700006217294211e-09,-1.4901161193847656e-07,9315.0,3.0,3.7930918146487606e-12,3.36197200405917e-10,2.9802322387695312e-08,0.0,7857,1,-7.68101092466374e-12,5.995682410798205e-10,0.0,-5.587935447692871e-08,11155.0,2.0
18,-6.398780974277039e-12,6.175403813268845e-10,6.175403813268845e-10,-5.960464477539063e-08,9315.0,1.0,0.0,0.0,0.0,0.0,7857,0,-5.343311947592167e-12,1.4931091463586159e-09,1.1920928955078125e-07,-5.960464477539063e-08,11155.0,4.0
19,6.398780974277039e-12,6.175403813268846e-10,6.175403813268846e-10,0.0,9315.0,1.0,0.0,0.0,0.0,0.0,7857,0,4.0074839606941254e-12,7.597632504358882e-10,7.450580596923828e-08,-2.9802322387695312e-08,11155.0,2.0
20,2.39954286535389e-12,2.3157764299758172e-10,2.3157764299758172e-10,0.0,9315.0,1.0,-5.215501245142046e-12,4.6227115055813567e-10,0.0,-4.0978193283081055e-08,7857,1,-6.679139934490209e-12,1.877021335364467e-09,5.960464477539063e-08,-1.7881393432617188e-07,11155.0,4.0
21,-6.398780974277039e-12,1.3809215728775469e-09,1.3809215728775469e-09,-1.1920928955078125e-07,9315.0,2.0,-7.586183629297521e-12,6.723944008118341e-10,0.0,-5.960464477539063e-08,7857,1,-2.938821571175692e-11,2.176377429321995e-09,5.960464477539063e-08,-1.1920928955078125e-07,11155.0,10.0
22,0.0,0.0,0.0,0.0,9315.0,0.0,0.0,0.0,0.0,0.0,7857,0,-6.679139934490209e-12,1.9802315159126777e-09,1.1920928955078125e-07,-1.043081283569336e-07,11155.0,6.0
23,-1.2797561948554079e-11,1.235080762653769e-09,1.235080762653769e-09,-1.1920928955078125e-07,9315.0,1.0,1.7068913165919424e-11,1.0762893846651154e-09,7.450580596923828e-08,0.0,7857,2,1.0018709901735313e-11,8.011544130893702e-10,5.960464477539063e-08,-7.450580596923828e-09,11155.0,3.0
24,-1.839649530104649e-11,2.04380804335607e-09,2.04380804335607e-09,-1.1920928955078125e-07,9315.0,8.0,3.7930918146487606e-12,7.517980699535871e-10,5.960464477539063e-08,-2.9802322387695312e-08,7857,2,1.1354537888633355e-11,3.5475417881460466e-09,2.384185791015625e-07,-2.384185791015625e-07,11155.0,9.0
25,-2.8794514384246678e-11,1.662618299987817e-09,1.662618299987817e-09,-1.1920928955078125e-07,9315.0,3.0,3.7930918146487606e-12,2.6259484503581203e-09,1.7881393432617188e-07,-1.4901161193847656e-07,7857,2,-1.3358279868980419e-11,2.7211442357741082e-09,1.1920928955078125e-07,-2.384185791015625e-07,11155.0,6.0
26,-5.075283112605285e-11,2.7222007936497665e-09,2.7222007936497665e-09,-2.384185791015625e-07,9315.0,6.0,7.586183629297521e-12,6.723944008118339e-10,5.960464477539063e-08,0.0,7857,1,-5.343311947592167e-12,1.924155307344313e-09,1.1920928955078125e-07,-1.1920928955078125e-07,11155.0,4.0
27,3.1993904871385197e-12,3.04119526467108e-09,3.04119526467108e-09,-1.1920928955078125e-07,9315.0,7.0,-2.0862004980568183e-11,2.8179481312588253e-09,7.450580596923828e-08,-2.384185791015625e-07,7857,2,-1.9369505810021606e-11,1.6826069915484201e-09,5.960464477539063e-08,-1.1920928955078125e-07,11155.0,6.0
28,-3.5993142980308347e-11,1.6856169518603977e-09,1.6856169518603977e-09,-1.1920928955078125e-07,9315.0,8.0,-3.0344734517190084e-11,2.689577603247336e-09,0.0,-2.384185791015625e-07,7857,1,2.1373247790368668e-11,1.5453769001384034e-09,1.4901161193847656e-07,0.0,11155.0,3.0
29,-2.239573340996964e-11,1.5282524223111213e-09,1.5282524223111213e-09,-1.043081283569336e-07,9315.0,2.0,-9.482729536621901e-12,2.6313096483691985e-09,1.1920928955078125e-07,-1.1920928955078125e-07,7857,6,1.5727287314494913e-11,2.3490729399155026e-09,1.7881393432617188e-07,-1.1920928955078125e-07,11155.0,5.0
30,1.919634292283112e-11,1.8526211439806535e-09,1.8526211439806535e-09,0.0,9315.0,1.0,-4.9310193590433886e-11,2.9498941130136253e-09,0.0,-2.384185791015625e-07,7857,3,-4.675397954143146e-12,1.440525895753399e-09,5.960464477539063e-08,-1.1920928955078125e-07,11155.0,6.0
31,9.198247650523244e-12,1.2830354928175328e-09,1.2830354928175328e-09,-3.3527612686157227e-08,9315.0,2.0,-2.2284414411061468e-11,2.217800219364964e-09,1.1920928955078125e-07,-1.1920928955078125e-07,7857,5,-4.675397954143146e-12,3.386806470388576e-09,2.384185791015625e-07,-1.1920928955078125e-07,11155.0,9.0
32,-4.399161919815465e-11,3.0570038506232083e-09,3.0570038506232083e-09,-2.384185791015625e-07,9315.0,9.0,-2.038786850373709e-11,2.933725417800979e-09,1.1920928955078125e-07,-1.30385160446167e-07,7857,5,-7.614219525318838e-11,4.814974514213567e-09,0.0,-4.76837158203125e-07,11155.0,6.0
33,-1.119786670498482e-11,7.718856942045765e-10,7.718856942045765e-10,-5.960464477539063e-08,9315.0,2.0,-3.7930918146487604e-11,2.7722701009599204e-09,0.0,-2.384185791015625e-07,7857,2,0.0,1.7394306540713694e-09,1.1920928955078125e-07,-1.1920928955078125e-07,11155.0,5.0
34,0.0,8.733808641907732e-10,8.733808641907732e-10,-5.960464477539063e-08,9315.0,2.0,-9.767211422720559e-11,3.818385164029816e-09,0.0,-2.384185791015625e-07,7857,8,-7.313658228266779e-11,3.399404256781481e-09,5.960464477539063e-08,-2.384185791015625e-07,11155.0,14.0
35,-4.159207633280076e-11,3.0409125230995414e-09,3.0409125230995414e-09,-2.384185791015625e-07,9315.0,7.0,-1.6713310808296103e-11,1.3516894201794496e-09,0.0,-1.1920928955078125e-07,7857,2,4.591908704962019e-13,1.4905451737851435e-09,1.1920928955078125e-07,-8.195638656616211e-08,11155.0,6.0
36,-1.2497619090384844e-11,1.2122938921412905e-09,1.2122938921412905e-09,-8.940696716308594e-08,9315.0,4.0,3.7930918146487604e-11,2.4242100550438437e-09,1.7881393432617188e-07,0.0,7857,2,-3.4731527659349087e-11,2.595528388046154e-09,2.2351741790771484e-08,-2.384185791015625e-07,11155.0,5.0
37,8.398400028738615e-12,3.495431890405887e-09,3.495431890405887e-09,-1.30385160446167e-07,9315.0,8.0,-8.344801992227273e-11,5.585059469451266e-09,0.0,-4.76837158203125e-07,7857,3,-2.1373247790368668e-11,1.5324421643772854e-09,2.9802322387695312e-08,-1.1920928955078125e-07,11155.0,7.0
38,-3.9992381089231496e-13,1.5673969793756296e-09,1.5673969793756296e-09,-1.1920928955078125e-07,9315.0,3.0,3.88791911001498e-11,2.2691424800802537e-09,1.4901161193847656e-07,-2.2351741790771484e-08,7857,4,4.675397954143146e-12,2.6139056269462153e-09,1.1920928955078125e-07,-1.1920928955078125e-07,11155.0,14.0
39,-1.7596647679261858e-11,1.3144945103293814e-09,1.3144945103293814e-09,-1.1920928955078125e-07,9315.0,5.0,-1.0431002490284092e-11,2.402529204541958e-09,1.1920928955078125e-07,-1.1920928955078125e-07,7857,5,-4.007483960694125e-11,2.661712266981136e-09,2.9802322387695312e-08,-2.384185791015625e-07,11155.0,5.0
40,-1.679680005747723e-11,1.4170433297036388e-09,1.4170433297036388e-09,-1.1920928955078125e-07,9315.0,4.0,-1.1379275443946282e-11,7.517215160029836e-10,0.0,-5.960464477539063e-08,7857,2,-1.7365763829674543e-11,1.6023400085154483e-09,5.960464477539063e-08,-1.1920928955078125e-07,11155.0,9.0
41,-3.119405724960057e-11,2.814067412045308e-09,2.814067412045308e-09,-2.384185791015625e-07,9315.0,7.0,3.2241280424514466e-11,2.132824193496685e-09,1.1920928955078125e-07,-4.470348358154297e-08,7857,6,6.679139934490209e-12,1.2697605404372178e-09,1.1920928955078125e-07,-4.470348358154297e-08,11155.0,4.0
42,4.79908573070778e-12,1.611907096420558e-09,1.611907096420558e-09,-5.960464477539063e-08,9315.0,5.0,-1.3275821351270662e-11,1.3552754740438093e-09,1.4901161193847656e-08,-1.1920928955078125e-07,7857,2,4.341440957418636e-12,1.0657543637122e-09,5.960464477539063e-08,-5.960464477539063e-08,11155.0,7.0
43,-1.2797561948554079e-11,2.1392991903929436e-09,2.1392991903929436e-09,-1.1920928955078125e-07,9315.0,3.0,-2.418096031838585e-11,2.021103156481656e-09,5.960464477539063e-08,-1.1920928955078125e-07,7857,9,2.6299113492055197e-12,3.1035032170680854e-09,2.384185791015625e-07,-1.1920928955078125e-07,11155.0,7.0
44,-1.59969524356926e-11,1.2730599483621507e-09,1.2730599483621507e-09,-1.1920928955078125e-07,9315.0,2.0,-5.689637721973141e-12,2.024296022849827e-09,1.1920928955078125e-07,-1.1920928955078125e-07,7857,5,-2.1373247790368668e-11,2.352284228736965e-09,1.1920928955078125e-07,-1.4901161193847656e-07,11155.0,9.0
45,0.0,0.0,0.0,0.0,9315.0,0.0,-7.752131396188405e-11,3.765809558478153e-09,4.470348358154297e-08,-2.384185791015625e-07,7857,6,1.6697849836225523e-12,2.980607448992128e-09,1.7881393432617188e-07,-1.1920928955078125e-07,11155.0,13.0
46,1.1597790515877134e-11,2.0803433134842013e-09,2.0803433134842013e-09,-1.1920928955078125e-07,9315.0,4.0,-6.82756526636777e-11,2.7716887816782592e-09,0.0,-1.1920928955078125e-07,7857,5,1.3358279868980417e-12,8.104788861187401e-10,5.960464477539063e-08,-5.960464477539063e-08,11155.0,3.0
47,-2.5595123897108158e-11,1.868558745143468e-09,1.868558745143468e-09,-1.1920928955078125e-07,9315.0,5.0,-7.645450688901407e-12,8.213977258686596e-10,2.9336661100387573e-08,-5.960464477539063e-08,7857,3,-1.8701591816572585e-11,1.9580412776005313e-09,7.450580596923828e-08,-1.30385160446167e-07,11155.0,7.0
48,3.1993904871385197e-12,3.087701906634423e-10,3.087701906634423e-10,0.0,9315.0,1.0,-4.4568828822122936e-11,2.8537993712276784e-09,7.450580596923828e-09,-2.384185791015625e-07,7857,4,-2.4712817757613772e-11,1.6817974220700383e-09,5.960464477539063e-08,-1.043081283569336e-07,11155.0,9.0
49,-4.79908573070778e-11,2.489055888451228e-09,2.489055888451228e-09,-1.7881393432617188e-07,9315.0,4.0,-3.7930918146487606e-12,2.3049954517200555e-09,1.1920928955078125e-07,-1.4901161193847656e-07,7857,5,-2.588166724614956e-11,3.4247468715633247e-09,1.1920928955078125e-07,-2.384185791015625e-07,11155.0,6.0
50,-2.799466676246205e-12,8.810191754760616e-10,8.810191754760616e-10,-4.470348358154297e-08,9315.0,3.0,-5.6422240742900315e-11,2.3245319184002086e-09,0.0,-1.1920928955078125e-07,7857,5,1.0686623895184334e-11,2.4940568550207913e-09,1.1920928955078125e-07,-1.1920928955078125e-07,11155.0,6.0
51,1.999619054461575e-11,2.1013003279742283e-09,2.1013003279742283e-09,-5.960464477539063e-08,9315.0,6.0,5.689637721973141e-12,3.7586075800149184e-10,2.9802322387695312e-08,0.0,7857,2,-2.270907577726671e-11,1.812146060415872e-09,5.960464477539063e-08,-1.1920928955078125e-07,11155.0,4.0
52,-2.5595123897108158e-11,1.7465741969269953e-09,1.7465741969269953e-09,-1.1920928955078125e-07,9315.0,2.0,-7.586183629297521e-12,2.017297319099097e-09,1.1920928955078125e-07,-1.1920928955078125e-07,7857,3,-2.6716559737960835e-12,6.309521578176687e-10,2.9802322387695312e-08,-5.960464477539063e-08,11155.0,2.0
53,2.6344981042531248e-11,1.9040958540416446e-09,1.9040958540416446e-09,-5.960464477539063e-08,9315.0,6.0,0.0,1.901939600355726e-09,1.1920928955078125e-07,-1.1920928955078125e-07,7857,2,-1.3358279868980417e-12,1.41080132278114e-10,0.0,-1.4901161193847656e-08,11155.0,1.0
54,1.919634292283112e-11,1.8526211439806542e-09,1.8526211439806542e-09,-5.960464477539063e-08,9315.0,3.0,2.512923327204804e-11,3.0517285955312495e-09,2.384185791015625e-07,-1.1920928955078125e-07,7857,5,-1.6029935842776502e-11,1.2618138111300474e-09,0.0,-1.1920928955078125e-07,11155.0,2.0
55,-2.2195771504523483e-11,3.0293970901322016e-09,3.0293970901322016e-09,-1.7695128917694092e-07,9315.0,6.0,-3.022620039798231e-11,2.730012081155799e-09,2.9802322387695312e-08,-2.384185791015625e-07,7857,3,-3.2059871685553004e-11,2.8215469921012837e-09,5.960464477539063e-08,-2.384185791015625e-07,11155.0,7.0
56,-1.989620959189267e-11,2.3767922310996115e-09,2.3767922310996115e-09,-1.1920928955078125e-07,9315.0,9.0,-1.5172367258595042e-11,1.0631082966164249e-09,2.9802322387695312e-08,-5.960464477539063e-08,7857,4,-2.304303277399122e-11,2.1858651064980092e-09,1.1920928955078125e-07,-1.1920928955078125e-07,11155.0,5.0
57,7.9984762178463e-12,1.8845944419188112e-09,1.8845944419188112e-09,-1.1920928955078125e-07,9315.0,5.0,0.0,1.6471280103716815e-09,5.960464477539063e-08,-1.1920928955078125e-07,7857,3,1.3358279868980417e-12,1.41080132278114e-10,1.4901161193847656e-08,0.0,11155.0,1.0
58,3.5193295358523716e-11,1.6041170886164005e-09,1.6041170886164005e-09,0.0,9315.0,6.0,-1.3275821351270662e-11,1.176690201420709e-09,0.0,-1.043081283569336e-07,7857,1,-8.682881914837272e-12,8.256416607962336e-10,2.2351741790771484e-08,-5.960464477539063e-08,11155.0,3.0
59,1.199771432676945e-11,1.990680776470237e-09,1.990680776470237e-09,-5.960464477539063e-08,9315.0,4.0,-4.9310193590433886e-11,2.292174830210512e-09,0.0,-1.1920928955078125e-07,7857,4,-1.469410785587846e-11,2.5590343467490124e-09,1.1920928955078125e-07,-2.384185791015625e-07,11155.0,3.0
60,-1.4397257192123339e-11,3.428059195071697e-09,3.428059195071697e-09,-1.1920928955078125e-07,9315.0,8.0,1.8017186119581614e-11,9.83669455903224e-10,5.960464477539063e-08,0.0,7857,3,1.536202184932748e-11,1.7521900958423145e-09,1.7881393432617188e-07,-3.725290298461914e-08,11155.0,3.0
61,-1.5996952435692598e-12,1.1025881334085867e-09,1.1025881334085867e-09,-5.960464477539063e-08,9315.0,7.0,1.9913732026905993e-11,1.3886679567675076e-09,1.1920928955078125e-07,0.0,7857,3,-1.6029935842776502e-11,1.2618138111300476e-09,0.0,-1.1920928955078125e-07,11155.0,2.0
62,3.724290488934683e-11,1.9271495855115575e-09,1.9271495855115575e-09,0.0,9315.0,5.0,-9.482729536621901e-12,1.6211596317333442e-09,5.960464477539063e-08,-1.1920928955078125e-07,7857,4,0.0,0.0,0.0,0.0,11155.0,0.0
63,-1.59969524356926e-11,1.113231586488872e-09,1.113231586488872e-09,-8.940696716308594e-08,9315.0,2.0,5.689637721973141e-12,2.0759888993440988e-09,1.1920928955078125e-07,-1.043081283569336e-07,7857,8,-1.8033677823123564e-11,1.2794111780916554e-09,0.0,-1.1920928955078125e-07,11155.0,3.0
64,-1.59969524356926e-11,8.454960662690737e-10,8.454960662690737e-10,-5.960464477539063e-08,9315.0,4.0,-3.413782633183885e-11,1.8102707026563086e-09,0.0,-1.1920928955078125e-07,7857,3,0.0,0.0,0.0,0.0,11155.0,0.0
65,-1.5996952435692598e-12,1.3852441785311389e-09,1.3852441785311389e-09,-8.195638656616211e-08,9315.0,7.0,1.8965459073243803e-12,1.680986002029585e-10,1.4901161193847656e-08,0.0,7857,1,0.0,0.0,0.0,0.0,11155.0,0.0
66,-3.839268584566224e-11,2.7616059351434945e-09,2.7616059351434945e-09,-2.384185791015625e-07,9315.0,2.0,1.3275821351270662e-11,9.656231406166416e-10,5.960464477539063e-08,-1.4901161193847656e-08,7857,3,0.0,0.0,0.0,0.0,11155.0,0.0
67,-7.9984762178463e-12,1.423414185204725e-09,1.423414185204725e-09,-1.1920928955078125e-07,9315.0,4.0,3.7930918146487606e-12,3.3619720040591694e-10,2.9802322387695312e-08,0.0,7857,1,-1.0686623895184334e-11,1.1286410582249123e-09,0.0,-1.1920928955078125e-07,11155.0,1.0
68,-3.719291441298529e-11,3.743854795589565e-09,3.743854795589565e-09,-2.384185791015625e-07,9315.0,10.0,-1.8446872301709794e-11,1.672404305442815e-09,5.960464477539063e-08,-1.1920928955078125e-07,7857,4,0.0,0.0,0.0,0.0,11155.0,0.0
69,-4.0792228711016126e-11,3.5617057430269613e-09,3.5617057430269613e-09,-2.384185791015625e-07,9315.0,9.0,1.4224094304932853e-12,7.896204600017001e-10,5.960464477539063e-08,-3.3527612686157227e-08,7857,3,0.0,0.0,0.0,0.0,11155.0,0.0
70,-5.318986684867789e-11,5.3225286801503506e-09,5.3225286801503506e-09,-4.76837158203125e-07,9315.0,4.0,-3.0344734517190084e-11,1.6468484689363669e-09,0.0,-1.1920928955078125e-07,7857,3,0.0,0.0,0.0,0.0,11155.0,0.0
71,-3.1993904871385197e-12,1.4150351110410275e-09,1.4150351110410275e-09,-1.1920928955078125e-07,9315.0,3.0,-3.5086099285501035e-11,1.7965405882515853e-09,2.2351741790771484e-08,-1.1920928955078125e-07,7857,5,0.0,0.0,0.0,0.0,11155.0,0.0
72,-1.7596647679261858e-11,1.8590592452586621e-09,1.8590592452586621e-09,-1.1920928955078125e-07,9315.0,7.0,-2.5603369748879134e-11,1.1052697912361802e-09,0.0,-5.960464477539063e-08,7857,5,0.0,0.0,0.0,0.0,11155.0,0.0
73,3.1993904871385197e-12,3.0877019066344226e-10,3.0877019066344226e-10,0.0,9315.0,1.0,1.8965459073243802e-11,1.540630441927669e-09,1.1920928955078125e-07,-2.9802322387695312e-08,7857,3,0.0,0.0,0.0,0.0,11155.0,0.0
74,-1.2797561948554079e-11,1.5126858974063446e-09,1.5126858974063446e-09,-1.1920928955078125e-07,9315.0,3.0,-6.306015141853565e-11,3.3216874069246754e-09,4.470348358154297e-08,-2.384185791015625e-07,7857,7,0.0,0.0,0.0,0.0,11155.0,0.0
75,-1.919634292283112e-11,1.3808029675717472e-09,1.3808029675717472e-09,-1.1920928955078125e-07,9315.0,2.0,2.6551642702541325e-11,2.7927152061396897e-09,1.7881393432617188e-07,-1.1920928955078125e-07,7857,4,0.0,0.0,0.0,0.0,11155.0,0.0
76,-1.2797561948554079e-11,1.2350807626537692e-09,1.2350807626537692e-09,-1.1920928955078125e-07,9315.0,1.0,-9.482729536621901e-12,1.2691619461696668e-09,5.960464477539063e-08,-5.960464477539063e-08,7857,6,0.0,0.0,0.0,0.0,11155.0,0.0
77,-2.159588578818501e-11,2.49062146564009e-09,2.49062146564009e-09,-2.384185791015625e-07,9315.0,3.0,-2.2758550887892565e-11,1.5034430320059672e-09,0.0,-1.1920928955078125e-07,7857,2,0.0,0.0,0.0,0.0,11155.0,0.0
78,6.398780974277039e-12,6.175403813268845e-10,6.175403813268845e-10,0.0,9315.0,1.0,-3.7930918146487606e-12,1.5407425027195777e-09,5.960464477539063e-08,-8.940696716308594e-08,7857,4,0.0,0.0,0.0,0.0,11155.0,0.0
79,-7.9984762178463e-12,1.2824628164881508e-09,1.2824628164881508e-09,-1.043081283569336e-07,9315.0,3.0,-3.7930918146487606e-12,1.5407425027195777e-09,5.960464477539063e-08,-1.1920928955078125e-07,7857,3,0.0,0.0,0.0,0.0,11155.0,0.0
80,-3.839268584566224e-11,2.7616059351434945e-09,2.7616059351434945e-09,-2.384185791015625e-07,9315.0,2.0,-2.8448188609865706e-11,1.5856847824141413e-09,0.0,-1.1920928955078125e-07,7857,3,0.0,0.0,0.0,0.0,11155.0,0.0
81,0.0,0.0,0.0,0.0,9315.0,0.0,3.7930918146487606e-12,1.6810887067944244e-09,1.1920928955078125e-07,-5.960464477539063e-08,7857,4,,,,,,
82,-9.59817146141556e-12,1.2731242711203285e-09,1.2731242711203285e-09,-1.1920928955078125e-07,9315.0,2.0,-2.6551642702541325e-11,1.5405183729842037e-09,0.0,-1.1920928955078125e-07,7857,3,,,,,,
83,-1.2797561948554079e-11,1.2350807626537692e-09,1.2350807626537692e-09,-1.1920928955078125e-07,9315.0,1.0,-1.8965459073243802e-11,1.4013427427235425e-09,3.725290298461914e-08,-8.195638656616211e-08,7857,5,,,,,,
84,0.0,0.0,0.0,0.0,9315.0,0.0,1.1379275443946282e-11,1.386218084897651e-09,1.1920928955078125e-07,-2.9802322387695312e-08,7857,2,,,,,,
85,0.0,0.0,0.0,0.0,9315.0,0.0,4.551710177578513e-11,3.0068860640119343e-09,2.384185791015625e-07,0.0,7857,2,,,,,,
86,0.0,0.0,0.0,0.0,9315.0,0.0,-1.5172367258595042e-11,1.3447888016236675e-09,0.0,-1.1920928955078125e-07,7857,1,,,,,,
87,0.0,0.0,0.0,0.0,9315.0,0.0,1.5172367258595042e-11,1.6470581294607502e-09,1.1920928955078125e-07,-5.960464477539063e-08,7857,3,,,,,,
88,0.0,0.0,0.0,0.0,9315.0,0.0,-1.748378258314663e-11,1.392362513391298e-09,1.1641532182693481e-08,-1.1920928955078125e-07,7857,3,,,,,,
89,0.0,0.0,0.0,0.0,9315.0,0.0,0.0,0.0,0.0,0.0,7857,0,,,,,,
90,0.0,0.0,0.0,0.0,9315.0,0.0,1.7068913165919424e-11,1.3552330095524376e-09,1.1920928955078125e-07,0.0,7857,2,,,,,,
91,0.0,0.0,0.0,0.0,9315.0,0.0,0.0,0.0,0.0,0.0,7857,0,,,,,,
92,0.0,0.0,0.0,0.0,9315.0,0.0,-5.689637721973141e-12,6.931090424488254e-10,1.4901161193847656e-08,-5.960464477539063e-08,7857,2,,,,,,
93,0.0,0.0,0.0,0.0,9315.0,0.0,-1.8965459073243802e-11,1.6809860020295844e-09,5.960464477539063e-08,-1.1920928955078125e-07,7857,4,,,,,,
94,0.0,0.0,0.0,0.0,9315.0,0.0,-7.1120471524664265e-12,9.406719531513e-10,2.9802322387695312e-08,-5.960464477539063e-08,7857,6,,,,,,
95,0.0,0.0,0.0,0.0,9315.0,0.0,1.8965459073243803e-12,1.5992476469088353e-09,5.960464477539063e-08,-1.1920928955078125e-07,7857,6,,,,,,
96,0.0,0.0,0.0,0.0,9315.0,0.0,7.586183629297521e-12,4.754243788769396e-10,2.9802322387695312e-08,0.0,7857,2,,,,,,
97,,,,,,,1.8965459073243803e-12,1.680986002029585e-10,1.4901161193847656e-08,0.0,7857,1,,,,,,
98,,,,,,,3.7930918146487606e-12,3.36197200405917e-10,2.9802322387695312e-08,0.0,7857,1,,,,,,
99,,,,,,,3.0344734517190084e-11,2.6895776032473355e-09,2.384185791015625e-07,0.0,7857,1,,,,,,
100,,,,,,,0.0,0.0,0.0,0.0,7857,0,,,,,,
101,,,,,,,-1.5172367258595042e-11,1.3447888016236678e-09,0.0,-1.1920928955078125e-07,7857,1,,,,,,
102,,,,,,,1.5172367258595042e-11,1.344788801623668e-09,1.1920928955078125e-07,0.0,7857,1,,,,,,
103,,,,,,,0.0,0.0,0.0,0.0,7857,0,,,,,,
104,,,,,,,0.0,0.0,0.0,0.0,7857,0,,,,,,
105,,,,,,,0.0,0.0,0.0,0.0,7857,0,,,,,,
106,,,,,,,0.0,0.0,0.0,0.0,7857,0,,,,,,
107,,,,,,,0.0,0.0,0.0,0.0,7857,0,,,,,,
108,,,,,,,0.0,0.0,0.0,0.0,7857,0,,,,,,
109,,,,,,,0.0,0.0,0.0,0.0,7857,0,,,,,,
110,,,,,,,0.0,0.0,0.0,0.0,7857,0,,,,,,
111,,,,,,,0.0,0.0,0.0,0.0,7857,0,,,,,,
112,,,,,,,0.0,0.0,0.0,0.0,7857,0,,,,,,
113,,,,,,,0.0,0.0,0.0,0.0,7857,0,,,,,,
114,,,,,,,0.0,0.0,0.0,0.0,7857,0,,,,,,
