,sag_mean,sag_std,sag_max,sag_min,sag_nb_elements,sag_non_zero_elements,hor_mean,hor_std,hor_max,hor_min,hor_nb_elements,hor_non_zero_elements,frt_mean,frt_std,frt_max,frt_min,frt_nb_elements,frt_non_zero_elements
0,0.0,0.0,0.0,0.0,9315.0,0.0,0.0,0.0,0.0,0.0,7857,0,3.7962828768256106e-07,1.7998169854265916e-05,0.0009474605321884155,0.0,11155.0,5.0
1,0.0,0.0,0.0,0.0,9315.0,0.0,0.0,0.0,0.0,0.0,7857,0,1.7651524987524265e-06,4.384184583368182e-05,0.001753091812133789,0.0,11155.0,20.0
2,0.0,0.0,0.0,0.0,9315.0,0.0,0.0,0.0,0.0,0.0,7857,0,4.1032641631827015e-06,7.073402638770767e-05,0.0019664764404296875,0.0,11155.0,41.0
3,0.0,0.0,0.0,0.0,9315.0,0.0,0.0,0.0,0.0,0.0,7857,0,5.1600397708489724e-06,7.3620297981125e-05,0.0014787912368774414,0.0,11155.0,61.0
4,0.0,0.0,0.0,0.0,9315.0,0.0,0.0,0.0,0.0,0.0,7857,0,4.19567194268448e-06,6.814443198599726e-05,0.001710668671876192,-0.0005955696105957031,11155.0,82.0
5,0.0,0.0,0.0,0.0,9315.0,0.0,0.0,0.0,0.0,0.0,7857,0,3.3296480631277946e-06,8.62956104370945e-05,0.002216815948486328,-0.0010881423950195312,11155.0,99.0
6,0.0,0.0,0.0,0.0,9315.0,0.0,0.0,0.0,0.0,0.0,7857,0,2.1661252304343887e-06,9.750778329794606e-05,0.0022962093353271484,-0.0013327598571777344,11155.0,111.0
7,0.0,0.0,0.0,0.0,9315.0,0.0,0.0,0.0,0.0,0.0,7857,0,-1.6406280331310272e-07,0.00010588161656178452,0.0021479129791259766,-0.0014055967330932617,11155.0,132.0
8,0.0,0.0,0.0,0.0,9315.0,0.0,0.0,0.0,0.0,0.0,7857,0,-4.029992046540145e-06,0.0001003015598547678,0.0016489028930664062,-0.0014364123344421387,11155.0,207.0
9,0.0,0.0,0.0,0.0,9315.0,0.0,0.0,0.0,0.0,0.0,7857,0,4.474612571556223e-08,0.0001043825119521488,0.0016205310821533203,-0.0010995864868164062,11155.0,399.0
10,-3.113718008521546e-06,4.368010194898605e-05,4.368010194898605e-05,-0.0010104626417160034,9315.0,66.0,0.0,0.0,0.0,0.0,7857,0,1.3406399315192206e-05,0.0001611987052128624,0.001988649368286133,-0.001120835542678833,11155.0,550.0
11,-4.641248150196244e-06,7.439883953778084e-05,7.439883953778084e-05,-0.0011606216430664062,9315.0,286.0,-1.5853739306719472e-06,4.518003429463206e-05,0.0006192922592163086,-0.001499176025390625,7857,33,2.4046063763792874e-05,0.00021264478606411918,0.0023407340049743652,-0.0010402202606201172,11155.0,670.0
12,-1.210636484661148e-06,8.429522020710757e-05,8.429522020710757e-05,-0.0010085105895996094,9315.0,569.0,-2.2422113126662755e-06,8.939195285407049e-05,0.0017888844013214111,-0.0018644332885742188,7857,123,2.9125333843391235e-05,0.00022362330139837818,0.002645254135131836,-0.0014907121658325195,11155.0,786.0
13,6.311119090284806e-06,9.280868595234755e-05,9.280868595234755e-05,-0.0007315874099731445,9315.0,759.0,-2.877112652025894e-06,0.00012717967836517455,0.0014990977942943573,-0.0014162063598632812,7857,257,3.1721593239632694e-05,0.0002076690162465303,0.0021039843559265137,-0.0015878677368164062,11155.0,896.0
14,1.2833134471666282e-05,0.00011702891166463584,0.00011702891166463584,-0.0008996427059173584,9315.0,929.0,1.5573562579830441e-06,0.000135835286952877,0.0014832019805908203,-0.0012328624725341797,7857,405,2.985434105318392e-05,0.0001886584282389162,0.0017311573028564453,-0.0012918710708618164,11155.0,1010.0
15,2.298085473280878e-05,0.00015338738416782212,0.00015338738416782212,-0.0008432865142822266,9315.0,1110.0,1.0054068110264013e-05,0.0001317702676981998,0.0013414339628070593,-0.0008828639984130859,7857,534,2.558661875074353e-05,0.0001732278434890351,0.0014648884534835815,-0.0012221336364746094,11155.0,1113.0
16,3.332826033958458e-05,0.00019091301412106558,0.00019091301412106558,-0.0011167526245117188,9315.0,1268.0,1.5138749108993007e-05,0.00012251601627950474,0.0011799931526184082,-0.000828862190246582,7857,649,2.3940644553985243e-05,0.0001787849453767182,0.0014619957655668259,-0.0011476874351501465,11155.0,1261.0
17,4.738444802103843e-05,0.00024179312446712201,0.00024179312446712201,-0.0012903213500976562,9315.0,1465.0,1.3105367302403388e-05,0.0001172847476280099,0.0010443329811096191,-0.0009799003601074219,7857,760,2.3757576233202677e-05,0.00020462341887906763,0.001745656132698059,-0.0012787282466888428,11155.0,1404.0
18,5.816079025525226e-05,0.0002797106621147635,0.0002797106621147635,-0.0014345645904541016,9315.0,1643.0,3.344119557175836e-06,0.000124040656814922,0.0011463165283203125,-0.0011734142899513245,7857,884,2.1919172907566233e-05,0.0002422289541039375,0.0019150376319885254,-0.0016870498657226562,11155.0,1531.0
19,6.864789604943973e-05,0.0003076894016228227,0.0003076894016228227,-0.0017666816711425781,9315.0,1806.0,-8.876940932594722e-06,0.00015646777633974654,0.0016711950302124023,-0.0012942254543304443,7857,1041,1.92635410331926e-05,0.00027252618460592607,0.0021482110023498535,-0.0020578503608703613,11155.0,1653.0
20,8.372219911288076e-05,0.0003338411201594061,0.0003338411201594061,-0.0023620128631591797,9315.0,1959.0,-1.2738049432490222e-05,0.00021543168015499803,0.0016541481018066406,-0.0015441402792930603,7857,1281,2.7717244566367303e-05,0.00029870405020744953,0.0022561848163604736,-0.001944035291671753,11155.0,1962.0
21,9.949919763928499e-05,0.0003651008513232729,0.0003651008513232729,-0.0027059316635131836,9315.0,2150.0,-1.7445675323272675e-05,0.00024746550899770725,0.0015647411346435547,-0.0017178654670715332,7857,1476,4.865611267650975e-05,0.00033655290693545073,0.002995610237121582,-0.0016331672668457031,11155.0,2279.0
22,0.00011302745758950254,0.0003974566101410253,0.0003974566101410253,-0.002601027488708496,9315.0,2316.0,-1.8571405639199333e-05,0.00025951335216055696,0.0017933845520019531,-0.0017042160034179688,7857,1656,7.927965781819877e-05,0.00039251791748284913,0.00331878662109375,-0.0014886856079101562,11155.0,2581.0
23,0.00012297172393545836,0.00041737923244227783,0.00041737923244227783,-0.0022200047969818115,9315.0,2472.0,-1.0389256047740895e-05,0.00026340497145849396,0.0018391609191894531,-0.0014594197273254395,7857,1825,0.0001034081457209899,0.00048757786204696197,0.0034708380699157715,-0.0027059316635131836,11155.0,3175.0
24,0.00012833185031409193,0.00042083136144182795,0.00042083136144182795,-0.0019093751907348633,9315.0,2614.0,6.422322514287718e-06,0.00027353652534002317,0.0024178028106689453,-0.0015270709991455078,7857,1981,0.00015709266707859528,0.0005431814090148857,0.0035843849182128906,-0.002369403839111328,11155.0,3729.0
25,0.00012805015694173039,0.00042642067848970284,0.00042642067848970284,-0.002722024917602539,9315.0,2755.0,2.5117784629141065e-05,0.0003018056769167333,0.002924680709838867,-0.0017795562744140625,7857,2127,0.00019669356571427152,0.0005863158612189522,0.0034821033477783203,-0.002367734909057617,11155.0,4271.0
26,0.00012147625513580766,0.0004359767598001723,0.0004359767598001723,-0.003565549850463867,9315.0,2870.0,3.816519680294172e-05,0.0003296723019152426,0.00261533260345459,-0.001889944076538086,7857,2271,0.00020881769205634542,0.000578700807598962,0.0030937790870666504,-0.003315448760986328,11155.0,4664.0
27,0.00011434236806839848,0.0004443723810826868,0.0004443723810826868,-0.0033415555953979492,9315.0,2991.0,4.499212795622202e-05,0.0003478200556804025,0.0027532577514648438,-0.0017976760864257812,7857,2390,0.00021259305176679136,0.000558734967438919,0.002946760505437851,-0.0019112825393676758,11155.0,4937.0
28,0.00010855833750750676,0.00044278168087068595,0.00044278168087068595,-0.002964615821838379,9315.0,3091.0,4.6827444753349076e-05,0.0003572035136280661,0.0026493072509765625,-0.0016696453094482422,7857,2506,0.0002131284700033156,0.0005689987948554352,0.002710670232772827,-0.001456141471862793,11155.0,5081.0
29,0.00010706308861518048,0.00043129092243810217,0.00043129092243810217,-0.0028006434440612793,9315.0,3172.0,4.6482486137094975e-05,0.0003752248632257144,0.002837657928466797,-0.0017991065979003906,7857,2632,0.0002047496694553408,0.0005795043944146732,0.0030836910009384155,-0.0018644332885742188,11155.0,5162.0
30,0.00011286618431352211,0.0004244570720884677,0.0004244570720884677,-0.0028251856565475464,9315.0,3248.0,4.807829648948897e-05,0.00039384409428203944,0.0028094053268432617,-0.001947551965713501,7857,2746,0.0001862776725913441,0.0005593439928624867,0.0028429627418518066,-0.002176642417907715,11155.0,5216.0
31,0.0001250689589088284,0.0004357475305549436,0.0004357475305549436,-0.002729371190071106,9315.0,3308.0,5.203707030271658e-05,0.0004001209186803997,0.0027292966842651367,-0.0020578503608703613,7857,2854,0.00016617138155392472,0.0005270744717913318,0.0024423599243164062,-0.0022565126419067383,11155.0,5310.0
32,0.00014019683015610777,0.00045209106732403773,0.00045209106732403773,-0.0025678277015686035,9315.0,3358.0,5.738202840835022e-05,0.00039100848356241253,0.0022878646850585938,-0.0017409920692443848,7857,2956,0.0001568870835395062,0.0005114889684402225,0.0026967525482177734,-0.001805230975151062,11155.0,5421.0
33,0.00015298897364005343,0.00046304706412615053,0.00046304706412615053,-0.002260074019432068,9315.0,3396.0,6.061820634969389e-05,0.00037818772890178213,0.0019491910934448242,-0.0017504692077636719,7857,3037,0.0001595287874376181,0.0005185273578337563,0.0028344392776489258,-0.0017398595809936523,11155.0,5487.0
34,0.00016120871199374034,0.0004689586121393383,0.0004689586121393383,-0.001916646957397461,9315.0,3444.0,6.399800042804393e-05,0.0003738026918092157,0.0021077394485473633,-0.0023325681686401367,7857,3119,0.00016712778811862734,0.0005188030073495341,0.0031082630157470703,-0.0016050338745117188,11155.0,5546.0
35,0.0001600619138746362,0.0004737463276837335,0.0004737463276837335,-0.0016864240169525146,9315.0,3473.0,6.199357910989715e-05,0.0003693908556460428,0.00209808349609375,-0.0026220083236694336,7857,3199,0.00017560862421107378,0.0005249783647040381,0.003374814987182617,-0.0014567375183105469,11155.0,5571.0
36,0.00016131789467938747,0.0004943750551908956,0.0004943750551908956,-0.0017673373222351074,9315.0,3505.0,5.281923117712142e-05,0.0003691207829652534,0.0018063187599182129,-0.00230330228805542,7857,3260,0.0001868591191332056,0.0005384393448666814,0.004045724868774414,-0.0017178654670715332,11155.0,5556.0
37,0.00016291259572088183,0.0005094333877969068,0.0005094333877969068,-0.0018644332885742188,9315.0,3530.0,5.1801607746000776e-05,0.00039775926415852494,0.0022962093353271484,-0.0018109679222106934,7857,3349,0.00019345240049537543,0.0005430287912809747,0.0038890838623046875,-0.0017042160034179688,11155.0,5540.0
38,0.00016243206677654426,0.0005141000453408413,0.0005141000453408413,-0.0017611980438232422,9315.0,3538.0,5.191728180082253e-05,0.0004259931207441724,0.00231170654296875,-0.0018888115882873535,7857,3413,0.00018777475933576585,0.0005324454501945923,0.0031638145446777344,-0.0014764070510864258,11155.0,5523.0
39,0.00016436909493013928,0.0005168087759341573,0.0005168087759341573,-0.001805230975151062,9315.0,3549.0,5.490821276713339e-05,0.00045079188860818863,0.0026108622550964355,-0.00222700834274292,7857,3443,0.00016742150201099032,0.0005153702765024326,0.002478361129760742,-0.0014987438917160034,11155.0,5471.0
40,0.00016499186965154,0.0005156311216714766,0.0005156311216714766,-0.00156402587890625,9315.0,3538.0,5.280390794371051e-05,0.0004660538439213001,0.002992972731590271,-0.002610325813293457,7857,3469,0.00014200313033877783,0.0005094143806205947,0.0024051666259765625,-0.002209693193435669,11155.0,5402.0
41,0.00016251053639377782,0.0005139576808776635,0.0005139576808776635,-0.0015492439270019531,9315.0,3529.0,4.569841245353123e-05,0.00047723880177233803,0.0030836910009384155,-0.002964496612548828,7857,3495,0.00012229490430191984,0.0005114300190350819,0.00267791748046875,-0.0026220083236694336,11155.0,5318.0
42,0.00016250052089322763,0.0005160077526958052,0.0005160077526958052,-0.0017991065979003906,9315.0,3546.0,3.462277932856619e-05,0.0004846454508418228,0.002907484769821167,-0.003565549850463867,7857,3504,0.00011310829534480792,0.0005186616325036492,0.0030269622802734375,-0.002454042434692383,11155.0,5243.0
43,0.00016793118486349868,0.0005082490325359895,0.0005082490325359895,-0.001714468002319336,9315.0,3576.0,2.9217295781504932e-05,0.00048352344807668917,0.0028429627418518066,-0.0032432079315185547,7857,3496,0.00011693691291742443,0.0005296757700227233,0.0028159618377685547,-0.0024194717407226562,11155.0,5156.0
44,0.00017697019549991986,0.0004949261392211268,0.0004949261392211268,-0.0015004873275756836,9315.0,3589.0,3.0030991076172324e-05,0.000480692288301655,0.0029692649841308594,-0.002642035484313965,7857,3431,0.00012560281912987807,0.0005364483137765325,0.0023976564407348633,-0.003269672393798828,11155.0,5062.0
45,0.00019274836659102584,0.0004939420892583932,0.0004939420892583932,-0.0013779401779174805,9315.0,3553.0,3.104118200129713e-05,0.00047825247926709967,0.0028611421585083008,-0.002504110336303711,7857,3364,0.00013376419357947106,0.0005352999390390769,0.0023196935653686523,-0.003565549850463867,11155.0,4951.0
46,0.00020826467424976054,0.0005028780364875891,0.0005028780364875891,-0.0012660622596740723,9315.0,3496.0,2.460019785125675e-05,0.0004702317434674434,0.002462625503540039,-0.002817511558532715,7857,3277,0.00014891122424186222,0.0005184695421401785,0.0025922060012817383,-0.002699136734008789,11155.0,4844.0
47,0.00021686470618962223,0.0005139460246991199,0.0005139460246991199,-0.0013599395751953125,9315.0,3435.0,1.598068560715786e-05,0.0004515846775953395,0.002767801284790039,-0.0028617382049560547,7857,3153,0.00016618524149460164,0.0004961405549406425,0.002760767936706543,-0.0018793344497680664,11155.0,4717.0
48,0.00021882547243300552,0.0005160802955726377,0.0005160802955726377,-0.0015113353729248047,9315.0,3409.0,2.123242188057774e-05,0.0004230695419251977,0.002527475357055664,-0.002481222152709961,7857,3042,0.00017956378041603362,0.0004713213041050009,0.0025786161422729492,-0.0014448165893554688,11155.0,4594.0
49,0.00022049942975397652,0.0005163495207576099,0.0005163495207576099,-0.0017491579055786133,9315.0,3450.0,3.356488493983681e-05,0.00040325191868581495,0.002287626266479492,-0.002245187759399414,7857,3014,0.00018630966571598397,0.0004482665490906142,0.0025321226567029953,-0.0012862682342529297,11155.0,4461.0
50,0.0002190066284484878,0.0005103199104359033,0.0005103199104359033,-0.001944035291671753,9315.0,3526.0,4.887736842665486e-05,0.00039394235109234366,0.002632617950439453,-0.0026078224182128906,7857,2981,0.00019298932717585308,0.00042232147538457586,0.002413153648376465,-0.0013797283172607422,11155.0,4313.0
51,0.00021280967267936894,0.0005009845283125588,0.0005009845283125588,-0.0019024498760700226,9315.0,3585.0,5.9123361098632335e-05,0.00038625561750397466,0.0026369094848632812,-0.0031061172485351562,7857,2958,0.0001972805614982273,0.00039638782542568565,0.0021543502807617188,-0.0011935234069824219,11155.0,4159.0
52,0.00020152563660371083,0.0004888591087424045,0.0004888591087424045,-0.0019510239362716675,9315.0,3601.0,6.459613664157994e-05,0.0003740769532027186,0.002341747283935547,-0.003315448760986328,7857,2952,0.00019596133414184836,0.00038972833170208593,0.001950085163116455,-0.0009975433349609375,11155.0,3995.0
53,0.00018755962076636034,0.00047647041967437923,0.00047647041967437923,-0.0020578503608703613,9315.0,3580.0,7.050798859512909e-05,0.00036018826436963377,0.0021703243255615234,-0.002407073974609375,7857,2912,0.00018984020846217107,0.0004025254067568497,0.002095937728881836,-0.0011713504791259766,11155.0,3818.0
54,0.0001786366739458796,0.0004669039600783273,0.0004669039600783273,-0.00200604647397995,9315.0,3559.0,8.090499361829525e-05,0.0003599073035968201,0.002351522445678711,-0.0022509098052978516,7857,2881,0.00018338065822777835,0.0004103545741070512,0.0024178028106689453,-0.001265406608581543,11155.0,3640.0
55,0.0001717408737582637,0.000463413679579147,0.000463413679579147,-0.0017370916903018951,9315.0,3553.0,9.536780600841538e-05,0.000367829203557581,0.0022025108337402344,-0.00198972225189209,7857,2853,0.00017761379791985562,0.00040707954809345454,0.002924680709838867,-0.0013711750507354736,11155.0,3435.0
56,0.00016489244632695872,0.00046033708360035543,0.00046033708360035543,-0.0014278590679168701,9315.0,3559.0,0.00011026780467379563,0.0003783211307158597,0.0020208358764648438,-0.0022565126419067383,7857,2847,0.00017061234992527636,0.00041006653056714247,0.0027532577514648438,-0.00120621919631958,11155.0,3223.0
57,0.00015265654622673613,0.0004524526456688496,0.0004524526456688496,-0.001460433006286621,9315.0,3562.0,0.00012495344787062285,0.0003826626652047285,0.002076387405395508,-0.0022329092025756836,7857,2845,0.0001594779381682117,0.00040541740099561213,0.002837657928466797,-0.0010744333267211914,11155.0,3004.0
58,0.00013823519868966667,0.0004455324151729487,0.0004455324151729487,-0.002008676528930664,9315.0,3539.0,0.00013858828129494804,0.00038162722536472964,0.002032756805419922,-0.001743614673614502,7857,2843,0.00014119023687391138,0.0003796084810955111,0.0025877952575683594,-0.0012611150741577148,11155.0,2768.0
59,0.00012544311160122716,0.0004460755905910516,0.0004460755905910516,-0.002266407012939453,9315.0,3512.0,0.00014692780677790068,0.00038574389024132675,0.0021636486053466797,-0.0017398595809936523,7857,2835,0.00011907928294885414,0.0003457711970475229,0.0022706985473632812,-0.0014820098876953125,11155.0,2520.0
60,0.00011508506785236376,0.00045058393372346395,0.00045058393372346395,-0.002454042434692383,9315.0,3481.0,0.00014990305472455904,0.0003980497504529871,0.002576112747192383,-0.0016862154006958008,7857,2827,0.00010265162290700075,0.0003280000721409674,0.0019758939743041992,-0.0014719963073730469,11155.0,2278.0
61,0.00010945119136935415,0.0004536545709988992,0.0004536545709988992,-0.0024194717407226562,9315.0,3463.0,0.00014675693371092203,0.00039812253899723296,0.0025687217712402344,-0.0016050338745117188,7857,2811,9.028001704648995e-05,0.0003178968467117954,0.002031564712524414,-0.0012247562408447266,11155.0,2022.0
62,0.00010751151982071702,0.0004571289390286886,0.0004571289390286886,-0.0022433996200561523,9315.0,3423.0,0.00014404715186336898,0.0003908248401079482,0.0027780532836914062,-0.0015056133270263672,7857,2803,7.933283308504216e-05,0.0002994778815173249,0.002149820327758789,-0.0012471675872802734,11155.0,1753.0
63,0.00010884507631788543,0.0004536346912320303,0.0004536346912320303,-0.0022565126419067383,9315.0,3383.0,0.00014931389726404435,0.0003845831924311255,0.0030269622802734375,-0.0014463067054748535,7857,2785,6.85677534188025e-05,0.00027412460224209126,0.0020236968994140625,-0.0013388395309448242,11155.0,1488.0
64,0.00010533154059076003,0.0004412171824183317,0.0004412171824183317,-0.0021181106567382812,9315.0,3336.0,0.0001626024654781593,0.000378716779606448,0.0028123855590820312,-0.0014019608497619629,7857,2760,5.758205640156044e-05,0.0002508677894217239,0.0022478103637695312,-0.0012482404708862305,11155.0,1221.0
65,9.660657680428087e-05,0.00043591713840562574,0.00043591713840562574,-0.002547845244407654,9315.0,3281.0,0.00017533942547467247,0.0003826728676783362,0.002438664436340332,-0.001394033432006836,7857,2725,4.700591165648797e-05,0.00022479883745688296,0.002028942108154297,-0.0010091066360473633,11155.0,968.0
66,9.21479459443058e-05,0.0004405836202448263,0.0004405836202448263,-0.0026220083236694336,9315.0,3208.0,0.00018493283960480607,0.0004003573539104216,0.00235140323638916,-0.0013880729675292969,7857,2710,3.540510462942658e-05,0.00019299009834850548,0.0018440783023834229,-0.0006269216537475586,11155.0,663.0
67,9.322833014320696e-05,0.00044597355311784277,0.00044597355311784277,-0.002375960350036621,9315.0,3116.0,0.0001881689220280227,0.0004183633994110967,0.002341032028198242,-0.001453995704650879,7857,2664,2.0624284228833467e-05,0.00013799813074916116,0.0018976926803588867,-0.0001595020294189453,11155.0,353.0
68,0.00010581681843781049,0.0004500335213848295,0.0004500335213848295,-0.002334117889404297,9315.0,3025.0,0.0001907933177153829,0.0004272765211022025,0.0025615692138671875,-0.0015441179275512695,7857,2634,6.798969883119403e-06,8.264627435977957e-05,0.0016481876373291016,0.0,11155.0,95.0
69,0.00011834537542643304,0.00044463733209117184,0.00044463733209117184,-0.0019298791885375977,9315.0,2920.0,0.0001945355847329323,0.00043133241648850957,0.0023555755615234375,-0.001579485833644867,7857,2607,0.0,0.0,0.0,0.0,11155.0,0.0
70,0.00012180275242261777,0.00043296140477927335,0.00043296140477927335,-0.0015906095504760742,9315.0,2805.0,0.00020262960407479796,0.00044118837470796595,0.002126336097717285,-0.0016614645719528198,7857,2592,0.0,0.0,0.0,0.0,11155.0,0.0
71,0.00011613543797234375,0.00041646386280662964,0.00041646386280662964,-0.0016675293445587158,9315.0,2683.0,0.0002116194062799773,0.00045002443061677774,0.002303868532180786,-0.0014761537313461304,7857,2559,0.0,0.0,0.0,0.0,11155.0,0.0
72,0.00010226479268088433,0.00039976431242929466,0.00039976431242929466,-0.001635819673538208,9315.0,2545.0,0.00022169135048371712,0.0004578536533846213,0.002458930015563965,-0.0011246204376220703,7857,2509,0.0,0.0,0.0,0.0,11155.0,0.0
73,8.618648593923626e-05,0.0003919021250160921,0.0003919021250160921,-0.0016833068802952766,9315.0,2414.0,0.00023210329880325232,0.0004657755957678394,0.0025321226567029953,-0.0009262561798095703,7857,2455,0.0,0.0,0.0,0.0,11155.0,0.0
74,7.045070016611681e-05,0.00039350173942145645,0.00039350173942145645,-0.0028612613677978516,9315.0,2268.0,0.0002398494585060779,0.0004690763430869456,0.002470344305038452,-0.0008016824722290039,7857,2386,0.0,0.0,0.0,0.0,11155.0,0.0
75,6.113256675491666e-05,0.00038724991387733616,0.00038724991387733616,-0.003315448760986328,9315.0,2093.0,0.00024335410174681764,0.0004686992315854071,0.0023950934410095215,-0.0006768703460693359,7857,2320,0.0,0.0,0.0,0.0,11155.0,0.0
76,6.160359685691658e-05,0.00036934703655664536,0.00036934703655664536,-0.002475738525390625,9315.0,1923.0,0.00024027199986636965,0.0004668326485283667,0.002252340316772461,-0.0006543397903442383,7857,2252,0.0,0.0,0.0,0.0,11155.0,0.0
77,6.288737026145716e-05,0.0003463281638051226,0.0003463281638051226,-0.0021560192108154297,9315.0,1747.0,0.00023296424626740567,0.0004668909838325801,0.002409696578979492,-0.00075531005859375,7857,2180,0.0,0.0,0.0,0.0,11155.0,0.0
78,6.110728685846588e-05,0.00032436638780553885,0.00032436638780553885,-0.0017843246459960938,9315.0,1568.0,0.00022836363087916755,0.00047392503436003016,0.0026567578315734863,-0.000682830810546875,7857,2098,0.0,0.0,0.0,0.0,11155.0,0.0
79,5.5866604643387466e-05,0.0002965585430139198,0.0002965585430139198,-0.0014448165893554688,9315.0,1397.0,0.00022865419508059578,0.00047877620386889197,0.0028344392776489258,-0.0005394220352172852,7857,2007,0.0,0.0,0.0,0.0,11155.0,0.0
80,4.766890435453086e-05,0.0002587013952172303,0.0002587013952172303,-0.0015325546264648438,9315.0,1221.0,0.00023118037739730695,0.00048165329158451133,0.0025537610054016113,-0.0005240440368652344,7857,1935,0.0,0.0,0.0,0.0,11155.0,0.0
81,4.1303752061185565e-05,0.00022330008037121078,0.00022330008037121078,-0.00145721435546875,9315.0,1038.0,0.00023319512804715535,0.00048284206632493397,0.002631664276123047,-0.0005123615264892578,7857,1910,,,,,,
82,3.543787213943207e-05,0.0001915403700151235,0.0001915403700151235,-0.001308441162109375,9315.0,865.0,0.00023199833963643215,0.0004849677872877353,0.0027823448181152344,-0.0006855055689811707,7857,1887,,,,,,
83,2.5713870949719262e-05,0.0001577353624506917,0.0001577353624506917,-0.0010364055633544922,9315.0,682.0,0.00023311425982047235,0.0004922696233947213,0.002930879592895508,-0.0007544755935668945,7857,1872,,,,,,
84,1.5727085497788184e-05,0.00012520175376697055,0.00012520175376697055,-0.0009913444519042969,9315.0,491.0,0.00023754597943715573,0.0005075252324789463,0.0029667019844055176,-0.0007736682891845703,7857,1851,,,,,,
85,4.822297108730064e-06,8.56435929963655e-05,8.56435929963655e-05,-0.0014448165893554688,9315.0,234.0,0.00024087298898964633,0.0005182842982620985,0.0027680397033691406,-0.0006084442138671875,7857,1815,,,,,,
86,-8.382565045446334e-07,3.096124555570776e-05,3.096124555570776e-05,-0.0011157989501953125,9315.0,30.0,0.00023684886427813661,0.0005181147598965009,0.0030920766294002533,-0.0005564689636230469,7857,1761,,,,,,
87,0.0,0.0,0.0,0.0,9315.0,0.0,0.00023204824531673,0.0005192236243080774,0.003440067172050476,-0.0008301734924316406,7857,1699,,,,,,
88,0.0,0.0,0.0,0.0,9315.0,0.0,0.00022304887738960964,0.0005110086212197252,0.0034699440002441406,-0.0007600784301757812,7857,1634,,,,,,
89,0.0,0.0,0.0,0.0,9315.0,0.0,0.00021424304272667043,0.000508338638525138,0.0035843849182128906,-0.0008674860000610352,7857,1555,,,,,,
90,0.0,0.0,0.0,0.0,9315.0,0.0,0.00020766122352231835,0.0005102323702706256,0.0034903287887573242,-0.0007260441780090332,7857,1491,,,,,,
91,0.0,0.0,0.0,0.0,9315.0,0.0,0.00020021287619710097,0.000508801448077751,0.0033875703811645508,-0.0007100105285644531,7857,1416,,,,,,
92,0.0,0.0,0.0,0.0,9315.0,0.0,0.0001912762646203037,0.0005038420263772938,0.003802061080932617,-0.0005844831466674805,7857,1337,,,,,,
93,0.0,0.0,0.0,0.0,9315.0,0.0,0.00018136941246897935,0.0004971706708066096,0.004045724868774414,-0.0005688667297363281,7857,1264,,,,,,
94,0.0,0.0,0.0,0.0,9315.0,0.0,0.00016787993739799672,0.00047067516534817833,0.003767251968383789,-0.000367581844329834,7857,1189,,,,,,
95,0.0,0.0,0.0,0.0,9315.0,0.0,0.00015241106200659783,0.0004347897871441867,0.0030019283294677734,-0.00029966235160827637,7857,1107,,,,,,
96,0.0,0.0,0.0,0.0,9315.0,0.0,0.000136585390567368,0.0004017912919238005,0.0029094815254211426,-0.000594019889831543,7857,1024,,,,,,
97,,,,,,,0.00012493495745184908,0.00038020735789987074,0.002615213394165039,-0.0005350112915039062,7857,942,,,,,,
98,,,,,,,0.00011419055840231266,0.00036366175816489614,0.00227510929107666,-0.0005280971527099609,7857,837,,,,,,
99,,,,,,,0.00010415328861497162,0.0003501096825505806,0.0020990967750549316,-0.00014841556549072266,7857,730,,,,,,
100,,,,,,,9.232499242939346e-05,0.00033790293315591696,0.0020545125007629395,-3.509223461151123e-05,7857,613,,,,,,
101,,,,,,,7.784320616427763e-05,0.000321213361266812,0.0021626949310302734,0.0,7857,479,,,,,,
102,,,,,,,5.334144071990545e-05,0.0002733570148261231,0.0025146007537841797,0.0,7857,319,,,,,,
103,,,,,,,3.323516394410544e-05,0.00021858626662015155,0.0026967525482177734,0.0,7857,198,,,,,,
104,,,,,,,1.130995289794176e-05,0.00012344679859100044,0.002082347869873047,0.0,7857,69,,,,,,
105,,,,,,,0.0,0.0,0.0,0.0,7857,0,,,,,,
106,,,,,,,0.0,0.0,0.0,0.0,7857,0,,,,,,
107,,,,,,,0.0,0.0,0.0,0.0,7857,0,,,,,,
108,,,,,,,0.0,0.0,0.0,0.0,7857,0,,,,,,
109,,,,,,,0.0,0.0,0.0,0.0,7857,0,,,,,,
110,,,,,,,0.0,0.0,0.0,0.0,7857,0,,,,,,
111,,,,,,,0.0,0.0,0.0,0.0,7857,0,,,,,,
112,,,,,,,0.0,0.0,0.0,0.0,7857,0,,,,,,
113,,,,,,,0.0,0.0,0.0,0.0,7857,0,,,,,,
114,,,,,,,0.0,0.0,0.0,0.0,7857,0,,,,,,
