,sag_mean,sag_std,sag_max,sag_min,sag_nb_elements,sag_non_zero_elements,hor_mean,hor_std,hor_max,hor_min,hor_nb_elements,hor_non_zero_elements,frt_mean,frt_std,frt_max,frt_min,frt_nb_elements,frt_non_zero_elements
0,0.0,0.0,0.0,0.0,9315.0,0.0,0.0,0.0,0.0,0.0,7857,0,1.2812086521697547e-06,4.896602249280937e-05,0.0023398399353027344,0.0,11155.0,8.0
1,0.0,0.0,0.0,0.0,9315.0,0.0,0.0,0.0,0.0,0.0,7857,0,4.333329809882191e-06,9.271938328164125e-05,0.0026679039001464844,0.0,11155.0,26.0
2,0.0,0.0,0.0,0.0,9315.0,0.0,0.0,0.0,0.0,0.0,7857,0,6.5691411789090895e-06,0.00011925048082796644,0.0029163360595703125,0.0,11155.0,36.0
3,0.0,0.0,0.0,0.0,9315.0,0.0,0.0,0.0,0.0,0.0,7857,0,9.030052421072682e-06,0.00013567534149376591,0.0027811527252197266,0.0,11155.0,52.0
4,0.0,0.0,0.0,0.0,9315.0,0.0,0.0,0.0,0.0,0.0,7857,0,9.267393780136685e-06,0.00012983095604984579,0.002682507038116455,0.0,11155.0,62.0
5,0.0,0.0,0.0,0.0,9315.0,0.0,0.0,0.0,0.0,0.0,7857,0,7.735543180105132e-06,0.00010761201215032305,0.002419382333755493,0.0,11155.0,72.0
6,0.0,0.0,0.0,0.0,9315.0,0.0,0.0,0.0,0.0,0.0,7857,0,7.155093964287808e-06,9.72914425218662e-05,0.0021427273750305176,-0.00015372782945632935,11155.0,93.0
7,0.0,0.0,0.0,0.0,9315.0,0.0,0.0,0.0,0.0,0.0,7857,0,8.829931946866237e-06,0.00010875738315886485,0.002307385206222534,-0.0005372464656829834,11155.0,191.0
8,0.0,0.0,0.0,0.0,9315.0,0.0,0.0,0.0,0.0,0.0,7857,0,1.1940860009578139e-05,0.0001518868390104365,0.0027565360069274902,-0.0015919208526611328,11155.0,416.0
9,0.0,0.0,0.0,0.0,9315.0,0.0,0.0,0.0,0.0,0.0,7857,0,5.052416169609338e-06,0.0001829395774228092,0.002583026885986328,-0.0019505023956298828,11155.0,584.0
10,-4.5207387583267285e-07,1.5334301115103154e-05,1.5334301115103154e-05,-0.0006913244724273682,9315.0,11.0,0.0,0.0,0.0,0.0,7857,0,-3.075218041052149e-06,0.00018614485789220504,0.0020335912704467773,-0.0017998218536376953,11155.0,714.0
11,-1.7420125558324482e-06,6.133795161959131e-05,6.133795161959131e-05,-0.0007565319538116455,9315.0,273.0,5.039016980394784e-07,1.2954817303815155e-05,0.0005404949188232422,-0.00010243058204650879,7857,21,-9.42172869269334e-06,0.00017320784705927711,0.0016541481018066406,-0.0015703439712524414,11155.0,833.0
12,-7.011903668851284e-07,8.37257434441201e-05,8.37257434441201e-05,-0.0008629560470581055,9315.0,545.0,4.3462383939789893e-07,2.8272217672822695e-05,0.0006557703018188477,-0.0004956722259521484,7857,103,-1.2758243042125744e-05,0.0001735034611598099,0.0014411211013793945,-0.0017104744911193848,11155.0,945.0
13,-6.843178999928685e-06,9.818387945431993e-05,9.818387945431993e-05,-0.001047670841217041,9315.0,769.0,-4.771083642678724e-06,6.689280984368028e-05,0.0006899833679199219,-0.0011307299137115479,7857,222,-1.4979925995140746e-05,0.00019381122776223093,0.0014767646789550781,-0.0020596981048583984,11155.0,1040.0
14,-1.2534695114566476e-05,0.00011146690015577046,0.00011146690015577046,-0.0010081827640533447,9315.0,947.0,-1.1923807911765443e-05,0.00010936480661374045,0.0008673667907714844,-0.0017429590225219727,7857,348,-1.469037061618121e-05,0.00019970381371023208,0.0016276836395263672,-0.0020149648189544678,11155.0,1094.0
15,-1.7888671524199832e-05,0.00013267437921996887,0.00013267437921996887,-0.0010228157043457031,9315.0,1115.0,-1.715745530814877e-05,0.00013045757330645068,0.0008714199066162109,-0.0014823675155639648,7857,491,-1.3115987096504478e-05,0.00019337295907148375,0.001199550461024046,-0.0018466338515281677,11155.0,1193.0
16,-2.3695286891075233e-05,0.00015166853210216527,0.00015166853210216527,-0.0012248754501342773,9315.0,1277.0,-1.8595158484838718e-05,0.00013547569713750097,0.0007631778717041016,-0.0012390613555908203,7857,617,-1.1482141192514885e-05,0.00019879633152496612,0.0013539791107177734,-0.002003908157348633,11155.0,1321.0
17,-2.7666270025014493e-05,0.00017695907210412359,0.00017695907210412359,-0.001451253890991211,9315.0,1459.0,-1.7789051560662517e-05,0.00013384684400462906,0.0007450580596923828,-0.001234099268913269,7857,757,-7.213637512886888e-06,0.00019116269638993344,0.0020258426666259766,-0.0018227994441986084,11155.0,1466.0
18,-3.101587664461942e-05,0.0001997880510204994,0.0001997880510204994,-0.0014725327491760254,9315.0,1621.0,-1.4263750605718528e-05,0.0001265708307264275,0.0007963180541992188,-0.0011993944644927979,7857,893,-3.3513352331041235e-07,0.0001850923270959447,0.002396225929260254,-0.0016546547412872314,11155.0,1592.0
19,-3.690844034537137e-05,0.00022104045084886696,0.00022104045084886696,-0.001621246337890625,9315.0,1787.0,-1.1585045459389732e-05,0.00013761755704514225,0.0009734630584716797,-0.001407478004693985,7857,1128,7.669221773052338e-07,0.0002062317495201353,0.0022619962692260742,-0.0014542341232299805,11155.0,1778.0
20,-4.3178359625218174e-05,0.0002410462554783251,0.0002410462554783251,-0.0020585060119628906,9315.0,1951.0,-1.0225078795355089e-05,0.00016964745790214823,0.0014077425003051758,-0.0016782283782958984,7857,1369,-4.688142423661186e-06,0.0002606595168480603,0.0022960901260375977,-0.0018665790557861328,11155.0,2087.0
21,-4.8617926935259884e-05,0.0002552158092840344,0.0002552158092840344,-0.00258636474609375,9315.0,2137.0,-9.929254794258857e-06,0.00021017925669273104,0.0016276836395263672,-0.002003908157348633,7857,1567,-9.538422802082046e-06,0.0002691684567999108,0.0021640658378601074,-0.0015327930450439453,11155.0,2319.0
22,-5.388160794073545e-05,0.0002715019835855301,0.0002715019835855301,-0.0030694007873535156,9315.0,2330.0,-1.181608374862706e-05,0.00024715487520274656,0.0014767646789550781,-0.00240480899810791,7857,1768,-1.934414033919213e-05,0.00025900780471705336,0.0016932189464569092,-0.0015454292297363281,11155.0,2583.0
23,-5.577865505032702e-05,0.0002862544328171839,0.0002862544328171839,-0.0033249855041503906,9315.0,2489.0,-1.3371377979663984e-05,0.0002719739466336795,0.0018169879913330078,-0.0021561384201049805,7857,1949,-3.0467354248773353e-05,0.0002731978927451109,0.001562952995300293,-0.0015935897827148438,11155.0,3095.0
24,-5.604981372164891e-05,0.0002994411208300825,0.0002994411208300825,-0.0033326148986816406,9315.0,2625.0,-1.4020892238577258e-05,0.00029275457574824525,0.0020809173583984375,-0.0017801523208618164,7857,2108,-3.884055858151507e-05,0.00031228716619288087,0.0016544163227081299,-0.0020945072174072266,11155.0,3617.0
25,-5.722497634252736e-05,0.0003137546123773109,0.0003137546123773109,-0.0030257701873779297,9315.0,2772.0,-1.2945915553439065e-05,0.0003083388897019292,0.0021239519119262695,-0.0017291936092078686,7857,2249,-4.2434709019920236e-05,0.00034962888854303114,0.0020636320114135742,-0.0019617080688476562,11155.0,4069.0
26,-6.295412417548202e-05,0.0003217298821123538,0.0003217298821123538,-0.002608180046081543,9315.0,2885.0,-1.2105014583230326e-05,0.00031904226291996137,0.002228856086730957,-0.0015181899070739746,7857,2399,-4.135299666965458e-05,0.0003746057474500301,0.002291947603225708,-0.002321004867553711,11155.0,4434.0
27,-6.828300040755151e-05,0.00033333769272561104,0.00033333769272561104,-0.002288222312927246,9315.0,2993.0,-1.2760413724080865e-05,0.0003257014458677271,0.0027774572372436523,-0.001592874526977539,7857,2521,-3.971317573084588e-05,0.00038662058973070216,0.002382516860961914,-0.0022889375686645508,11155.0,4819.0
28,-7.273518611960438e-05,0.00035296030956975257,0.00035296030956975257,-0.0021505355834960938,9315.0,3087.0,-1.4140614830870791e-05,0.00032900527281255564,0.0032938718795776367,-0.0022193193435668945,7857,2641,-3.2546943931701354e-05,0.00038412328370366955,0.002239704132080078,-0.0021375417709350586,11155.0,5023.0
29,-7.356805536921985e-05,0.0003715271394924571,0.0003715271394924571,-0.002224445343017578,9315.0,3172.0,-1.6647176371704606e-05,0.00031557961335784777,0.0031671524047851562,-0.0025482177734375,7857,2751,-3.271363503462979e-05,0.0003752197700697897,0.002625703811645508,-0.001931905746459961,11155.0,5144.0
30,-7.078173153445583e-05,0.00038431491661481895,0.00038431491661481895,-0.0022563934326171875,9315.0,3249.0,-2.311892823693214e-05,0.00029059665196180844,0.0021979808807373047,-0.002180337905883789,7857,2842,-4.424825246002924e-05,0.00037749431176965217,0.0026988983154296875,-0.0018498897552490234,11155.0,5244.0
31,-6.72719931214077e-05,0.000392865487967625,0.000392865487967625,-0.0021314620971679688,9315.0,3309.0,-3.411038397653614e-05,0.00028091160149887356,0.0016218572854995728,-0.0017299652099609375,7857,2937,-6.309718997797965e-05,0.000394502135445841,0.0022745132446289062,-0.0018606185913085938,11155.0,5346.0
32,-6.908550921141935e-05,0.00039367379622526723,0.00039367379622526723,-0.001971200108528137,9315.0,3368.0,-4.768527452175493e-05,0.0002850139023244902,0.001611948013305664,-0.001842498779296875,7857,3016,-8.748415353519753e-05,0.000413915088803799,0.003041386604309082,-0.0021314620971679688,11155.0,5427.0
33,-7.009570636440086e-05,0.00038726535521635316,0.00038726535521635316,-0.001962900161743164,9315.0,3405.0,-6.280121283502095e-05,0.0002982029794584006,0.0014775991439819336,-0.0016744136810302734,7857,3092,-0.0001081954598069798,0.0004255628755929734,0.0032938718795776367,-0.0020749568939208984,11155.0,5493.0
34,-7.129633736457241e-05,0.000382506021905337,0.000382506021905337,-0.0019843578338623047,9315.0,3453.0,-7.728328247817391e-05,0.00031996574758372503,0.0018355846405029297,-0.0017154216766357422,7857,3168,-0.00012199944194639206,0.0004297651129431945,0.003075242042541504,-0.002215743064880371,11155.0,5559.0
35,-7.471177226126317e-05,0.0003838409855179053,0.0003838409855179053,-0.002031087875366211,9315.0,3490.0,-8.914268037937966e-05,0.0003546003341105157,0.0027565360069274902,-0.0019505023956298828,7857,3254,-0.00012843617202256148,0.00043323732633768376,0.002802610397338867,-0.002084672451019287,11155.0,5571.0
36,-8.232009396567127e-05,0.0003877138409322771,0.0003877138409322771,-0.0019826889038085938,9315.0,3521.0,-9.780392424370055e-05,0.00037256982217869183,0.0024452805519104004,-0.0019371509552001953,7857,3308,-0.0001273283539267434,0.00043605306694401185,0.0025222301483154297,-0.002824988216161728,11155.0,5578.0
37,-8.823110557741739e-05,0.00038825595715827056,0.00038825595715827056,-0.002162933349609375,9315.0,3548.0,-0.00010493769195673764,0.0003965243344440072,0.002117335796356201,-0.0024704933166503906,7857,3381,-0.00012039079821673992,0.0004403904145596292,0.001973867416381836,-0.0033370256423950195,11155.0,5549.0
38,-8.870851519951017e-05,0.00038629017097527215,0.00038629017097527215,-0.0024704933166503906,9315.0,3574.0,-0.00011039496207377683,0.00041775699544038483,0.0024256110191345215,-0.0022499561309814453,7857,3428,-0.0001269346214791218,0.0004423934712980085,0.0015153884887695312,-0.0033881664276123047,11155.0,5507.0
39,-8.448708800087077e-05,0.0003817046242231097,0.0003817046242231097,-0.002526998519897461,9315.0,3589.0,-0.00011601981390979408,0.0004405000199719998,0.002428397536277771,-0.002615988254547119,7857,3486,-0.00015525392251380802,0.00044206409309418404,0.0014134645462036133,-0.0037848949432373047,11155.0,5456.0
40,-8.348175179839666e-05,0.00037732503214927524,0.00037732503214927524,-0.0023658275604248047,9315.0,3576.0,-0.00011662458115578565,0.0004591654388296102,0.002396881580352783,-0.0026418715715408325,7857,3513,-0.00018255331002476683,0.0004495628258663092,0.0012584924697875977,-0.004008889198303223,11155.0,5396.0
41,-8.261273696296761e-05,0.0003733826220881608,0.0003733826220881608,-0.0023374557495117188,9315.0,3591.0,-0.00011426792419302781,0.00047813362496056203,0.0027283430099487305,-0.002521991729736328,7857,3537,-0.00019426203630480568,0.00045279444006846476,0.0015625953674316406,-0.0036718249320983887,11155.0,5349.0
42,-7.679337401056019e-05,0.0003662905233579736,0.0003662905233579736,-0.0020797252655029297,9315.0,3604.0,-0.0001115293542454613,0.000495863686345321,0.0029163360595703125,-0.0024938583374023438,7857,3540,-0.00019339166555488137,0.00043965311572536514,0.0015277862548828125,-0.0030353665351867676,11155.0,5277.0
43,-7.365334337733195e-05,0.0003592989848010657,0.0003592989848010657,-0.0019387900829315186,9315.0,3619.0,-0.00011453334896724975,0.0005003220126770219,0.0028047561645507812,-0.0029495954513549805,7857,3519,-0.00018870857891467295,0.00042333987874028264,0.0018291473388671875,-0.0025644004344940186,11155.0,5180.0
44,-7.360824551575798e-05,0.0003575360921125258,0.0003575360921125258,-0.001878499984741211,9315.0,3612.0,-0.00013222268597820632,0.000479243325612494,0.0026988983154296875,-0.0027745962142944336,7857,3414,-0.00018698310104655022,0.0004159383643458141,0.0019414424896240234,-0.0028154850006103516,11155.0,5085.0
45,-7.486651653810832e-05,0.0003787403722829084,0.0003787403722829084,-0.0019960403442382812,9315.0,3588.0,-0.00015431582331462422,0.00047150497640703685,0.0027811527252197266,-0.0025076866149902344,7857,3298,-0.00018675350858169307,0.0004054111187795553,0.0018258094787597656,-0.0025624483823776245,11155.0,4976.0
46,-7.564200576288816e-05,0.00040689635292404954,0.00040689635292404954,-0.001981973648071289,9315.0,3524.0,-0.00017537016027904662,0.0004817564435308394,0.0025937519967556,-0.0026674270629882812,7857,3195,-0.00018992121111190824,0.00038787142644147173,0.0014150142669677734,-0.0019207000732421875,11155.0,4871.0
47,-7.718944956903256e-05,0.000425644667745156,0.000425644667745156,-0.001981496810913086,9315.0,3449.0,-0.00019001501004255582,0.000508841796688266,0.002382516860961914,-0.00316011905670166,7857,3088,-0.0001952486881336714,0.0003838856288511958,0.0012166202068328857,-0.0022089481353759766,11155.0,4757.0
48,-8.458239687491714e-05,0.00043592644979629364,0.00043592644979629364,-0.0020318031311035156,9315.0,3398.0,-0.00020623492345569079,0.0005287556618044048,0.0021772384643554688,-0.0033833980560302734,7857,3027,-0.00019781678441718032,0.00038696786798777757,0.0009490549564361572,-0.00252377986907959,11155.0,4634.0
49,-9.936793535218939e-05,0.00044250077736671486,0.00044250077736671486,-0.0022144317626953125,9315.0,3428.0,-0.0002195446561592588,0.0005219816088756155,0.0021628141403198242,-0.0028769969940185547,7857,2988,-0.0001991085737588409,0.0003946498885132477,0.0014171600341796875,-0.002314329147338867,11155.0,4496.0
50,-0.00011544961290323024,0.0004418039364104564,0.0004418039364104564,-0.0023276805877685547,9315.0,3505.0,-0.00022477199431208058,0.0004978067947285447,0.0018678903579711914,-0.0028154850006103516,7857,2971,-0.000201771174862008,0.00040293846537551426,0.0016453266143798828,-0.0023910105228424072,11155.0,4352.0
51,-0.00013066532599709235,0.0004274445846468146,0.0004274445846468146,-0.002285003662109375,9315.0,3574.0,-0.00022212008425901423,0.0004729752480620491,0.0013736486434936523,-0.002432584762573242,7857,2941,-0.00020665463414135026,0.00041200314482559,0.0010803937911987305,-0.0026928186416625977,11155.0,4198.0
52,-0.0001380196426277048,0.0004094114541694611,0.0004094114541694611,-0.0024148523807525635,9315.0,3600.0,-0.00022124334375702478,0.0004560221004538811,0.0012981891632080078,-0.0028429031372070312,7857,2920,-0.00020697395623453272,0.0004161112422898562,0.0011714696884155273,-0.0031179189682006836,11155.0,4031.0
53,-0.00013682802309748535,0.00040292343653219593,0.00040292343653219593,-0.0028154850006103516,9315.0,3604.0,-0.00021912511004203852,0.00044334584332218963,0.0012884140014648438,-0.0033249855041503906,7857,2904,-0.00020113900201605442,0.0004078219710359411,0.0010625123977661133,-0.0034197568893432617,11155.0,3862.0
54,-0.00012930296940398585,0.00040138426495463345,0.00040138426495463345,-0.002432584762573242,9315.0,3585.0,-0.00021507015646007058,0.00043121899447068183,0.0011407136917114258,-0.0033326148986816406,7857,2886,-0.0001887403826954796,0.000391568894094599,0.001416921615600586,-0.0037369728088378906,11155.0,3677.0
55,-0.0001218273399150403,0.00040215441505348144,0.00040215441505348144,-0.002244919538497925,9315.0,3576.0,-0.00020349312248843404,0.00041656153823472103,0.001317441463470459,-0.0029065608978271484,7857,2866,-0.0001718770399790279,0.00037405855933715166,0.0017251968383789062,-0.003164529800415039,11155.0,3465.0
56,-0.00011440710104848424,0.0004012160035910018,0.0004012160035910018,-0.0024337172508239746,9315.0,3568.0,-0.00018737999839225095,0.0004001443134543766,0.00158613920211792,-0.002269744873046875,7857,2852,-0.00015881668046995135,0.0003621330699552958,0.001906275749206543,-0.0021965503692626953,11155.0,3244.0
57,-0.00010829545254806598,0.0003983894548836376,0.0003983894548836376,-0.002566814422607422,9315.0,3573.0,-0.00017358175724181997,0.0003940248902786245,0.001414656639099121,-0.002253592014312744,7857,2856,-0.00014800826260155875,0.00035319423002017314,0.0018916130065917969,-0.002280712127685547,11155.0,3018.0
58,-0.00010989294593610866,0.00038723862039987344,0.00038723862039987344,-0.0028275251388549805,9315.0,3558.0,-0.00016786951803407526,0.000397004866889396,0.0012965202331542969,-0.0032743215560913086,7857,2860,-0.00013676203448882268,0.0003397169405708844,0.0014748573303222656,-0.0021839141845703125,11155.0,2773.0
59,-0.00012273152454561737,0.0003824965882915073,0.0003824965882915073,-0.0031179189682006836,9315.0,3536.0,-0.0001687844187177187,0.0003988589725063177,0.0011076927185058594,-0.0037369728088378906,7857,2853,-0.00012510868261310685,0.0003242594764442498,0.0012524127960205078,-0.0024704933166503906,11155.0,2508.0
60,-0.00014390454033831135,0.00038856308092296443,0.00038856308092296443,-0.0030096769332885742,9315.0,3521.0,-0.00017258083915749648,0.00040395386694026553,0.0012409687042236328,-0.0032858848571777344,7857,2838,-0.00011575505554785427,0.00031227618118638133,0.0007874965667724609,-0.00220489501953125,11155.0,2248.0
61,-0.00016465679348697443,0.0003985718386790196,0.0003985718386790196,-0.0026970356702804565,9315.0,3481.0,-0.00017634891312575543,0.0004122038205407455,0.0013151541352272034,-0.0025870800018310547,7857,2819,-0.00010646079346789989,0.000303859477701069,0.0011444091796875,-0.0017795562744140625,11155.0,2004.0
62,-0.00017624468289183725,0.0004122357071964638,0.0004122357071964638,-0.003045797348022461,9315.0,3428.0,-0.00017555325046229595,0.0004145635540572529,0.0014134645462036133,-0.0023512840270996094,7857,2813,-9.945165205217568e-05,0.0003049223328243521,0.0017333030700683594,-0.001947164535522461,11155.0,1746.0
63,-0.00017364165854154897,0.00041239740872575035,0.00041239740872575035,-0.0037369728088378906,9315.0,3366.0,-0.00016689281455338698,0.00040977391871728936,0.0013066530227661133,-0.0023658275604248047,7857,2804,-9.35593367505093e-05,0.00030737781416170985,0.0019953250885009766,-0.0023658275604248047,11155.0,1488.0
64,-0.00016341515995245388,0.0004026822860012854,0.0004026822860012854,-0.0032938718795776367,9315.0,3320.0,-0.00015140834878878834,0.0004050444982488613,0.0014836788177490234,-0.002056121826171875,7857,2782,-8.154174889859892e-05,0.00028993497554226323,0.0009181499481201172,-0.0023374557495117188,11155.0,1215.0
65,-0.0001560316340231961,0.00038669380939461537,0.00038669380939461537,-0.002870917320251465,9315.0,3270.0,-0.00014245348392627905,0.00040786410464555277,0.0016434192657470703,-0.0020911693572998047,7857,2769,-6.32928992298706e-05,0.00025988890324534294,0.0002872943878173828,-0.0026418715715408325,11155.0,943.0
66,-0.00015223160832500464,0.00037809015834854763,0.00037809015834854763,-0.0033833980560302734,9315.0,3210.0,-0.00014213759804773208,0.00040690604110458876,0.001906275749206543,-0.002058267593383789,7857,2731,-4.0458497931117946e-05,0.00019603365858365189,0.00017023086547851562,-0.0029495954513549805,11155.0,686.0
67,-0.00014601553005358316,0.0003678406382700752,0.0003678406382700752,-0.00335085391998291,9315.0,3138.0,-0.00014478285010229377,0.0004053376432417283,0.0018916130065917969,-0.002341032028198242,7857,2704,-2.0126825278263385e-05,0.0001289254087345583,0.0001671314239501953,-0.001604318618774414,11155.0,381.0
68,-0.0001415465744957128,0.00036343374688020604,0.00036343374688020604,-0.002989530563354492,9315.0,3065.0,-0.00014266157966448566,0.00041136883493871946,0.0015981793403625488,-0.004008889198303223,7857,2678,-5.76960137477107e-06,6.231651594550305e-05,0.0,-0.0012598037719726562,11155.0,109.0
69,-0.00013728202094037863,0.0003624055977965616,0.0003624055977965616,-0.002553105354309082,9315.0,2972.0,-0.00013585905989073894,0.000402635413049691,0.001592874526977539,-0.0037848949432373047,7857,2634,0.0,0.0,0.0,0.0,11155.0,0.0
70,-0.00013214175774222436,0.0003599851103181486,0.0003599851103181486,-0.002500772476196289,9315.0,2865.0,-0.00012878323071430602,0.0003857477110466205,0.001697540283203125,-0.0033370256423950195,7857,2609,0.0,0.0,0.0,0.0,11155.0,0.0
71,-0.00012738735690801412,0.0003483350681458069,0.0003483350681458069,-0.00252377986907959,9315.0,2752.0,-0.00012294246414988646,0.0003696297506547631,0.0015780925750732422,-0.0029675811529159546,7857,2564,0.0,0.0,0.0,0.0,11155.0,0.0
72,-0.0001261030544573866,0.0003345170380392277,0.0003345170380392277,-0.0022306442260742188,9315.0,2617.0,-0.0001141710825408784,0.0003550591178013398,0.001486063003540039,-0.0024567842483520508,7857,2504,0.0,0.0,0.0,0.0,11155.0,0.0
73,-0.00013041039672905157,0.0003253273501312521,0.0003253273501312521,-0.002215743064880371,9315.0,2483.0,-0.00010269429582146605,0.00033969526604280887,0.0015494823455810547,-0.0023033618927001953,7857,2433,0.0,0.0,0.0,0.0,11155.0,0.0
74,-0.0001355296475052625,0.0003219217240234839,0.0003219217240234839,-0.002200603485107422,9315.0,2321.0,-9.179604466458332e-05,0.0003263160678721323,0.00153350830078125,-0.002263784408569336,7857,2372,0.0,0.0,0.0,0.0,11155.0,0.0
75,-0.0001372393603840072,0.0003239957759187558,0.0003239957759187558,-0.002012968063354492,9315.0,2126.0,-7.96929500460833e-05,0.0003138113276260713,0.0019953250885009766,-0.001812577247619629,7857,2302,0.0,0.0,0.0,0.0,11155.0,0.0
76,-0.00013324652755482025,0.00032870023563775087,0.00032870023563775087,-0.0022193193435668945,9315.0,1927.0,-6.767268468273442e-05,0.00030444061737349657,0.0018503665924072266,-0.0017232894897460938,7857,2240,0.0,0.0,0.0,0.0,11155.0,0.0
77,-0.00012702631917647155,0.0003272016976109489,0.0003272016976109489,-0.0025482177734375,9315.0,1764.0,-5.867338954667581e-05,0.0002967749512462874,0.0017251968383789062,-0.0017886161804199219,7857,2180,0.0,0.0,0.0,0.0,11155.0,0.0
78,-0.00011730225687027697,0.0003168979220948557,0.0003168979220948557,-0.002180337905883789,9315.0,1588.0,-5.508344902156084e-05,0.0002822456027234237,0.001514434814453125,-0.0018389225006103516,7857,2103,0.0,0.0,0.0,0.0,11155.0,0.0
79,-0.00010872411347177806,0.00031069774923890613,0.00031069774923890613,-0.002286374568939209,9315.0,1407.0,-5.978637340687193e-05,0.0002697447309994168,0.0013041496276855469,-0.001971721649169922,7857,2013,0.0,0.0,0.0,0.0,11155.0,0.0
80,-0.0001029707160960809,0.00031174628230266704,0.00031174628230266704,-0.0028840303421020508,9315.0,1259.0,-6.788173891931457e-05,0.00026546117986848457,0.0012352466583251953,-0.0019893646240234375,7857,1953,0.0,0.0,0.0,0.0,11155.0,0.0
81,-9.357817419474696e-05,0.0003113130541115966,0.0003113130541115966,-0.0035004615783691406,9315.0,1098.0,-7.623067608171194e-05,0.00026730177062897714,0.0010938644409179688,-0.0018538236618041992,7857,1926,,,,,,
82,-8.560633839228527e-05,0.0003042556431889038,0.0003042556431889038,-0.004008889198303223,9315.0,945.0,-8.02816793224654e-05,0.0002698865302239157,0.001081705093383789,-0.001958131790161133,7857,1898,,,,,,
83,-7.054083033300381e-05,0.00026529869963505515,0.00026529869963505515,-0.0025483369827270508,9315.0,774.0,-7.785293595596059e-05,0.00026988889186885587,0.0010342597961425781,-0.0019038766622543335,7857,1856,,,,,,
84,-4.87007401679641e-05,0.0002132508086585332,0.0002132508086585332,-0.0020248889923095703,9315.0,587.0,-7.3007699683425e-05,0.0002627814704247162,0.0010972023010253906,-0.0016138404607772827,7857,1825,,,,,,
85,-1.7397408036218172e-05,0.00012135679483356228,0.00012135679483356228,-0.0018606185913085938,9315.0,276.0,-6.958138078918893e-05,0.0002491749562662863,0.0014505386352539062,-0.0016870498657226562,7857,1767,,,,,,
86,-1.7418207673698873e-06,4.2501210228831134e-05,4.2501210228831134e-05,-0.0015012621879577637,9315.0,26.0,-7.005767355722444e-05,0.00024783873089179604,0.0015950202941894531,-0.001795053482055664,7857,1718,,,,,,
87,0.0,0.0,0.0,0.0,9315.0,0.0,-7.257645901892819e-05,0.00024934288076350163,0.0016453266143798828,-0.0018821954727172852,7857,1663,,,,,,
88,0.0,0.0,0.0,0.0,9315.0,0.0,-7.3893662366076e-05,0.00024949082555707485,0.0015025138854980469,-0.001817464828491211,7857,1601,,,,,,
89,0.0,0.0,0.0,0.0,9315.0,0.0,-7.073750384224687e-05,0.00024034669659092248,0.0012438297271728516,-0.002178668975830078,7857,1532,,,,,,
90,0.0,0.0,0.0,0.0,9315.0,0.0,-6.378788497216337e-05,0.00022707634779716977,0.0015866756439208984,-0.0020728111267089844,7857,1460,,,,,,
91,0.0,0.0,0.0,0.0,9315.0,0.0,-5.796822986777825e-05,0.00021985623246117,0.0014133453369140625,-0.0017981529235839844,7857,1394,,,,,,
92,0.0,0.0,0.0,0.0,9315.0,0.0,-5.3748965366758084e-05,0.00021915636777998702,0.0014801025390625,-0.0016469955444335938,7857,1313,,,,,,
93,0.0,0.0,0.0,0.0,9315.0,0.0,-4.9991727682107655e-05,0.00022081481996634954,0.0017308592796325684,-0.0015411376953125,7857,1254,,,,,,
94,0.0,0.0,0.0,0.0,9315.0,0.0,-4.556117110923729e-05,0.00022038074489506826,0.0017088651657104492,-0.001665949821472168,7857,1201,,,,,,
95,0.0,0.0,0.0,0.0,9315.0,0.0,-3.928991333451475e-05,0.00021544903211497744,0.0016674995422363281,-0.0018783211708068848,7857,1131,,,,,,
96,0.0,0.0,0.0,0.0,9315.0,0.0,-2.905767898998545e-05,0.00019872877368178898,0.0019414424896240234,-0.0020945072174072266,7857,1044,,,,,,
97,,,,,,,-1.8847667807361104e-05,0.00017068247630726955,0.0018291473388671875,-0.0019057989120483398,7857,950,,,,,,
98,,,,,,,-9.028419432171856e-06,0.00014483054329373683,0.0016252994537353516,-0.0015358924865722656,7857,851,,,,,,
99,,,,,,,-2.3357116185679635e-06,0.00011890303407231712,0.001188516616821289,-0.0012063980102539062,7857,725,,,,,,
100,,,,,,,-6.935563184054461e-07,9.651411861707201e-05,0.0010030269622802734,-0.000888824462890625,7857,590,,,,,,
101,,,,,,,-7.480577137465846e-07,8.671041095962712e-05,0.0009604692459106445,-0.0008735060691833496,7857,460,,,,,,
102,,,,,,,-6.368590044221594e-07,8.964171438357865e-05,0.0011420249938964844,-0.0011692047119140625,7857,341,,,,,,
103,,,,,,,-3.77204015507746e-07,6.970715404756641e-05,0.0012631416320800781,-0.001466512680053711,7857,177,,,,,,
104,,,,,,,5.244859775787428e-07,3.223276552155703e-05,0.000690758228302002,-0.001226186752319336,7857,41,,,,,,
105,,,,,,,0.0,0.0,0.0,0.0,7857,0,,,,,,
106,,,,,,,0.0,0.0,0.0,0.0,7857,0,,,,,,
107,,,,,,,0.0,0.0,0.0,0.0,7857,0,,,,,,
108,,,,,,,0.0,0.0,0.0,0.0,7857,0,,,,,,
109,,,,,,,0.0,0.0,0.0,0.0,7857,0,,,,,,
110,,,,,,,0.0,0.0,0.0,0.0,7857,0,,,,,,
111,,,,,,,0.0,0.0,0.0,0.0,7857,0,,,,,,
112,,,,,,,0.0,0.0,0.0,0.0,7857,0,,,,,,
113,,,,,,,0.0,0.0,0.0,0.0,7857,0,,,,,,
114,,,,,,,0.0,0.0,0.0,0.0,7857,0,,,,,,
