,sag_mean,sag_std,sag_max,sag_min,sag_nb_elements,sag_non_zero_elements,hor_mean,hor_std,hor_max,hor_min,hor_nb_elements,hor_non_zero_elements,frt_mean,frt_std,frt_max,frt_min,frt_nb_elements,frt_non_zero_elements
0,0.0,0.0,0.0,0.0,9315.0,0.0,0.0,0.0,0.0,0.0,7857,0,1.2812086521697547e-06,4.896602249280937e-05,0.0023398399353027344,0.0,11155.0,8.0
1,0.0,0.0,0.0,0.0,9315.0,0.0,0.0,0.0,0.0,0.0,7857,0,4.333329809882191e-06,9.271938328164125e-05,0.0026679039001464844,0.0,11155.0,26.0
2,0.0,0.0,0.0,0.0,9315.0,0.0,0.0,0.0,0.0,0.0,7857,0,6.5691411789090895e-06,0.00011925048082796644,0.0029163360595703125,0.0,11155.0,36.0
3,0.0,0.0,0.0,0.0,9315.0,0.0,0.0,0.0,0.0,0.0,7857,0,9.030052421072682e-06,0.00013567534149376591,0.0027811527252197266,0.0,11155.0,52.0
4,0.0,0.0,0.0,0.0,9315.0,0.0,0.0,0.0,0.0,0.0,7857,0,9.267393780136685e-06,0.00012983095604984579,0.002682507038116455,0.0,11155.0,62.0
5,0.0,0.0,0.0,0.0,9315.0,0.0,0.0,0.0,0.0,0.0,7857,0,7.735543180105132e-06,0.00010761201215032305,0.002419382333755493,0.0,11155.0,72.0
6,0.0,0.0,0.0,0.0,9315.0,0.0,0.0,0.0,0.0,0.0,7857,0,7.155093964287808e-06,9.72914425218662e-05,0.0021427273750305176,-0.00015372782945632935,11155.0,93.0
7,0.0,0.0,0.0,0.0,9315.0,0.0,0.0,0.0,0.0,0.0,7857,0,8.829929275210264e-06,0.00010875738868461577,0.002307385206222534,-0.0005372464656829834,11155.0,191.0
8,0.0,0.0,0.0,0.0,9315.0,0.0,0.0,0.0,0.0,0.0,7857,0,1.1940865352890086e-05,0.00015188682544616279,0.0027565360069274902,-0.0015919208526611328,11155.0,416.0
9,0.0,0.0,0.0,0.0,9315.0,0.0,0.0,0.0,0.0,0.0,7857,0,5.052416169609338e-06,0.0001829395774228092,0.002583026885986328,-0.0019505023956298828,11155.0,584.0
10,-4.5207387583267285e-07,1.5334301115103154e-05,1.5334301115103154e-05,-0.0006913244724273682,9315.0,11.0,0.0,0.0,0.0,0.0,7857,0,-3.0752207127081233e-06,0.00018614486024148543,0.0020335912704467773,-0.0017998218536376953,11155.0,714.0
11,-1.7420125558324482e-06,6.133795161959131e-05,6.133795161959131e-05,-0.0007565319538116455,9315.0,273.0,5.039016980394784e-07,1.2954817303815155e-05,0.0005404949188232422,-0.00010243058204650879,7857,21,-9.421716002327466e-06,0.00017320781389472162,0.0016541481018066406,-0.0015703439712524414,11155.0,833.0
12,-7.011903668851284e-07,8.37257434441201e-05,8.37257434441201e-05,-0.0008629560470581055,9315.0,545.0,4.3462383939789893e-07,2.8272217672822695e-05,0.0006557703018188477,-0.0004956722259521484,7857,103,-1.2758232355501849e-05,0.00017350343970160025,0.0014411211013793945,-0.0017104744911193848,11155.0,945.0
13,-6.843178999928685e-06,9.818387945431993e-05,9.818387945431993e-05,-0.001047670841217041,9315.0,769.0,-4.771083642678724e-06,6.689280984368028e-05,0.0006899833679199219,-0.0011307299137115479,7857,222,-1.4979922989527776e-05,0.00019381121758837161,0.0014767646789550781,-0.0020596981048583984,11155.0,1040.0
14,-1.2534695114566476e-05,0.00011146690015577046,0.00011146690015577046,-0.0010081827640533447,9315.0,947.0,-1.1923807911765443e-05,0.00010936480661374045,0.0008673667907714844,-0.0017429590225219727,7857,348,-1.469037061618121e-05,0.00019970381371023208,0.0016276836395263672,-0.0020149648189544678,11155.0,1094.0
15,-1.7888668324809342e-05,0.00013267437871527775,0.00013267437871527775,-0.0010228157043457031,9315.0,1115.0,-1.715747048051603e-05,0.000130457674966511,0.0008714199066162109,-0.0014823675155639648,7857,491,-1.3115989768160452e-05,0.00019337295236586806,0.001199550461024046,-0.0018466338515281677,11155.0,1193.0
16,-2.3695288490770477e-05,0.00015166852793367273,0.00015166852793367273,-0.0012248754501342773,9315.0,1277.0,-1.8595158484838718e-05,0.00013547569713750097,0.0007631778717041016,-0.0012390613555908203,7857,617,-1.1482149207482806e-05,0.0001987963107495521,0.0013539791107177734,-0.002003908157348633,11155.0,1321.0
17,-2.7666283622424065e-05,0.00017695905664532498,0.00017695905664532498,-0.001451253890991211,9315.0,1459.0,-1.7789051560662517e-05,0.00013384684400462906,0.0007450580596923828,-0.001234099268913269,7857,757,-7.213634841230913e-06,0.0001911626882656795,0.0020258426666259766,-0.0018227994441986084,11155.0,1466.0
18,-3.10158830434004e-05,0.00019978804722947576,0.00019978804722947576,-0.0014725327491760254,9315.0,1621.0,-1.4263748709172621e-05,0.00012657082137204956,0.0007963180541992188,-0.0011993944644927979,7857,893,-3.351143207831007e-07,0.00018509240269243624,0.002396225929260254,-0.0016546547412872314,11155.0,1592.0
19,-3.690843954552375e-05,0.0002210404500838201,0.0002210404500838201,-0.001621246337890625,9315.0,1787.0,-1.1585045459389732e-05,0.00013761755704514225,0.0009734630584716797,-0.001407478004693985,7857,1128,7.669315281011421e-07,0.00020623175470200027,0.0022619962692260742,-0.0014542341232299805,11155.0,1778.0
20,-4.317836002514198e-05,0.00024104625599077168,0.00024104625599077168,-0.0020585060119628906,9315.0,1951.0,-1.0225078795355089e-05,0.00016964745790214823,0.0014077425003051758,-0.0016782283782958984,7857,1369,-4.688132404951284e-06,0.00026065951684666594,0.0022960901260375977,-0.0018665790557861328,11155.0,2087.0
21,-4.861789494135502e-05,0.00025521564777242943,0.00025521564777242943,-0.00258636474609375,9315.0,2137.0,-9.929254794258857e-06,0.0002101792869193726,0.0016276836395263672,-0.002003908157348633,7857,1567,-9.53845285821175e-06,0.00026916850948073524,0.0021640658378601074,-0.0015327930450439453,11155.0,2319.0
22,-5.388159244368778e-05,0.00027150198025681604,0.00027150198025681604,-0.0030694007873535156,9315.0,2330.0,-1.181606881332804e-05,0.00024715487066119177,0.0014767646789550781,-0.00240480899810791,7857,1768,-1.9344120468750826e-05,0.00025900778623035064,0.0016932189464569092,-0.0015454292297363281,11155.0,2583.0
23,-5.577864245272698e-05,0.0002862543748367084,0.0002862543748367084,-0.0033249855041503906,9315.0,2489.0,-1.337139504857715e-05,0.000271973969209359,0.0018169879913330078,-0.0021561384201049805,7857,1949,-3.0467349155929153e-05,0.00027319792534759,0.001562952995300293,-0.0015935897827148438,11155.0,3095.0
24,-5.604980372355364e-05,0.0002994410739522831,0.0002994410739522831,-0.0033326148986816406,9315.0,2625.0,-1.4020854307659111e-05,0.0002927545970670285,0.0020809173583984375,-0.0017801523208618164,7857,2108,-3.884056409180552e-05,0.0003122871830121097,0.0016544163227081299,-0.0020945072174072266,11155.0,3617.0
25,-5.722497634252736e-05,0.0003137546123773109,0.0003137546123773109,-0.0030257701873779297,9315.0,2772.0,-1.2945953484357211e-05,0.0003083388755526529,0.0021239519119262695,-0.0017291936092078686,7857,2249,-4.243470167286631e-05,0.0003496289062898979,0.0020636320114135742,-0.0019617080688476562,11155.0,4069.0
26,-6.295410177974862e-05,0.000321729880253031,0.000321729880253031,-0.002608180046081543,9315.0,2885.0,-1.2105022169413956e-05,0.0003190422427342445,0.002228856086730957,-0.0015181899070739746,7857,2399,-4.1352984647202694e-05,0.000374605735273543,0.002291947603225708,-0.002321004867553711,11155.0,4434.0
27,-6.828296521425614e-05,0.0003333376733690558,0.0003333376733690558,-0.002288222312927246,9315.0,2993.0,-1.2760390017257022e-05,0.0003257013978635425,0.0027774572372436523,-0.001592874526977539,7857,2521,-3.971321213215852e-05,0.0003866206292552095,0.002382516860961914,-0.0022889375686645508,11155.0,4819.0
28,-7.273518172044245e-05,0.00035296030714666344,0.00035296030714666344,-0.0021505355834960938,9315.0,3087.0,-1.414059254645638e-05,0.00032900524152873695,0.0032938718795776367,-0.0022193193435668945,7857,2641,-3.2546971316175084e-05,0.0003841233105107817,0.002239704132080078,-0.0021375417709350586,11155.0,5023.0
29,-7.356806736693419e-05,0.0003715271547920479,0.0003715271547920479,-0.002224445343017578,9315.0,3172.0,-1.6647170682066884e-05,0.0003155796131028058,0.0031671524047851562,-0.0025482177734375,7857,2751,-3.271364705708168e-05,0.00037521974832154626,0.002625703811645508,-0.001931905746459961,11155.0,5144.0
30,-7.078172273613198e-05,0.00038431492470864827,0.00038431492470864827,-0.0022563934326171875,9315.0,3249.0,-2.3118919702475555e-05,0.00029059660328101234,0.0021979808807373047,-0.002180337905883789,7857,2842,-4.4248238767792376e-05,0.0003774943062915679,0.0026988983154296875,-0.0018498897552490234,11155.0,5244.0
31,-6.727200231965535e-05,0.00039286549007546827,0.00039286549007546827,-0.0021314620971679688,9315.0,3309.0,-3.411033466634255e-05,0.0002809115736929042,0.0016218572854995728,-0.0017299652099609375,7857,2937,-6.309716342839841e-05,0.0003945021623187662,0.0022745132446289062,-0.0018606185913085938,11155.0,5346.0
32,-6.908552760791465e-05,0.00039367378721755816,0.00039367378721755816,-0.001971200108528137,9315.0,3368.0,-4.7685228056380206e-05,0.000285013843258227,0.001611948013305664,-0.001842498779296875,7857,3016,-8.748414026040692e-05,0.0004139150901761196,0.003041386604309082,-0.0021314620971679688,11155.0,5427.0
33,-7.009568396866746e-05,0.0003872653068335076,0.0003872653068335076,-0.001962900161743164,9315.0,3405.0,-6.280118438683235e-05,0.0002982029847553172,0.0014775991439819336,-0.0016744136810302734,7857,3092,-0.00010819549587433544,0.00042556283050589966,0.0032938718795776367,-0.0020749568939208984,11155.0,5493.0
34,-7.129636375954393e-05,0.0003825060202396313,0.0003825060202396313,-0.0019843578338623047,9315.0,3453.0,-7.728325213343938e-05,0.0003199657116921265,0.0018355846405029297,-0.0017154216766357422,7857,3168,-0.00012199942591645622,0.00042976511486249373,0.003075242042541504,-0.002215743064880371,11155.0,5559.0
35,-7.471177226126317e-05,0.0003838409855179053,0.0003838409855179053,-0.002031087875366211,9315.0,3490.0,-8.914265382773695e-05,0.00035460030278891986,0.0027565360069274902,-0.0019505023956298828,7857,3254,-0.00012843616801507752,0.000433237335224091,0.002802610397338867,-0.002084672451019287,11155.0,5571.0
36,-8.232009066629982e-05,0.00038771383698321026,0.00038771383698321026,-0.0019826889038085938,9315.0,3521.0,-9.780395506257155e-05,0.000372569783178268,0.0024452805519104004,-0.0019371509552001953,7857,3308,-0.00012732836194171131,0.0004360530929458415,0.0025222301483154297,-0.002824988216161728,11155.0,5578.0
37,-8.823111037650312e-05,0.00038825598717233563,0.00038825598717233563,-0.002162933349609375,9315.0,3548.0,-0.00010493772230147215,0.00039652431834556946,0.002117335796356201,-0.0024704933166503906,7857,3381,-0.000120390789867815,0.0004403903652048916,0.001973867416381836,-0.0033370256423950195,11155.0,5549.0
38,-8.870849600316725e-05,0.0003862901642420013,0.0003862901642420013,-0.0024704933166503906,9315.0,3574.0,-0.00011039492129803982,0.00041775693059446995,0.0024256110191345215,-0.0022499561309814453,7857,3428,-0.00012693461680372383,0.00044239341023250494,0.0015153884887695312,-0.0033881664276123047,11155.0,5507.0
39,-8.448709120026126e-05,0.00038170462805291725,0.00038170462805291725,-0.002526998519897461,9315.0,3589.0,-0.00011601979684088092,0.00044050000799439543,0.002428397536277771,-0.002615988254547119,7857,3486,-0.0001552539233487005,0.0004420640901116704,0.0014134645462036133,-0.0037848949432373047,11155.0,5456.0
40,-8.348173900083471e-05,0.00037732503384051445,0.00037732503384051445,-0.0023658275604248047,9315.0,3576.0,-0.00011662460012124472,0.00045916543770907416,0.002396881580352783,-0.0026418715715408325,7857,3513,-0.00018255329366087398,0.00044956283383660743,0.0012584924697875977,-0.004008889198303223,11155.0,5396.0
41,-8.261275156018671e-05,0.0003733825115461076,0.0003733825115461076,-0.0023374557495117188,9315.0,3591.0,-0.00011426793225334792,0.00047813356970862776,0.0027283430099487305,-0.002521991729736328,7857,3537,-0.0001942620252842248,0.0004527944374693369,0.0015625953674316406,-0.0036718249320983887,11155.0,5349.0
42,-7.679336601208397e-05,0.0003662905840376512,0.0003662905840376512,-0.0020797252655029297,9315.0,3604.0,-0.00011152930872835952,0.0004958637268136401,0.0029163360595703125,-0.0024938583374023438,7857,3540,-0.00019339163616666566,0.0004396530520630003,0.0015277862548828125,-0.0030353665351867676,11155.0,5277.0
43,-7.365335457519865e-05,0.00035929901107399864,0.00035929901107399864,-0.0019387900829315186,9315.0,3619.0,-0.00011453334138106611,0.0005003220253920883,0.0028047561645507812,-0.0029495954513549805,7857,3519,-0.00018870857958258694,0.0004233398907755186,0.0018291473388671875,-0.0025644004344940186,11155.0,5180.0
44,-7.360826231255803e-05,0.00035753606062422953,0.00035753606062422953,-0.001878499984741211,9315.0,3612.0,-0.00013222270209884655,0.0004792433443461553,0.0026988983154296875,-0.0027745962142944336,7857,3414,-0.00018698309703906626,0.0004159383618246419,0.0019414424896240234,-0.0028154850006103516,11155.0,5085.0
45,-7.486649814161301e-05,0.00037874036576617085,0.00037874036576617085,-0.0019960403442382812,9315.0,3588.0,-0.00015431582556677247,0.0004715049802012401,0.0027811527252197266,-0.0025076866149902344,7857,3298,-0.0001867534852047033,0.0004054110845728512,0.0018258094787597656,-0.0025624483823776245,11155.0,4976.0
46,-7.564198336715476e-05,0.0004068962921132969,0.0004068962921132969,-0.001981973648071289,9315.0,3524.0,-0.00017537018493414343,0.0004817564648353589,0.0025937519967556,-0.0026674270629882812,7857,3195,-0.00018992120176111233,0.00038787142817377733,0.0014150142669677734,-0.0019207000732421875,11155.0,4871.0
47,-7.718942717329916e-05,0.00042564462850962876,0.00042564462850962876,-0.001981496810913086,9315.0,3449.0,-0.00019001502711146897,0.0005088418173105923,0.002382516860961914,-0.00316011905670166,7857,3088,-0.00019524862267810005,0.00038388555616276123,0.0012166202068328857,-0.0022089481353759766,11155.0,4757.0
48,-8.45823582822694e-05,0.0004359264395152796,0.0004359264395152796,-0.0020318031311035156,9315.0,3398.0,-0.00020623489690404807,0.0005287556161458396,0.0021772384643554688,-0.0033833980560302734,7857,3027,-0.00019781679234865898,0.0003869678776036756,0.0009490549564361572,-0.00252377986907959,11155.0,4634.0
49,-9.936791295645597e-05,0.0004425007813303585,0.0004425007813303585,-0.0022144317626953125,9315.0,3428.0,-0.00021954468271090152,0.0005219815981068395,0.0021628141403198242,-0.0028769969940185547,7857,2988,-0.0001991085760965399,0.0003946498986881049,0.0014171600341796875,-0.002314329147338867,11155.0,4496.0
50,-0.000115449611303535,0.00044180392536346863,0.00044180392536346863,-0.0023276805877685547,9315.0,3505.0,-0.0002247719962086265,0.0004978067899895603,0.0018678903579711914,-0.0028154850006103516,7857,2971,-0.00020177121092936363,0.0004029384422067392,0.0016453266143798828,-0.0023910105228424072,11155.0,4352.0
51,-0.00013066532639701618,0.0004274446114851738,0.0004274446114851738,-0.002285003662109375,9315.0,3574.0,-0.00022212004253500427,0.000472975103632828,0.0013736486434936523,-0.002432584762573242,7857,2941,-0.0002066545790384458,0.0004120031321810916,0.0010803937911987305,-0.0026928186416625977,11155.0,4198.0
52,-0.0001380196618240477,0.00040941146561526795,0.00040941146561526795,-0.0024148523807525635,9315.0,3600.0,-0.00022124332099847388,0.00045602214121780903,0.0012981891632080078,-0.0028429031372070312,7857,2920,-0.00020697395289496275,0.0004161112241209439,0.0011714696884155273,-0.0031179189682006836,11155.0,4031.0
53,-0.00013682802629687584,0.0004029234299587831,0.0004029234299587831,-0.0028154850006103516,9315.0,3604.0,-0.0002191251062489467,0.00044334582651669253,0.0012884140014648438,-0.0033249855041503906,7857,2904,-0.0002011390046877104,0.00040782196484684006,0.0010625123977661133,-0.0034197568893432617,11155.0,3862.0
54,-0.00012930297300330014,0.00040138425229296003,0.00040138425229296003,-0.002432584762573242,9315.0,3585.0,-0.0002150701659428001,0.00043121900217381337,0.0011407136917114258,-0.0033326148986816406,7857,2886,-0.00018874039405001748,0.00039156890013770994,0.001416921615600586,-0.0037369728088378906,11155.0,3677.0
55,-0.00012182737270879278,0.00040215443232732124,0.00040215443232732124,-0.002244919538497925,9315.0,3576.0,-0.0002034931068419303,0.00041656150835520767,0.001317441463470459,-0.0029065608978271484,7857,2866,-0.00017187703196405997,0.0003740585388968173,0.0017251968383789062,-0.003164529800415039,11155.0,3465.0
56,-0.00011440708325187466,0.0004012159825729855,0.0004012159825729855,-0.0024337172508239746,9315.0,3568.0,-0.0001873800031336157,0.0004001443248041545,0.00158613920211792,-0.002269744873046875,7857,2852,-0.00015881666711167148,0.00036213304973412876,0.001906275749206543,-0.0021965503692626953,11155.0,3244.0
57,-0.00010829544474955166,0.00039838945165626927,0.00039838945165626927,-0.002566814422607422,9315.0,3573.0,-0.0001735817439659986,0.0003940248702749889,0.001414656639099121,-0.002253592014312744,7857,2856,-0.00014800823321334304,0.0003531941823042047,0.0018916130065917969,-0.002280712127685547,11155.0,3018.0
58,-0.00010989289314616561,0.0003872386637705062,0.0003872386637705062,-0.0028275251388549805,9315.0,3558.0,-0.00016786951281857402,0.0003970048533388855,0.0012965202331542969,-0.0032743215560913086,7857,2860,-0.00013676203448882268,0.0003397169405708844,0.0014748573303222656,-0.0021839141845703125,11155.0,2773.0
59,-0.00012273152454561737,0.0003824965882915073,0.0003824965882915073,-0.0031179189682006836,9315.0,3536.0,-0.00016878441492462689,0.00039885894898546116,0.0011076927185058594,-0.0037369728088378906,7857,2853,-0.0001251086879564188,0.0003242594849083438,0.0012524127960205078,-0.0024704933166503906,11155.0,2508.0
60,-0.0001439045355392256,0.0003885630709060033,0.0003885630709060033,-0.0030096769332885742,9315.0,3521.0,-0.00017258083560147292,0.00040395385939609257,0.0012409687042236328,-0.0032858848571777344,7857,2838,-0.00011575505020454232,0.0003122761794388545,0.0007874965667724609,-0.00220489501953125,11155.0,2248.0
61,-0.00016465681188346975,0.00039857185311113427,0.00039857185311113427,-0.0026970356702804565,9315.0,3481.0,-0.00017634888657411273,0.00041220375665685093,0.0013151541352272034,-0.0025870800018310547,7857,2819,-0.0001064607720946521,0.0003038594070236045,0.0011444091796875,-0.0017795562744140625,11155.0,2004.0
62,-0.000176244687690923,0.00041223571705803946,0.00041223571705803946,-0.003045797348022461,9315.0,3428.0,-0.00017555325235884186,0.0004145635573450215,0.0014134645462036133,-0.0023512840270996094,7857,2813,-9.945165071634769e-05,0.0003049223275458015,0.0017333030700683594,-0.001947164535522461,11155.0,1746.0
63,-0.00017364165294261562,0.00041239739379164117,0.00041239739379164117,-0.0037369728088378906,9315.0,3366.0,-0.00016689285248430513,0.00040977390634322383,0.0013066530227661133,-0.0023658275604248047,7857,2804,-9.355933808633729e-05,0.00030737781720587644,0.0019953250885009766,-0.0023658275604248047,11155.0,1488.0
64,-0.000163415157552911,0.0004026823013121609,0.0004026823013121609,-0.0032938718795776367,9315.0,3320.0,-0.0001514083696507933,0.00040504451151712577,0.0014836788177490234,-0.002056121826171875,7857,2782,-8.154174906557743e-05,0.00028993497599807776,0.0009181499481201172,-0.0023374557495117188,11155.0,1215.0
65,-0.00015603162392511987,0.00038669379199164964,0.00038669379199164964,-0.002870917320251465,9315.0,3270.0,-0.00014245351000378528,0.00040786412599998515,0.0016434192657470703,-0.0020911693572998047,7857,2769,-6.32928992298706e-05,0.00025988890324534294,0.0002872943878173828,-0.0026418715715408325,11155.0,943.0
66,-0.00015223161892298563,0.00037809017125808376,0.00037809017125808376,-0.0033833980560302734,9315.0,3210.0,-0.00014213757801546592,0.00040690600422275356,0.001906275749206543,-0.002058267593383789,7857,2731,-4.045852464767768e-05,0.00019603369682076637,0.00017023086547851562,-0.0029495954513549805,11155.0,686.0
67,-0.0001460155052583069,0.0003678405746121299,0.0003678405746121299,-0.00335085391998291,9315.0,3138.0,-0.00014478284441265605,0.00040533763199977817,0.0018916130065917969,-0.002341032028198242,7857,2704,-2.0126825278263385e-05,0.0001289254087345583,0.0001671314239501953,-0.001604318618774414,11155.0,381.0
68,-0.00014154653930241744,0.0003634337294597642,0.0003634337294597642,-0.002989530563354492,9315.0,3065.0,-0.00014266159104376112,0.0004113688584662148,0.0015981793403625488,-0.004008889198303223,7857,2678,-5.76960137477107e-06,6.231651594550305e-05,0.0,-0.0012598037719726562,11155.0,109.0
69,-0.00013728203373794057,0.00036240563713497493,0.00036240563713497493,-0.002553105354309082,9315.0,2972.0,-0.0001358590184037972,0.00040263541265521467,0.001592874526977539,-0.0037848949432373047,7857,2634,0.0,0.0,0.0,0.0,11155.0,0.0
70,-0.00013214176494085294,0.00035998511572822806,0.00035998511572822806,-0.002500772476196289,9315.0,2865.0,-0.00012878325916249465,0.0003857477336962263,0.001697540283203125,-0.0033370256423950195,7857,2609,0.0,0.0,0.0,0.0,11155.0,0.0
71,-0.00012738735850770935,0.0003483350689668338,0.0003483350689668338,-0.00252377986907959,9315.0,2752.0,-0.0001229424546671569,0.0003696297258499834,0.0015780925750732422,-0.0029675811529159546,7857,2564,0.0,0.0,0.0,0.0,11155.0,0.0
72,-0.0001261030468588342,0.0003345170295117219,0.0003345170295117219,-0.0022306442260742188,9315.0,2617.0,-0.0001141710825408784,0.00035505909906174076,0.001486063003540039,-0.0024567842483520508,7857,2504,0.0,0.0,0.0,0.0,11155.0,0.0
73,-0.00013041040072828968,0.00032532737670380653,0.00032532737670380653,-0.002215743064880371,9315.0,2483.0,-0.00010269428823528242,0.0003396952647578542,0.0015494823455810547,-0.0023033618927001953,7857,2433,0.0,0.0,0.0,0.0,11155.0,0.0
74,-0.0001355296475052625,0.0003219217240234839,0.0003219217240234839,-0.002200603485107422,9315.0,2321.0,-9.179604656112923e-05,0.00032631606603689194,0.00153350830078125,-0.002263784408569336,7857,2372,0.0,0.0,0.0,0.0,11155.0,0.0
75,-0.00013723936478316913,0.0003239957798321938,0.0003239957798321938,-0.002012968063354492,9315.0,2126.0,-7.96929500460833e-05,0.0003138113276260713,0.0019953250885009766,-0.001812577247619629,7857,2302,0.0,0.0,0.0,0.0,11155.0,0.0
76,-0.00013324652115603928,0.00032870023026548135,0.00032870023026548135,-0.0022193193435668945,9315.0,1927.0,-6.767269226891805e-05,0.0003044405978322122,0.0018503665924072266,-0.0017232894897460938,7857,2240,0.0,0.0,0.0,0.0,11155.0,0.0
77,-0.00012702632557525252,0.00032720171366270673,0.00032720171366270673,-0.0025482177734375,9315.0,1764.0,-5.8673374255774435e-05,0.00029677506335244107,0.0017251968383789062,-0.0017886161804199219,7857,2180,0.0,0.0,0.0,0.0,11155.0,0.0
78,-0.00011730223447454356,0.0003168978729893782,0.0003168978729893782,-0.002180337905883789,9315.0,1588.0,-5.508343859055835e-05,0.0002822455783103012,0.001514434814453125,-0.0018389225006103516,7857,2103,0.0,0.0,0.0,0.0,11155.0,0.0
79,-0.00010872413226819717,0.00031069776617450993,0.00031069776617450993,-0.002286374568939209,9315.0,1407.0,-5.9786346381092754e-05,0.0002697447262827144,0.0013041496276855469,-0.001971721649169922,7857,2013,0.0,0.0,0.0,0.0,11155.0,0.0
80,-0.00010297071289669041,0.00031174627817901016,0.00031174627817901016,-0.0028840303421020508,9315.0,1259.0,-6.788173133313093e-05,0.0002654611684515919,0.0012352466583251953,-0.0019893646240234375,7857,1953,0.0,0.0,0.0,0.0,11155.0,0.0
81,-9.357817419474696e-05,0.0003113130541115966,0.0003113130541115966,-0.0035004615783691406,9315.0,1098.0,-7.623066849552832e-05,0.00026730178087414124,0.0010938644409179688,-0.0018538236618041992,7857,1926,,,,,,
82,-8.560632559472332e-05,0.00030425560626768256,0.00030425560626768256,-0.004008889198303223,9315.0,945.0,-8.028166983973586e-05,0.00026988652050688477,0.001081705093383789,-0.001958131790161133,7857,1898,,,,,,
83,-7.054083033300381e-05,0.00026529869963505515,0.00026529869963505515,-0.0025483369827270508,9315.0,774.0,-7.785296630069511e-05,0.00026988888806130367,0.0010342597961425781,-0.0019038766622543335,7857,1856,,,,,,
84,-4.870072417101166e-05,0.00021325072426372593,0.00021325072426372593,-0.0020248889923095703,9315.0,587.0,-7.3007699683425e-05,0.0002627814704247162,0.0010972023010253906,-0.0016138404607772827,7857,1825,,,,,,
85,-1.7397408036218172e-05,0.00012135679483356228,0.00012135679483356228,-0.0018606185913085938,9315.0,276.0,-6.958138055212068e-05,0.0002491749474653363,0.0014505386352539062,-0.0016870498657226562,7857,1767,,,,,,
86,-1.7418207673698873e-06,4.2501210228831134e-05,4.2501210228831134e-05,-0.0015012621879577637,9315.0,26.0,-7.005766312622195e-05,0.00024783875437274234,0.0015950202941894531,-0.001795053482055664,7857,1718,,,,,,
87,0.0,0.0,0.0,0.0,9315.0,0.0,-7.257646565683887e-05,0.00024934288359949294,0.0016453266143798828,-0.0018821954727172852,7857,1663,,,,,,
88,0.0,0.0,0.0,0.0,9315.0,0.0,-7.3893662366076e-05,0.00024949082555707485,0.0015025138854980469,-0.001817464828491211,7857,1601,,,,,,
89,0.0,0.0,0.0,0.0,9315.0,0.0,-7.073750573879276e-05,0.00024034669618654047,0.0012438297271728516,-0.002178668975830078,7857,1532,,,,,,
90,0.0,0.0,0.0,0.0,9315.0,0.0,-6.378788497216337e-05,0.00022707634779716977,0.0015866756439208984,-0.0020728111267089844,7857,1460,,,,,,
91,0.0,0.0,0.0,0.0,9315.0,0.0,-5.796822986777825e-05,0.00021985623246117,0.0014133453369140625,-0.0017981529235839844,7857,1394,,,,,,
92,0.0,0.0,0.0,0.0,9315.0,0.0,-5.3748965366758084e-05,0.00021915636777998702,0.0014801025390625,-0.0016469955444335938,7857,1313,,,,,,
93,0.0,0.0,0.0,0.0,9315.0,0.0,-4.999173147519947e-05,0.0002208148299511679,0.0017308592796325684,-0.0015411376953125,7857,1254,,,,,,
94,0.0,0.0,0.0,0.0,9315.0,0.0,-4.5561170635100816e-05,0.0002203807439853282,0.0017088651657104492,-0.001665949821472168,7857,1201,,,,,,
95,0.0,0.0,0.0,0.0,9315.0,0.0,-3.928991333451475e-05,0.00021544903211497744,0.0016674995422363281,-0.0018783211708068848,7857,1131,,,,,,
96,0.0,0.0,0.0,0.0,9315.0,0.0,-2.9057686576169076e-05,0.00019872877729498292,0.0019414424896240234,-0.0020945072174072266,7857,1044,,,,,,
97,,,,,,,-1.8847660458245715e-05,0.00017068248947076998,0.0018291473388671875,-0.0019057989120483398,7857,950,,,,,,
98,,,,,,,-9.028419432171856e-06,0.00014483054329373683,0.0016252994537353516,-0.0015358924865722656,7857,851,,,,,,
99,,,,,,,-2.335713515113871e-06,0.00011890303786133455,0.001188516616821289,-0.0012063980102539062,7857,725,,,,,,
100,,,,,,,-6.935563184054461e-07,9.651411861707201e-05,0.0010030269622802734,-0.000888824462890625,7857,590,,,,,,
101,,,,,,,-7.480349551956966e-07,8.671044267120677e-05,0.0009604692459106445,-0.0008735060691833496,7857,460,,,,,,
102,,,,,,,-6.368590044221594e-07,8.964171438357865e-05,0.0011420249938964844,-0.0011692047119140625,7857,341,,,,,,
103,,,,,,,-3.771888431404874e-07,6.970714731859526e-05,0.0012631416320800781,-0.001466512680053711,7857,177,,,,,,
104,,,,,,,5.244859775787428e-07,3.223276552155703e-05,0.000690758228302002,-0.001226186752319336,7857,41,,,,,,
105,,,,,,,0.0,0.0,0.0,0.0,7857,0,,,,,,
106,,,,,,,0.0,0.0,0.0,0.0,7857,0,,,,,,
107,,,,,,,0.0,0.0,0.0,0.0,7857,0,,,,,,
108,,,,,,,0.0,0.0,0.0,0.0,7857,0,,,,,,
109,,,,,,,0.0,0.0,0.0,0.0,7857,0,,,,,,
110,,,,,,,0.0,0.0,0.0,0.0,7857,0,,,,,,
111,,,,,,,0.0,0.0,0.0,0.0,7857,0,,,,,,
112,,,,,,,0.0,0.0,0.0,0.0,7857,0,,,,,,
113,,,,,,,0.0,0.0,0.0,0.0,7857,0,,,,,,
114,,,,,,,0.0,0.0,0.0,0.0,7857,0,,,,,,
