,sag_mean,sag_std,sag_max,sag_min,sag_nb_elements,sag_non_zero_elements,hor_mean,hor_std,hor_max,hor_min,hor_nb_elements,hor_non_zero_elements,frt_mean,frt_std,frt_max,frt_min,frt_nb_elements,frt_non_zero_elements
0,0.0,0.0,0.0,0.0,9315.0,0.0,0.0,0.0,0.0,0.0,7857,0,0.0,0.0,0.0,0.0,11155.0,0.0
1,0.0,0.0,0.0,0.0,9315.0,0.0,0.0,0.0,0.0,0.0,7857,0,0.0,0.0,0.0,0.0,11155.0,0.0
2,0.0,0.0,0.0,0.0,9315.0,0.0,0.0,0.0,0.0,0.0,7857,0,0.0,0.0,0.0,0.0,11155.0,0.0
3,0.0,0.0,0.0,0.0,9315.0,0.0,0.0,0.0,0.0,0.0,7857,0,0.0,0.0,0.0,0.0,11155.0,0.0
4,0.0,0.0,0.0,0.0,9315.0,0.0,0.0,0.0,0.0,0.0,7857,0,0.0,0.0,0.0,0.0,11155.0,0.0
5,0.0,0.0,0.0,0.0,9315.0,0.0,0.0,0.0,0.0,0.0,7857,0,0.0,0.0,0.0,0.0,11155.0,0.0
6,0.0,0.0,0.0,0.0,9315.0,0.0,0.0,0.0,0.0,0.0,7857,0,0.0,0.0,0.0,0.0,11155.0,0.0
7,0.0,0.0,0.0,0.0,9315.0,0.0,0.0,0.0,0.0,0.0,7857,0,2.3403706330453692e-07,1.663416069993303e-05,0.0013418197631835938,-0.00012135505676269531,11155.0,4.0
8,0.0,0.0,0.0,0.0,9315.0,0.0,0.0,0.0,0.0,0.0,7857,0,1.0360681866381213e-06,3.5925259493334236e-05,0.0015559196472167969,0.0,11155.0,11.0
9,0.0,0.0,0.0,0.0,9315.0,0.0,0.0,0.0,0.0,0.0,7857,0,1.3558760933254076e-06,4.346746189315912e-05,0.0016205310821533203,0.0,11155.0,11.0
10,0.0,0.0,0.0,0.0,9315.0,0.0,0.0,0.0,0.0,0.0,7857,0,1.5755503341148168e-06,4.4574691007839555e-05,0.001988649368286133,-0.0003790855407714844,11155.0,28.0
11,0.0,0.0,0.0,0.0,9315.0,0.0,-4.6515443541400684e-07,2.434386640611675e-05,0.0,-0.0014846324920654297,7857,3,1.6557641330720703e-06,3.345014767334771e-05,0.0011262893676757812,-0.0004305839538574219,11155.0,42.0
12,0.0,0.0,0.0,0.0,9315.0,0.0,-3.399004747474013e-06,5.940874132600338e-05,0.0,-0.0018644332885742188,7857,34,1.9539423129955036e-06,3.9618848330910055e-05,0.00127410888671875,-0.000408172607421875,11155.0,48.0
13,0.0,0.0,0.0,0.0,9315.0,0.0,-5.266996259617717e-06,6.316315219603524e-05,0.0,-0.0012636184692382812,7857,67,2.077094966763608e-06,4.219686443182658e-05,0.0012907981872558594,-0.0002760887145996094,11155.0,48.0
14,0.0,0.0,0.0,0.0,9315.0,0.0,-4.982878510333266e-06,5.965930098651797e-05,0.0002269744873046875,-0.0012328624725341797,7857,105,2.1111639237414557e-06,3.890458328534235e-05,0.0010652542114257812,-0.00014829635620117188,11155.0,58.0
15,2.252370902945518e-09,2.1737421422706344e-07,2.1737421422706344e-07,0.0,9315.0,1.0,-2.107047330670128e-06,4.994413015729369e-05,0.0004725456237792969,-0.0008828639984130859,7857,127,2.3714045888369846e-06,4.0806793296495614e-05,0.0010666847229003906,-0.00022363662719726562,11155.0,56.0
16,-1.4786303075359384e-07,1.2786829463366328e-05,1.2786829463366328e-05,-0.0009472370147705078,9315.0,6.0,1.6238984676874275e-06,4.2208539152677934e-05,0.0008387565612792969,-0.0005233287811279297,7857,114,1.6951764019975102e-06,3.471970915134905e-05,0.0010771751403808594,-0.00016188621520996094,11155.0,40.0
17,-9.764795717985733e-07,3.128313922966365e-05,3.128313922966365e-05,-0.0012903213500976562,9315.0,24.0,3.569815258071276e-06,4.5391994226918174e-05,0.0009753704071044922,-0.00010228157043457031,7857,89,5.903291039699826e-07,1.9012120171134125e-05,0.0008454322814941406,0.0,11155.0,13.0
18,-1.2960346936539686e-06,4.3738481210157876e-05,4.3738481210157876e-05,-0.0014345645904541016,9315.0,59.0,2.724684057033015e-06,3.995302273917361e-05,0.0011315345764160156,-2.47955322265625e-05,7857,50,1.5910245655150437e-07,8.533659049524013e-06,0.0005764961242675781,0.0,11155.0,4.0
19,-9.4730113055587e-07,5.1463003468858005e-05,5.1463003468858005e-05,-0.0017666816711425781,9315.0,70.0,9.676935837531919e-08,6.310450240044004e-06,0.000530242919921875,0.0,7857,3,-4.1079382253088584e-08,1.5563820666728845e-05,0.0007576942443847656,-0.0005772113800048828,11155.0,16.0
20,4.797550023273954e-07,5.3933147880867654e-05,5.3933147880867654e-05,-0.0011942386627197266,9315.0,73.0,0.0,0.0,0.0,0.0,7857,0,1.5623844134759496e-07,2.4681205149036728e-05,0.0011599063873291016,-0.0007612705230712891,11155.0,13.0
21,2.190302727495031e-06,5.230327829361486e-05,5.230327829361486e-05,-0.0007040500640869141,9315.0,80.0,0.0,0.0,0.0,0.0,7857,0,3.440024231859837e-07,4.3673533200596265e-05,0.0015864372253417969,-0.0013098716735839844,11155.0,25.0
22,4.681143399789905e-06,6.398487508874049e-05,6.398487508874049e-05,-0.0006184577941894531,9315.0,132.0,1.3734026842480233e-07,8.627253714959392e-06,0.0005764961242675781,0.0,7857,2,1.6940008733690399e-06,4.970902756438484e-05,0.001959085464477539,-0.0005772113800048828,11155.0,31.0
23,6.926603619283204e-06,7.987765092084489e-05,7.987765092084489e-05,-0.0006527900695800781,9315.0,152.0,3.8980845960782384e-07,1.4048434297499056e-05,0.0007576942443847656,0.0,7857,7,-8.870966495392516e-07,5.336693766022842e-05,0.0016641616821289062,-0.0017666816711425781,11155.0,43.0
24,1.0489112129149997e-05,9.852720135047885e-05,9.852720135047885e-05,-0.000408172607421875,9315.0,181.0,8.726235305108353e-07,2.5388402498759706e-05,0.0011599063873291016,-0.00016188621520996094,7857,14,-7.510986738491358e-07,0.00010090933434405526,0.0026013851165771484,-0.0013039112091064453,11155.0,118.0
25,1.1662392608593435e-05,0.00010208959038893066,0.00010208959038893066,-0.0004305839538574219,9315.0,187.0,3.2800230434321107e-06,6.297846390486707e-05,0.0018534660339355469,-0.0009107589721679688,7857,57,-5.890680823503509e-07,0.0001545225347915404,0.002350330352783203,-0.0021457672119140625,11155.0,227.0
26,1.2902476361408326e-05,0.00011259577691644797,0.00011259577691644797,-0.0003216266632080078,9315.0,183.0,5.890277106600802e-06,7.75613564987537e-05,0.001959085464477539,-0.0007190704345703125,7857,104,3.02683660557643e-06,0.00016243188483029315,0.0028743743896484375,-0.003315448760986328,11155.0,303.0
27,1.190956472006781e-05,0.00011079774696483682,0.00011079774696483682,-0.00012421607971191406,9315.0,165.0,8.591110202303305e-06,9.084632107161983e-05,0.0017104148864746094,-0.0004730224609375,7857,154,1.2133592770592293e-05,0.00013490931118932567,0.002233743667602539,-0.001356363296508789,11155.0,336.0
28,1.1703344806828809e-05,0.00010863506734709537,0.00010863506734709537,-0.00015020370483398438,9315.0,162.0,1.434993391897564e-05,0.00011817198908335667,0.0018551349639892578,-0.0007078647613525391,7857,232,1.1829814799747783e-05,0.00012430649090361303,0.0019919872283935547,-0.0011363029479980469,11155.0,286.0
29,1.2205265186451099e-05,0.00010880809947374412,0.00010880809947374412,-0.0004925727844238281,9315.0,172.0,1.785308179531265e-05,0.00013471340162970381,0.0016450881958007812,-0.0013098716735839844,7857,282,9.562412434658733e-06,0.00010949759304227636,0.0017731189727783203,-0.0018644332885742188,11155.0,234.0
30,1.0012582112433638e-05,9.625185286639351e-05,9.625185286639351e-05,-0.0006456375122070312,9315.0,157.0,2.1483495488214752e-05,0.0001551163858505803,0.0027239322662353516,-0.0011174678802490234,7857,304,7.907567351241648e-06,9.662181408167425e-05,0.0018672943115234375,-0.0014581680297851562,11155.0,202.0
31,8.195353910862856e-06,8.65812223843059e-05,8.65812223843059e-05,-0.0007772445678710938,9315.0,148.0,2.6087884124915107e-05,0.00017264538463384756,0.002313375473022461,-0.0012941360473632812,7857,326,5.4486820591986846e-06,9.371870388158358e-05,0.0014493465423583984,-0.0013077259063720703,11155.0,227.0
32,8.495968641034391e-06,9.618465159010299e-05,9.618465159010299e-05,-0.0010442733764648438,9315.0,146.0,2.510265128461098e-05,0.00015946002651796528,0.0017795562744140625,-0.0010886192321777344,7857,292,1.8989275731830948e-06,8.705160469138009e-05,0.001262664794921875,-0.0014846324920654297,11155.0,213.0
33,6.131593475915128e-06,8.58106925521994e-05,8.58106925521994e-05,-0.0013110637664794922,9315.0,132.0,2.5174962786965445e-05,0.00015250698658006093,0.0018422603607177734,-0.0007612705230712891,7857,285,2.824389202506058e-06,8.234393831981508e-05,0.0026237964630126953,-0.001077890396118164,11155.0,164.0
34,7.235229623234534e-07,4.7370586497124306e-05,4.7370586497124306e-05,-0.0012891292572021484,9315.0,81.0,2.3047523794699764e-05,0.00013833861763606998,0.0015802383422851562,-0.0007417201995849609,7857,295,5.419165604000185e-06,8.392294694418318e-05,0.0023403167724609375,-0.0009577274322509766,11155.0,100.0
35,2.494500775012161e-07,3.8964300392058804e-05,3.8964300392058804e-05,-0.0010671615600585938,9315.0,46.0,1.9157419863799547e-05,0.00011828379492373418,0.0013079643249511719,-0.00040078163146972656,7857,288,5.796574413482516e-06,7.264163425865066e-05,0.0019555091857910156,0.0,11155.0,88.0
36,1.61748385467775e-06,6.144997096186695e-05,6.144997096186695e-05,-0.0014157295227050781,9315.0,62.0,1.678376369566139e-05,0.00011153922506705259,0.001516580581665039,-0.0005974769592285156,7857,278,6.009387841731216e-06,7.104360821699862e-05,0.0015079975128173828,0.0,11155.0,98.0
37,3.383009905976374e-06,8.461549527885291e-05,8.461549527885291e-05,-0.0018644332885742188,9315.0,79.0,1.7702238120027698e-05,0.00012530766494097518,0.0018744468688964844,-0.0011348724365234375,7857,284,7.15629769141019e-06,8.442379639625015e-05,0.0015783309936523438,0.0,11155.0,107.0
38,1.5394699170393645e-06,6.468281159893636e-05,6.468281159893636e-05,-0.0015382766723632812,9315.0,68.0,1.9400906013565482e-05,0.00014782166435407264,0.00231170654296875,-0.0013110637664794922,7857,294,6.619893291615307e-06,8.027359757202415e-05,0.001760244369506836,-0.00010800361633300781,11155.0,105.0
39,6.283602916740053e-07,4.985373522371011e-05,4.985373522371011e-05,-0.0013077259063720703,9315.0,58.0,1.810196930782264e-05,0.00015482383497675249,0.0025877952575683594,-0.0011453628540039062,7857,290,7.40097863211433e-06,8.232194845445544e-05,0.0016942024230957031,0.0,11155.0,119.0
40,2.2070675336476364e-07,3.2160156367875405e-05,3.2160156367875405e-05,-0.0008623600006103516,9315.0,43.0,1.4064966517124707e-05,0.0001474957181247169,0.0024385452270507812,-0.0010676383972167969,7857,269,7.5471930202482425e-06,8.482016443559339e-05,0.001434326171875,-0.00014972686767578125,11155.0,132.0
41,6.447667660920516e-07,4.047705472820356e-05,4.047705472820356e-05,-0.000926971435546875,9315.0,39.0,1.1805345861302147e-05,0.00014120453060095697,0.0021829605102539062,-0.0018405914306640625,7857,243,1.1495494457810836e-05,0.00011180089007032474,0.0018641948699951172,-0.0003418922424316406,11155.0,175.0
42,3.8671672696140716e-07,5.064592885884388e-05,5.064592885884388e-05,-0.0012481212615966797,9315.0,68.0,1.2623955764372384e-05,0.00013865148552732025,0.00199127197265625,-0.0016751289367675781,7857,231,1.5943673414694575e-05,0.0001406077861166018,0.0025365352630615234,-0.0011246204376220703,11155.0,249.0
43,4.6419316699795355e-07,5.894433441570361e-05,5.894433441570361e-05,-0.0013098716735839844,9315.0,116.0,1.3021168339202403e-05,0.00013291767846724165,0.0017380714416503906,-0.0011830329895019531,7857,220,1.9122067720352506e-05,0.00016689540629993358,0.0028159618377685547,-0.0010638236999511719,11155.0,321.0
44,3.914902175682179e-06,7.442352798477145e-05,7.442352798477145e-05,-0.0009839534759521484,9315.0,143.0,1.20402141064652e-05,0.00012623426014646378,0.0016617774963378906,-0.0013146400451660156,7857,199,2.0929902511453052e-05,0.00018073533436344756,0.002350330352783203,-0.0012583732604980469,11155.0,367.0
45,8.787983409576498e-06,0.00010729831990860037,0.00010729831990860037,-0.0011858940124511719,9315.0,145.0,1.055866278839791e-05,0.00011740484483393454,0.0015940666198730469,-0.0017070770263671875,7857,186,1.9213523847647495e-05,0.00018280044140484957,0.0021140575408935547,-0.0016269683837890625,11155.0,376.0
46,1.2476496714388754e-05,0.00013853926020484026,0.00013853926020484026,-0.0012001991271972656,9315.0,171.0,8.276526339563596e-06,0.00012166390945163906,0.0017731189727783203,-0.0018634796142578125,7857,188,1.4038633092643434e-05,0.00016110269588000446,0.0020532608032226562,-0.0016736984252929688,11155.0,331.0
47,1.4340461612195656e-05,0.00015465678106369468,0.00015465678106369468,-0.0011224746704101562,9315.0,203.0,3.978649866221378e-06,0.00012846099117056224,0.0018343925476074219,-0.0021457672119140625,7857,193,1.0610684745785154e-05,0.0001400300745737951,0.0017430782318115234,-0.0018405914306640625,11155.0,361.0
48,1.475996569286926e-05,0.00016148742436342844,0.00016148742436342844,-0.0011610984802246094,9315.0,224.0,7.032392224358803e-07,0.00012206024071574773,0.0015459060668945312,-0.0020132064819335938,7857,178,1.7052966348262497e-05,0.00015387866383274307,0.0020787715911865234,-0.0014448165893554688,11155.0,469.0
49,1.484394329437567e-05,0.00016393062965432866,0.00016393062965432866,-0.0013813972473144531,9315.0,247.0,1.8164358081989986e-07,0.0001113202388986689,0.0012507438659667969,-0.002245187759399414,7857,157,2.3481162980445987e-05,0.00016088582340057945,0.0019974708557128906,-0.0012035369873046875,11155.0,546.0
50,1.452116318690924e-05,0.00015497335490677198,0.00015497335490677198,-0.0016736984252929688,9315.0,253.0,-6.254353231338048e-07,0.00010470639859271375,0.0013360977172851562,-0.0026078224182128906,7857,146,2.4165726733923707e-05,0.0001591290207836298,0.001867532730102539,-0.0012941360473632812,11155.0,551.0
51,1.4629251395126728e-05,0.0001315179234517136,0.0001315179234517136,-0.001590728759765625,9315.0,247.0,-1.229690021574611e-06,9.684886633267421e-05,0.0017323493957519531,-0.0031061172485351562,7857,120,2.9165869814993716e-05,0.00016749711360790717,0.001913309097290039,-0.0009768009185791016,11155.0,630.0
52,1.565300516076326e-05,0.00011557110286475423,0.00011557110286475423,-0.0008995532989501953,9315.0,236.0,-1.39600951146333e-06,9.920083891795824e-05,0.0018832683563232422,-0.003315448760986328,7857,94,3.344968849636951e-05,0.0001695707789940424,0.0017366409301757812,-0.0006766319274902344,11155.0,707.0
53,1.6293599921660084e-05,0.00012362695689592282,0.00012362695689592282,-0.0004894733428955078,9315.0,241.0,-1.0342699312839069e-06,9.858336401380971e-05,0.0019822120666503906,-0.002407073974609375,7857,84,3.845132770478485e-05,0.000188011320693008,0.0019259452819824219,-0.00075531005859375,11155.0,779.0
54,1.3476011897694726e-05,0.00011492216319284382,0.00011492216319284382,-0.0007307529449462891,9315.0,191.0,-6.158160422918556e-07,8.182834047759034e-05,0.0019073486328125,-0.001990795135498047,7857,67,4.252040936561082e-05,0.00020119359870324086,0.0019822120666503906,-0.000682830810546875,11155.0,766.0
55,1.14945397860762e-05,0.00010848064292162144,0.00010848064292162144,-0.001077890396118164,9315.0,147.0,-2.3805444228735623e-06,5.345241575331852e-05,0.0007910728454589844,-0.0016434192657470703,7857,40,4.762688435443791e-05,0.0002117963016482473,0.002103090286254883,-0.00037479400634765625,11155.0,690.0
56,8.737407444755812e-06,9.844843172077534e-05,9.844843172077534e-05,-0.0007712841033935547,9315.0,101.0,-2.903080751259575e-07,3.5848913368027065e-05,0.0012252330780029297,-0.0011243820190429688,7857,26,4.968756466689851e-05,0.00023359477866896657,0.002631664276123047,-0.00023293495178222656,11155.0,596.0
57,7.378178390199883e-06,9.911911193944053e-05,9.911911193944053e-05,-0.0009377002716064453,9315.0,109.0,3.760926396060539e-07,2.383541016647767e-05,0.0016641616821289062,-0.0001609325408935547,7857,11,4.74657941858419e-05,0.00024421198027005906,0.0027239322662353516,0.0,11155.0,512.0
58,7.988852451260986e-06,0.00011053177757956933,0.00011053177757956933,-0.0011408329010009766,9315.0,137.0,3.6007061978097755e-07,1.1289465344810845e-05,0.0005259513854980469,-6.198883056640625e-05,7857,13,3.59218465752903e-05,0.00021511696780061792,0.0025877952575683594,0.0,11155.0,375.0
59,1.0421873738672294e-05,0.00012989363543172404,0.00012989363543172404,-0.0012328624725341797,9315.0,157.0,1.9446423115341265e-06,4.27182966517037e-05,0.0012748241424560547,-0.0004525184631347656,7857,22,1.7803445197925714e-05,0.00014351181688191777,0.0022706985473632812,-5.745887756347656e-05,11155.0,203.0
60,1.5706396589212627e-05,0.0001534688493835067,0.0001534688493835067,-0.0012636184692382812,9315.0,200.0,4.638040947279919e-06,8.224652154671452e-05,0.0021245479583740234,0.0,7857,29,7.6158225189031156e-06,9.044718937022859e-05,0.0016932487487792969,0.0,11155.0,93.0
61,1.9103509408456308e-05,0.00016307658677357754,0.00016307658677357754,-0.0012362003326416016,9315.0,225.0,5.08835680751502e-06,9.456307528085349e-05,0.0024504661560058594,-0.0007307529449462891,7857,30,3.7927469401442914e-06,6.605901623909888e-05,0.001711130142211914,0.0,11155.0,41.0
62,2.334364882349904e-05,0.00017299660177010756,0.00017299660177010756,-0.001146554946899414,9315.0,275.0,5.698346660779575e-06,0.00010596888812980169,0.0027780532836914062,-0.001077890396118164,7857,34,1.2438589016560854e-06,3.25561097044245e-05,0.0013704299926757812,0.0,11155.0,19.0
63,2.4893459170592835e-05,0.0001718320964024766,0.0001718320964024766,-0.0009546279907226562,9315.0,317.0,4.101667419954066e-06,8.761949894889418e-05,0.0028159618377685547,-0.0008041858673095703,7857,32,5.217850983062704e-07,1.7645194720074196e-05,0.000982522964477539,0.0,11155.0,12.0
64,2.3743470253895766e-05,0.00016002274793246066,0.00016002274793246066,-0.0009510517120361328,9315.0,366.0,2.387220264467344e-06,5.5010491774078935e-05,0.0018393993377685547,0.0,7857,19,0.0,0.0,0.0,0.0,11155.0,0.0
65,2.1616720219037256e-05,0.0001510892797849249,0.0001510892797849249,-0.0014286041259765625,9315.0,396.0,1.6713272877377955e-06,4.6952201672208596e-05,0.0015342235565185547,-0.0006792545318603516,7857,16,0.0,0.0,0.0,0.0,11155.0,0.0
66,1.835224133182839e-05,0.00014500026771878234,0.00014500026771878234,-0.0018405914306640625,9315.0,399.0,2.031276528580704e-06,5.040379803353541e-05,0.0013990402221679688,-0.0006327629089355469,7857,20,0.0,0.0,0.0,0.0,11155.0,0.0
67,1.827471370154405e-05,0.000146855040402701,0.000146855040402701,-0.0016794204711914062,9315.0,404.0,4.996048125113727e-06,7.096738525606155e-05,0.001344442367553711,-0.0004563331604003906,7857,47,0.0,0.0,0.0,0.0,11155.0,0.0
68,2.4084806826187602e-05,0.00015983930584330535,0.00015983930584330535,-0.00113677978515625,9315.0,447.0,6.890257487880284e-06,7.648963892401414e-05,0.001645803451538086,-0.00028896331787109375,7857,94,0.0,0.0,0.0,0.0,11155.0,0.0
69,3.1928611710323674e-05,0.00018814748669771352,0.00018814748669771352,-0.0008873939514160156,9315.0,464.0,8.634685241069991e-06,8.012651366688162e-05,0.001711130142211914,-0.00015354156494140625,7857,136,0.0,0.0,0.0,0.0,11155.0,0.0
70,3.8088436607897316e-05,0.00021168880870562655,0.00021168880870562655,-0.0010142326354980469,9315.0,477.0,1.0189701161403396e-05,8.834277819831897e-05,0.0017249584197998047,-0.00047469139099121094,7857,164,0.0,0.0,0.0,0.0,11155.0,0.0
71,3.8437758858845044e-05,0.0002144811647012375,0.0002144811647012375,-0.0011608600616455078,9315.0,460.0,1.2279239580257106e-05,0.0001022671339935655,0.0013484954833984375,-0.0010333061218261719,7857,184,0.0,0.0,0.0,0.0,11155.0,0.0
72,3.8334943246150365e-05,0.00021344361019789754,0.00021344361019789754,-0.0012941360473632812,9315.0,437.0,1.8297844569131104e-05,0.00013152681247612425,0.001760244369506836,-0.0011246204376220703,7857,226,0.0,0.0,0.0,0.0,11155.0,0.0
73,3.374875775601873e-05,0.00019514858335926394,0.00019514858335926394,-0.0011570453643798828,9315.0,381.0,2.525613495179893e-05,0.0001580223689869967,0.001773834228515625,-0.0009262561798095703,7857,272,0.0,0.0,0.0,0.0,11155.0,0.0
74,2.895612199653302e-05,0.00017179404675102974,0.00017179404675102974,-0.0012035369873046875,9315.0,331.0,2.942981042676229e-05,0.00017449538543522452,0.0019292831420898438,-0.0004124641418457031,7857,271,0.0,0.0,0.0,0.0,11155.0,0.0
75,2.292173880117911e-05,0.00016846511836490161,0.00016846511836490161,-0.003315448760986328,9315.0,289.0,3.152138194282865e-05,0.0001821863002509815,0.0018477439880371094,-0.0005469322204589844,7857,290,0.0,0.0,0.0,0.0,11155.0,0.0
76,1.7505452252816464e-05,0.00016402115662542116,0.00016402115662542116,-0.002475738525390625,9315.0,267.0,3.2474752811889725e-05,0.00018702605143427602,0.0020041465759277344,-0.0004971027374267578,7857,312,0.0,0.0,0.0,0.0,11155.0,0.0
77,1.1437820991520209e-05,0.0001403155958294803,0.0001403155958294803,-0.0018634796142578125,9315.0,208.0,3.2288466486688694e-05,0.00019261356287312382,0.0021774768829345703,-0.00075531005859375,7857,316,0.0,0.0,0.0,0.0,11155.0,0.0
78,9.193819694089045e-06,0.0001254465854267661,0.0001254465854267661,-0.0015137195587158203,9315.0,166.0,2.991917996032101e-05,0.00018699560106990183,0.0023012161254882812,-0.000682830810546875,7857,301,0.0,0.0,0.0,0.0,11155.0,0.0
79,5.348843396893766e-06,0.00011270663458369543,0.00011270663458369543,-0.0014448165893554688,9315.0,129.0,3.013174482561393e-05,0.00018765409095779478,0.0022954940795898438,-0.0004620552062988281,7857,282,0.0,0.0,0.0,0.0,11155.0,0.0
80,1.5612001772280093e-06,8.999633301541243e-05,8.999633301541243e-05,-0.0015325546264648438,9315.0,101.0,2.8563498601031028e-05,0.0001864521503937836,0.002422809600830078,-0.0003218650817871094,7857,248,0.0,0.0,0.0,0.0,11155.0,0.0
81,-1.5002837823528918e-06,6.32856542572039e-05,6.32856542572039e-05,-0.00145721435546875,9315.0,73.0,2.7914181971832192e-05,0.00019117526682823057,0.002631664276123047,-0.0004165172576904297,7857,221,,,,,,
82,-1.8971105832536567e-06,4.289205323920219e-05,4.289205323920219e-05,-0.001308441162109375,9315.0,44.0,2.6280330431223127e-05,0.00018613175084944953,0.002284526824951172,-0.0005230903625488281,7857,223,,,,,,
83,-6.040193288478554e-07,1.8458573674243843e-05,1.8458573674243843e-05,-0.0009250640869140625,9315.0,19.0,2.390139427927898e-05,0.00017048103947962082,0.0020418167114257812,-0.0007023811340332031,7857,227,,,,,,
84,-5.195810151112956e-09,5.830761610976358e-07,5.830761610976358e-07,-5.5789947509765625e-05,9315.0,2.0,2.175978429599377e-05,0.00016645857579827202,0.0021140575408935547,-0.0007736682891845703,7857,209,,,,,,
85,0.0,0.0,0.0,0.0,9315.0,0.0,1.977566348485278e-05,0.00015683905442521258,0.002019643783569336,-0.0006084442138671875,7857,192,,,,,,
86,0.0,0.0,0.0,0.0,9315.0,0.0,1.8967643894129042e-05,0.00015449756903107562,0.002521991729736328,-0.000469207763671875,7857,180,,,,,,
87,0.0,0.0,0.0,0.0,9315.0,0.0,1.6529110683593127e-05,0.00014869856822600795,0.0026013851165771484,-0.0006184577941894531,7857,143,,,,,,
88,0.0,0.0,0.0,0.0,9315.0,0.0,1.3745345428455145e-05,0.00012965219772962386,0.002046823501586914,-0.0004775524139404297,7857,118,,,,,,
89,0.0,0.0,0.0,0.0,9315.0,0.0,1.1474922047144466e-05,0.00011437313793442913,0.002212047576904297,-0.00029850006103515625,7857,103,,,,,,
90,0.0,0.0,0.0,0.0,9315.0,0.0,1.0165486063258678e-05,0.00010465417638970759,0.0019707679748535156,0.0,7857,104,,,,,,
91,0.0,0.0,0.0,0.0,9315.0,0.0,1.0148280598787432e-05,0.00010974486706314536,0.0025634765625,0.0,7857,102,,,,,,
92,0.0,0.0,0.0,0.0,9315.0,0.0,1.2070710564654975e-05,0.00012300296938292,0.0028743743896484375,-0.00011444091796875,7857,113,,,,,,
93,0.0,0.0,0.0,0.0,9315.0,0.0,1.2001069398938023e-05,0.00011927201028184969,0.0023937225341796875,-0.00010204315185546875,7857,107,,,,,,
94,0.0,0.0,0.0,0.0,9315.0,0.0,9.286702551640853e-06,0.00010204467341738799,0.0021080970764160156,0.0,7857,80,,,,,,
95,0.0,0.0,0.0,0.0,9315.0,0.0,5.631375831700136e-06,7.765931358168599e-05,0.002233743667602539,0.0,7857,52,,,,,,
96,0.0,0.0,0.0,0.0,9315.0,0.0,2.5629466220563916e-06,4.714687704052184e-05,0.0019919872283935547,0.0,7857,29,,,,,,
97,,,,,,,1.5707648375478275e-06,3.284732870128687e-05,0.0010645389556884766,0.0,7857,21,,,,,,
98,,,,,,,1.7199698971688512e-06,3.353408212933039e-05,0.0011425018310546875,0.0,7857,24,,,,,,
99,,,,,,,2.6764359291506826e-06,4.653704691161419e-05,0.0013303756713867188,0.0,7857,28,,,,,,
100,,,,,,,3.419457098538599e-06,5.854969039768073e-05,0.0016050338745117188,0.0,7857,29,,,,,,
101,,,,,,,1.7362650196045823e-06,5.025407518791204e-05,0.0018672943115234375,0.0,7857,10,,,,,,
102,,,,,,,1.0459223093385078e-06,4.6508873645095296e-05,0.0023076534271240234,0.0,7857,4,,,,,,
103,,,,,,,2.308384644191684e-06,6.946015668637637e-05,0.0026237964630126953,0.0,7857,9,,,,,,
104,,,,,,,1.689898265262316e-07,1.497825767248441e-05,0.0013277530670166016,0.0,7857,1,,,,,,
105,,,,,,,0.0,0.0,0.0,0.0,7857,0,,,,,,
106,,,,,,,0.0,0.0,0.0,0.0,7857,0,,,,,,
107,,,,,,,0.0,0.0,0.0,0.0,7857,0,,,,,,
108,,,,,,,0.0,0.0,0.0,0.0,7857,0,,,,,,
109,,,,,,,0.0,0.0,0.0,0.0,7857,0,,,,,,
110,,,,,,,0.0,0.0,0.0,0.0,7857,0,,,,,,
111,,,,,,,0.0,0.0,0.0,0.0,7857,0,,,,,,
112,,,,,,,0.0,0.0,0.0,0.0,7857,0,,,,,,
113,,,,,,,0.0,0.0,0.0,0.0,7857,0,,,,,,
114,,,,,,,0.0,0.0,0.0,0.0,7857,0,,,,,,
