,sag_mean,sag_std,sag_max,sag_min,sag_nb_elements,sag_non_zero_elements,hor_mean,hor_std,hor_max,hor_min,hor_nb_elements,hor_non_zero_elements,frt_mean,frt_std,frt_max,frt_min,frt_nb_elements,frt_non_zero_elements
0,0.0,0.0,0.0,0.0,9315.0,0.0,0.0,0.0,0.0,0.0,7857,0,0.0,0.0,0.0,0.0,11155.0,0.0
1,0.0,0.0,0.0,0.0,9315.0,0.0,0.0,0.0,0.0,0.0,7857,0,0.0,0.0,0.0,0.0,11155.0,0.0
2,0.0,0.0,0.0,0.0,9315.0,0.0,0.0,0.0,0.0,0.0,7857,0,0.0,0.0,0.0,0.0,11155.0,0.0
3,0.0,0.0,0.0,0.0,9315.0,0.0,0.0,0.0,0.0,0.0,7857,0,0.0,0.0,0.0,0.0,11155.0,0.0
4,0.0,0.0,0.0,0.0,9315.0,0.0,0.0,0.0,0.0,0.0,7857,0,0.0,0.0,0.0,0.0,11155.0,0.0
5,0.0,0.0,0.0,0.0,9315.0,0.0,0.0,0.0,0.0,0.0,7857,0,0.0,0.0,0.0,0.0,11155.0,0.0
6,0.0,0.0,0.0,0.0,9315.0,0.0,0.0,0.0,0.0,0.0,7857,0,0.0,0.0,0.0,0.0,11155.0,0.0
7,0.0,0.0,0.0,0.0,9315.0,0.0,0.0,0.0,0.0,0.0,7857,0,0.0,0.0,0.0,0.0,11155.0,0.0
8,0.0,0.0,0.0,0.0,9315.0,0.0,0.0,0.0,0.0,0.0,7857,0,-4.5565626964286964e-07,1.6117875950833987e-05,6.914138793945312e-05,-0.0007765293121337891,11155.0,13.0
9,0.0,0.0,0.0,0.0,9315.0,0.0,0.0,0.0,0.0,0.0,7857,0,-2.1196277298664415e-06,3.9785150338865956e-05,0.0,-0.0011639595031738281,11155.0,43.0
10,0.0,0.0,0.0,0.0,9315.0,0.0,0.0,0.0,0.0,0.0,7857,0,-1.882299186402188e-06,4.8576523204379375e-05,0.0005497932434082031,-0.0012578964233398438,11155.0,36.0
11,0.0,0.0,0.0,0.0,9315.0,0.0,0.0,0.0,0.0,0.0,7857,0,-5.367036252639476e-07,3.290202625408879e-05,0.0007460117340087891,-0.0011837482452392578,11155.0,30.0
12,0.0,0.0,0.0,0.0,9315.0,0.0,1.0441623147365109e-07,5.684704978975413e-06,0.00025582313537597656,-0.0001823902130126953,7857,6,-4.096396671502059e-07,2.2247024705937605e-05,0.00043964385986328125,-0.0012273788452148438,11155.0,17.0
13,0.0,0.0,0.0,0.0,9315.0,0.0,3.173452335807739e-07,1.0535408436307894e-05,0.0003027915954589844,-0.00031566619873046875,7857,21,-4.964577996746834e-07,2.744428678926828e-05,0.0006887912750244141,-0.0013823509216308594,11155.0,12.0
14,2.3982631091590345e-07,1.6839408310101163e-05,1.6839408310101163e-05,-0.0004622936248779297,9315.0,20.0,-3.098197394205108e-07,3.231977489200596e-05,0.000347137451171875,-0.001440286636352539,7857,40,2.9411726284326324e-07,1.8612937931163503e-05,0.0008680820465087891,-0.0007877349853515625,11155.0,11.0
15,-3.680578816404153e-07,4.162046913228536e-05,4.162046913228536e-05,-0.0012555122375488281,9315.0,63.0,-7.594983602307506e-07,4.2734159021962415e-05,0.0004591941833496094,-0.0011570453643798828,7857,64,6.160624943095865e-07,2.31442987451093e-05,0.0010302066802978516,0.0,11155.0,8.0
16,-1.5460734590048184e-06,5.733559993205532e-05,5.733559993205532e-05,-0.0015811920166015625,9315.0,100.0,1.3036704843275205e-06,4.645095059703242e-05,0.0010986328125,-0.0008189678192138672,7857,83,4.236605177006878e-07,2.005332388512584e-05,0.0010342597961425781,0.0,11155.0,5.0
17,-2.4411349416866907e-06,7.548755500773906e-05,7.548755500773906e-05,-0.0015912055969238281,9315.0,148.0,4.5686425394391044e-06,6.243713577387565e-05,0.0014109611511230469,-0.0004930496215820312,7857,113,0.0,0.0,0.0,0.0,11155.0,0.0
18,-3.2683437509173293e-06,9.022602508977856e-05,9.022602508977856e-05,-0.0011935234069824219,9315.0,213.0,6.507944177698206e-06,8.441933093750161e-05,0.0013518333435058594,-0.0016050338745117188,7857,186,0.0,0.0,0.0,0.0,11155.0,0.0
19,-4.20156756332979e-06,9.211082884448516e-05,9.211082884448516e-05,-0.0011818408966064453,9315.0,255.0,4.920732494042062e-06,9.438418459724666e-05,0.0013065338134765625,-0.001462697982788086,7857,280,0.0,0.0,0.0,0.0,11155.0,0.0
20,-2.9859015587127405e-06,0.00010253730085222967,0.00010253730085222967,-0.0016326904296875,9315.0,339.0,-5.338852590954424e-07,8.550437748904657e-05,0.0012180805206298828,-0.001214742660522461,7857,359,0.0,0.0,0.0,0.0,11155.0,0.0
21,-2.140673782258538e-06,0.00010024480675116358,0.00010024480675116358,-0.0014042854309082031,9315.0,379.0,-4.41145681464006e-06,8.371656584168604e-05,0.0011219978332519531,-0.0012059211730957031,7857,432,-1.1773026080368774e-06,4.100336785426817e-05,0.00045871734619140625,-0.001977682113647461,11155.0,19.0
22,-3.0366566894007063e-06,9.269783390389626e-05,9.269783390389626e-05,-0.0015225410461425781,9315.0,396.0,-7.599778070361222e-06,9.619325455430711e-05,0.000881195068359375,-0.001068115234375,7857,506,-3.7900966574182856e-06,7.429432807926372e-05,0.0011098384857177734,-0.0016994476318359375,11155.0,102.0
23,-4.9927384381133e-06,8.417997654097228e-05,8.417997654097228e-05,-0.0011692047119140625,9315.0,413.0,-8.19386728273877e-06,0.00011173309178940395,0.0009012222290039062,-0.0014042854309082031,7857,576,-5.148601660221909e-06,9.327491762420998e-05,0.0013189315795898438,-0.0014481544494628906,11155.0,263.0
24,-5.0810160204344265e-06,8.861047345441446e-05,8.861047345441446e-05,-0.0010960102081298828,9315.0,422.0,-4.394676176452054e-06,0.00012367649155145058,0.0015010833740234375,-0.0016326904296875,7857,586,-6.017360063157024e-06,0.0001103504090350928,0.0013244152069091797,-0.0013644695281982422,11155.0,478.0
25,-5.85534530369364e-06,9.493470688548429e-05,9.493470688548429e-05,-0.0012919902801513672,9315.0,446.0,2.2940922742340876e-06,0.0001249449493901774,0.0017170906066894531,-0.0012459754943847656,7857,515,-4.183107937787585e-06,0.0001228832100312884,0.002068042755126953,-0.001955270767211914,11155.0,628.0
26,-5.756983242557053e-06,0.00010019843577472827,0.00010019843577472827,-0.0014262199401855469,9315.0,453.0,2.680471778841469e-06,0.00011727692346174775,0.0015811920166015625,-0.00104522705078125,7857,474,-1.6588418807538835e-06,0.00011315092849585683,0.001562356948852539,-0.0021767616271972656,11155.0,628.0
27,-5.27817525981385e-06,0.00010542149653824474,0.00010542149653824474,-0.0015251636505126953,9315.0,430.0,8.178512847073072e-07,0.00011011270747256944,0.0012259483337402344,-0.00090789794921875,7857,491,-3.075140145582663e-06,0.00012202081765961347,0.0013098716735839844,-0.0017042160034179688,11155.0,584.0
28,-4.102130506989525e-06,0.00011021629428597348,0.00011021629428597348,-0.0013942718505859375,9315.0,405.0,-3.84407096863764e-06,0.0001274359597124165,0.0012619495391845703,-0.0015225410461425781,7857,528,-7.558307109099234e-06,0.00013310685932445423,0.0013213157653808594,-0.0018358230590820312,11155.0,549.0
29,-2.3495043981350435e-06,0.00010398151186620477,0.00010398151186620477,-0.001506805419921875,9315.0,343.0,-7.002077834576129e-06,0.0001528038155224431,0.0018999576568603516,-0.0015659332275390625,7857,545,-7.800337767077369e-06,0.00012832675584526407,0.001483917236328125,-0.0014328956604003906,11155.0,542.0
30,1.6688788634631433e-06,0.00010434316167910882,0.00010434316167910882,-0.0014142990112304688,9315.0,283.0,-6.718475945778471e-06,0.00015351071119617323,0.002351522445678711,-0.001203775405883789,7857,524,-4.781024544723148e-06,0.00010468123129894114,0.0015058517456054688,-0.0011839866638183594,11155.0,481.0
31,4.235634673236841e-06,9.446143513992236e-05,9.446143513992236e-05,-0.0010569095611572266,9315.0,231.0,-4.820776938542437e-06,0.00012865026230602996,0.0018317699432373047,-0.0012493133544921875,7857,477,-3.293681604239183e-06,0.00010188809543136927,0.0011072158813476562,-0.0013709068298339844,11155.0,484.0
32,3.028338274134146e-06,7.920668518408802e-05,7.920668518408802e-05,-0.0009455680847167969,9315.0,202.0,-2.658502191051023e-06,0.00011521567321381152,0.0016057491302490234,-0.0015087127685546875,7857,397,-1.3894534656040769e-06,0.0001111315943664121,0.00130462646484375,-0.0015912055969238281,11155.0,489.0
33,8.640401925185772e-07,8.058663792301478e-05,8.058663792301478e-05,-0.0010786056518554688,9315.0,218.0,-2.4834130728868365e-06,0.00011692107882521351,0.0015039443969726562,-0.0017042160034179688,7857,353,3.3220011575614215e-06,0.00011856731192672556,0.0017170906066894531,-0.0013964176177978516,11155.0,477.0
34,-1.3306904914106532e-06,8.599965471164169e-05,8.599965471164169e-05,-0.001462697982788086,9315.0,232.0,-6.032138740468666e-06,0.00012929539504527362,0.0012667179107666016,-0.001955270767211914,7857,329,2.616299262019029e-06,0.00011594643909966863,0.0013689994812011719,-0.0016093254089355469,11155.0,475.0
35,-5.077151156725963e-06,9.172549488907542e-05,9.172549488907542e-05,-0.0016050338745117188,9315.0,286.0,-1.3166428583336191e-05,0.000131322921940743,0.0011653900146484375,-0.0021767616271972656,7857,295,1.6534344490629203e-07,0.00011103258706473008,0.001155853271484375,-0.0015606880187988281,11155.0,542.0
36,-6.345722282438335e-06,9.56960708860297e-05,9.56960708860297e-05,-0.0011813640594482422,9315.0,298.0,-1.691594535921827e-05,0.00013179216812204015,0.0008740425109863281,-0.0017461776733398438,7857,272,-2.5061842894030495e-06,0.00012386294192275185,0.0014297962188720703,-0.0016326904296875,11155.0,615.0
37,-6.483091312394114e-06,8.549176315922086e-05,8.549176315922086e-05,-0.001440286636352539,9315.0,259.0,-1.4413900619337876e-05,0.00011524288604473043,0.0005335807800292969,-0.0017664432525634766,7857,235,-5.8272236508139045e-06,0.00014627639334241057,0.002351522445678711,-0.0017421245574951172,11155.0,682.0
38,-3.873694026207834e-06,7.282607061536483e-05,7.282607061536483e-05,-0.0010914802551269531,9315.0,235.0,-1.2702912763586114e-05,0.00010759930697466364,0.001003265380859375,-0.0016093254089355469,7857,237,-6.274031395871561e-06,0.0001453816312471123,0.0022678375244140625,-0.0015659332275390625,11155.0,684.0
39,-1.4964957040161197e-06,6.720927593478855e-05,6.720927593478855e-05,-0.0013206005096435547,9315.0,176.0,-1.0956542947387308e-05,9.887070979991319e-05,0.0012311935424804688,-0.0013327598571777344,7857,252,-8.70594364920308e-06,0.0001338897824961848,0.001420736312866211,-0.0015764236450195312,11155.0,737.0
40,-1.3498868343334844e-07,8.056692128401612e-05,8.056692128401612e-05,-0.0013823509216308594,9315.0,137.0,-1.1247518606672642e-05,9.582478485604296e-05,0.0007073879241943359,-0.0013127326965332031,7857,257,-1.1455996695894235e-05,0.00013274557309717,0.0018851757049560547,-0.0017402172088623047,11155.0,757.0
41,-1.1466615505904456e-07,7.705684880287127e-05,7.705684880287127e-05,-0.0012488365173339844,9315.0,121.0,-1.1713006834166338e-05,0.00010299530985290962,0.0005125999450683594,-0.0015764236450195312,7857,258,-8.085435519353096e-06,0.00012565776766369148,0.002254962921142578,-0.0017213821411132812,11155.0,680.0
42,-7.216289231550675e-07,7.97909684303085e-05,7.97909684303085e-05,-0.0021767616271972656,9315.0,134.0,-1.1336398334073492e-05,0.00011043916849193367,0.000751495361328125,-0.001439809799194336,7857,263,-7.378622214925604e-06,0.0001176701241704669,0.0020308494567871094,-0.001523733139038086,11155.0,562.0
43,-1.550501415439018e-06,7.206829364277848e-05,7.206829364277848e-05,-0.0020051002502441406,9315.0,170.0,-1.0445689341790412e-05,0.00010817295277898018,0.0007352828979492188,-0.0017998218536376953,7857,237,-5.607870008741351e-06,0.00011669727104009664,0.0018267631530761719,-0.0016326904296875,11155.0,492.0
44,-1.1755584454702807e-06,6.706889148065662e-05,6.706889148065662e-05,-0.0012218952178955078,9315.0,196.0,-1.1727632996203623e-05,0.00011218760863100505,0.0009350776672363281,-0.0015475749969482422,7857,211,-7.2074225001247515e-06,0.00010559967294466263,0.0016164779663085938,-0.0012202262878417969,11155.0,452.0
45,-7.202467864646236e-07,6.618893170162541e-05,6.618893170162541e-05,-0.001298666000366211,9315.0,179.0,-1.4049551391989975e-05,0.00012075258401347954,0.0010459423065185547,-0.0017604827880859375,7857,239,-6.914245660184264e-06,8.892840247952905e-05,0.0013265609741210938,-0.0012812614440917969,11155.0,370.0
46,-4.4369147275636995e-07,6.511160888114716e-05,6.511160888114716e-05,-0.0012054443359375,9315.0,169.0,-1.609205547234204e-05,0.00013215074983720788,0.0010898113250732422,-0.0018429756164550781,7857,258,-4.863610774185132e-06,6.875825766033675e-05,0.0009906291961669922,-0.0011239051818847656,11155.0,261.0
47,-8.779639399186041e-07,5.3258704868565185e-05,5.3258704868565185e-05,-0.0009286403656005859,9315.0,127.0,-1.465781159538705e-05,0.0001372603575601721,0.0017993450164794922,-0.0018062591552734375,7857,267,-4.219421085783421e-06,6.877032179103537e-05,0.0009860992431640625,-0.0016050338745117188,11155.0,223.0
48,2.1883830932027477e-08,5.364719506401799e-05,5.364719506401799e-05,-0.0009784698486328125,9315.0,132.0,-1.1216172495916386e-05,0.00013409542271842286,0.0016560554504394531,-0.0017402172088623047,7857,262,-5.3017623538876904e-06,7.059198749321047e-05,0.001129150390625,-0.0013897418975830078,11155.0,199.0
49,-3.118765846862629e-07,5.572276709953194e-05,5.572276709953194e-05,-0.001168966293334961,9315.0,138.0,-7.223351638675479e-06,0.00011359760142348076,0.0013244152069091797,-0.0015969276428222656,7857,250,-7.188849147794921e-06,7.455666613116413e-05,0.0010509490966796875,-0.0013747215270996094,11155.0,204.0
50,-1.7960098438600794e-06,6.46196241771301e-05,6.46196241771301e-05,-0.0013604164123535156,9315.0,153.0,-7.2996686459862126e-06,8.454422339785468e-05,0.0007224082946777344,-0.0012946128845214844,7857,212,-9.737523453805224e-06,9.266638922636672e-05,0.0009562969207763672,-0.0018305778503417969,11155.0,247.0
51,-5.339091654688968e-06,8.335652759865844e-05,8.335652759865844e-05,-0.001547098159790039,9315.0,188.0,-6.529337215532825e-06,8.369696955594861e-05,0.0011255741119384766,-0.0012509822845458984,7857,183,-1.2870157635943978e-05,0.00011086085502945817,0.0007395744323730469,-0.002647876739501953,11155.0,287.0
52,-6.400188706091381e-06,9.042618293858121e-05,9.042618293858121e-05,-0.001714944839477539,9315.0,224.0,-8.136879871315487e-06,9.352366000551157e-05,0.001417398452758789,-0.0013644695281982422,7857,149,-1.5214610559317308e-05,0.00012514647201955617,0.001062154769897461,-0.0027132034301757812,11155.0,304.0
53,-6.190359880382888e-06,8.750689568490238e-05,8.750689568490238e-05,-0.0018062591552734375,9315.0,239.0,-7.938880478590822e-06,9.944616266947893e-05,0.0017254352569580078,-0.0013587474822998047,7857,132,-1.4244884933820491e-05,0.00011472005995368215,0.0010597705841064453,-0.0021686553955078125,11155.0,298.0
54,-5.78657120578211e-06,8.576968288421299e-05,8.576968288421299e-05,-0.0017809867858886719,9315.0,245.0,-8.937859483631236e-06,9.894166887823452e-05,0.0016558170318603516,-0.0016326904296875,7857,140,-1.0671619875235495e-05,9.266657282796147e-05,0.0008039474487304688,-0.0014023780822753906,11155.0,291.0
55,-4.3139045621141975e-06,8.16584801174346e-05,8.16584801174346e-05,-0.0013327598571777344,9315.0,202.0,-1.0957119497343134e-05,0.00010055619296851685,0.0005254745483398438,-0.0016994476318359375,7857,193,-8.437645269690581e-06,9.105738889821422e-05,0.0010495185852050781,-0.001298666000366211,11155.0,317.0
56,-3.4064038492183308e-06,7.0315224764804e-05,7.0315224764804e-05,-0.001129150390625,9315.0,196.0,-1.2559048377240115e-05,0.00011057570472669995,0.0005598068237304688,-0.001977682113647461,7857,275,-8.477698736049732e-06,9.942926928854994e-05,0.0017254352569580078,-0.0014510154724121094,11155.0,354.0
57,-5.080964830186632e-06,7.38266365553551e-05,7.38266365553551e-05,-0.0016736984252929688,9315.0,183.0,-1.4521654771608418e-05,0.00012465171902620637,0.0011715888977050781,-0.001506805419921875,7857,338,-8.388486799772733e-06,9.150878025655326e-05,0.0007028579711914062,-0.0016736984252929688,11155.0,322.0
58,-7.591232201519412e-06,8.557825429114166e-05,8.557825429114166e-05,-0.0017461776733398438,9315.0,160.0,-1.2825991006787837e-05,0.00012353252884508205,0.0014085769653320312,-0.0015912055969238281,7857,352,-6.760465142332562e-06,8.757694447364029e-05,0.0012781620025634766,-0.0017664432525634766,11155.0,283.0
59,-7.260927127627231e-06,8.665957762683769e-05,8.665957762683769e-05,-0.0017664432525634766,9315.0,135.0,-1.2534013971263434e-05,0.00011274925950743475,0.0015058517456054688,-0.001316070556640625,7857,382,-6.382286895929778e-06,7.553118541512978e-05,0.0009350776672363281,-0.0014336109161376953,11155.0,239.0
60,-6.038350439557963e-06,7.986664327249935e-05,7.986664327249935e-05,-0.0018038749694824219,9315.0,143.0,-1.3152227247582147e-05,0.00010347790512743178,0.001214742660522461,-0.001316070556640625,7857,415,-6.96036912891588e-06,7.753545806623853e-05,0.000751495361328125,-0.0013265609741210938,11155.0,190.0
61,-5.756624910822493e-06,7.795463228526351e-05,7.795463228526351e-05,-0.0018429756164550781,9315.0,176.0,-1.2719663057039602e-05,0.00010514651035442735,0.001062154769897461,-0.0014023780822753906,7857,403,-6.1165960526477054e-06,8.235065063115768e-05,0.0007305145263671875,-0.0018429756164550781,11155.0,136.0
62,-4.5704444889349125e-06,8.594286924136087e-05,8.594286924136087e-05,-0.0017170906066894531,9315.0,221.0,-1.2484369985593311e-05,0.00011237129970209127,0.0011873245239257812,-0.0012047290802001953,7857,386,-5.005251287291906e-06,7.203453682633475e-05,0.0005125999450683594,-0.0016188621520996094,11155.0,112.0
63,-3.189254818075265e-06,8.761376013107568e-05,8.761376013107568e-05,-0.0015411376953125,9315.0,250.0,-1.0837591588079922e-05,0.00011658397981830095,0.0016906261444091797,-0.0015528202056884766,7857,332,-3.2970585773900614e-06,4.978306097230277e-05,0.000446319580078125,-0.0012753009796142578,11155.0,103.0
64,-4.852937871387295e-06,9.227844241947138e-05,9.227844241947138e-05,-0.001556396484375,9315.0,258.0,-7.323823054661896e-06,0.00011803762800986028,0.002068042755126953,-0.001556396484375,7857,276,-1.6608937125417588e-06,3.362643183603132e-05,0.0003376007080078125,-0.0011713504791259766,11155.0,74.0
65,-5.2779960939465706e-06,0.00010393700343344095,0.00010393700343344095,-0.0014226436614990234,9315.0,276.0,-5.779427791409506e-06,0.00012951489306010707,0.0014691352844238281,-0.0020809173583984375,7857,242,-3.8580849586394484e-07,2.505929742475919e-05,0.0005626678466796875,-0.0009627342224121094,11155.0,34.0
66,-5.6633818744653285e-06,0.00010746227012990038,0.00010746227012990038,-0.0017998218536376953,9315.0,283.0,-2.8914587179394915e-06,0.00011804934800736004,0.0015726089477539062,-0.0027132034301757812,7857,175,-4.5198007102292626e-07,1.7995726271475224e-05,0.0001266002655029297,-0.0009181499481201172,11155.0,12.0
67,-6.921638165247165e-06,0.00010966612053659998,0.00010966612053659998,-0.0017402172088623047,9315.0,308.0,-2.871704295768801e-06,9.107725343482417e-05,0.0013337135314941406,-0.0026955604553222656,7857,117,-7.224157753144611e-08,7.629613553600407e-06,0.0,-0.0008058547973632812,11155.0,1.0
68,-9.69712221040178e-06,0.00011674089216891326,0.00011674089216891326,-0.0016851425170898438,9315.0,376.0,-1.6089081688359355e-06,4.079387866989537e-05,0.0007350444793701172,-0.0011310577392578125,7857,41,0.0,0.0,0.0,0.0,11155.0,0.0
69,-1.0898275779769168e-05,0.00012131124554761194,0.00012131124554761194,-0.0017042160034179688,9315.0,413.0,-5.78370639897643e-07,2.282337522464131e-05,0.0005824565887451172,-0.0008409023284912109,7857,11,0.0,0.0,0.0,0.0,11155.0,0.0
70,-1.1357964204961231e-05,0.00012076341978814196,0.00012076341978814196,-0.0016789436340332031,9315.0,452.0,-4.3666072970236535e-08,5.548427866749035e-06,0.00010728836059570312,-0.00046563148498535156,7857,4,0.0,0.0,0.0,0.0,11155.0,0.0
71,-1.5002505086918257e-05,0.00013159918288076808,0.00013159918288076808,-0.001977682113647461,9315.0,485.0,0.0,0.0,0.0,0.0,7857,0,0.0,0.0,0.0,0.0,11155.0,0.0
72,-1.7707141829125675e-05,0.000129757863952461,0.000129757863952461,-0.0017421245574951172,9315.0,460.0,0.0,0.0,0.0,0.0,7857,0,0.0,0.0,0.0,0.0,11155.0,0.0
73,-1.6835423099437966e-05,0.00012831395433408703,0.00012831395433408703,-0.0014562606811523438,9315.0,419.0,0.0,0.0,0.0,0.0,7857,0,0.0,0.0,0.0,0.0,11155.0,0.0
74,-1.3803143176223664e-05,0.00012611537311030887,0.00012611537311030887,-0.0016422271728515625,9315.0,361.0,0.0,0.0,0.0,0.0,7857,0,0.0,0.0,0.0,0.0,11155.0,0.0
75,-1.2340714582114596e-05,0.00012883650428076418,0.00012883650428076418,-0.0018358230590820312,9315.0,307.0,0.0,0.0,0.0,0.0,7857,0,0.0,0.0,0.0,0.0,11155.0,0.0
76,-1.1990240550591494e-05,0.0001275414312217109,0.0001275414312217109,-0.0021920204162597656,9315.0,256.0,0.0,0.0,0.0,0.0,7857,0,0.0,0.0,0.0,0.0,11155.0,0.0
77,-9.277822890719354e-06,0.00011370629089807584,0.00011370629089807584,-0.0027132034301757812,9315.0,194.0,0.0,0.0,0.0,0.0,7857,0,0.0,0.0,0.0,0.0,11155.0,0.0
78,-6.5545017080670456e-06,8.748102044398404e-05,8.748102044398404e-05,-0.002709627151489258,9315.0,159.0,1.3970715771714315e-07,6.333174528181442e-06,0.00034332275390625,0.0,7857,4,0.0,0.0,0.0,0.0,11155.0,0.0
79,-2.5672421171277427e-06,6.10577846805084e-05,6.10577846805084e-05,-0.001173257827758789,9315.0,145.0,8.036802936877794e-07,1.8895860816035516e-05,0.0006566047668457031,-1.52587890625e-05,7857,18,0.0,0.0,0.0,0.0,11155.0,0.0
80,-1.9473794065875773e-06,7.339465247582904e-05,7.339465247582904e-05,-0.0011851787567138672,9315.0,170.0,8.017685754131965e-07,1.7531823073373206e-05,0.0005047321319580078,-0.00022792816162109375,7857,29,0.0,0.0,0.0,0.0,11155.0,0.0
81,-1.467445238392902e-06,8.704086362173704e-05,8.704086362173704e-05,-0.0012423992156982422,9315.0,194.0,2.7901983388556283e-07,2.030166004222833e-05,0.0006968975067138672,-0.0006272792816162109,7857,39,,,,,,
82,-1.4744838974646068e-06,8.970076857024128e-05,8.970076857024128e-05,-0.0011811256408691406,9315.0,191.0,4.544123993949215e-07,3.614028549415883e-05,0.0010404586791992188,-0.0005362033843994141,7857,62,,,,,,
83,-3.087053488354112e-06,7.305492904894933e-05,7.305492904894933e-05,-0.001054525375366211,9315.0,147.0,2.3214025352995586e-06,5.8866666962493686e-05,0.0012712478637695312,-0.0005929470062255859,7857,79,,,,,,
84,-1.6723853954370471e-06,5.239463182195885e-05,5.239463182195885e-05,-0.0011031627655029297,9315.0,82.0,3.0493423716324315e-06,6.655179094460531e-05,0.0013422966003417969,-0.0006246566772460938,7857,79,,,,,,
85,-2.3488645200376157e-07,2.0450983365236864e-05,2.0450983365236864e-05,-0.0008113384246826172,9315.0,39.0,2.7321792064587607e-06,5.61992941096383e-05,0.0012676715850830078,-0.0007522106170654297,7857,59,,,,,,
86,0.0,0.0,0.0,0.0,9315.0,0.0,1.9933152656996994e-06,4.0993662226681016e-05,0.0010938644409179688,-0.00044989585876464844,7857,35,,,,,,
87,0.0,0.0,0.0,0.0,9315.0,0.0,1.8056027379763617e-06,3.618588398902459e-05,0.0009403228759765625,-0.00033020973205566406,7857,39,,,,,,
88,0.0,0.0,0.0,0.0,9315.0,0.0,8.384857041789964e-07,1.965373425261631e-05,0.0005555152893066406,-0.0004334449768066406,7857,43,,,,,,
89,0.0,0.0,0.0,0.0,9315.0,0.0,1.6110019555176216e-07,1.948957065006725e-05,0.0007145404815673828,-0.0003535747528076172,7857,54,,,,,,
90,0.0,0.0,0.0,0.0,9315.0,0.0,-1.2508099567985754e-07,2.9101780309809915e-05,0.0008044242858886719,-0.0005855560302734375,7857,65,,,,,,
91,0.0,0.0,0.0,0.0,9315.0,0.0,8.766593802016216e-08,2.5117564907959115e-05,0.0007314682006835938,-0.00047135353088378906,7857,64,,,,,,
92,0.0,0.0,0.0,0.0,9315.0,0.0,3.792484919958417e-07,1.9436128322160482e-05,0.0006258487701416016,-0.0002751350402832031,7857,49,,,,,,
93,0.0,0.0,0.0,0.0,9315.0,0.0,7.682376437717014e-07,2.572045036962867e-05,0.0007688999176025391,-0.0002586841583251953,7857,50,,,,,,
94,0.0,0.0,0.0,0.0,9315.0,0.0,1.8424412456802305e-06,3.410056824450511e-05,0.0007443428039550781,-0.0002658367156982422,7857,59,,,,,,
95,0.0,0.0,0.0,0.0,9315.0,0.0,1.8107916875788012e-06,3.173548916355873e-05,0.0006403923034667969,-0.00020384788513183594,7857,61,,,,,,
96,0.0,0.0,0.0,0.0,9315.0,0.0,1.3207849145952156e-06,2.4547555673818876e-05,0.0006036758422851562,-0.00018930435180664062,7857,51,,,,,,
97,,,,,,,4.2415869908128303e-07,1.1939418359728071e-05,0.0005059242248535156,-8.559226989746094e-05,7857,22,,,,,,
98,,,,,,,2.0637453945140976e-07,6.2791780920877345e-06,0.00033402442932128906,0.0,7857,10,,,,,,
99,,,,,,,4.7762612130057195e-08,2.996402688559264e-06,0.00019621849060058594,0.0,7857,2,,,,,,
100,,,,,,,0.0,0.0,0.0,0.0,7857,0,,,,,,
101,,,,,,,-1.3101035680451648e-06,3.089325850454362e-05,0.0,-0.0010747909545898438,7857,16,,,,,,
102,,,,,,,-4.348703903658511e-07,1.2523793109736608e-05,0.0,-0.0004956722259521484,7857,13,,,,,,
103,,,,,,,0.0,0.0,0.0,0.0,7857,0,,,,,,
104,,,,,,,0.0,0.0,0.0,0.0,7857,0,,,,,,
105,,,,,,,0.0,0.0,0.0,0.0,7857,0,,,,,,
106,,,,,,,0.0,0.0,0.0,0.0,7857,0,,,,,,
107,,,,,,,0.0,0.0,0.0,0.0,7857,0,,,,,,
108,,,,,,,0.0,0.0,0.0,0.0,7857,0,,,,,,
109,,,,,,,0.0,0.0,0.0,0.0,7857,0,,,,,,
110,,,,,,,0.0,0.0,0.0,0.0,7857,0,,,,,,
111,,,,,,,0.0,0.0,0.0,0.0,7857,0,,,,,,
112,,,,,,,0.0,0.0,0.0,0.0,7857,0,,,,,,
113,,,,,,,0.0,0.0,0.0,0.0,7857,0,,,,,,
114,,,,,,,0.0,0.0,0.0,0.0,7857,0,,,,,,
