,sag_mean,sag_std,sag_max,sag_min,sag_nb_elements,sag_non_zero_elements,hor_mean,hor_std,hor_max,hor_min,hor_nb_elements,hor_non_zero_elements,frt_mean,frt_std,frt_max,frt_min,frt_nb_elements,frt_non_zero_elements
0,0.0,0.0,0.0,0.0,9315.0,0.0,0.0,0.0,0.0,0.0,7857,0,-1.2812086521697547e-06,4.896602249280937e-05,0.0,-0.0023398399353027344,11155.0,8.0
1,0.0,0.0,0.0,0.0,9315.0,0.0,0.0,0.0,0.0,0.0,7857,0,-4.333329809882191e-06,9.271938328164125e-05,0.0,-0.0026679039001464844,11155.0,26.0
2,0.0,0.0,0.0,0.0,9315.0,0.0,0.0,0.0,0.0,0.0,7857,0,-6.5691411789090895e-06,0.00011925048082796644,0.0,-0.0029163360595703125,11155.0,36.0
3,0.0,0.0,0.0,0.0,9315.0,0.0,0.0,0.0,0.0,0.0,7857,0,-9.030052421072682e-06,0.00013567534149376591,0.0,-0.0027811527252197266,11155.0,52.0
4,0.0,0.0,0.0,0.0,9315.0,0.0,0.0,0.0,0.0,0.0,7857,0,-9.267393780136685e-06,0.00012983095604984579,0.0,-0.002682507038116455,11155.0,62.0
5,0.0,0.0,0.0,0.0,9315.0,0.0,0.0,0.0,0.0,0.0,7857,0,-7.73554852341708e-06,0.00010761210680565305,0.0,-0.002419382333755493,11155.0,72.0
6,0.0,0.0,0.0,0.0,9315.0,0.0,0.0,0.0,0.0,0.0,7857,0,-7.155093964287808e-06,9.72914425218662e-05,0.00015372782945632935,-0.0021427273750305176,11155.0,93.0
7,0.0,0.0,0.0,0.0,9315.0,0.0,0.0,0.0,0.0,0.0,7857,0,-8.829934618522211e-06,0.0001087573999541857,0.0005372464656829834,-0.002307385206222534,11155.0,191.0
8,0.0,0.0,0.0,0.0,9315.0,0.0,0.0,0.0,0.0,0.0,7857,0,-1.1940860009578139e-05,0.0001518868390104365,0.0015919208526611328,-0.0027565360069274902,11155.0,416.0
9,0.0,0.0,0.0,0.0,9315.0,0.0,0.0,0.0,0.0,0.0,7857,0,-5.052416169609338e-06,0.0001829395774228092,0.0019505023956298828,-0.002583026885986328,11155.0,584.0
10,4.5207387583267285e-07,1.5334301115103154e-05,1.5334301115103154e-05,0.0,9315.0,11.0,0.0,0.0,0.0,0.0,7857,0,3.0752287276760444e-06,0.0001861448552073898,0.0017998218536376953,-0.0020335912704467773,11155.0,714.0
11,1.7420125558324482e-06,6.133795161959131e-05,6.133795161959131e-05,-0.0008781552314758301,9315.0,273.0,-5.039016980394784e-07,1.2954817303815155e-05,0.00010243058204650879,-0.0005404949188232422,7857,21,9.42171867398344e-06,0.00017320783161631792,0.0015703439712524414,-0.0016541481018066406,11155.0,833.0
12,7.011903668851284e-07,8.37257434441201e-05,8.37257434441201e-05,-0.0009214878082275391,9315.0,545.0,-4.3462383939789893e-07,2.8272217672822695e-05,0.0004956722259521484,-0.0006557703018188477,7857,103,1.2758232146778726e-05,0.00017350343894818567,0.0017104744911193848,-0.0014411211013793945,11155.0,945.0
13,6.843178999928685e-06,9.818387945431993e-05,9.818387945431993e-05,-0.0007841587066650391,9315.0,769.0,4.771083642678724e-06,6.689280984368028e-05,0.0011307299137115479,-0.0006899833679199219,7857,222,1.4979922989527776e-05,0.00019381121758837161,0.0020596981048583984,-0.0014767646789550781,11155.0,1040.0
14,1.2534695114566476e-05,0.00011146690015577046,0.00011146690015577046,-0.0009744167327880859,9315.0,947.0,1.1923807911765443e-05,0.00010936480661374045,0.0017429590225219727,-0.0008673667907714844,7857,348,1.469037061618121e-05,0.00019970381371023208,0.0020149648189544678,-0.0016276836395263672,11155.0,1094.0
15,1.7888671524199832e-05,0.00013267437921996887,0.00013267437921996887,-0.0008642673492431641,9315.0,1115.0,1.715745530814877e-05,0.00013045757330645068,0.0014823675155639648,-0.0008714199066162109,7857,491,1.3115989768160452e-05,0.00019337295236586806,0.0018466338515281677,-0.001199550461024046,11155.0,1193.0
16,2.3695288490770477e-05,0.00015166852793367273,0.00015166852793367273,-0.0011286735534667969,9315.0,1277.0,1.8595158484838718e-05,0.00013547569713750097,0.0012390613555908203,-0.0007631778717041016,7857,617,1.1482146535826833e-05,0.00019879634529856546,0.002003908157348633,-0.0013539791107177734,11155.0,1321.0
17,2.7666258027300168e-05,0.00017695903807680026,0.00017695903807680026,-0.0013408660888671875,9315.0,1459.0,1.7789051560662517e-05,0.00013384684400462906,0.001234099268913269,-0.0007450580596923828,7857,757,7.213638848714875e-06,0.00019116269437062102,0.0018227994441986084,-0.0020258426666259766,11155.0,1466.0
18,3.10158758447718e-05,0.00019978805020625902,0.00019978805020625902,-0.001219719648361206,9315.0,1621.0,1.4263750605718528e-05,0.0001265708307264275,0.0011993944644927979,-0.0007963180541992188,7857,893,3.351328553964189e-07,0.00018509234252393774,0.0016546547412872314,-0.002396225929260254,11155.0,1592.0
19,3.690844034537137e-05,0.00022104045084886696,0.00022104045084886696,-0.0015025138854980469,9315.0,1787.0,1.1585045459389732e-05,0.00013761755704514225,0.001407478004693985,-0.0009734630584716797,7857,1128,-7.669235131332208e-07,0.00020623174804667153,0.0014542341232299805,-0.0022619962692260742,11155.0,1778.0
20,4.317837242278012e-05,0.00024104624853407607,0.00024104624853407607,-0.0015866756439208984,9315.0,1951.0,1.0225078795355089e-05,0.00016964745790214823,0.0016782283782958984,-0.0014077425003051758,7857,1369,4.6881357445212515e-06,0.00026065951511109527,0.0018665790557861328,-0.0022960901260375977,11155.0,2087.0
21,4.86179235359075e-05,0.00025521581765385694,0.00025521581765385694,-0.001520395278930664,9315.0,2137.0,9.929239621891598e-06,0.00021017928446933725,0.002003908157348633,-0.0016276836395263672,7857,1567,9.538422802082046e-06,0.00026916845697650673,0.0015327930450439453,-0.0021640658378601074,11155.0,2319.0
22,5.3881596742868744e-05,0.00027150202057743924,0.00027150202057743924,-0.001294255256652832,9315.0,2330.0,1.181608374862706e-05,0.00024715487520274656,0.00240480899810791,-0.0014767646789550781,7857,1768,1.934412113666482e-05,0.00025900779591420695,0.0015454292297363281,-0.0016932189464569092,11155.0,2583.0
23,5.577864545215556e-05,0.0002862543693614697,0.0002862543693614697,-0.001110076904296875,9315.0,2489.0,1.3371355221113096e-05,0.0002719739758140256,0.0021561384201049805,-0.0018169879913330078,7857,1949,3.0467338218837507e-05,0.00027319791885018917,0.0015935897827148438,-0.001562952995300293,11155.0,3095.0
24,5.6049818920658456e-05,0.0002994411218948312,0.0002994411218948312,-0.0012590885162353516,9315.0,2625.0,1.4020858100750927e-05,0.00029275459964025026,0.0017801523208618164,-0.0020809173583984375,7857,2108,3.884055858151507e-05,0.0003122871798137484,0.0020945072174072266,-0.0016544163227081299,11155.0,3617.0
25,5.7224925152279566e-05,0.0003137545386646386,0.0003137545386646386,-0.0014150142669677734,9315.0,2772.0,1.294591176034725e-05,0.00030833887299248794,0.0017291936092078686,-0.0021239519119262695,7857,2249,4.243469616257586e-05,0.0003496289363399807,0.0019617080688476562,-0.0020636320114135742,11155.0,4069.0
26,6.295410817852959e-05,0.0003217298703240017,0.0003217298703240017,-0.0015778541564941406,9315.0,2885.0,1.2105006997046697e-05,0.00031904221765858187,0.0015181899070739746,-0.002228856086730957,7857,2399,4.1352980639718734e-05,0.00037460573303291683,0.002321004867553711,-0.002291947603225708,11155.0,4434.0
27,6.828296201486566e-05,0.0003333376690578555,0.0003333376690578555,-0.0017217397689819336,9315.0,2993.0,1.2760410879262003e-05,0.00032570140557452147,0.001592874526977539,-0.0027774572372436523,7857,2521,3.971316971440186e-05,0.0003866205380965965,0.0022889375686645508,-0.002382516860961914,11155.0,4819.0
28,7.273518531975675e-05,0.0003529603050057202,0.0003529603050057202,-0.0022361278533935547,9315.0,3087.0,1.4140596339548194e-05,0.00032900524410910565,0.0022193193435668945,-0.0032938718795776367,7857,2641,3.254698066697099e-05,0.00038412332624416086,0.0021375417709350586,-0.002239704132080078,11155.0,5023.0
29,7.356804897043888e-05,0.00037152714074539827,0.00037152714074539827,-0.0026988983154296875,9315.0,3172.0,1.6647172578612793e-05,0.0003155796192980316,0.0025482177734375,-0.0031671524047851562,7857,2751,3.271366843032947e-05,0.000375219720677163,0.001931905746459961,-0.002625703811645508,11155.0,5144.0
30,7.078175712957972e-05,0.0003843148845990445,0.0003843148845990445,-0.002621173858642578,9315.0,3249.0,2.311891780592965e-05,0.00029059661709771565,0.002180337905883789,-0.0021979808807373047,7857,2842,4.4248252126072245e-05,0.00037749431269116124,0.0018498897552490234,-0.0026988983154296875,11155.0,5244.0
31,6.727199352133152e-05,0.0003928654902230849,0.0003928654902230849,-0.0032197237014770508,9315.0,3309.0,3.411037639035251e-05,0.00028091161678403396,0.0017299652099609375,-0.0016218572854995728,7857,2937,6.30971739480438e-05,0.0003945021611670228,0.0018606185913085938,-0.0022745132446289062,11155.0,5346.0
32,6.908552840776228e-05,0.0003936737825042428,0.0003936737825042428,-0.0032938718795776367,9315.0,3368.0,4.768521003919409e-05,0.00028501384349360605,0.001842498779296875,-0.001611948013305664,7857,3016,8.74841662255634e-05,0.0004139150905667842,0.0021314620971679688,-0.003041386604309082,11155.0,5427.0
33,7.009568956760081e-05,0.000387265317489535,0.000387265317489535,-0.003052830696105957,9315.0,3405.0,6.280122611084231e-05,0.00029820296186658694,0.0016744136810302734,-0.0014775991439819336,7857,3092,0.00010819548118022758,0.0004255628692631999,0.0020749568939208984,-0.0032938718795776367,11155.0,5493.0
34,7.129631816822949e-05,0.00038250599593705353,0.00038250599593705353,-0.0025261640548706055,9315.0,3453.0,7.728324454725576e-05,0.0003199657307250833,0.0017154216766357422,-0.0018355846405029297,7857,3168,0.00012199940855069239,0.00042976510306790174,0.002215743064880371,-0.003075242042541504,11155.0,5559.0
35,7.471176026354885e-05,0.00038384097207874956,0.00038384097207874956,-0.0021239519119262695,9315.0,3490.0,8.914261589681881e-05,0.00035460018392377237,0.0019505023956298828,-0.0027565360069274902,7857,3254,0.00012843614597391574,0.0004332373169329853,0.002084672451019287,-0.002802610397338867,11155.0,5571.0
36,8.232007426942358e-05,0.000387713834418236,0.000387713834418236,-0.0020612478256225586,9315.0,3521.0,9.7803935622976e-05,0.000372569787053722,0.0019371509552001953,-0.0024452805519104004,7857,3308,0.00012732835058717343,0.00043605304662043705,0.002824988216161728,-0.0025222301483154297,11155.0,5578.0
37,8.823110557741739e-05,0.0003882559510363644,0.0003882559510363644,-0.0020809173583984375,9315.0,3548.0,0.00010493774885311486,0.0003965243072248832,0.0024704933166503906,-0.002117335796356201,7857,3381,0.00012039076615686823,0.00044039043061224235,0.0033370256423950195,-0.001973867416381836,11155.0,5549.0
38,8.870851679920542e-05,0.00038629014159238475,0.00038629014159238475,-0.0019562244415283203,9315.0,3574.0,0.00011039489350178886,0.0004177569048160834,0.0022499561309814453,-0.0024256110191345215,7857,3428,0.00012693461747163783,0.00044239340401601256,0.0033881664276123047,-0.0015153884887695312,11155.0,5507.0
39,8.448709929871842e-05,0.0003817046306125171,0.0003817046306125171,-0.0017256736755371094,9315.0,3589.0,0.00011601981580633999,0.000440500013585365,0.002615988254547119,-0.002428397536277771,7857,3486,0.00015525391884028104,0.00044206411234361443,0.0037848949432373047,-0.0014134645462036133,11155.0,5456.0
40,8.348173900083471e-05,0.0003773250672269676,0.0003773250672269676,-0.0014707446098327637,9315.0,3576.0,0.0001166245688254591,0.00045916547519708403,0.0026418715715408325,-0.002396881580352783,7857,3513,0.00018255327930072313,0.00044956286931682797,0.004008889198303223,-0.0012584924697875977,11155.0,5396.0
41,8.261274336174858e-05,0.00037338260545130184,0.00037338260545130184,-0.0014616996049880981,9315.0,3591.0,0.00011426790143447693,0.00047813363507842805,0.002521991729736328,-0.0027283430099487305,7857,3537,0.00019426201225990192,0.0004527944293737005,0.0036718249320983887,-0.0015625953674316406,11155.0,5349.0
42,7.679332601970289e-05,0.00036629038891847546,0.00036629038891847546,-0.0019953250885009766,9315.0,3604.0,0.00011152931726281611,0.0004958637081317157,0.0024938583374023438,-0.0029163360595703125,7857,3540,0.00019339167523963426,0.00043965310481631467,0.0030353665351867676,-0.0015277862548828125,11155.0,5277.0
43,7.365333217946523e-05,0.00035929895414432044,0.00035929895414432044,-0.0017251968383789062,9315.0,3619.0,0.00011453333379488248,0.0005003219829575928,0.0029495954513549805,-0.0028047561645507812,7857,3519,0.000188708574907189,0.00042333988211548933,0.0025644004344940186,-0.0018291473388671875,11155.0,5180.0
44,7.360825431408181e-05,0.0003575360743097582,0.0003575360743097582,-0.0017850399017333984,9315.0,3612.0,0.0001322227580469508,0.0004792434080558471,0.0027745962142944336,-0.0026988983154296875,7857,3414,0.0001869831023823782,0.00041593835965382455,0.0028154850006103516,-0.0019414424896240234,11155.0,5085.0
45,7.486650773978447e-05,0.00037874035982357417,0.00037874035982357417,-0.0022414326667785645,9315.0,3588.0,0.00015431583469389967,0.0004715049657196307,0.0025076866149902344,-0.0027811527252197266,7857,3298,0.00018675351258917703,0.0004054111218117812,0.0025624483823776245,-0.0018258094787597656,11155.0,4976.0
46,7.564200576288816e-05,0.00040689635631432165,0.00040689635631432165,-0.0025479793548583984,9315.0,3524.0,0.000175370152692863,0.000481756452789535,0.0026674270629882812,-0.0025937519967556,7857,3195,0.00018992119241031643,0.0003878714454819258,0.0019207000732421875,-0.0014150142669677734,11155.0,4871.0
47,7.718943356973683e-05,0.00042564463469870536,0.00042564463469870536,-0.0028706789016723633,9315.0,3449.0,0.00019001503564592556,0.0005088418083771322,0.00316011905670166,-0.002382516860961914,7857,3088,0.00019524864538717583,0.0003838855577467982,0.0022089481353759766,-0.0012166202068328857,11155.0,4757.0
48,8.458237767857422e-05,0.00043592642032023614,0.00043592642032023614,-0.0029163360595703125,9315.0,3398.0,0.00020623491966259897,0.000528755653244734,0.0033833980560302734,-0.0021772384643554688,7857,3027,0.00019781681605960576,0.0003869678921791329,0.00252377986907959,-0.0009490549564361572,11155.0,4634.0
49,9.936790815737024e-05,0.0004425007733709661,0.0004425007733709661,-0.0027565360069274902,9315.0,3428.0,0.00021954464857307517,0.0005219816192402845,0.0028769969940185547,-0.0021628141403198242,7857,2988,0.00019910856006660405,0.0003946498951651692,0.002314329147338867,-0.0014171600341796875,11155.0,4496.0
50,0.00011544959210719208,0.0004418039248612762,0.0004418039248612762,-0.0026629269123077393,9315.0,3505.0,0.0002247719962086265,0.0004978067899895603,0.0028154850006103516,-0.0018678903579711914,7857,2971,0.00020177114547379228,0.00040293844894231365,0.0023910105228424072,-0.0016453266143798828,11155.0,4352.0
51,0.00013066531719876852,0.0004274446287250499,0.0004274446287250499,-0.002419382333755493,9315.0,3574.0,0.00022212006908664696,0.00047297520586097664,0.002432584762573242,-0.0013736486434936523,7857,2941,0.0002066546094285325,0.0004120031442133217,0.0026928186416625977,-0.0010803937911987305,11155.0,4198.0
52,0.00013801972261246696,0.0004094115431036072,0.0004094115431036072,-0.0020776838064193726,9315.0,3600.0,0.00022124331341229024,0.0004560220633611193,0.0028429031372070312,-0.0012981891632080078,7857,2920,0.00020697393694851617,0.0004161112218944791,0.0031179189682006836,-0.0011714696884155273,11155.0,4031.0
53,0.00013682803109596158,0.0004029234373352243,0.0004029234373352243,-0.001574493944644928,9315.0,3604.0,0.0002191251024558549,0.0004433458265942357,0.0033249855041503906,-0.0012884140014648438,7857,2904,0.00020113896194121482,0.00040782198979130485,0.0034197568893432617,-0.0010625123977661133,11155.0,3862.0
54,0.00012930295340703342,0.00040138422717686805,0.00040138422717686805,-0.0016453266143798828,9315.0,3585.0,0.00021507014697734104,0.0004312189731279539,0.0033326148986816406,-0.0011407136917114258,7857,2886,0.0001887403927141895,0.0003915688972600271,0.0037369728088378906,-0.001416921615600586,11155.0,3677.0
55,0.00012182733671564981,0.00040215441535491295,0.00040215441535491295,-0.0018916130065917969,9315.0,3576.0,0.00020349312438497995,0.00041656153617516766,0.0029065608978271484,-0.001317441463470459,7857,2866,0.00017187703730737192,0.00037405854162726596,0.003164529800415039,-0.0017251968383789062,11155.0,3465.0
56,0.00011440708744482587,0.0004012159881703652,0.0004012159881703652,-0.001906275749206543,9315.0,3568.0,0.00018737998321988368,0.0004001443184778082,0.002269744873046875,-0.00158613920211792,7857,2852,0.0001588166751266394,0.0003621330565537795,0.0021965503692626953,-0.001906275749206543,11155.0,3244.0
57,0.00010829542695294208,0.000398389475056461,0.000398389475056461,-0.0018075406551361084,9315.0,3573.0,0.00017358172737122192,0.0003940248735492293,0.002253592014312744,-0.001414656639099121,7857,2856,0.0001480082278700311,0.00035319416399876,0.002280712127685547,-0.0018916130065917969,11155.0,3018.0
58,0.00010989287035050839,0.00038723864028002473,0.00038723864028002473,-0.0015153884887695312,9315.0,3558.0,0.00016786948294797598,0.00039700490976632815,0.0032743215560913086,-0.0012965202331542969,7857,2860,0.000136762002428951,0.00033971684632626254,0.0021839141845703125,-0.0014748573303222656,11155.0,2773.0
59,0.00012273153094439834,0.0003824966044062069,0.0003824966044062069,-0.0018503665924072266,9315.0,3536.0,0.00016878444716590733,0.00039885897084653027,0.0037369728088378906,-0.0011076927185058594,7857,2853,0.000125108666583171,0.0003242594523189981,0.0024704933166503906,-0.0012524127960205078,11155.0,2508.0
60,0.00014390456113434953,0.000388563114030472,0.000388563114030472,-0.0016930103302001953,9315.0,3521.0,0.00017258083726095057,0.00040395386156613893,0.0032858848571777344,-0.0012409687042236328,7857,2838,0.00011575504486123038,0.00031227613963018676,0.00220489501953125,-0.0007874965667724609,11155.0,2248.0
61,0.00016465678548849822,0.00039857184954721466,0.00039857184954721466,-0.0016732215881347656,9315.0,3481.0,0.0001763489074361177,0.00041220379407114416,0.0025870800018310547,-0.0013151541352272034,7857,2819,0.0001064607934659431,0.0003038594776998138,0.0017795562744140625,-0.0011444091796875,11155.0,2004.0
62,0.0001762446924900087,0.00041223571683051503,0.00041223571683051503,-0.0012068748474121094,9315.0,3428.0,0.00017555325330711482,0.0004145635565146299,0.0023512840270996094,-0.0014134645462036133,7857,2813,9.945169346284327e-05,0.0003049223942880774,0.001947164535522461,-0.0017333030700683594,11155.0,1746.0
63,0.00017364164014505368,0.00041239740025845865,0.00041239740025845865,-0.0011569857597351074,9315.0,3366.0,0.00016689282545852594,0.000409773927298315,0.0023658275604248047,-0.0013066530227661133,7857,2804,9.355935812375709e-05,0.00030737778027719757,0.0023658275604248047,-0.0019953250885009766,11155.0,1488.0
64,0.00016341514555519667,0.0004026822924261567,0.0004026822924261567,-0.001285463571548462,9315.0,3320.0,0.00015140835258188015,0.0004050444964295105,0.002056121826171875,-0.0014836788177490234,7857,2782,8.154174889859892e-05,0.00028993497554226323,0.0023374557495117188,-0.0009181499481201172,11155.0,1215.0
65,0.00015603163082380562,0.0003866938012154684,0.0003866938012154684,-0.0011993646621704102,9315.0,3270.0,0.00014245348013318726,0.0004078641006584762,0.0020911693572998047,-0.0016434192657470703,7857,2769,6.329290190152657e-05,0.00025988890568701427,0.0026418715715408325,-0.0002872943878173828,11155.0,943.0
66,0.00015223161252420466,0.0003780901627584101,0.0003780901627584101,-0.0012965202331542969,9315.0,3210.0,0.00014213754873753848,0.0004069059660133969,0.002058267593383789,-0.001906275749206543,7857,2731,4.0458503274429893e-05,0.00019603366547658795,0.0029495954513549805,-0.00017023086547851562,11155.0,686.0
67,0.00014601551820584026,0.0003678406208565676,0.0003678406208565676,-0.00124359130859375,9315.0,3138.0,0.00014478285010229377,0.0004053376432417283,0.002341032028198242,-0.0018916130065917969,7857,2704,2.0126825278263385e-05,0.0001289254087345583,0.001604318618774414,-0.0001671314239501953,11155.0,381.0
68,0.00014154654250180792,0.0003634337330973359,0.0003634337330973359,-0.0015954971313476562,9315.0,3065.0,0.00014266159483685293,0.0004113688491337146,0.004008889198303223,-0.0015981793403625488,7857,2678,5.76960137477107e-06,6.231651594550305e-05,0.0012598037719726562,0.0,11155.0,109.0
69,0.00013728202094037863,0.0003624055977965616,0.0003624055977965616,-0.0018553733825683594,9315.0,2972.0,0.0001358590184037972,0.0004026354467251459,0.0037848949432373047,-0.001592874526977539,7857,2634,0.0,0.0,0.0,0.0,11155.0,0.0
70,0.0001321417449446624,0.0003599850556942011,0.0003599850556942011,-0.0022960901260375977,9315.0,2865.0,0.0001287832781279537,0.00038574772218153027,0.0033370256423950195,-0.001697540283203125,7857,2609,0.0,0.0,0.0,0.0,11155.0,0.0
71,0.00012738735690801412,0.0003483350681458069,0.0003483350681458069,-0.0022619962692260742,9315.0,2752.0,0.00012294245727490754,0.0003696297437954632,0.0029675811529159546,-0.0015780925750732422,7857,2564,0.0,0.0,0.0,0.0,11155.0,0.0
72,0.0001261030464589104,0.00033451702331711424,0.00033451702331711424,-0.002396225929260254,9315.0,2617.0,0.0001141711256872978,0.0003550591037753986,0.0024567842483520508,-0.001486063003540039,7857,2504,0.0,0.0,0.0,0.0,11155.0,0.0
73,0.00013041037753270865,0.00032532735076229186,0.00032532735076229186,-0.001987755298614502,9315.0,2483.0,0.00010269428823528242,0.0003396952647578542,0.0023033618927001953,-0.0015494823455810547,7857,2433,0.0,0.0,0.0,0.0,11155.0,0.0
74,0.00013552965390404347,0.0003219217332724668,0.0003219217332724668,-0.0018171072006225586,9315.0,2321.0,9.179605414731285e-05,0.0003263161000432561,0.002263784408569336,-0.00153350830078125,7857,2372,0.0,0.0,0.0,0.0,11155.0,0.0
75,0.00013723935798446433,0.0003239957659322863,0.0003239957659322863,-0.0007350444793701172,9315.0,2126.0,7.969293487371603e-05,0.00031381134227292717,0.001812577247619629,-0.0019953250885009766,7857,2302,0.0,0.0,0.0,0.0,11155.0,0.0
76,0.00013324653395360123,0.00032870025249601565,0.00032870025249601565,-0.0008056163787841797,9315.0,1927.0,6.767268468273442e-05,0.00030444061737349657,0.0017232894897460938,-0.0018503665924072266,7857,2240,0.0,0.0,0.0,0.0,11155.0,0.0
77,0.000127026328774643,0.00032720171810878115,0.00032720171810878115,-0.0007205009460449219,9315.0,1764.0,5.86733913246876e-05,0.00029677494074736095,0.0017886161804199219,-0.0017251968383789062,7857,2180,0.0,0.0,0.0,0.0,11155.0,0.0
78,0.00011730224407271502,0.00031689788255760725,0.00031689788255760725,-0.0006559193134307861,9315.0,1588.0,5.5083439057286446e-05,0.0002822455725490605,0.0018389225006103516,-0.001514434814453125,7857,2103,0.0,0.0,0.0,0.0,11155.0,0.0
79,0.00010872414986484484,0.0003106978144424358,0.0003106978144424358,-0.0004951953887939453,9315.0,1407.0,5.9786358234504676e-05,0.0002697447418820881,0.001971721649169922,-0.0013041496276855469,7857,2013,0.0,0.0,0.0,0.0,11155.0,0.0
80,0.00010297071289669041,0.00031174627817901016,0.00031174627817901016,-0.0004723072052001953,9315.0,1259.0,6.78817199538555e-05,0.0002654611609882601,0.0019893646240234375,-0.0012352466583251953,7857,1953,0.0,0.0,0.0,0.0,11155.0,0.0
81,9.357817419474696e-05,0.0003113130541115966,0.0003113130541115966,-0.0009725093841552734,9315.0,1098.0,7.623067987480376e-05,0.0002673017877991359,0.0018538236618041992,-0.0010938644409179688,7857,1926,,,,,,
82,8.560633839228527e-05,0.0003042556431889038,0.0003042556431889038,-0.0008001327514648438,9315.0,945.0,8.028167837419244e-05,0.00026988652986406094,0.001958131790161133,-0.001081705093383789,7857,1898,,,,,,
83,7.054083193269905e-05,0.00026529870356527415,0.00026529870356527415,-0.0002491474151611328,9315.0,774.0,7.785293595596059e-05,0.00026988889186885587,0.0019038766622543335,-0.0010342597961425781,7857,1856,,,,,,
84,4.8700736968573615e-05,0.0002132507916180738,0.0002132507916180738,-0.0002034306526184082,9315.0,587.0,7.300769980195913e-05,0.00026278147064383143,0.0016138404607772827,-0.0010972023010253906,7857,1825,,,,,,
85,1.7397408036218172e-05,0.00012135679483356228,0.00012135679483356228,-0.0003356337547302246,9315.0,276.0,6.958137035818643e-05,0.0002491749209733077,0.0016870498657226562,-0.0014505386352539062,7857,1767,,,,,,
86,1.7418207673698873e-06,4.2501210228831134e-05,4.2501210228831134e-05,-0.0002789497375488281,9315.0,26.0,7.00576702382691e-05,0.00024783872529526754,0.001795053482055664,-0.0015950202941894531,7857,1718,,,,,,
87,0.0,0.0,0.0,0.0,9315.0,0.0,7.257647703611431e-05,0.00024934287757778973,0.0018821954727172852,-0.0016453266143798828,7857,1663,,,,,,
88,0.0,0.0,0.0,0.0,9315.0,0.0,7.3893662366076e-05,0.00024949082555707485,0.001817464828491211,-0.0015025138854980469,7857,1601,,,,,,
89,0.0,0.0,0.0,0.0,9315.0,0.0,7.073750384224687e-05,0.00024034669659092248,0.002178668975830078,-0.0012438297271728516,7857,1532,,,,,,
90,0.0,0.0,0.0,0.0,9315.0,0.0,6.378788497216337e-05,0.00022707634779716977,0.0020728111267089844,-0.0015866756439208984,7857,1460,,,,,,
91,0.0,0.0,0.0,0.0,9315.0,0.0,5.796822986777825e-05,0.00021985623246117,0.0017981529235839844,-0.0014133453369140625,7857,1394,,,,,,
92,0.0,0.0,0.0,0.0,9315.0,0.0,5.374895019439083e-05,0.0002191563102228887,0.0016469955444335938,-0.0014801025390625,7857,1313,,,,,,
93,0.0,0.0,0.0,0.0,9315.0,0.0,4.999173147519947e-05,0.0002208148299511679,0.0015411376953125,-0.0017308592796325684,7857,1254,,,,,,
94,0.0,0.0,0.0,0.0,9315.0,0.0,4.5561167316145476e-05,0.00022038074223200703,0.001665949821472168,-0.0017088651657104492,7857,1201,,,,,,
95,0.0,0.0,0.0,0.0,9315.0,0.0,3.928991333451475e-05,0.00021544903211497744,0.0018783211708068848,-0.0016674995422363281,7857,1131,,,,,,
96,0.0,0.0,0.0,0.0,9315.0,0.0,2.9057686576169076e-05,0.00019872877932229402,0.0020945072174072266,-0.0019414424896240234,7857,1044,,,,,,
97,,,,,,,1.8847667807361104e-05,0.0001706825086963688,0.0019057989120483398,-0.0018291473388671875,7857,950,,,,,,
98,,,,,,,9.028419432171856e-06,0.00014483054329373683,0.0015358924865722656,-0.0016252994537353516,7857,851,,,,,,
99,,,,,,,2.335713515113871e-06,0.00011890303786133455,0.0012063980102539062,-0.001188516616821289,7857,725,,,,,,
100,,,,,,,6.935563184054461e-07,9.651411861707201e-05,0.000888824462890625,-0.0010030269622802734,7857,590,,,,,,
101,,,,,,,7.480349551956966e-07,8.671044267120677e-05,0.0008735060691833496,-0.0009604692459106445,7857,460,,,,,,
102,,,,,,,6.368590044221594e-07,8.964171438357865e-05,0.0011692047119140625,-0.0011420249938964844,7857,341,,,,,,
103,,,,,,,3.771888431404874e-07,6.970714731859526e-05,0.001466512680053711,-0.0012631416320800781,7857,177,,,,,,
104,,,,,,,-5.244859775787428e-07,3.223276552155703e-05,0.001226186752319336,-0.000690758228302002,7857,41,,,,,,
105,,,,,,,0.0,0.0,0.0,0.0,7857,0,,,,,,
106,,,,,,,0.0,0.0,0.0,0.0,7857,0,,,,,,
107,,,,,,,0.0,0.0,0.0,0.0,7857,0,,,,,,
108,,,,,,,0.0,0.0,0.0,0.0,7857,0,,,,,,
109,,,,,,,0.0,0.0,0.0,0.0,7857,0,,,,,,
110,,,,,,,0.0,0.0,0.0,0.0,7857,0,,,,,,
111,,,,,,,0.0,0.0,0.0,0.0,7857,0,,,,,,
112,,,,,,,0.0,0.0,0.0,0.0,7857,0,,,,,,
113,,,,,,,0.0,0.0,0.0,0.0,7857,0,,,,,,
114,,,,,,,0.0,0.0,0.0,0.0,7857,0,,,,,,
