,sag_mean,sag_std,sag_max,sag_min,sag_nb_elements,sag_non_zero_elements,hor_mean,hor_std,hor_max,hor_min,hor_nb_elements,hor_non_zero_elements,frt_mean,frt_std,frt_max,frt_min,frt_nb_elements,frt_non_zero_elements
0,0.0,0.0,0.0,0.0,9315.0,0.0,0.0,0.0,0.0,0.0,7857,0,0.0,0.0,0.0,0.0,11155.0,0.0
1,0.0,0.0,0.0,0.0,9315.0,0.0,0.0,0.0,0.0,0.0,7857,0,0.0,0.0,0.0,0.0,11155.0,0.0
2,0.0,0.0,0.0,0.0,9315.0,0.0,0.0,0.0,0.0,0.0,7857,0,0.0,0.0,0.0,0.0,11155.0,0.0
3,0.0,0.0,0.0,0.0,9315.0,0.0,0.0,0.0,0.0,0.0,7857,0,0.0,0.0,0.0,0.0,11155.0,0.0
4,0.0,0.0,0.0,0.0,9315.0,0.0,0.0,0.0,0.0,0.0,7857,0,0.0,3.9905276002073444e-10,2.9802322387695312e-08,-2.9802322387695312e-08,11155.0,2.0
5,0.0,0.0,0.0,0.0,9315.0,0.0,0.0,0.0,0.0,0.0,7857,0,0.0,0.0,0.0,0.0,11155.0,0.0
6,0.0,0.0,0.0,0.0,9315.0,0.0,0.0,0.0,0.0,0.0,7857,0,0.0,0.0,0.0,0.0,11155.0,0.0
7,0.0,0.0,0.0,0.0,9315.0,0.0,0.0,0.0,0.0,0.0,7857,0,1.0686623895184334e-11,1.1286410582249123e-09,1.1920928955078125e-07,0.0,11155.0,1.0
8,0.0,0.0,0.0,0.0,9315.0,0.0,0.0,0.0,0.0,0.0,7857,0,-1.3358279868980417e-12,1.4108013227811404e-10,0.0,-1.4901161193847656e-08,11155.0,1.0
9,0.0,0.0,0.0,0.0,9315.0,0.0,0.0,0.0,0.0,0.0,7857,0,0.0,0.0,0.0,0.0,11155.0,0.0
10,0.0,0.0,0.0,0.0,9315.0,0.0,0.0,0.0,0.0,0.0,7857,0,-2.1373247790368668e-11,1.5960679398952752e-09,0.0,-1.1920928955078125e-07,11155.0,2.0
11,0.0,0.0,0.0,0.0,9315.0,0.0,0.0,0.0,0.0,0.0,7857,0,1.0686623895184334e-11,1.128641058224912e-09,1.1920928955078125e-07,0.0,11155.0,1.0
12,0.0,0.0,0.0,0.0,9315.0,0.0,0.0,0.0,0.0,0.0,7857,0,-5.343311947592167e-12,5.643205291124561e-10,0.0,-5.960464477539063e-08,11155.0,1.0
13,-4.79908573070778e-12,9.391260225007377e-10,9.391260225007377e-10,-5.960464477539063e-08,9315.0,4.0,0.0,0.0,0.0,0.0,7857,0,0.0,0.0,0.0,0.0,11155.0,0.0
14,2.479527627532353e-11,2.471375648282302e-09,2.471375648282302e-09,-7.450580596923828e-09,9315.0,2.0,0.0,0.0,0.0,0.0,7857,0,-1.2022451882082376e-11,7.053298268549697e-10,0.0,-5.960464477539063e-08,11155.0,4.0
15,-3.1993904871385197e-12,3.087701906634423e-10,3.087701906634423e-10,-2.9802322387695312e-08,9315.0,1.0,0.0,0.0,0.0,0.0,7857,0,-2.6716559737960835e-12,1.9950849248690935e-10,0.0,-1.4901161193847656e-08,11155.0,2.0
16,-1.119786670498482e-11,9.39071522911415e-10,9.39071522911415e-10,-8.940696716308594e-08,9315.0,2.0,0.0,0.0,0.0,0.0,7857,0,-1.3358279868980419e-11,8.464133329051996e-10,0.0,-5.960464477539063e-08,11155.0,3.0
17,6.37378573609627e-12,1.3809237956344073e-09,1.3809237956344073e-09,-5.960464477539063e-08,9315.0,3.0,-8.534456582959712e-12,1.7164232927467324e-09,1.1920928955078125e-07,-5.960464477539063e-08,7857,6,-2.0037419803470626e-11,1.30059851430385e-09,0.0,-1.1920928955078125e-07,11155.0,4.0
18,0.0,0.0,0.0,0.0,9315.0,0.0,0.0,0.0,0.0,0.0,7857,0,-1.2022451882082376e-11,8.04226694316607e-10,0.0,-5.960464477539063e-08,11155.0,4.0
19,-1.119786670498482e-11,8.241590461293135e-10,8.241590461293135e-10,-5.960464477539063e-08,9315.0,6.0,-2.038786850373709e-11,1.3892969019296215e-09,0.0,-1.1920928955078125e-07,7857,4,-1.3358279868980417e-12,1.41080132278114e-10,0.0,-1.4901161193847656e-08,11155.0,1.0
20,-7.9984762178463e-12,4.6311108229808633e-10,4.6311108229808633e-10,-2.9802322387695312e-08,9315.0,3.0,-1.5172367258595042e-11,9.508487577538793e-10,0.0,-5.960464477539063e-08,7857,2,-1.469410785587846e-11,1.17186000283129e-09,5.960464477539063e-08,-5.960464477539063e-08,11155.0,6.0
21,-7.998476217846299e-13,7.719254766586056e-11,7.719254766586056e-11,-7.450580596923828e-09,9315.0,1.0,-2.3706823841554752e-12,1.7326688130999497e-10,0.0,-1.4901161193847656e-08,7857,2,-1.0686623895184334e-11,1.036714404602754e-09,5.960464477539063e-08,-5.960464477539063e-08,11155.0,6.0
22,1.359740957033871e-11,1.7484138455648387e-09,1.7484138455648387e-09,-5.960464477539063e-08,9315.0,6.0,0.0,8.235640051858408e-10,5.960464477539063e-08,-2.9802322387695312e-08,7857,3,-1.2022451882082376e-11,1.0651115367753395e-09,5.960464477539063e-08,-5.960464477539063e-08,11155.0,6.0
23,-1.2797561948554079e-11,7.562617422950466e-10,7.562617422950466e-10,-5.960464477539063e-08,9315.0,3.0,-3.3189553378176653e-11,2.81908327853801e-09,2.9802322387695312e-08,-2.384185791015625e-07,7857,6,8.014967921388251e-12,2.4108730997328067e-09,2.384185791015625e-07,-5.960464477539063e-08,11155.0,4.0
24,-2.239573340996964e-11,1.662716802897605e-09,1.662716802897605e-09,-1.1920928955078125e-07,9315.0,5.0,7.586183629297521e-12,6.72394400811834e-10,5.960464477539063e-08,0.0,7857,1,-3.2059871685553004e-11,1.7843302021293096e-09,2.9802322387695312e-08,-1.1920928955078125e-07,11155.0,7.0
25,-2.2595695315415798e-11,1.4149899272449987e-09,1.4149899272449987e-09,-1.1920928955078125e-07,9315.0,4.0,-2.0862004980568183e-11,3.9388715379644685e-09,2.384185791015625e-07,-2.384185791015625e-07,7857,6,-4.157764609220155e-11,1.967277387192631e-09,5.960464477539063e-08,-1.1920928955078125e-07,11155.0,14.0
26,-2.639497151889279e-11,2.4809857596322014e-09,2.4809857596322014e-09,-2.384185791015625e-07,9315.0,4.0,-2.6551642702541325e-11,1.558755378516797e-09,1.4901161193847656e-08,-1.1920928955078125e-07,7857,5,-6.679139934490209e-12,2.79692204681823e-09,2.384185791015625e-07,-1.1920928955078125e-07,11155.0,9.0
27,-6.278803831009346e-11,3.137253462127618e-09,3.137253462127618e-09,-2.384185791015625e-07,9315.0,9.0,2.0862004980568183e-11,1.5497507413312845e-09,1.1920928955078125e-07,-2.9802322387695312e-08,7857,4,-5.74406034366158e-11,3.6705106404165176e-09,1.1920928955078125e-07,-2.384185791015625e-07,11155.0,8.0
28,-6.398780974277039e-12,7.563429487031722e-10,7.563429487031722e-10,-5.960464477539063e-08,9315.0,3.0,-4.2672282914798554e-11,1.8120401950349802e-09,0.0,-1.1920928955078125e-07,7857,6,-3.4397570662624576e-11,2.544462299374714e-09,1.4901161193847656e-08,-2.384185791015625e-07,11155.0,6.0
29,-1.919634292283112e-11,8.731698771447691e-10,8.731698771447691e-10,-5.960464477539063e-08,9315.0,5.0,-3.88791911001498e-11,3.190520122508977e-09,5.960464477539063e-08,-2.384185791015625e-07,7857,7,-6.478765736455503e-11,3.100819470363155e-09,1.4901161193847656e-08,-2.384185791015625e-07,11155.0,10.0
30,3.99923810892315e-12,2.814237458857658e-09,2.814237458857658e-09,-5.960464477539063e-08,9315.0,9.0,0.0,9.50969800177863e-10,5.960464477539063e-08,-5.960464477539063e-08,7857,2,-6.679139934490209e-12,1.6988927783390992e-09,1.1920928955078125e-07,-1.1920928955078125e-07,11155.0,4.0
31,2.39954286535389e-12,1.892498632544801e-09,1.892498632544801e-09,-1.1920928955078125e-07,9315.0,7.0,-2.4655096795216943e-11,2.024153869226609e-09,5.960464477539063e-08,-1.1920928955078125e-07,7857,4,-3.539944165279811e-11,3.529099533969486e-09,2.384185791015625e-07,-2.384185791015625e-07,11155.0,13.0
32,-1.59969524356926e-11,2.8551893814489856e-09,2.8551893814489856e-09,-2.384185791015625e-07,9315.0,6.0,-3.7930918146487606e-12,1.0086486595495485e-09,5.960464477539063e-08,-5.960464477539063e-08,7857,3,7.847989423025996e-12,2.669527747006844e-09,2.384185791015625e-07,-1.1920928955078125e-07,11155.0,8.0
33,-2.39954286535389e-12,1.1160170424367013e-09,1.1160170424367013e-09,-5.960464477539063e-08,9315.0,5.0,-1.9913732026905993e-11,1.0119560925764116e-09,0.0,-5.960464477539063e-08,7857,4,-1.1354537888633355e-11,1.785975791300839e-09,5.960464477539063e-08,-1.1920928955078125e-07,11155.0,11.0
34,-2.079603816640038e-11,1.4887706259004697e-09,1.4887706259004697e-09,-1.1920928955078125e-07,9315.0,6.0,-2.6551642702541325e-11,1.8103978618945127e-09,5.960464477539063e-08,-1.1920928955078125e-07,7857,5,2.5380731751062793e-11,2.9357092655344397e-09,2.384185791015625e-07,-1.1920928955078125e-07,11155.0,7.0
35,2.5195200086215845e-11,1.5766722229570554e-09,1.5766722229570554e-09,-2.9802322387695312e-08,9315.0,7.0,2.93964615635279e-11,3.1189572474238375e-09,2.384185791015625e-07,-5.960464477539063e-08,7857,6,2.1373247790368668e-11,2.461855779489368e-09,2.384185791015625e-07,-5.960464477539063e-08,11155.0,9.0
36,-1.679680005747723e-11,1.7209022243218389e-09,1.7209022243218389e-09,-1.1920928955078125e-07,9315.0,8.0,-9.482729536621901e-12,9.359449248830227e-10,5.960464477539063e-08,-2.9802322387695312e-08,7857,7,-1.3024322872255908e-11,1.6696792494897408e-09,1.1920928955078125e-07,-5.960464477539063e-08,11155.0,9.0
37,-9.59817146141556e-12,1.3459360843663133e-09,1.3459360843663133e-09,-1.1920928955078125e-07,9315.0,4.0,-1.9913732026905993e-11,1.3988064306505801e-09,5.960464477539063e-08,-5.960464477539063e-08,7857,7,-2.905425871503241e-11,2.1675035276961866e-09,1.1920928955078125e-07,-1.1920928955078125e-07,11155.0,12.0
38,6.398780974277039e-12,1.4646902598478515e-09,1.4646902598478515e-09,-5.960464477539063e-08,9315.0,6.0,-4.919165947122612e-12,3.0271716047925808e-09,2.384185791015625e-07,-5.960464477539063e-08,7857,8,-1.0018709901735314e-12,1.1380216664966744e-09,5.960464477539063e-08,-5.960464477539063e-08,11155.0,9.0
39,-1.119786670498482e-11,8.095682902827426e-10,8.095682902827426e-10,-5.960464477539063e-08,9315.0,6.0,-3.0812388659377006e-11,2.2366342726117712e-09,1.1920928955078125e-07,-1.1920928955078125e-07,7857,8,-1.436015085915395e-11,1.883924975244768e-09,1.1920928955078125e-07,-8.940696716308594e-08,11155.0,16.0
40,-1.7596647679261858e-11,8.312475815716417e-10,8.312475815716417e-10,-5.960464477539063e-08,9315.0,5.0,-2.2758550887892565e-11,3.628909636963195e-09,2.384185791015625e-07,-1.1920928955078125e-07,7857,7,1.8701591816572585e-11,2.6935412071826712e-09,2.384185791015625e-07,-5.960464477539063e-08,11155.0,12.0
41,-1.3997333381231025e-11,8.876515969518302e-10,8.876515969518302e-10,-5.960464477539063e-08,9315.0,5.0,-7.112047152466426e-11,3.1966018248415404e-09,1.1920928955078125e-07,-1.1920928955078125e-07,7857,13,-4.541815155453342e-11,3.17333635161479e-09,1.1920928955078125e-07,-2.384185791015625e-07,11155.0,11.0
42,-4.599123825261622e-11,2.0069581854485787e-09,2.0069581854485787e-09,-1.1920928955078125e-07,9315.0,8.0,-5.310328540508265e-11,3.1175107570335942e-09,2.9802322387695312e-08,-2.384185791015625e-07,7857,5,-9.805420960467902e-12,1.858655913963857e-09,1.1920928955078125e-07,-1.1920928955078125e-07,11155.0,10.0
43,-1.59969524356926e-11,9.516102834459773e-10,9.516102834459773e-10,-5.960464477539063e-08,9315.0,5.0,2.607750622571023e-12,2.961136302747254e-09,2.384185791015625e-07,-5.960464477539063e-08,7857,9,8.014967921388251e-12,1.371493689891127e-09,1.1920928955078125e-07,-2.9802322387695312e-08,11155.0,9.0
44,-2.5595123897108158e-11,2.0941373306821993e-09,2.0941373306821993e-09,-1.1920928955078125e-07,9315.0,8.0,7.586183629297521e-12,1.4064828435420134e-09,1.1920928955078125e-07,-2.9802322387695312e-08,7857,4,-1.8033677823123564e-11,1.688526470147016e-09,5.960464477539063e-08,-1.1920928955078125e-07,11155.0,12.0
45,-5.318986684867789e-11,2.3965504358457764e-09,2.3965504358457764e-09,-1.1920928955078125e-07,9315.0,11.0,-2.8448188609865706e-11,1.6554401588074284e-09,1.4901161193847656e-08,-1.1920928955078125e-07,7857,4,-1.2690365875531396e-11,3.303478169043245e-09,2.384185791015625e-07,-2.384185791015625e-07,11155.0,6.0
46,-3.0394209627815937e-11,2.6673048612091555e-09,2.6673048612091555e-09,-2.384185791015625e-07,9315.0,9.0,-2.5603369748879134e-11,1.4385560120191527e-09,0.0,-1.1920928955078125e-07,7857,5,-2.270907577726671e-11,2.796837829543481e-09,1.1920928955078125e-07,-2.384185791015625e-07,11155.0,6.0
47,-1.5996952435692598e-12,1.5205976323355398e-09,1.5205976323355398e-09,-5.960464477539063e-08,9315.0,4.0,-5.025846654409608e-11,2.539288707821216e-09,5.960464477539063e-08,-1.1920928955078125e-07,7857,7,-1.0018709901735313e-11,1.9688763215641407e-09,1.1920928955078125e-07,-1.1920928955078125e-07,11155.0,14.0
48,9.59817146141556e-12,2.0713823593163204e-09,2.0713823593163204e-09,-1.1920928955078125e-07,9315.0,6.0,5.689637721973141e-12,1.43631520781909e-09,1.1920928955078125e-07,-2.9802322387695312e-08,7857,4,-3.539944165279811e-11,2.2670053753478458e-09,1.1920928955078125e-07,-1.1920928955078125e-07,11155.0,10.0
49,-3.0394209627815937e-11,2.834122776984102e-09,2.834122776984102e-09,-2.384185791015625e-07,9315.0,4.0,-9.482729536621901e-13,1.579243197606354e-09,1.1920928955078125e-07,-5.960464477539063e-08,7857,5,2.8699429406012616e-11,2.6213577521415957e-09,2.384185791015625e-07,-5.960464477539063e-08,11155.0,8.0
50,-6.598742879723197e-12,6.178397701936391e-10,6.178397701936391e-10,-5.960464477539063e-08,9315.0,2.0,2.3706823841554756e-11,1.5610658187141685e-09,1.1920928955078125e-07,-2.2351741790771484e-08,7857,4,-5.343311947592167e-12,1.265841694643963e-09,5.960464477539063e-08,-1.1920928955078125e-07,11155.0,4.0
51,-3.279375249316983e-11,1.7885984274900863e-09,1.7885984274900863e-09,-1.1920928955078125e-07,9315.0,9.0,-2.6551642702541325e-11,3.099668586204741e-09,1.1920928955078125e-07,-2.384185791015625e-07,7857,4,-4.541815155453342e-11,3.2107519770919883e-09,1.4901161193847656e-08,-2.384185791015625e-07,11155.0,5.0
52,-3.349361916223138e-12,9.264673173498268e-10,9.264673173498268e-10,-5.960464477539063e-08,9315.0,4.0,-3.6982645192825416e-11,2.8014374497340815e-09,2.9802322387695312e-08,-2.384185791015625e-07,7857,7,-5.4768947462819716e-11,2.8805463414294274e-09,0.0,-2.384185791015625e-07,11155.0,6.0
53,-3.0394209627815937e-11,1.2821275456512229e-09,1.2821275456512229e-09,-5.960464477539063e-08,9315.0,12.0,-5.689637721973141e-12,3.758607580014918e-10,0.0,-2.9802322387695312e-08,7857,2,1.0686623895184334e-11,1.5325539465063438e-09,1.1920928955078125e-07,-5.960464477539063e-08,11155.0,5.0
54,2.159588578818501e-11,2.495402292575818e-09,2.495402292575818e-09,-2.9802322387695312e-08,9315.0,4.0,-5.120673949775827e-11,2.1587958114338876e-09,0.0,-1.1920928955078125e-07,7857,6,-1.0686623895184334e-11,1.128641058224912e-09,0.0,-1.1920928955078125e-07,11155.0,1.0
55,1.839649530104649e-11,1.458472517100569e-09,1.458472517100569e-09,-2.9802322387695312e-08,9315.0,6.0,-1.3275821351270662e-11,1.5498342931023706e-09,5.960464477539063e-08,-1.1920928955078125e-07,7857,4,-1.3358279868980419e-11,8.464133329051996e-10,0.0,-5.960464477539063e-08,11155.0,3.0
56,-2.079603816640038e-11,1.3893848193781996e-09,1.3893848193781996e-09,-5.960464477539063e-08,9315.0,6.0,-4.172400996113637e-11,2.0992698650097604e-09,2.9802322387695312e-08,-1.1920928955078125e-07,7857,6,5.343311947592167e-12,2.61675848638436e-09,2.384185791015625e-07,-1.1920928955078125e-07,11155.0,5.0
57,2.479527627532353e-11,1.7618727799007505e-09,1.7618727799007505e-09,-1.4901161193847656e-08,9315.0,5.0,-3.7930918146487606e-12,5.823353396225903e-10,2.9802322387695312e-08,-2.9802322387695312e-08,7857,3,-2.404490376416475e-11,2.2748236776085225e-09,0.0,-2.384185791015625e-07,11155.0,2.0
58,7.1986285960616695e-12,7.757837495424374e-10,7.757837495424374e-10,-2.9802322387695312e-08,9315.0,5.0,1.8965459073243803e-12,1.0225671837814909e-09,5.960464477539063e-08,-5.960464477539063e-08,7857,4,-1.0686623895184334e-11,7.980339699476375e-10,0.0,-5.960464477539063e-08,11155.0,2.0
59,-7.038659071704743e-11,3.148232753307372e-09,3.148232753307372e-09,-2.384185791015625e-07,9315.0,8.0,1.3275821351270662e-11,2.817994082017271e-09,2.384185791015625e-07,-5.960464477539063e-08,7857,5,-1.3358279868980419e-11,2.4108494144357083e-09,5.960464477539063e-08,-2.384185791015625e-07,11155.0,4.0
60,-2.159588578818501e-11,3.719023611709585e-09,3.719023611709585e-09,-2.384185791015625e-07,9315.0,8.0,-6.261564847150649e-11,3.924052427133512e-09,5.960464477539063e-08,-2.384185791015625e-07,7857,6,4.675397954143146e-12,5.687184701188343e-10,5.960464477539063e-08,-7.450580596923828e-09,11155.0,2.0
61,-5.838887639027799e-11,2.93390889288253e-09,2.93390889288253e-09,-2.384185791015625e-07,9315.0,8.0,7.586183629297521e-12,1.5769867602983657e-09,1.1920928955078125e-07,-5.960464477539063e-08,7857,7,-5.343311947592167e-12,5.643205291124561e-10,0.0,-5.960464477539063e-08,11155.0,1.0
62,-7.038659071704743e-11,3.7240252467972296e-09,3.7240252467972296e-09,-2.384185791015625e-07,9315.0,6.0,-3.88791911001498e-11,3.494880779661579e-09,1.1920928955078125e-07,-2.384185791015625e-07,7857,7,-1.0018709901735314e-12,1.0581009920858553e-10,0.0,-1.1175870895385742e-08,11155.0,1.0
63,1.919634292283112e-11,1.9033926648508033e-09,1.9033926648508033e-09,-5.960464477539063e-08,9315.0,5.0,1.7543049642750517e-11,2.798156980234872e-09,2.384185791015625e-07,-5.960464477539063e-08,7857,5,6.679139934490209e-13,7.054006613905702e-11,7.450580596923828e-09,0.0,11155.0,1.0
64,-6.718720022990892e-11,3.03063878784142e-09,3.03063878784142e-09,-2.384185791015625e-07,9315.0,9.0,1.1379275443946282e-11,1.8105567983835243e-09,1.1920928955078125e-07,-8.940696716308594e-08,7857,3,0.0,0.0,0.0,0.0,11155.0,0.0
65,-3.1993904871385197e-12,1.6628645463216527e-09,1.6628645463216527e-09,-1.1920928955078125e-07,9315.0,5.0,1.1379275443946282e-11,8.894780086288839e-10,5.960464477539063e-08,-2.9802322387695312e-08,7857,4,1.3358279868980417e-12,7.054310168713224e-10,5.960464477539063e-08,-2.9802322387695312e-08,11155.0,4.0
66,2.159588578818501e-11,3.0420999031665082e-09,3.0420999031665082e-09,-1.1920928955078125e-07,9315.0,8.0,-3.413782633183885e-11,2.7104660191048745e-09,0.0,-2.384185791015625e-07,7857,2,-2.0037419803470627e-12,2.1162019841717105e-10,0.0,-2.2351741790771484e-08,11155.0,1.0
67,4.399161919815465e-11,3.5482569349658077e-09,3.5482569349658077e-09,-5.960464477539063e-08,9315.0,4.0,1.1379275443946282e-11,7.517215160029837e-10,5.960464477539063e-08,0.0,7857,2,1.3358279868980417e-12,1.41080132278114e-10,1.4901161193847656e-08,0.0,11155.0,1.0
68,4.79908573070778e-12,1.3895321587851647e-09,1.3895321587851647e-09,-5.960464477539063e-08,9315.0,3.0,2.5603369748879134e-11,1.5879594390731809e-09,1.1920928955078125e-07,-2.9802322387695312e-08,7857,6,0.0,0.0,0.0,0.0,11155.0,0.0
69,-3.798729432641788e-11,3.1118467734278568e-09,3.1118467734278568e-09,-2.384185791015625e-07,9315.0,7.0,-1.2801684874439567e-11,7.621991252628151e-10,0.0,-5.960464477539063e-08,7857,3,0.0,0.0,0.0,0.0,11155.0,0.0
70,2.479527627532353e-11,2.5845295887982662e-09,2.5845295887982662e-09,-5.960464477539063e-08,9315.0,5.0,-1.8965459073243802e-11,1.0084774748692985e-09,0.0,-5.960464477539063e-08,7857,3,0.0,0.0,0.0,0.0,11155.0,0.0
71,1.5597028624800284e-11,2.566379804188849e-09,2.566379804188849e-09,-5.960464477539063e-08,9315.0,5.0,-9.482729536621901e-12,7.031877151092421e-10,7.450580596923828e-09,-5.960464477539063e-08,7857,4,0.0,0.0,0.0,0.0,11155.0,0.0
72,-6.398780974277039e-12,6.175403813268845e-10,6.175403813268845e-10,-5.960464477539063e-08,9315.0,1.0,-1.8017186119581614e-11,1.3988321443822302e-09,1.4901161193847656e-08,-1.1920928955078125e-07,7857,4,0.0,0.0,0.0,0.0,11155.0,0.0
73,-2.079603816640038e-11,2.2319423630678907e-09,2.2319423630678907e-09,-1.1920928955078125e-07,9315.0,5.0,7.586183629297521e-12,1.8415294738359904e-09,1.1920928955078125e-07,-5.960464477539063e-08,7857,6,0.0,0.0,0.0,0.0,11155.0,0.0
74,-1.4397257192123339e-11,1.2446759833547221e-09,1.2446759833547221e-09,-1.1920928955078125e-07,9315.0,2.0,-2.4655096795216943e-11,1.1765067801564422e-09,0.0,-5.960464477539063e-08,7857,4,0.0,0.0,0.0,0.0,11155.0,0.0
75,-1.2797561948554079e-11,1.2350807626537692e-09,1.2350807626537692e-09,-1.1920928955078125e-07,9315.0,1.0,7.586183629297521e-12,3.862850139967676e-09,2.384185791015625e-07,-2.384185791015625e-07,7857,3,0.0,0.0,0.0,0.0,11155.0,0.0
76,-6.398780974277039e-12,6.175403813268845e-10,6.175403813268845e-10,-5.960464477539063e-08,9315.0,1.0,-2.0862004980568183e-11,1.0223561116271468e-09,0.0,-5.960464477539063e-08,7857,4,0.0,0.0,0.0,0.0,11155.0,0.0
77,1.919634292283112e-11,2.546248542240657e-09,2.546248542240657e-09,-5.960464477539063e-08,9315.0,2.0,-9.008593059790807e-12,6.943469291140444e-10,3.725290298461914e-09,-5.960464477539063e-08,7857,3,0.0,0.0,0.0,0.0,11155.0,0.0
78,-6.398780974277039e-12,6.175403813268846e-10,6.175403813268846e-10,-5.960464477539063e-08,9315.0,1.0,-2.8448188609865706e-12,7.564864946621613e-10,2.9802322387695312e-08,-5.960464477539063e-08,7857,3,0.0,0.0,0.0,0.0,11155.0,0.0
79,-2.5595123897108158e-11,1.4315565390797486e-09,1.4315565390797486e-09,-1.1920928955078125e-07,9315.0,5.0,-1.3275821351270662e-11,1.355275474043809e-09,1.4901161193847656e-08,-1.1920928955078125e-07,7857,2,0.0,0.0,0.0,0.0,11155.0,0.0
80,-2.8794514384246678e-11,2.489351966709444e-09,2.489351966709444e-09,-2.384185791015625e-07,9315.0,2.0,-7.491356333931303e-11,3.949858170461953e-09,2.9802322387695312e-08,-2.384185791015625e-07,7857,7,0.0,0.0,0.0,0.0,11155.0,0.0
81,0.0,0.0,0.0,0.0,9315.0,0.0,-1.1379275443946282e-11,7.517215160029836e-10,0.0,-5.960464477539063e-08,7857,2,,,,,,
82,-1.2797561948554079e-11,1.2350807626537692e-09,1.2350807626537692e-09,-1.1920928955078125e-07,9315.0,1.0,-3.7930918146487606e-12,7.517980699535871e-10,2.9802322387695312e-08,-5.960464477539063e-08,7857,2,,,,,,
83,-1.2797561948554079e-11,1.2350807626537692e-09,1.2350807626537692e-09,-1.1920928955078125e-07,9315.0,1.0,-5.689637721973141e-12,7.703525750139465e-10,2.9802322387695312e-08,-5.960464477539063e-08,7857,3,,,,,,
84,0.0,0.0,0.0,0.0,9315.0,0.0,-1.5172367258595042e-11,1.4263740081707186e-09,2.9802322387695312e-08,-1.1920928955078125e-07,7857,3,,,,,,
85,0.0,0.0,0.0,0.0,9315.0,0.0,2.2758550887892565e-11,2.7724361697953014e-09,2.384185791015625e-07,-5.960464477539063e-08,7857,2,,,,,,
86,0.0,0.0,0.0,0.0,9315.0,0.0,1.94395955500749e-11,1.8723567225390423e-09,1.1920928955078125e-07,-5.960464477539063e-08,7857,6,,,,,,
87,0.0,0.0,0.0,0.0,9315.0,0.0,-1.540943549701059e-11,1.3449502760335174e-09,0.0,-1.1920928955078125e-07,7857,2,,,,,,
88,0.0,0.0,0.0,0.0,9315.0,0.0,-4.7413647683109505e-12,7.929558005424232e-10,2.9802322387695312e-08,-5.960464477539063e-08,7857,5,,,,,,
89,0.0,0.0,0.0,0.0,9315.0,0.0,-5.689637721973141e-12,7.611259565225272e-10,2.9802322387695312e-08,-5.960464477539063e-08,7857,4,,,,,,
90,0.0,0.0,0.0,0.0,9315.0,0.0,-6.637910675635331e-12,6.776377370219045e-10,7.450580596923828e-09,-5.960464477539063e-08,7857,2,,,,,,
91,0.0,0.0,0.0,0.0,9315.0,0.0,0.0,0.0,0.0,0.0,7857,0,,,,,,
92,0.0,0.0,0.0,0.0,9315.0,0.0,1.1379275443946282e-11,1.0085916012177507e-09,5.960464477539063e-08,-2.9802322387695312e-08,7857,3,,,,,,
93,0.0,0.0,0.0,0.0,9315.0,0.0,3.7930918146487606e-12,3.3619720040591694e-10,2.9802322387695312e-08,0.0,7857,1,,,,,,
94,0.0,0.0,0.0,0.0,9315.0,0.0,0.0,0.0,0.0,0.0,7857,0,,,,,,
95,0.0,0.0,0.0,0.0,9315.0,0.0,-7.586183629297521e-12,6.723944008118339e-10,0.0,-5.960464477539063e-08,7857,1,,,,,,
96,0.0,0.0,0.0,0.0,9315.0,0.0,1.5172367258595042e-11,2.852869055341428e-09,2.384185791015625e-07,-5.960464477539063e-08,7857,3,,,,,,
97,,,,,,,-1.8965459073243803e-12,1.680986002029585e-10,0.0,-1.4901161193847656e-08,7857,1,,,,,,
98,,,,,,,7.586183629297521e-12,6.723944008118339e-10,5.960464477539063e-08,0.0,7857,1,,,,,,
99,,,,,,,-1.7068913165919424e-11,1.3552330095524374e-09,0.0,-1.1920928955078125e-07,7857,2,,,,,,
100,,,,,,,-1.8965459073243803e-12,1.680986002029585e-10,0.0,-1.4901161193847656e-08,7857,1,,,,,,
101,,,,,,,0.0,0.0,0.0,0.0,7857,0,,,,,,
102,,,,,,,0.0,0.0,0.0,0.0,7857,0,,,,,,
103,,,,,,,0.0,0.0,0.0,0.0,7857,0,,,,,,
104,,,,,,,0.0,0.0,0.0,0.0,7857,0,,,,,,
105,,,,,,,0.0,0.0,0.0,0.0,7857,0,,,,,,
106,,,,,,,0.0,0.0,0.0,0.0,7857,0,,,,,,
107,,,,,,,0.0,0.0,0.0,0.0,7857,0,,,,,,
108,,,,,,,0.0,0.0,0.0,0.0,7857,0,,,,,,
109,,,,,,,0.0,0.0,0.0,0.0,7857,0,,,,,,
110,,,,,,,0.0,0.0,0.0,0.0,7857,0,,,,,,
111,,,,,,,0.0,0.0,0.0,0.0,7857,0,,,,,,
112,,,,,,,0.0,0.0,0.0,0.0,7857,0,,,,,,
113,,,,,,,0.0,0.0,0.0,0.0,7857,0,,,,,,
114,,,,,,,0.0,0.0,0.0,0.0,7857,0,,,,,,
