,sag_mean,sag_std,sag_max,sag_min,sag_nb_elements,sag_non_zero_elements,hor_mean,hor_std,hor_max,hor_min,hor_nb_elements,hor_non_zero_elements,frt_mean,frt_std,frt_max,frt_min,frt_nb_elements,frt_non_zero_elements
0,0.0,0.0,0.0,0.0,9315.0,0.0,0.0,0.0,0.0,0.0,7857,0,-1.2812086521697547e-06,4.896602249280937e-05,0.0,-0.0023398399353027344,11155.0,8.0
1,0.0,0.0,0.0,0.0,9315.0,0.0,0.0,0.0,0.0,0.0,7857,0,-4.333329809882191e-06,9.271938328164125e-05,0.0,-0.0026679039001464844,11155.0,26.0
2,0.0,0.0,0.0,0.0,9315.0,0.0,0.0,0.0,0.0,0.0,7857,0,-6.5691411789090895e-06,0.00011925048082796644,0.0,-0.0029163360595703125,11155.0,36.0
3,0.0,0.0,0.0,0.0,9315.0,0.0,0.0,0.0,0.0,0.0,7857,0,-9.030052421072682e-06,0.00013567534149376591,0.0,-0.0027811527252197266,11155.0,52.0
4,0.0,0.0,0.0,0.0,9315.0,0.0,0.0,0.0,0.0,0.0,7857,0,-9.267393780136685e-06,0.00012983095604984579,0.0,-0.002682507038116455,11155.0,62.0
5,0.0,0.0,0.0,0.0,9315.0,0.0,0.0,0.0,0.0,0.0,7857,0,-7.735549191331073e-06,0.00010761211952749394,0.0,-0.002419382333755493,11155.0,72.0
6,0.0,0.0,0.0,0.0,9315.0,0.0,0.0,0.0,0.0,0.0,7857,0,-7.155093964287808e-06,9.72914425218662e-05,0.00015372782945632935,-0.0021427273750305176,11155.0,93.0
7,0.0,0.0,0.0,0.0,9315.0,0.0,0.0,0.0,0.0,0.0,7857,0,-8.829937290178185e-06,0.00010875739442843521,0.0005372464656829834,-0.002307385206222534,11155.0,191.0
8,0.0,0.0,0.0,0.0,9315.0,0.0,0.0,0.0,0.0,0.0,7857,0,-1.1940860009578139e-05,0.0001518868390104365,0.0015919208526611328,-0.0027565360069274902,11155.0,416.0
9,0.0,0.0,0.0,0.0,9315.0,0.0,0.0,0.0,0.0,0.0,7857,0,-5.052416169609338e-06,0.0001829395774228092,0.0019505023956298828,-0.002583026885986328,11155.0,584.0
10,4.5207387583267285e-07,1.5334301115103154e-05,1.5334301115103154e-05,0.0,9315.0,11.0,0.0,0.0,0.0,0.0,7857,0,3.075218041052149e-06,0.00018614485825107867,0.0017998218536376953,-0.0020335912704467773,11155.0,714.0
11,1.7420125558324482e-06,6.133795161959131e-05,6.133795161959131e-05,-0.0008781552314758301,9315.0,273.0,-5.039016980394784e-07,1.2954817303815155e-05,0.00010243058204650879,-0.0005404949188232422,7857,21,9.42171867398344e-06,0.00017320783161631792,0.0015703439712524414,-0.0016541481018066406,11155.0,833.0
12,7.011903668851284e-07,8.37257434441201e-05,8.37257434441201e-05,-0.0009214878082275391,9315.0,545.0,-4.3462383939789893e-07,2.8272217672822695e-05,0.0004956722259521484,-0.0006557703018188477,7857,103,1.2758232146778726e-05,0.00017350343894818567,0.0017104744911193848,-0.0014411211013793945,11155.0,945.0
13,6.843178999928685e-06,9.818387945431993e-05,9.818387945431993e-05,-0.0007841587066650391,9315.0,769.0,4.771083642678724e-06,6.689280984368028e-05,0.0011307299137115479,-0.0006899833679199219,7857,222,1.4979923991398766e-05,0.00019381122009633277,0.0020596981048583984,-0.0014767646789550781,11155.0,1040.0
14,1.2534707912128425e-05,0.00011146690900203713,0.00011146690900203713,-0.0009744167327880859,9315.0,947.0,1.1923807911765443e-05,0.00010936480661374045,0.0017429590225219727,-0.0008673667907714844,7857,348,1.4690369280353222e-05,0.00019970382113761612,0.0020149648189544678,-0.0016276836395263672,11155.0,1094.0
15,1.7888671524199832e-05,0.00013267437921996887,0.00013267437921996887,-0.0008642673492431641,9315.0,1115.0,1.715745530814877e-05,0.00013045757330645068,0.0014823675155639648,-0.0008714199066162109,7857,491,1.3115989768160452e-05,0.00019337295236586806,0.0018466338515281677,-0.001199550461024046,11155.0,1193.0
16,2.3695286891075233e-05,0.00015166851993035193,0.00015166851993035193,-0.0011286735534667969,9315.0,1277.0,1.8595158484838718e-05,0.00013547569713750097,0.0012390613555908203,-0.0007631778717041016,7857,617,1.1482154550794754e-05,0.00019879631965044777,0.002003908157348633,-0.0013539791107177734,11155.0,1321.0
17,2.7666270824862115e-05,0.00017695907041829394,0.00017695907041829394,-0.0013408660888671875,9315.0,1459.0,1.7789051560662517e-05,0.00013384684400462906,0.001234099268913269,-0.0007450580596923828,7857,757,7.213635509144907e-06,0.0001911626884879486,0.0018227994441986084,-0.0020258426666259766,11155.0,1466.0
18,3.10158758447718e-05,0.00019978805020625902,0.00019978805020625902,-0.001219719648361206,9315.0,1621.0,1.4263750605718528e-05,0.0001265708307264275,0.0011993944644927979,-0.0007963180541992188,7857,893,3.351301837404451e-07,0.0001850923607281959,0.0016546547412872314,-0.002396225929260254,11155.0,1592.0
19,3.690843954552375e-05,0.0002210404500838201,0.0002210404500838201,-0.0015025138854980469,9315.0,1787.0,1.1585045459389732e-05,0.00013761755704514225,0.001407478004693985,-0.0009734630584716797,7857,1128,-7.669368714130898e-07,0.00020623175999842414,0.0014542341232299805,-0.0022619962692260742,11155.0,1778.0
20,4.3178359625218174e-05,0.0002410462554783251,0.0002410462554783251,-0.0015866756439208984,9315.0,1951.0,1.0225078795355089e-05,0.00016964745790214823,0.0016782283782958984,-0.0014077425003051758,7857,1369,4.688132404951284e-06,0.00026065951684666594,0.0018665790557861328,-0.0022960901260375977,11155.0,2087.0
21,4.861792993468847e-05,0.000255215810474452,0.000255215810474452,-0.001520395278930664,9315.0,2137.0,9.929239621891598e-06,0.00021017929014463082,0.002003908157348633,-0.0016276836395263672,7857,1567,9.538434156619934e-06,0.0002691684883980479,0.0015327930450439453,-0.0021640658378601074,11155.0,2319.0
22,5.388159244368778e-05,0.00027150198025681604,0.00027150198025681604,-0.001294255256652832,9315.0,2330.0,1.181606881332804e-05,0.00024715487066119177,0.00240480899810791,-0.0014767646789550781,7857,1768,1.9344125645084275e-05,0.0002590077985088567,0.0015454292297363281,-0.0016932189464569092,11155.0,2583.0
23,5.577865844967941e-05,0.00028625443461133325,0.00028625443461133325,-0.001110076904296875,9315.0,2489.0,1.3371364703842633e-05,0.0002719738899516352,0.0021561384201049805,-0.0018169879913330078,7857,1949,3.0467359842553048e-05,0.0002731979018259712,0.0015935897827148438,-0.001562952995300293,11155.0,3095.0
24,5.604980372355364e-05,0.0002994410739522831,0.0002994410739522831,-0.0012590885162353516,9315.0,2625.0,1.4020854307659111e-05,0.0002927545970670285,0.0017801523208618164,-0.0020809173583984375,7857,2108,3.884056409180552e-05,0.0003122871795201419,0.0020945072174072266,-0.0016544163227081299,11155.0,3617.0
25,5.722496034557493e-05,0.0003137545522482083,0.0003137545522482083,-0.0014150142669677734,9315.0,2772.0,1.2945953484357211e-05,0.0003083388650028193,0.0017291936092078686,-0.0021239519119262695,7857,2249,4.243471553208167e-05,0.0003496289305313206,0.0019617080688476562,-0.0020636320114135742,11155.0,4069.0
26,6.295411777670105e-05,0.00032172989204138307,0.00032172989204138307,-0.0015778541564941406,9315.0,2885.0,1.210501268668442e-05,0.0003190422479789082,0.0015181899070739746,-0.002228856086730957,7857,2399,4.135299399799861e-05,0.00037460574703100874,0.002321004867553711,-0.002291947603225708,11155.0,4434.0
27,6.82829524166942e-05,0.0003333377003340818,0.0003333377003340818,-0.0017217397689819336,9315.0,2993.0,1.2760399499986559e-05,0.0003257013416578055,0.001592874526977539,-0.0027774572372436523,7857,2521,3.9713194766394694e-05,0.0003866205619171029,0.0022889375686645508,-0.002382516860961914,11155.0,4819.0
28,7.273518851914723e-05,0.00035296030600035785,0.00035296030600035785,-0.0022361278533935547,9315.0,3087.0,1.414059254645638e-05,0.00032900524152873695,0.0022193193435668945,-0.0032938718795776367,7857,2641,3.254695261458327e-05,0.0003841233040121344,0.0021375417709350586,-0.002239704132080078,11155.0,5023.0
29,7.356806736693419e-05,0.0003715271547920479,0.0003715271547920479,-0.0026988983154296875,9315.0,3172.0,1.6647174475158698e-05,0.00031557961535804845,0.0025482177734375,-0.0031671524047851562,7857,2751,3.2713673773641416e-05,0.0003752197333744296,0.001931905746459961,-0.002625703811645508,11155.0,5144.0
30,7.07817567296559e-05,0.00038431488404611764,0.00038431488404611764,-0.002621173858642578,9315.0,3249.0,2.311893084468276e-05,0.00029059662539788426,0.002180337905883789,-0.0021979808807373047,7857,2842,4.424825246002924e-05,0.0003774943277398799,0.0018498897552490234,-0.0026988983154296875,11155.0,5244.0
31,6.727199512102676e-05,0.0003928654878321633,0.0003928654878321633,-0.0032197237014770508,9315.0,3309.0,3.411038397653614e-05,0.00028091161967211994,0.0017299652099609375,-0.0016218572854995728,7857,2937,6.309717661969978e-05,0.0003945021827887086,0.0018606185913085938,-0.0022745132446289062,11155.0,5346.0
32,6.908551561020032e-05,0.0003936737657583967,0.0003936737657583967,-0.0032938718795776367,9315.0,3368.0,4.768524797011223e-05,0.0002850138281686984,0.001842498779296875,-0.001611948013305664,7857,3016,8.748415829408474e-05,0.00041391509059594453,0.0021314620971679688,-0.003041386604309082,11155.0,5427.0
33,7.009569036744843e-05,0.00038726532588391504,0.00038726532588391504,-0.003052830696105957,9315.0,3405.0,6.280121852465868e-05,0.0002982029842560386,0.0016744136810302734,-0.0014775991439819336,7857,3092,0.00010819547516900164,0.00042556283020589913,0.0020749568939208984,-0.0032938718795776367,11155.0,5493.0
34,7.1296314968839e-05,0.0003825060080769579,0.0003825060080769579,-0.0025261640548706055,9315.0,3453.0,7.728326730580665e-05,0.00031996571145019456,0.0017154216766357422,-0.0018355846405029297,7857,3168,0.00012199943125976817,0.0004297651120048812,0.002215743064880371,-0.003075242042541504,11155.0,5559.0
35,7.471177226126317e-05,0.0003838409841609364,0.0003838409841609364,-0.0021239519119262695,9315.0,3490.0,8.914266900010421e-05,0.0003546003274528776,0.0019505023956298828,-0.0027565360069274902,7857,3254,0.00012843616601133554,0.0004332373236373085,0.002084672451019287,-0.002802610397338867,11155.0,5571.0
36,8.232011946081422e-05,0.0003877137884838775,0.0003877137884838775,-0.0020612478256225586,9315.0,3521.0,9.78039436832961e-05,0.0003725697922266143,0.0019371509552001953,-0.0024452805519104004,7857,3308,0.00012732837162646423,0.0004360530304107296,0.002824988216161728,-0.0025222301483154297,11155.0,5578.0
37,8.823110087831261e-05,0.0003882559950849799,0.0003882559950849799,-0.0020809173583984375,9315.0,3548.0,0.00010493771092219671,0.0003965243108031955,0.0024704933166503906,-0.002117335796356201,7857,3381,0.00012039079688091193,0.00044039038083534213,0.0033370256423950195,-0.001973867416381836,11155.0,5549.0
38,8.870848800469104e-05,0.0003862901848947959,0.0003862901848947959,-0.0019562244415283203,9315.0,3574.0,0.00011039493332925293,0.0004177568872360632,0.0022499561309814453,-0.0024256110191345215,7857,3428,0.00012693462749034773,0.00044239344147031144,0.0033881664276123047,-0.0015153884887695312,11155.0,5507.0
39,8.448708490146123e-05,0.000381704602740617,0.000381704602740617,-0.0017256736755371094,9315.0,3589.0,0.00011601981497660115,0.00044050001696710033,0.002615988254547119,-0.002428397536277771,7857,3486,0.00015525390247638822,0.00044206410207052563,0.0037848949432373047,-0.0014134645462036133,11155.0,5456.0
40,8.348175939694907e-05,0.0003773250331035523,0.0003773250331035523,-0.0014707446098327637,9315.0,3576.0,0.0001166246261959728,0.00045916551937207815,0.0026418715715408325,-0.002396881580352783,7857,3513,0.00018255331670390676,0.00044956284276580335,0.004008889198303223,-0.0012584924697875977,11155.0,5396.0
41,8.261278495382492e-05,0.0003733825340266474,0.0003733825340266474,-0.0014616847038269043,9315.0,3591.0,0.00011426793936539508,0.00047813355468717027,0.002521991729736328,-0.0027283430099487305,7857,3537,0.00019426206135158045,0.00045279448193088047,0.0036718249320983887,-0.0015625953674316406,11155.0,5349.0
42,7.679338680812215e-05,0.0003662905465721937,0.0003662905465721937,-0.0019953250885009766,9315.0,3604.0,0.00011152930493526772,0.0004958637364823348,0.0024938583374023438,-0.0029163360595703125,7857,3540,0.00019339166405207486,0.00043965311720508914,0.0030353665351867676,-0.0015277862548828125,11155.0,5277.0
43,7.365334497702719e-05,0.0003592989791996259,0.0003592989791996259,-0.0017251968383789062,9315.0,3619.0,0.00011453332336388,0.0005003219706969787,0.0029495954513549805,-0.0028047561645507812,7857,3519,0.00018870857557510298,0.00042333989781225684,0.0025644004344940186,-0.0018291473388671875,11155.0,5180.0
44,7.360828470829144e-05,0.00035753611323046124,0.00035753611323046124,-0.0017850399017333984,9315.0,3612.0,0.00013222275140904011,0.0004792433854931634,0.0027745962142944336,-0.0026988983154296875,7857,3414,0.00018698308635244236,0.00041593834548457565,0.0028154850006103516,-0.0019414424896240234,11155.0,5085.0
45,7.486651093917496e-05,0.0003787403600361541,0.0003787403600361541,-0.0022414326667785645,9315.0,3588.0,0.00015431582556677247,0.0004715049802012401,0.0025076866149902344,-0.0027811527252197266,7857,3298,0.0001867535045742091,0.00040541110166079886,0.0025624483823776245,-0.0018258094787597656,11155.0,4976.0
46,7.564198496685e-05,0.0004068962925436058,0.0004068962925436058,-0.0025479793548583984,9315.0,3524.0,0.00017537016027904662,0.00048175641478135755,0.0026674270629882812,-0.0025937519967556,7857,3195,0.00018992114974731008,0.0003878713208269562,0.0019207000732421875,-0.0014150142669677734,11155.0,4871.0
47,7.718941277369867e-05,0.0004256446044093745,0.0004256446044093745,-0.0028706789016723633,9315.0,3449.0,0.0001900150204735583,0.0005088417948005157,0.00316011905670166,-0.002382516860961914,7857,3088,0.0001952486186706161,0.0003838855347046417,0.0022089481353759766,-0.0012166202068328857,11155.0,4757.0
48,8.458239207583141e-05,0.0004359264363425159,0.0004359264363425159,-0.0029163360595703125,9315.0,3398.0,0.0002062349044902317,0.0005287556457183737,0.0033833980560302734,-0.0021772384643554688,7857,3027,0.00019781678934304602,0.0003869678760264071,0.00252377986907959,-0.0009490549564361572,11155.0,4634.0
49,9.936789495988448e-05,0.00044250069618526733,0.00044250069618526733,-0.0027565360069274902,9315.0,3428.0,0.0002195446542627129,0.0005219815967015708,0.0028769969940185547,-0.0021628141403198242,7857,2988,0.00019910856808157197,0.00039464990069203946,0.002314329147338867,-0.0014171600341796875,11155.0,4496.0
50,0.000115449611303535,0.00044180392536346863,0.00044180392536346863,-0.0026629269123077393,9315.0,3505.0,0.0002247719962086265,0.0004978067899895603,0.0028154850006103516,-0.0018678903579711914,7857,2971,0.00020177119890691175,0.0004029384599119385,0.0023910105228424072,-0.0016453266143798828,11155.0,4352.0
51,0.00013066532439739712,0.0004274446455263039,0.0004274446455263039,-0.002419382333755493,9315.0,3574.0,0.0002221200975348356,0.0004729752266632891,0.002432584762573242,-0.0013736486434936523,7857,2941,0.00020665462813012432,0.0004120031434408708,0.0026928186416625977,-0.0010803937911987305,11155.0,4198.0
52,0.00013801970261627643,0.0004094115217248876,0.0004094115217248876,-0.0020776838064193726,9315.0,3600.0,0.00022124330582610664,0.0004560221069473236,0.0028429031372070312,-0.0012981891632080078,7857,2920,0.0002069739336089462,0.0004161112269187123,0.0031179189682006836,-0.0011714696884155273,11155.0,4031.0
53,0.00013682801989809486,0.00040292340749571004,0.00040292340749571004,-0.001574493944644928,9315.0,3604.0,0.0002191251062489467,0.00044334582651669253,0.0033249855041503906,-0.0012884140014648438,7857,2904,0.00020113897797115066,0.00040782198386772145,0.0034197568893432617,-0.0010625123977661133,11155.0,3862.0
54,0.00012930296660451917,0.0004013842499315538,0.0004013842499315538,-0.0016453266143798828,9315.0,3585.0,0.00021507016214970828,0.00043121899571189464,0.0033326148986816406,-0.0011407136917114258,7857,2886,0.0001887403927141895,0.0003915688972600271,0.0037369728088378906,-0.001416921615600586,11155.0,3677.0
55,0.00012182734631382127,0.00040215442709187396,0.00040215442709187396,-0.0018916130065917969,9315.0,3576.0,0.0002034931248591164,0.0004165615365058031,0.0029065608978271484,-0.001317441463470459,7857,2866,0.00017187703196405997,0.0003740585108028953,0.003164529800415039,-0.0017251968383789062,11155.0,3465.0
56,0.00011440709964875091,0.00040121600942240185,0.00040121600942240185,-0.001906275749206543,9315.0,3568.0,0.00018737998037506482,0.000400144321270174,0.002269744873046875,-0.00158613920211792,7857,2852,0.00015881665108173564,0.00036213305338218615,0.0021965503692626953,-0.001906275749206543,11155.0,3244.0
57,0.00010829539335934196,0.00039838944177348804,0.00039838944177348804,-0.0018075406551361084,9315.0,3573.0,0.00017358175155218224,0.0003940248715376408,0.002253592014312744,-0.001414656639099121,7857,2856,0.00014800823588499902,0.00035319419049940096,0.002280712127685547,-0.0018916130065917969,11155.0,3018.0
58,0.0001098928671511179,0.00038723865166013464,0.00038723865166013464,-0.0015153884887695312,9315.0,3558.0,0.0001678695090254822,0.0003970048543312783,0.0032743215560913086,-0.0012965202331542969,7857,2860,0.00013676204383961858,0.00033971695372688013,0.0021839141845703125,-0.0014748573303222656,11155.0,2773.0
59,0.00012273152454561737,0.00038249660494873614,0.00038249660494873614,-0.0018503665924072266,9315.0,3536.0,0.00016878443389008597,0.00039885898822721976,0.0037369728088378906,-0.0011076927185058594,7857,2853,0.00012510867192648295,0.000324259478758254,0.0024704933166503906,-0.0012524127960205078,11155.0,2508.0
60,0.00014390453713892086,0.00038856308795315883,0.00038856308795315883,-0.0016930103302001953,9315.0,3521.0,0.00017258085077384016,0.00040395387074102136,0.0032858848571777344,-0.0012409687042236328,7857,2838,0.00011575503951791843,0.0003122761408403303,0.00220489501953125,-0.0007874965667724609,11155.0,2248.0
61,0.0001646568174824031,0.0003985718560774848,0.0003985718560774848,-0.0016732215881347656,9315.0,3481.0,0.00017634888847065864,0.0004122037587728167,0.0025870800018310547,-0.0013151541352272034,7857,2819,0.00010646077209269531,0.00030385940702234933,0.0017795562744140625,-0.0011444091796875,11155.0,2004.0
62,0.0001762446916901611,0.0004122357353591217,0.0004122357353591217,-0.0012068748474121094,9315.0,3428.0,0.000175553249514023,0.0004145635502821574,0.0023512840270996094,-0.0014134645462036133,7857,2813,9.945169346284327e-05,0.0003049223942880774,0.001947164535522461,-0.0017333030700683594,11155.0,1746.0
63,0.0001736416369456632,0.00041239739574811316,0.00041239739574811316,-0.0011569857597351074,9315.0,3366.0,0.000166892844423985,0.0004097739607046648,0.0023658275604248047,-0.0013066530227661133,7857,2804,9.355933808633729e-05,0.00030737781720587644,0.0023658275604248047,-0.0019953250885009766,11155.0,1488.0
64,0.00016341514395550144,0.00040268227268495363,0.00040268227268495363,-0.001285463571548462,9315.0,3320.0,0.00015140835068533424,0.0004050444858063392,0.002056121826171875,-0.0014836788177490234,7857,2782,8.154177043882522e-05,0.0002899350185396073,0.0023374557495117188,-0.0009181499481201172,11155.0,1215.0
65,0.00015603163352329133,0.000386693814498402,0.000386693814498402,-0.0011993646621704102,9315.0,3270.0,0.00014245350289173814,0.0004078641314489185,0.0020911693572998047,-0.0016434192657470703,7857,2769,6.32928992298706e-05,0.00025988890324534294,0.0026418715715408325,-0.0002872943878173828,11155.0,943.0
66,0.00015223161232424276,0.0003780901628341367,0.0003780901628341367,-0.0012965202331542969,9315.0,3210.0,0.0001421375618948257,0.00040690606108184847,0.002058267593383789,-0.001906275749206543,7857,2731,4.0458503274429893e-05,0.00019603366547658795,0.0029495954513549805,-0.00017023086547851562,11155.0,686.0
67,0.00014601552180515455,0.0003678406022371368,0.0003678406022371368,-0.00124359130859375,9315.0,3138.0,0.0001447828349299265,0.00040533762930982335,0.002341032028198242,-0.0018916130065917969,7857,2704,2.0126825278263385e-05,0.0001289254087345583,0.001604318618774414,-0.0001671314239501953,11155.0,381.0
68,0.00014154656809693182,0.00036343374293358236,0.00036343374293358236,-0.0015954971313476562,9315.0,3065.0,0.00014266160052649066,0.00041136885743148113,0.004008889198303223,-0.0015981793403625488,7857,2678,5.76960137477107e-06,6.231651594550305e-05,0.0012598037719726562,0.0,11155.0,109.0
69,0.00013728202254007386,0.00036240559631074216,0.00036240559631074216,-0.0018553733825683594,9315.0,2972.0,0.0001358590523045553,0.00040263542331344325,0.0037848949432373047,-0.001592874526977539,7857,2634,0.0,0.0,0.0,0.0,11155.0,0.0
70,0.00013214175354302435,0.00035998508280165464,0.00035998508280165464,-0.0022960901260375977,9315.0,2865.0,0.0001287832231281224,0.0003857477221591803,0.0033370256423950195,-0.001697540283203125,7857,2609,0.0,0.0,0.0,0.0,11155.0,0.0
71,0.00012738735770786175,0.0003483350698998743,0.0003483350698998743,-0.0022619962692260742,9315.0,2752.0,0.00012294246960245595,0.0003696297466343213,0.0029675811529159546,-0.0015780925750732422,7857,2564,0.0,0.0,0.0,0.0,11155.0,0.0
72,0.00012610306765487237,0.00033451706031974285,0.00033451706031974285,-0.002396225929260254,9315.0,2617.0,0.00011417106689437466,0.0003550590719053129,0.0024567842483520508,-0.001486063003540039,7857,2504,0.0,0.0,0.0,0.0,11155.0,0.0
73,0.00013041038233179436,0.00032532736007868403,0.00032532736007868403,-0.001987755298614502,9315.0,2483.0,0.00010269427685600698,0.00033969525015958493,0.0023033618927001953,-0.0015494823455810547,7857,2433,0.0,0.0,0.0,0.0,11155.0,0.0
74,0.0001355296475052625,0.0003219217240234839,0.0003219217240234839,-0.0018171072006225586,9315.0,2321.0,9.179604442751508e-05,0.00032631608446649277,0.002263784408569336,-0.00153350830078125,7857,2372,0.0,0.0,0.0,0.0,11155.0,0.0
75,0.0001372393639833215,0.0003239957796077128,0.0003239957796077128,-0.0007350444793701172,9315.0,2126.0,7.96929500460833e-05,0.0003138113276260713,0.001812577247619629,-0.0019953250885009766,7857,2302,0.0,0.0,0.0,0.0,11155.0,0.0
76,0.00013324652755482025,0.00032870023563775087,0.00032870023563775087,-0.0008056163787841797,9315.0,1927.0,6.76726766224143e-05,0.0003044405977172859,0.0017232894897460938,-0.0018503665924072266,7857,2240,0.0,0.0,0.0,0.0,11155.0,0.0
77,0.00012702632237586203,0.00032720170205702363,0.00032720170205702363,-0.0007205009460449219,9315.0,1764.0,5.86733894281417e-05,0.00029677495096617503,0.0017886161804199219,-0.0017251968383789062,7857,2180,0.0,0.0,0.0,0.0,11155.0,0.0
78,0.00011730224727210551,0.00031689789092441525,0.00031689789092441525,-0.0006559193134307861,9315.0,1588.0,5.50834518663797e-05,0.00028224559892142497,0.0018389225006103516,-0.001514434814453125,7857,2103,0.0,0.0,0.0,0.0,11155.0,0.0
79,0.0001087241154713971,0.0003106977725535947,0.0003106977725535947,-0.0004951953887939453,9315.0,1407.0,5.9786346381092754e-05,0.0002697447262827144,0.001971721649169922,-0.0013041496276855469,7857,2013,0.0,0.0,0.0,0.0,11155.0,0.0
80,0.0001029707160960809,0.00031174628230266704,0.00031174628230266704,-0.0004723072052001953,9315.0,1259.0,6.788174271240638e-05,0.00026546118940370625,0.0019893646240234375,-0.0012352466583251953,7857,1953,0.0,0.0,0.0,0.0,11155.0,0.0
81,9.357817419474696e-05,0.0003113130541115966,0.0003113130541115966,-0.0009725093841552734,9315.0,1098.0,7.623064953006925e-05,0.00026730175143490893,0.0018538236618041992,-0.0010938644409179688,7857,1926,,,,,,
82,8.560633839228527e-05,0.0003042556431889038,0.0003042556431889038,-0.0008001327514648438,9315.0,945.0,8.028167078800881e-05,0.000269886515178053,0.001958131790161133,-0.001081705093383789,7857,1898,,,,,,
83,7.054083033300381e-05,0.00026529869963505515,0.00026529869963505515,-0.0002491474151611328,9315.0,774.0,7.785296630069511e-05,0.00026988888806130367,0.0019038766622543335,-0.0010342597961425781,7857,1856,,,,,,
84,4.8700736968573615e-05,0.0002132507916180738,0.0002132507916180738,-0.0002034306526184082,9315.0,587.0,7.300768462959186e-05,0.00026278146780763287,0.0016138404607772827,-0.0010972023010253906,7857,1825,,,,,,
85,1.7397408036218172e-05,0.00012135679483356228,0.00012135679483356228,-0.0003356337547302246,9315.0,276.0,6.958138458228073e-05,0.00024917495426214067,0.0016870498657226562,-0.0014505386352539062,7857,1767,,,,,,
86,1.7418207673698873e-06,4.2501210228831134e-05,4.2501210228831134e-05,-0.0002789497375488281,9315.0,26.0,7.005768114340807e-05,0.00024783875349525855,0.001795053482055664,-0.0015950202941894531,7857,1718,,,,,,
87,0.0,0.0,0.0,0.0,9315.0,0.0,7.257646944993069e-05,0.0002493428886056397,0.0018821954727172852,-0.0016453266143798828,7857,1663,,,,,,
88,0.0,0.0,0.0,0.0,9315.0,0.0,7.3893662366076e-05,0.00024949082555707485,0.001817464828491211,-0.0015025138854980469,7857,1601,,,,,,
89,0.0,0.0,0.0,0.0,9315.0,0.0,7.073750573879276e-05,0.00024034669618654047,0.002178668975830078,-0.0012438297271728516,7857,1532,,,,,,
90,0.0,0.0,0.0,0.0,9315.0,0.0,6.378788592043633e-05,0.00022707634861262967,0.0020728111267089844,-0.0015866756439208984,7857,1460,,,,,,
91,0.0,0.0,0.0,0.0,9315.0,0.0,5.796824266946312e-05,0.00021985628262231448,0.0017981529235839844,-0.0014133453369140625,7857,1394,,,,,,
92,0.0,0.0,0.0,0.0,9315.0,0.0,5.374895019439083e-05,0.0002191564053175397,0.0016469955444335938,-0.0014801025390625,7857,1313,,,,,,
93,0.0,0.0,0.0,0.0,9315.0,0.0,4.99917125097404e-05,0.0002208147572387688,0.0015411376953125,-0.0017308592796325684,7857,1254,,,,,,
94,0.0,0.0,0.0,0.0,9315.0,0.0,4.5561169212691385e-05,0.0002203807464510909,0.001665949821472168,-0.0017088651657104492,7857,1201,,,,,,
95,0.0,0.0,0.0,0.0,9315.0,0.0,3.928992850688201e-05,0.0002154490699923204,0.0018783211708068848,-0.0016674995422363281,7857,1131,,,,,,
96,0.0,0.0,0.0,0.0,9315.0,0.0,2.905764864525093e-05,0.0001987287196702693,0.0020945072174072266,-0.0019414424896240234,7857,1044,,,,,,
97,,,,,,,1.8847671600452918e-05,0.0001706824766371459,0.0019057989120483398,-0.0018291473388671875,7857,950,,,,,,
98,,,,,,,9.028419432171856e-06,0.00014483054329373683,0.0015358924865722656,-0.0016252994537353516,7857,851,,,,,,
99,,,,,,,2.3357116185679635e-06,0.00011890303407231712,0.0012063980102539062,-0.001188516616821289,7857,725,,,,,,
100,,,,,,,6.935563184054461e-07,9.651411861707201e-05,0.000888824462890625,-0.0010030269622802734,7857,590,,,,,,
101,,,,,,,7.480501275629553e-07,8.67104419771251e-05,0.0008735060691833496,-0.0009604692459106445,7857,460,,,,,,
102,,,,,,,6.368665906057887e-07,8.964172830971385e-05,0.0011692047119140625,-0.0011420249938964844,7857,341,,,,,,
103,,,,,,,3.771888431404874e-07,6.970714731859526e-05,0.001466512680053711,-0.0012631416320800781,7857,177,,,,,,
104,,,,,,,-5.244859775787428e-07,3.223276552155703e-05,0.001226186752319336,-0.000690758228302002,7857,41,,,,,,
105,,,,,,,0.0,0.0,0.0,0.0,7857,0,,,,,,
106,,,,,,,0.0,0.0,0.0,0.0,7857,0,,,,,,
107,,,,,,,0.0,0.0,0.0,0.0,7857,0,,,,,,
108,,,,,,,0.0,0.0,0.0,0.0,7857,0,,,,,,
109,,,,,,,0.0,0.0,0.0,0.0,7857,0,,,,,,
110,,,,,,,0.0,0.0,0.0,0.0,7857,0,,,,,,
111,,,,,,,0.0,0.0,0.0,0.0,7857,0,,,,,,
112,,,,,,,0.0,0.0,0.0,0.0,7857,0,,,,,,
113,,,,,,,0.0,0.0,0.0,0.0,7857,0,,,,,,
114,,,,,,,0.0,0.0,0.0,0.0,7857,0,,,,,,
