,sag_mean,sag_std,sag_max,sag_min,sag_nb_elements,sag_non_zero_elements,hor_mean,hor_std,hor_max,hor_min,hor_nb_elements,hor_non_zero_elements,frt_mean,frt_std,frt_max,frt_min,frt_nb_elements,frt_non_zero_elements
0,0.0,0.0,0.0,0.0,9315.0,0.0,0.0,0.0,0.0,0.0,7857,0,0.0,0.0,0.0,0.0,11155.0,0.0
1,0.0,0.0,0.0,0.0,9315.0,0.0,0.0,0.0,0.0,0.0,7857,0,0.0,0.0,0.0,0.0,11155.0,0.0
2,0.0,0.0,0.0,0.0,9315.0,0.0,0.0,0.0,0.0,0.0,7857,0,0.0,0.0,0.0,0.0,11155.0,0.0
3,0.0,0.0,0.0,0.0,9315.0,0.0,0.0,0.0,0.0,0.0,7857,0,0.0,0.0,0.0,0.0,11155.0,0.0
4,0.0,0.0,0.0,0.0,9315.0,0.0,0.0,0.0,0.0,0.0,7857,0,0.0,0.0,0.0,0.0,11155.0,0.0
5,0.0,0.0,0.0,0.0,9315.0,0.0,0.0,0.0,0.0,0.0,7857,0,0.0,0.0,0.0,0.0,11155.0,0.0
6,0.0,0.0,0.0,0.0,9315.0,0.0,0.0,0.0,0.0,0.0,7857,0,0.0,0.0,0.0,0.0,11155.0,0.0
7,0.0,0.0,0.0,0.0,9315.0,0.0,0.0,0.0,0.0,0.0,7857,0,0.0,0.0,0.0,0.0,11155.0,0.0
8,0.0,0.0,0.0,0.0,9315.0,0.0,0.0,0.0,0.0,0.0,7857,0,0.0,0.0,0.0,0.0,11155.0,0.0
9,0.0,0.0,0.0,0.0,9315.0,0.0,0.0,0.0,0.0,0.0,7857,0,0.0,0.0,0.0,0.0,11155.0,0.0
10,0.0,0.0,0.0,0.0,9315.0,0.0,0.0,0.0,0.0,0.0,7857,0,-5.343311947592167e-12,5.643205291124561e-10,0.0,-5.960464477539063e-08,11155.0,1.0
11,-1.2797561948554079e-11,8.732870984634975e-10,8.732870984634975e-10,-5.960464477539063e-08,9315.0,2.0,0.0,0.0,0.0,0.0,7857,0,1.8451124069029202e-11,1.731649054059804e-09,1.3131648302078247e-07,-4.470348358154297e-08,11155.0,3.0
12,6.398780974277039e-12,6.175403813268846e-10,6.175403813268846e-10,0.0,9315.0,1.0,0.0,0.0,0.0,0.0,7857,0,3.2059871685553004e-11,2.523627622260095e-09,2.384185791015625e-07,0.0,11155.0,2.0
13,2.5595123897108158e-11,1.7465741969269953e-09,1.7465741969269953e-09,0.0,9315.0,2.0,1.5172367258595042e-11,1.3447888016236678e-09,1.1920928955078125e-07,0.0,7857,1,1.7365763829674543e-11,1.7901022104924483e-09,1.341104507446289e-07,-5.960464477539063e-08,11155.0,3.0
14,1.919634292283112e-11,1.8526211439806531e-09,1.8526211439806531e-09,0.0,9315.0,1.0,0.0,0.0,0.0,0.0,7857,0,1.536202184932748e-11,2.610054234312344e-09,2.384185791015625e-07,-1.1920928955078125e-07,11155.0,5.0
15,-1.5996952435692598e-12,1.833319146691201e-09,1.833319146691201e-09,-1.1920928955078125e-07,9315.0,4.0,0.0,0.0,0.0,0.0,7857,0,1.085360239354659e-12,1.1462760747596768e-10,1.210719347000122e-08,0.0,11155.0,1.0
16,1.5597028624800284e-11,1.282973661571993e-09,1.282973661571993e-09,-1.4901161193847656e-08,9315.0,4.0,0.0,0.0,0.0,0.0,7857,0,1.0686623895184334e-11,1.3823180022815712e-09,1.1920928955078125e-07,-5.960464477539063e-08,11155.0,3.0
17,1.839649530104649e-11,2.4374397947048415e-09,2.4374397947048415e-09,-1.1920928955078125e-07,9315.0,7.0,-6.4008424372197835e-12,5.673327756849847e-10,0.0,-5.029141902923584e-08,7857,1,3.740318363314517e-11,4.687659280548981e-09,4.76837158203125e-07,-1.1920928955078125e-07,11155.0,3.0
18,1.919634292283112e-11,1.3808029675717472e-09,1.3808029675717472e-09,0.0,9315.0,2.0,0.0,0.0,0.0,0.0,7857,0,5.343311947592167e-12,1.4931091463586159e-09,5.960464477539063e-08,-1.1920928955078125e-07,11155.0,4.0
19,-3.3193676304062145e-11,2.9100850098673816e-09,2.9100850098673816e-09,-2.384185791015625e-07,9315.0,6.0,0.0,0.0,0.0,0.0,7857,0,-5.343311947592167e-12,6.911590011407856e-10,2.9802322387695312e-08,-5.960464477539063e-08,11155.0,3.0
20,1.119786670498482e-11,3.858274080187812e-09,3.858274080187812e-09,-2.384185791015625e-07,9315.0,6.0,1.5172367258595042e-11,1.344788801623668e-09,1.1920928955078125e-07,0.0,7857,1,1.6029935842776502e-11,2.212796540245392e-09,1.7881393432617188e-07,-5.960464477539063e-08,11155.0,8.0
21,6.398780974277039e-12,1.852709545046887e-09,1.852709545046887e-09,-1.1920928955078125e-07,9315.0,3.0,3.413782633183885e-11,1.810270702656309e-09,1.1920928955078125e-07,0.0,7857,3,-2.6716559737960835e-12,2.212852988704731e-09,1.1920928955078125e-07,-1.7881393432617188e-07,11155.0,6.0
22,2.159588578818501e-11,3.8233189868324465e-09,3.8233189868324465e-09,-2.384185791015625e-07,9315.0,4.0,7.586183629297521e-12,2.017297319099097e-09,1.1920928955078125e-07,-1.1920928955078125e-07,7857,3,1.7365763829674543e-11,3.730089108064458e-09,2.5331974029541016e-07,-1.1920928955078125e-07,11155.0,13.0
23,-1.2797561948554079e-11,2.1392991903929436e-09,2.1392991903929436e-09,-1.1920928955078125e-07,9315.0,3.0,8.72411117369215e-11,6.134793371322107e-09,4.76837158203125e-07,-5.960464477539063e-08,7857,6,5.343311947592167e-12,2.773698608873258e-09,1.1920928955078125e-07,-2.384185791015625e-07,11155.0,8.0
24,-8.798323839630929e-12,4.632436393042026e-09,4.632436393042026e-09,-2.384185791015625e-07,9315.0,14.0,2.2758550887892565e-11,1.5034430320059672e-09,1.1920928955078125e-07,0.0,7857,2,-1.8033677823123564e-11,3.875985874618202e-09,2.384185791015625e-07,-2.384185791015625e-07,11155.0,15.0
25,6.478765736455503e-11,5.050513908709044e-09,5.050513908709044e-09,-1.1920928955078125e-07,9315.0,12.0,1.242237569297469e-10,6.592165504267329e-09,4.76837158203125e-07,0.0,7857,4,-8.014967921388251e-12,3.87922791406549e-09,2.384185791015625e-07,-2.384185791015625e-07,11155.0,10.0
26,2.195831674180617e-11,3.068355495166585e-09,3.068355495166585e-09,-1.1920928955078125e-07,9315.0,9.0,4.551710177578513e-11,2.5156178404913196e-09,1.7881393432617188e-07,0.0,7857,3,9.6179615056659e-11,5.089947432537447e-09,2.384185791015625e-07,-1.1920928955078125e-07,11155.0,11.0
27,2.079603816640038e-11,3.3719382532542812e-09,3.3719382532542812e-09,-1.1920928955078125e-07,9315.0,10.0,5.689637721973141e-12,3.815002858512364e-09,2.384185791015625e-07,-1.1920928955078125e-07,7857,7,1.3608747616523801e-11,3.4597504705922477e-09,2.384185791015625e-07,-1.1920928955078125e-07,11155.0,11.0
28,1.679680005747723e-11,2.243958782444679e-09,2.243958782444679e-09,-1.1920928955078125e-07,9315.0,10.0,5.831878665022469e-11,4.520052825255802e-09,2.384185791015625e-07,-1.1920928955078125e-07,7857,8,2.596515649533069e-11,4.199621597550075e-09,2.384185791015625e-07,-2.384185791015625e-07,11155.0,13.0
29,4.4291562056323885e-11,2.809006575886645e-09,2.809006575886645e-09,0.0,9315.0,3.0,7.064633504783317e-11,3.124237470954704e-09,1.1920928955078125e-07,-8.940696716308594e-08,7857,8,5.979917472598265e-12,3.58048885763441e-09,2.384185791015625e-07,-1.7881393432617188e-07,11155.0,12.0
30,4.319177157637002e-11,2.78303115211483e-09,2.78303115211483e-09,-1.1920928955078125e-07,9315.0,7.0,-3.7930918146487606e-12,3.759036279519102e-09,1.1920928955078125e-07,-2.384185791015625e-07,7857,6,2.3460479019896858e-11,4.144995483754422e-09,1.7881393432617188e-07,-2.384185791015625e-07,11155.0,19.0
31,-2.549514294438508e-11,4.372892121578801e-09,4.372892121578801e-09,-2.384185791015625e-07,9315.0,10.0,6.519376556427557e-11,3.734487554064018e-09,2.384185791015625e-07,-1.1920928955078125e-07,7857,7,6.679139934490209e-12,4.102433555633445e-09,1.7881393432617188e-07,-2.384185791015625e-07,11155.0,15.0
32,8.398400028738614e-11,4.482606828923019e-09,4.482606828923019e-09,-1.1920928955078125e-07,9315.0,15.0,4.551710177578513e-11,3.0068860640119343e-09,2.384185791015625e-07,0.0,7857,2,1.3207999220454387e-10,6.586753425893098e-09,4.76837158203125e-07,-2.384185791015625e-07,11155.0,25.0
33,3.99923810892315e-11,1.725707157989712e-09,1.725707157989712e-09,0.0,9315.0,6.0,1.1142207205530735e-10,4.291311159797382e-09,2.384185791015625e-07,0.0,7857,7,9.818335703700607e-11,4.748488302685861e-09,2.384185791015625e-07,-1.1920928955078125e-07,11155.0,16.0
34,5.438963828135484e-11,5.735201722099947e-09,5.735201722099947e-09,-2.384185791015625e-07,9315.0,6.0,1.4224094304932853e-10,6.437256219217357e-09,2.384185791015625e-07,-1.9371509552001953e-07,7857,15,4.875772152177852e-11,3.9833645822556255e-09,2.384185791015625e-07,-1.1920928955078125e-07,11155.0,20.0
35,7.998476217846299e-13,3.383470215390476e-09,3.383470215390476e-09,-2.384185791015625e-07,9315.0,10.0,9.12712717899858e-12,2.2343819686680305e-09,1.1920928955078125e-07,-1.1920928955078125e-07,7857,6,-4.800631827914838e-12,3.4158531655465425e-09,1.1920928955078125e-07,-2.384185791015625e-07,11155.0,17.0
36,6.848695261530893e-11,3.6485981693521103e-09,3.6485981693521103e-09,-1.1920928955078125e-07,9315.0,12.0,-7.586183629297521e-12,3.978184858034958e-09,1.7881393432617188e-07,-2.384185791015625e-07,7857,6,1.0686623895184334e-11,5.134644331793312e-09,2.384185791015625e-07,-2.384185791015625e-07,11155.0,14.0
37,1.7996571490154173e-11,4.026231650292635e-09,4.026231650292635e-09,-2.384185791015625e-07,9315.0,13.0,1.156893003467872e-10,5.977996936738064e-09,4.76837158203125e-07,0.0,7857,6,2.938821571175692e-11,2.925483420152334e-09,2.384185791015625e-07,-5.960464477539063e-08,11155.0,8.0
38,4.3591695387262334e-11,2.86349900230178e-09,2.86349900230178e-09,-1.1920928955078125e-07,9315.0,13.0,4.646537472944732e-11,3.830434476735192e-09,2.384185791015625e-07,-1.1920928955078125e-07,7857,6,3.873901162004321e-11,4.787437075852024e-09,2.384185791015625e-07,-1.6391277313232422e-07,11155.0,25.0
39,1.7196723868369546e-11,2.610116347569654e-09,2.610116347569654e-09,-1.1920928955078125e-07,9315.0,8.0,-1.9913732026905993e-11,2.9562199067063415e-09,1.1920928955078125e-07,-1.1920928955078125e-07,7857,8,6.011225941041188e-11,4.436531912037722e-09,2.384185791015625e-07,-2.384185791015625e-07,11155.0,13.0
40,1.819653339560033e-11,3.1176444990955357e-09,3.1176444990955357e-09,-1.1920928955078125e-07,9315.0,7.0,4.5161499418161806e-11,4.038431800104716e-09,1.7881393432617188e-07,-2.384185791015625e-07,7857,8,7.34705392793923e-11,3.6810557475854817e-09,2.384185791015625e-07,-2.9802322387695312e-08,11155.0,9.0
41,4.879070492886243e-11,2.8807924261950778e-09,2.8807924261950778e-09,-2.9802322387695312e-08,9315.0,7.0,-2.3706823841554753e-13,3.4185166327174376e-09,2.384185791015625e-07,-1.1920928955078125e-07,7857,9,5.460196896445746e-11,3.4338421820880897e-09,2.384185791015625e-07,-1.1920928955078125e-07,11155.0,9.0
42,3.99923810892315e-11,4.034759956381779e-09,4.034759956381779e-09,-2.384185791015625e-07,9315.0,10.0,4.6939511206278414e-11,3.605482168244411e-09,2.384185791015625e-07,-1.1920928955078125e-07,7857,9,4.575210855125793e-11,2.9058581793012395e-09,2.384185791015625e-07,-5.960464477539063e-08,11155.0,12.0
43,9.698152414138639e-12,2.249326460709136e-09,2.249326460709136e-09,-1.1920928955078125e-07,9315.0,5.0,5.215501245142046e-11,5.737070021606342e-09,2.384185791015625e-07,-2.384185791015625e-07,7857,16,5.013529413326713e-11,4.279363407316195e-09,2.384185791015625e-07,-1.1920928955078125e-07,11155.0,18.0
44,-9.59817146141556e-12,2.371816732564393e-09,2.371816732564393e-09,-1.1920928955078125e-07,9315.0,8.0,3.0344734517190084e-11,5.837938604219276e-09,2.384185791015625e-07,-2.384185791015625e-07,7857,13,6.729233483998886e-11,5.01485083298277e-09,4.76837158203125e-07,-1.1920928955078125e-07,11155.0,15.0
45,-2.239573340996964e-11,2.2478900258780235e-09,2.2478900258780235e-09,-1.7881393432617188e-07,9315.0,6.0,1.825425435799716e-11,3.950582231132444e-09,2.384185791015625e-07,-1.7695128917694092e-07,7857,10,2.6382602741236327e-11,3.5392108646880092e-09,1.1920928955078125e-07,-2.384185791015625e-07,11155.0,14.0
46,5.7589028768493356e-11,4.645896407264419e-09,4.645896407264419e-09,-2.384185791015625e-07,9315.0,15.0,3.7930918146487606e-12,2.710678336572485e-09,1.1920928955078125e-07,-1.1920928955078125e-07,7857,8,3.3395699672451047e-12,1.6224908108939092e-09,5.960464477539063e-08,-1.1920928955078125e-07,11155.0,7.0
47,-7.998476217846299e-13,1.5147082528391441e-09,1.5147082528391441e-09,-8.940696716308594e-08,9315.0,3.0,1.997299908650988e-11,4.460798090972564e-09,2.384185791015625e-07,-2.384185791015625e-07,7857,10,8.432414167293889e-12,2.1962083276271485e-09,1.1920928955078125e-07,-1.1920928955078125e-07,11155.0,12.0
48,3.159398106049288e-11,1.3571751421998336e-09,1.3571751421998336e-09,-2.9802322387695312e-08,9315.0,8.0,7.195021035911868e-11,5.840759687458471e-09,2.384185791015625e-07,-2.384185791015625e-07,7857,11,6.988050156460382e-11,3.579875491233869e-09,2.384185791015625e-07,-5.960464477539063e-08,11155.0,20.0
49,5.019043826698553e-11,4.207141628412007e-09,4.207141628412007e-09,-2.384185791015625e-07,9315.0,11.0,2.3706823841554756e-11,3.939752198604739e-09,2.384185791015625e-07,-1.1920928955078125e-07,7857,13,-3.122497919374173e-11,3.485197146076101e-09,1.1920928955078125e-07,-2.384185791015625e-07,11155.0,9.0
50,3.99923810892315e-12,2.715082722694118e-09,2.715082722694118e-09,-1.1920928955078125e-07,9315.0,8.0,6.780151618684659e-11,3.6644350404750255e-09,2.384185791015625e-07,-1.1920928955078125e-07,7857,10,3.2727785679002024e-11,4.500572132338915e-09,1.1920928955078125e-07,-2.384185791015625e-07,11155.0,15.0
51,-4.5591314441723905e-11,3.1230343074597694e-09,3.1230343074597694e-09,-1.1920928955078125e-07,9315.0,11.0,-2.2758550887892565e-11,2.0724656721886917e-09,5.960464477539063e-08,-1.1920928955078125e-07,7857,5,7.280262528594328e-11,4.054815254110674e-09,2.384185791015625e-07,-1.1920928955078125e-07,11155.0,11.0
52,2.5595123897108158e-11,1.512523484590093e-09,1.512523484590093e-09,0.0,9315.0,3.0,4.599123825261622e-11,3.0294100428694436e-09,1.1920928955078125e-07,-1.1920928955078125e-07,7857,9,4.675397954143146e-11,3.2076314850879863e-09,2.384185791015625e-07,-1.1920928955078125e-07,11155.0,11.0
53,9.643162890140945e-11,5.022648049387065e-09,5.022648049387065e-09,-1.1920928955078125e-07,9315.0,12.0,4.646537472944732e-11,2.5504657411210413e-09,1.1920928955078125e-07,-5.960464477539063e-08,7857,8,2.437886076088926e-11,1.7792151290249586e-09,1.1920928955078125e-07,-5.960464477539063e-08,11155.0,6.0
54,-2.159588578818501e-11,2.4906214656400894e-09,2.4906214656400894e-09,-1.1920928955078125e-07,9315.0,9.0,9.008593059790807e-12,2.110154284603039e-09,1.1920928955078125e-07,-1.1920928955078125e-07,7857,7,7.413845327284132e-11,4.5169129613938285e-09,2.384185791015625e-07,-1.1920928955078125e-07,11155.0,13.0
55,6.598742879723197e-12,5.136948363130238e-09,5.136948363130238e-09,-1.9371509552001953e-07,9315.0,19.0,5.1088205378550495e-11,3.447927664139755e-09,2.384185791015625e-07,-4.470348358154297e-08,7857,6,4.541815155453342e-11,4.000233652196587e-09,1.7881393432617188e-07,-2.384185791015625e-07,11155.0,6.0
56,6.668729546629352e-11,3.372461288075647e-09,3.372461288075647e-09,-1.1920928955078125e-07,9315.0,15.0,8.107733753811726e-11,3.4547581446762606e-09,1.7881393432617188e-07,-5.960464477539063e-08,7857,13,2.7050516734685348e-11,2.439717896837786e-09,1.1920928955078125e-07,-1.1920928955078125e-07,11155.0,6.0
57,9.35821717488017e-11,6.715460138753461e-09,6.715460138753461e-09,-2.384185791015625e-07,9315.0,15.0,4.362055586846075e-11,4.107280950241851e-09,1.1920928955078125e-07,-2.384185791015625e-07,7857,12,1.469410785587846e-11,1.2053536488831125e-09,1.1920928955078125e-07,0.0,11155.0,2.0
58,-3.5193295358523716e-11,3.479672155271805e-09,3.479672155271805e-09,-2.384185791015625e-07,9315.0,10.0,1.0336175194917873e-10,3.336332061601897e-09,1.1920928955078125e-07,0.0,7857,9,-5.0761463502125585e-11,3.928619578416725e-09,5.960464477539063e-08,-2.384185791015625e-07,11155.0,13.0
59,3.679299060209298e-11,4.258972208582169e-09,4.258972208582169e-09,-2.384185791015625e-07,9315.0,7.0,4.646537472944732e-11,3.068506368433849e-09,1.7881393432617188e-07,-1.043081283569336e-07,7857,5,3.072404369865496e-11,4.638618397122275e-09,2.384185791015625e-07,-2.384185791015625e-07,11155.0,9.0
60,3.279375249316983e-11,4.026693338842617e-09,4.026693338842617e-09,-2.384185791015625e-07,9315.0,9.0,2.8448188609865706e-12,1.9766230539083104e-09,1.4901161193847656e-07,-5.960464477539063e-08,7857,5,-1.0018709901735314e-12,3.327502335004956e-10,1.862645149230957e-08,-2.9802322387695312e-08,11155.0,2.0
61,2.089601911912346e-11,2.677448312116305e-09,2.677448312116305e-09,-5.960464477539063e-08,9315.0,7.0,1.1379275443946282e-11,4.0485920456996545e-09,2.384185791015625e-07,-1.1920928955078125e-07,7857,7,1.8701591816572585e-11,3.8379209852313095e-09,2.384185791015625e-07,-2.384185791015625e-07,11155.0,8.0
62,3.8442676322023777e-11,4.520183725046295e-09,4.520183725046295e-09,-1.1920928955078125e-07,9315.0,17.0,-1.884692495403603e-11,2.750739414225416e-09,1.4901161193847656e-07,-1.1920928955078125e-07,7857,7,-2.6716559737960835e-12,6.309521578176687e-10,2.9802322387695312e-08,-5.960464477539063e-08,11155.0,2.0
63,2.799466676246205e-11,1.9173216728980533e-09,1.9173216728980533e-09,-4.470348358154297e-08,9315.0,8.0,1.3749957828101758e-11,3.957022255673863e-09,2.5331974029541016e-07,-1.1920928955078125e-07,7857,13,-1.6029935842776502e-11,1.6929615873373684e-09,5.960464477539063e-08,-1.1920928955078125e-07,11155.0,3.0
64,6.39878097427704e-11,3.573892458316176e-09,3.573892458316176e-09,0.0,9315.0,5.0,4.4568828822122936e-11,4.233483861184974e-09,2.384185791015625e-07,-1.1920928955078125e-07,7857,6,-2.5380731751062793e-11,2.0198911830244792e-09,0.0,-1.9371509552001953e-07,11155.0,2.0
65,-3.279375249316983e-11,2.5190494511423006e-09,2.5190494511423006e-09,-1.1920928955078125e-07,9315.0,9.0,2.6551642702541325e-11,2.0995165799333734e-09,1.1920928955078125e-07,-5.960464477539063e-08,7857,6,1.6697849836225523e-12,1.763501653476425e-10,1.862645149230957e-08,0.0,11155.0,1.0
66,9.278232412701707e-11,6.151833087530512e-09,6.151833087530512e-09,-2.384185791015625e-07,9315.0,13.0,3.413782633183885e-11,1.6295225738881826e-09,5.960464477539063e-08,-5.960464477539063e-08,7857,8,4.0074839606941254e-12,3.1545345278251186e-10,2.9802322387695312e-08,0.0,11155.0,2.0
67,5.1190247794216315e-11,2.9208113482257542e-09,2.9208113482257542e-09,-1.4901161193847656e-08,9315.0,7.0,4.362055586846075e-11,4.255963956659971e-09,1.1920928955078125e-07,-2.384185791015625e-07,7857,12,1.0686623895184334e-11,1.1286410582249123e-09,1.1920928955078125e-07,0.0,11155.0,1.0
68,4.299180967092386e-11,3.4398055271208218e-09,3.4398055271208218e-09,-1.043081283569336e-07,9315.0,13.0,8.624838848855639e-11,3.412371550417418e-09,1.7881393432617188e-07,-2.9802322387695312e-08,7857,10,0.0,0.0,0.0,0.0,11155.0,0.0
69,5.039040017243169e-11,3.6048242301554537e-09,3.6048242301554537e-09,-1.1175870895385742e-07,9315.0,10.0,-3.9353327576980895e-11,2.5716200925377575e-09,5.960464477539063e-08,-1.1920928955078125e-07,7857,8,0.0,0.0,0.0,0.0,11155.0,0.0
70,3.839268584566224e-11,5.166848235567336e-09,5.166848235567336e-09,-1.1920928955078125e-07,9315.0,4.0,4.302788527242188e-11,1.8108434075585938e-09,1.1455267667770386e-07,0.0,7857,5,0.0,0.0,0.0,0.0,11155.0,0.0
71,2.8794514384246678e-11,3.0800037202499017e-09,3.0800037202499017e-09,-1.1920928955078125e-07,9315.0,6.0,9.482729536621901e-13,2.3003960460248223e-09,1.1920928955078125e-07,-5.960464477539063e-08,7857,10,0.0,0.0,0.0,0.0,11155.0,0.0
72,3.19939048713852e-11,2.546119896724301e-09,2.546119896724301e-09,-5.960464477539063e-08,9315.0,6.0,2.5603369748879134e-11,2.9561761045288883e-09,2.384185791015625e-07,-5.960464477539063e-08,7857,7,0.0,0.0,0.0,0.0,11155.0,0.0
73,5.668920019398565e-11,3.672913084373374e-09,3.672913084373374e-09,-5.960464477539063e-08,9315.0,6.0,-2.6551642702541325e-11,3.242266013940686e-09,1.1920928955078125e-07,-2.384185791015625e-07,7857,6,0.0,0.0,0.0,0.0,11155.0,0.0
74,9.59817146141556e-12,2.1614860502566644e-09,2.1614860502566644e-09,-1.1920928955078125e-07,9315.0,5.0,-1.3275821351270662e-11,2.916557109301276e-09,8.940696716308594e-08,-2.384185791015625e-07,7857,3,0.0,0.0,0.0,0.0,11155.0,0.0
75,2.39954286535389e-11,2.006970537712488e-09,2.006970537712488e-09,-7.450580596923828e-08,9315.0,4.0,-1.469823078176395e-11,4.114575468708308e-09,2.384185791015625e-07,-1.7881393432617188e-07,7857,7,0.0,0.0,0.0,0.0,11155.0,0.0
76,2.39954286535389e-12,1.637413309619058e-10,1.637413309619058e-10,0.0,9315.0,2.0,-6.163774198804236e-11,2.2995703199838976e-09,1.4901161193847656e-08,-1.1920928955078125e-07,7857,9,0.0,0.0,0.0,0.0,11155.0,0.0
77,-2.159588578818501e-11,3.138519513716953e-09,3.138519513716953e-09,-2.384185791015625e-07,9315.0,6.0,6.068946903438017e-11,2.689064014699338e-09,1.7881393432617188e-07,0.0,7857,5,0.0,0.0,0.0,0.0,11155.0,0.0
78,-1.919634292283112e-11,2.048169728576909e-09,2.048169728576909e-09,-1.1920928955078125e-07,9315.0,5.0,-1.5172367258595042e-11,4.145153489972107e-09,2.384185791015625e-07,-2.384185791015625e-07,7857,5,0.0,0.0,0.0,0.0,11155.0,0.0
79,5.518948590313947e-11,3.1645831412223973e-09,3.1645831412223973e-09,-2.2351741790771484e-08,9315.0,5.0,-1.8965459073243802e-11,2.152765909410509e-09,8.940696716308594e-08,-1.1920928955078125e-07,7857,3,0.0,0.0,0.0,0.0,11155.0,0.0
80,-1.919634292283112e-11,2.5462485422406574e-09,2.5462485422406574e-09,-2.384185791015625e-07,9315.0,2.0,-1.0431002490284092e-11,2.1544644642263437e-09,5.960464477539063e-08,-1.1920928955078125e-07,7857,6,0.0,0.0,0.0,0.0,11155.0,0.0
81,0.0,0.0,0.0,0.0,9315.0,0.0,-2.323268736472366e-11,2.9576890329874657e-09,5.960464477539063e-08,-2.384185791015625e-07,7857,7,,,,,,
82,4.159207633280076e-11,2.7787696387563997e-09,2.7787696387563997e-09,0.0,9315.0,3.0,1.8965459073243802e-11,1.540630441927669e-09,1.1920928955078125e-07,-2.9802322387695312e-08,7857,3,,,,,,
83,0.0,0.0,0.0,0.0,9315.0,0.0,1.8965459073243803e-12,1.3501162516437451e-09,8.195638656616211e-08,-6.705522537231445e-08,7857,5,,,,,,
84,0.0,0.0,0.0,0.0,9315.0,0.0,-3.7930918146487606e-12,3.1360360069204828e-09,8.940696716308594e-08,-2.384185791015625e-07,7857,7,,,,,,
85,1.919634292283112e-11,1.8526211439806533e-09,1.8526211439806533e-09,0.0,9315.0,1.0,6.922392561733988e-11,3.621498980328584e-09,2.384185791015625e-07,-5.960464477539063e-08,7857,6,,,,,,
86,0.0,0.0,0.0,0.0,9315.0,0.0,-1.5172367258595042e-11,3.0071922798143485e-09,1.1920928955078125e-07,-2.384185791015625e-07,7857,2,,,,,,
87,0.0,0.0,0.0,0.0,9315.0,0.0,1.8965459073243803e-12,3.5937658356530854e-09,1.1920928955078125e-07,-1.7881393432617188e-07,7857,8,,,,,,
88,0.0,0.0,0.0,0.0,9315.0,0.0,-2.2343681470665354e-11,3.4022626120804312e-09,1.4901161193847656e-07,-2.384185791015625e-07,7857,5,,,,,,
89,0.0,0.0,0.0,0.0,9315.0,0.0,-3.7930918146487606e-12,2.0451343675629813e-09,1.1920928955078125e-07,-1.1920928955078125e-07,7857,4,,,,,,
90,0.0,0.0,0.0,0.0,9315.0,0.0,-3.2241280424514466e-11,2.6948042086422084e-09,1.1920928955078125e-07,-1.1920928955078125e-07,7857,5,,,,,,
91,0.0,0.0,0.0,0.0,9315.0,0.0,-3.0344734517190084e-11,3.2941162589215e-09,1.1920928955078125e-07,-2.384185791015625e-07,7857,3,,,,,,
92,0.0,0.0,0.0,0.0,9315.0,0.0,6.637910675635331e-12,1.203461122062616e-09,7.450580596923828e-08,-5.960464477539063e-08,7857,5,,,,,,
93,0.0,0.0,0.0,0.0,9315.0,0.0,1.8965459073243802e-11,1.9313356776774285e-09,5.960464477539063e-08,-1.1920928955078125e-07,7857,6,,,,,,
94,0.0,0.0,0.0,0.0,9315.0,0.0,3.3189553378176656e-12,8.785558286696161e-10,5.960464477539063e-08,-2.9802322387695312e-08,7857,5,,,,,,
95,0.0,0.0,0.0,0.0,9315.0,0.0,3.7930918146487604e-11,2.1557950651545626e-09,1.1920928955078125e-07,-2.9802322387695312e-08,7857,7,,,,,,
96,0.0,0.0,0.0,0.0,9315.0,0.0,1.7068913165919424e-11,1.5128874018266265e-09,1.1920928955078125e-07,-4.470348358154297e-08,7857,4,,,,,,
97,,,,,,,1.007540013266077e-11,7.946443896441459e-10,5.960464477539063e-08,-1.4901161193847656e-08,7857,3,,,,,,
98,,,,,,,5.808171841180915e-12,3.8528628848292815e-10,3.073364496231079e-08,0.0,7857,2,,,,,,
99,,,,,,,-3.413782633183885e-11,2.7104660191048745e-09,0.0,-2.384185791015625e-07,7857,2,,,,,,
100,,,,,,,0.0,0.0,0.0,0.0,7857,0,,,,,,
101,,,,,,,1.5172367258595042e-11,1.3447888016236678e-09,1.1920928955078125e-07,0.0,7857,1,,,,,,
102,,,,,,,0.0,0.0,0.0,0.0,7857,0,,,,,,
103,,,,,,,0.0,0.0,0.0,0.0,7857,0,,,,,,
104,,,,,,,0.0,0.0,0.0,0.0,7857,0,,,,,,
105,,,,,,,0.0,0.0,0.0,0.0,7857,0,,,,,,
106,,,,,,,0.0,0.0,0.0,0.0,7857,0,,,,,,
107,,,,,,,0.0,0.0,0.0,0.0,7857,0,,,,,,
108,,,,,,,0.0,0.0,0.0,0.0,7857,0,,,,,,
109,,,,,,,0.0,0.0,0.0,0.0,7857,0,,,,,,
110,,,,,,,0.0,0.0,0.0,0.0,7857,0,,,,,,
111,,,,,,,0.0,0.0,0.0,0.0,7857,0,,,,,,
112,,,,,,,0.0,0.0,0.0,0.0,7857,0,,,,,,
113,,,,,,,0.0,0.0,0.0,0.0,7857,0,,,,,,
114,,,,,,,0.0,0.0,0.0,0.0,7857,0,,,,,,
