,sag_mean,sag_std,sag_max,sag_min,sag_nb_elements,sag_non_zero_elements,hor_mean,hor_std,hor_max,hor_min,hor_nb_elements,hor_non_zero_elements,frt_mean,frt_std,frt_max,frt_min,frt_nb_elements,frt_non_zero_elements
0,0.0,0.0,0.0,0.0,9315.0,0.0,0.0,0.0,0.0,0.0,7857,0,0.0,0.0,0.0,0.0,11155.0,0.0
1,0.0,0.0,0.0,0.0,9315.0,0.0,0.0,0.0,0.0,0.0,7857,0,0.0,0.0,0.0,0.0,11155.0,0.0
2,0.0,0.0,0.0,0.0,9315.0,0.0,0.0,0.0,0.0,0.0,7857,0,0.0,0.0,0.0,0.0,11155.0,0.0
3,0.0,0.0,0.0,0.0,9315.0,0.0,0.0,0.0,0.0,0.0,7857,0,0.0,0.0,0.0,0.0,11155.0,0.0
4,0.0,0.0,0.0,0.0,9315.0,0.0,0.0,0.0,0.0,0.0,7857,0,0.0,0.0,0.0,0.0,11155.0,0.0
5,0.0,0.0,0.0,0.0,9315.0,0.0,0.0,0.0,0.0,0.0,7857,0,0.0,0.0,0.0,0.0,11155.0,0.0
6,0.0,0.0,0.0,0.0,9315.0,0.0,0.0,0.0,0.0,0.0,7857,0,0.0,0.0,0.0,0.0,11155.0,0.0
7,0.0,0.0,0.0,0.0,9315.0,0.0,0.0,0.0,0.0,0.0,7857,0,0.0,0.0,0.0,0.0,11155.0,0.0
8,0.0,0.0,0.0,0.0,9315.0,0.0,0.0,0.0,0.0,0.0,7857,0,0.0,0.0,0.0,0.0,11155.0,0.0
9,0.0,0.0,0.0,0.0,9315.0,0.0,0.0,0.0,0.0,0.0,7857,0,0.0,0.0,0.0,0.0,11155.0,0.0
10,0.0,0.0,0.0,0.0,9315.0,0.0,0.0,0.0,0.0,0.0,7857,0,0.0,0.0,0.0,0.0,11155.0,0.0
11,0.0,0.0,0.0,0.0,9315.0,0.0,0.0,0.0,0.0,0.0,7857,0,2.2458608029723327e-11,1.679075938690923e-09,1.3131648302078247e-07,0.0,11155.0,2.0
12,6.398780974277039e-12,6.175403813268846e-10,6.175403813268846e-10,0.0,9315.0,1.0,0.0,0.0,0.0,0.0,7857,0,2.1373247790368668e-11,2.257282116449824e-09,2.384185791015625e-07,0.0,11155.0,1.0
13,1.2797561948554079e-11,1.2350807626537692e-09,1.2350807626537692e-09,0.0,9315.0,1.0,0.0,0.0,0.0,0.0,7857,0,0.0,0.0,0.0,0.0,11155.0,0.0
14,0.0,0.0,0.0,0.0,9315.0,0.0,0.0,0.0,0.0,0.0,7857,0,1.0686623895184334e-11,7.980339699476375e-10,5.960464477539063e-08,0.0,11155.0,2.0
15,-1.5996952435692598e-12,5.566709601605494e-10,5.566709601605494e-10,-4.470348358154297e-08,9315.0,2.0,0.0,0.0,0.0,0.0,7857,0,-1.0686623895184334e-11,1.128641058224912e-09,0.0,-1.1920928955078125e-07,11155.0,1.0
16,9.59817146141556e-12,1.2731242711203285e-09,1.2731242711203285e-09,-2.9802322387695312e-08,9315.0,2.0,3.0344734517190084e-11,1.9016975155077586e-09,1.1920928955078125e-07,0.0,7857,2,-1.0686623895184334e-11,1.1286410582249123e-09,0.0,-1.1920928955078125e-07,11155.0,1.0
17,2.479527627532353e-11,2.5144051871350973e-09,2.5144051871350973e-09,-1.1920928955078125e-07,9315.0,8.0,0.0,0.0,0.0,0.0,7857,0,-8.014967921388251e-12,1.410841797045754e-09,5.960464477539063e-08,-1.1920928955078125e-07,11155.0,4.0
18,6.398780974277039e-12,6.175403813268845e-10,6.175403813268845e-10,0.0,9315.0,1.0,0.0,0.0,0.0,0.0,7857,0,-4.0074839606941254e-12,1.499764248858682e-09,5.960464477539063e-08,-1.1920928955078125e-07,11155.0,5.0
19,7.998476217846299e-13,3.32034561324601e-10,3.32034561324601e-10,-1.862645149230957e-08,9315.0,2.0,0.0,0.0,0.0,0.0,7857,0,8.682881914837272e-12,1.1220251372776658e-09,8.195638656616211e-08,-2.9802322387695312e-08,11155.0,4.0
20,7.9984762178463e-12,2.8152875203596207e-09,2.8152875203596207e-09,-1.1920928955078125e-07,9315.0,5.0,9.956866013452996e-12,1.4220793932166445e-09,1.1920928955078125e-07,-4.0978193283081055e-08,7857,2,2.204116178381769e-11,2.0889639875478384e-09,1.7881393432617188e-07,-5.960464477539063e-08,11155.0,6.0
21,2.159588578818501e-11,1.788768677817122e-09,1.788768677817122e-09,-3.725290298461914e-08,9315.0,3.0,3.7930918146487606e-12,1.2122474577561558e-09,8.940696716308594e-08,-5.960464477539063e-08,7857,2,-9.016838911561782e-12,1.2741475261592492e-09,5.960464477539063e-08,-8.940696716308594e-08,11155.0,6.0
22,5.1190247794216315e-11,3.49314839385399e-09,3.49314839385399e-09,0.0,9315.0,2.0,-1.8965459073243802e-11,1.3861350504799598e-09,0.0,-1.1920928955078125e-07,7857,2,4.9425635515227544e-11,3.041966896756695e-09,2.5331974029541016e-07,-5.960464477539063e-08,11155.0,6.0
23,0.0,1.7467617283815464e-09,1.7467617283815464e-09,-1.1920928955078125e-07,9315.0,2.0,-1.8965459073243803e-12,2.993100366307009e-09,7.450580596923828e-08,-2.384185791015625e-07,7857,5,3.773714062986968e-11,2.2912586327567983e-09,1.7881393432617188e-07,-3.725290298461914e-08,11155.0,8.0
24,-8.798323839630929e-12,3.018565369925509e-09,3.018565369925509e-09,-2.384185791015625e-07,9315.0,6.0,3.7930918146487604e-11,2.0169549497385965e-09,1.1920928955078125e-07,0.0,7857,3,4.541815155453342e-11,3.646194794906496e-09,2.384185791015625e-07,-1.1920928955078125e-07,11155.0,9.0
25,3.19939048713852e-11,3.88125759712749e-09,3.88125759712749e-09,-2.384185791015625e-07,9315.0,6.0,2.2758550887892565e-11,3.621113596767049e-09,2.384185791015625e-07,-1.7881393432617188e-07,7857,3,6.679139934490209e-11,3.7956606719817e-09,2.384185791015625e-07,-1.1920928955078125e-07,11155.0,8.0
26,-6.398780974277039e-12,1.310055669410633e-09,1.310055669410633e-09,-5.960464477539063e-08,9315.0,6.0,1.5172367258595042e-11,1.3447888016236678e-09,1.1920928955078125e-07,0.0,7857,1,-9.350795908286292e-12,5.9574507678983684e-09,2.384185791015625e-07,-4.76837158203125e-07,11155.0,12.0
27,2.719481914067742e-11,3.1375264513475605e-09,3.1375264513475605e-09,-1.1920928955078125e-07,9315.0,9.0,3.7930918146487604e-11,2.7722701009599195e-09,2.384185791015625e-07,0.0,7857,2,5.368358722346506e-11,3.3541888163126783e-09,2.384185791015625e-07,-1.1920928955078125e-07,11155.0,10.0
28,3.0394209627815937e-11,1.7259028876803054e-09,1.7259028876803054e-09,-4.470348358154297e-08,9315.0,6.0,5.689637721973141e-12,3.881100367606565e-09,2.384185791015625e-07,-1.1920928955078125e-07,7857,8,6.812722733180013e-11,3.5713740341035928e-09,2.384185791015625e-07,-1.1920928955078125e-07,11155.0,9.0
29,5.7089124004877967e-11,3.1902355586332544e-09,3.1902355586332544e-09,-5.960464477539063e-08,9315.0,6.0,2.418096031838585e-11,2.5469630057479802e-09,1.1920928955078125e-07,-1.1920928955078125e-07,7857,5,8.682881914837272e-12,1.5276882434986807e-09,1.1920928955078125e-07,-5.960464477539063e-08,11155.0,5.0
30,-1.59969524356926e-11,3.0723478814993775e-09,3.0723478814993775e-09,-1.7881393432617188e-07,9315.0,7.0,3.7930918146487606e-12,1.6810887067944242e-09,1.1920928955078125e-07,-8.940696716308594e-08,7857,2,3.072404369865496e-11,2.398272964319282e-09,1.1920928955078125e-07,-1.1920928955078125e-07,11155.0,8.0
31,1.4497238144846418e-11,3.1743288514637186e-09,3.1743288514637186e-09,-2.384185791015625e-07,9315.0,6.0,-1.825425435799716e-11,2.760418333291723e-09,1.1920928955078125e-07,-1.1920928955078125e-07,7857,8,4.675397954143146e-12,3.2549379393200433e-09,1.1920928955078125e-07,-2.384185791015625e-07,11155.0,9.0
32,6.15882668774165e-11,4.134431312529817e-09,4.134431312529817e-09,-1.1920928955078125e-07,9315.0,11.0,0.0,0.0,0.0,0.0,7857,0,5.3433119475921675e-11,4.010074629609756e-09,1.7881393432617188e-07,-2.384185791015625e-07,11155.0,16.0
33,0.0,1.2351470632557256e-09,1.2351470632557256e-09,-5.960464477539063e-08,9315.0,4.0,5.6422240742900315e-11,3.37456064491744e-09,2.384185791015625e-07,0.0,7857,3,4.1410667593839294e-11,3.4585290862998246e-09,2.384185791015625e-07,-1.1920928955078125e-07,11155.0,10.0
34,9.59817146141556e-12,1.8782520450014754e-09,1.8782520450014754e-09,-1.1920928955078125e-07,9315.0,4.0,9.767211422720559e-11,5.347652798570887e-09,2.384185791015625e-07,-1.1920928955078125e-07,7857,11,-1.3358279868980417e-12,3.697972401397533e-09,2.384185791015625e-07,-1.1920928955078125e-07,11155.0,17.0
35,-5.358979065957021e-11,3.8694860565681565e-09,3.8694860565681565e-09,-2.384185791015625e-07,9315.0,8.0,1.0431002490284092e-11,1.4089740656294126e-09,1.1920928955078125e-07,-3.725290298461914e-08,7857,2,2.379443601662137e-12,3.006118590485609e-09,1.1920928955078125e-07,-2.384185791015625e-07,11155.0,12.0
36,3.99923810892315e-11,3.5373707565534745e-09,3.5373707565534745e-09,-1.1920928955078125e-07,9315.0,8.0,-3.88791911001498e-11,3.0175338728214693e-09,8.195638656616211e-08,-2.384185791015625e-07,7857,5,-8.55764804106558e-12,4.958777725184528e-09,2.384185791015625e-07,-2.384185791015625e-07,11155.0,11.0
37,-2.239573340996964e-11,3.3683914816129275e-09,3.3683914816129275e-09,-2.384185791015625e-07,9315.0,11.0,4.551710177578513e-11,2.125945906578424e-09,1.1920928955078125e-07,0.0,7857,4,-2.0037419803470626e-11,2.447676518246204e-09,1.1920928955078125e-07,-1.1920928955078125e-07,11155.0,11.0
38,1.7196723868369546e-11,2.3110069325995946e-09,2.3110069325995946e-09,-1.1920928955078125e-07,9315.0,7.0,0.0,2.8130066045852687e-09,1.4901161193847656e-07,-1.1920928955078125e-07,7857,5,2.6048645744511817e-11,3.746678057681164e-09,2.384185791015625e-07,-1.1920928955078125e-07,11155.0,14.0
39,0.0,2.269110046705249e-09,2.269110046705249e-09,-1.1920928955078125e-07,9315.0,4.0,8.060320106128616e-12,3.7005442914869324e-09,2.384185791015625e-07,-1.1920928955078125e-07,7857,8,-3.4731527659349087e-11,3.3025666431849345e-09,5.960464477539063e-08,-2.384185791015625e-07,11155.0,5.0
40,4.79908573070778e-11,3.7179753300929723e-09,3.7179753300929723e-09,-5.960464477539063e-08,9315.0,5.0,7.929932575000065e-11,3.9726387906460515e-09,1.7881393432617188e-07,-1.1920928955078125e-07,7857,7,6.679139934490209e-13,3.1365965076785297e-09,2.384185791015625e-07,-1.1920928955078125e-07,11155.0,9.0
41,4.719100968529317e-11,2.665943118305867e-09,2.665943118305867e-09,0.0,9315.0,6.0,1.3275821351270662e-11,2.2110927453217602e-09,1.1920928955078125e-07,-1.1920928955078125e-07,7857,6,5.4768947462819716e-11,2.650207988607901e-09,1.1920928955078125e-07,-4.470348358154297e-08,11155.0,9.0
42,3.5993142980308347e-11,1.64988421562601e-09,1.64988421562601e-09,0.0,9315.0,6.0,1.8965459073243803e-12,3.1043368814329562e-09,2.384185791015625e-07,-1.1920928955078125e-07,7857,5,3.172591468882849e-11,3.06197246500796e-09,2.384185791015625e-07,-1.1920928955078125e-07,11155.0,10.0
43,-1.5896971482969522e-11,1.4170865645985492e-09,1.4170865645985492e-09,-1.1920928955078125e-07,9315.0,3.0,7.586183629297521e-12,5.242471600188679e-09,1.7881393432617188e-07,-2.384185791015625e-07,7857,15,3.673526963969615e-11,3.205434004557761e-09,2.384185791015625e-07,-1.1920928955078125e-07,11155.0,13.0
44,-1.5996952435692598e-12,2.210576251001941e-09,2.210576251001941e-09,-1.1920928955078125e-07,9315.0,7.0,9.482729536621901e-12,3.910111047459692e-09,2.384185791015625e-07,-2.384185791015625e-07,7857,5,2.7217495233047603e-11,2.705048715267595e-09,1.1920928955078125e-07,-1.1920928955078125e-07,11155.0,13.0
45,-3.1993904871385197e-12,9.263547725234435e-10,9.263547725234435e-10,-5.960464477539063e-08,9315.0,3.0,1.0431002490284092e-11,3.903779352285276e-09,2.384185791015625e-07,-2.384185791015625e-07,7857,5,2.371094676744024e-11,2.740436016609623e-09,1.1920928955078125e-07,-1.7881393432617188e-07,11155.0,12.0
46,8.998285745077087e-11,3.7101755528115616e-09,3.7101755528115616e-09,-1.862645149230957e-08,9315.0,8.0,3.7930918146487606e-12,1.931425069983838e-09,1.1920928955078125e-07,-1.1920928955078125e-07,7857,3,-2.1373247790368668e-11,2.5783604925855144e-09,5.960464477539063e-08,-2.384185791015625e-07,11155.0,6.0
47,3.1993904871385197e-12,1.543930514124973e-09,1.543930514124973e-09,-8.940696716308594e-08,9315.0,2.0,-3.3189553378176653e-11,6.245460727543321e-09,2.384185791015625e-07,-4.76837158203125e-07,7857,7,-1.644738208868214e-11,2.0677846679887587e-09,1.1920928955078125e-07,-1.1920928955078125e-07,11155.0,9.0
48,3.3993523925846776e-11,1.823633721514599e-09,1.823633721514599e-09,-2.9802322387695312e-08,9315.0,8.0,8.155147401494836e-11,5.034205974845651e-09,2.384185791015625e-07,-1.1920928955078125e-07,7857,6,7.764500173844868e-12,3.0294629056136522e-09,2.384185791015625e-07,-1.1920928955078125e-07,11155.0,11.0
49,3.7392876318431454e-11,4.069025722886177e-09,4.069025722886177e-09,-2.384185791015625e-07,9315.0,11.0,4.4568828822122936e-11,3.3460918052392616e-09,2.384185791015625e-07,-5.960464477539063e-08,7857,7,-2.270907577726671e-11,3.195457467087925e-09,1.1920928955078125e-07,-2.384185791015625e-07,11155.0,6.0
50,2.799466676246205e-12,2.2470055192243465e-09,2.2470055192243465e-09,-1.1920928955078125e-07,9315.0,5.0,2.323268736472366e-11,3.53846473894778e-09,2.384185791015625e-07,-1.1920928955078125e-07,7857,6,6.679139934490209e-11,3.5755769886532823e-09,2.384185791015625e-07,-1.1920928955078125e-07,11155.0,9.0
51,-1.2797561948554079e-11,2.6201113388212665e-09,2.6201113388212665e-09,-1.1920928955078125e-07,9315.0,6.0,3.0344734517190084e-11,3.090502881177857e-09,2.384185791015625e-07,-1.1920928955078125e-07,7857,6,5.944434541696286e-11,3.6302630316234225e-09,2.384185791015625e-07,-1.1920928955078125e-07,11155.0,8.0
52,-1.2797561948554079e-11,1.5126858974063448e-09,1.5126858974063448e-09,-1.1920928955078125e-07,9315.0,3.0,4.077573700747418e-11,2.3305501257090758e-09,1.1920928955078125e-07,-5.960464477539063e-08,7857,5,8.014967921388251e-12,1.6693382229770343e-09,1.4901161193847656e-07,-5.960464477539063e-08,11155.0,5.0
53,2.999428581692362e-11,3.751869624317121e-09,3.751869624317121e-09,-1.1920928955078125e-07,9315.0,5.0,5.215501245142046e-11,2.3842720126563654e-09,1.1920928955078125e-07,0.0,7857,5,2.304303277399122e-11,1.7736302981974156e-09,1.1920928955078125e-07,-5.960464477539063e-08,11155.0,5.0
54,-3.99923810892315e-11,1.8841870383770013e-09,1.8841870383770013e-09,-1.1920928955078125e-07,9315.0,5.0,3.603437223916323e-11,3.3829424641913805e-09,2.384185791015625e-07,-1.1920928955078125e-07,7857,6,4.608606554798244e-11,4.118524387925847e-09,2.384185791015625e-07,-1.1920928955078125e-07,11155.0,10.0
55,5.438963828135484e-11,3.3750969086673704e-09,3.3750969086673704e-09,-1.1920928955078125e-07,9315.0,8.0,5.310328540508265e-11,3.361766581978624e-09,2.384185791015625e-07,0.0,7857,2,5.877643142351384e-11,3.361964575363771e-09,1.7881393432617188e-07,-5.960464477539063e-08,11155.0,7.0
56,2.079603816640038e-11,2.7939736468484683e-09,2.7939736468484683e-09,-1.1920928955078125e-07,9315.0,11.0,8.866352116741478e-11,4.42955826467055e-09,2.384185791015625e-07,-1.1920928955078125e-07,7857,12,4.341440957418636e-12,1.8720506282721265e-09,1.1920928955078125e-07,-1.1920928955078125e-07,11155.0,4.0
57,2.079603816640038e-11,3.6957204961364986e-09,3.6957204961364986e-09,-2.384185791015625e-07,9315.0,9.0,6.448256084902893e-11,3.025280243705678e-09,1.1920928955078125e-07,-5.960464477539063e-08,7857,9,1.0686623895184334e-11,1.1286410582249123e-09,1.1920928955078125e-07,0.0,11155.0,1.0
58,0.0,3.3542828556243838e-09,3.3542828556243838e-09,-2.384185791015625e-07,9315.0,7.0,7.396529038565083e-11,2.817054495308013e-09,1.1920928955078125e-07,0.0,7857,6,-1.0686623895184334e-11,2.3544715752447505e-09,5.960464477539063e-08,-2.384185791015625e-07,11155.0,5.0
59,4.479146681993928e-11,4.125268214057888e-09,4.125268214057888e-09,-2.384185791015625e-07,9315.0,10.0,3.129300747085228e-11,2.2630243475959824e-09,1.1920928955078125e-07,-5.960464477539063e-08,7857,6,4.0074839606941254e-12,3.850908739413043e-09,2.384185791015625e-07,-2.384185791015625e-07,11155.0,6.0
60,3.359360011495446e-11,3.3859445943098517e-09,3.3859445943098517e-09,-1.1920928955078125e-07,9315.0,8.0,-9.482729536621901e-13,1.0396981597354636e-09,5.960464477539063e-08,-5.960464477539063e-08,7857,4,-1.6697849836225523e-12,1.7635016534764253e-10,0.0,-1.862645149230957e-08,11155.0,1.0
61,1.1097885752261741e-11,1.370094391065764e-09,1.370094391065764e-09,-4.470348358154297e-08,9315.0,5.0,2.1336141457399277e-11,3.869423226735395e-09,2.384185791015625e-07,-1.1920928955078125e-07,7857,8,1.6029935842776502e-11,3.432744213000607e-09,2.384185791015625e-07,-2.384185791015625e-07,11155.0,4.0
62,5.963863829931647e-11,2.69066137987882e-09,2.69066137987882e-09,0.0,9315.0,7.0,4.729511356390173e-11,2.25964635457068e-09,1.4901161193847656e-07,0.0,7857,5,1.3358279868980417e-12,1.41080132278114e-10,1.4901161193847656e-08,0.0,11155.0,1.0
63,-3.8492666798385315e-12,2.124357951435626e-09,2.124357951435626e-09,-1.1920928955078125e-07,9315.0,6.0,4.4568828822122936e-11,3.2907356012742635e-09,2.5331974029541016e-07,-5.960464477539063e-08,7857,6,7.34705392793923e-12,6.026768244415563e-10,5.960464477539063e-08,0.0,11155.0,2.0
64,8.79832383963093e-11,4.40136313146709e-09,4.40136313146709e-09,-5.960464477539063e-08,9315.0,9.0,-1.0431002490284092e-11,3.3925029171426313e-09,2.384185791015625e-07,-1.1920928955078125e-07,7857,6,3.940692561349223e-11,2.9091602584358443e-09,2.384185791015625e-07,0.0,11155.0,3.0
65,-2.39954286535389e-11,2.2077489625362014e-09,2.2077489625362014e-09,-1.1920928955078125e-07,9315.0,9.0,3.0344734517190084e-11,2.072368478607539e-09,1.1920928955078125e-07,-5.960464477539063e-08,7857,5,-2.6716559737960835e-12,2.8216026455622807e-10,0.0,-2.9802322387695312e-08,11155.0,1.0
66,6.39878097427704e-11,4.001822381469644e-09,4.001822381469644e-09,-1.1920928955078125e-07,9315.0,7.0,1.7068913165919424e-11,9.051353513281544e-10,5.960464477539063e-08,0.0,7857,3,2.6716559737960835e-12,2.8216026455622807e-10,2.9802322387695312e-08,0.0,11155.0,1.0
67,2.6794895329785104e-11,3.0275766103329737e-09,3.0275766103329737e-09,-1.1920928955078125e-07,9315.0,4.0,7.017219857100207e-11,2.714982141881079e-09,1.1920928955078125e-07,-2.9802322387695312e-08,7857,10,1.6029935842776502e-11,1.2618138111300474e-09,1.1920928955078125e-07,0.0,11155.0,2.0
68,9.158255269434013e-11,3.768307738609887e-09,3.768307738609887e-09,-5.960464477539063e-08,9315.0,12.0,3.366368985500775e-11,1.7330136414317337e-09,1.1920928955078125e-07,-2.9802322387695312e-08,7857,7,0.0,0.0,0.0,0.0,11155.0,0.0
69,5.1190247794216315e-11,3.627061947210578e-09,3.627061947210578e-09,-1.1920928955078125e-07,9315.0,9.0,2.3706823841554752e-12,2.5498490189605405e-09,1.1920928955078125e-07,-1.1920928955078125e-07,7857,7,0.0,0.0,0.0,0.0,11155.0,0.0
70,3.19939048713852e-11,3.325581352501108e-09,3.325581352501108e-09,-1.1920928955078125e-07,9315.0,3.0,2.2165880291853695e-11,1.7395882538322596e-09,1.1455267667770386e-07,-5.960464477539063e-08,7857,4,0.0,0.0,0.0,0.0,11155.0,0.0
71,-9.59817146141556e-12,1.3635316558739062e-09,1.3635316558739062e-09,-1.1920928955078125e-07,9315.0,4.0,8.534456582959712e-12,1.458268688501171e-09,5.960464477539063e-08,-5.960464477539063e-08,7857,6,0.0,0.0,0.0,0.0,11155.0,0.0
72,2.7594742951569735e-11,2.4290871211434282e-09,2.4290871211434282e-09,-5.960464477539063e-08,9315.0,5.0,-3.413782633183885e-11,1.4651452371123006e-09,2.9802322387695312e-08,-5.960464477539063e-08,7857,7,0.0,0.0,0.0,0.0,11155.0,0.0
73,7.9984762178463e-12,2.054054789362754e-09,2.054054789362754e-09,-5.960464477539063e-08,9315.0,4.0,-1.8965459073243802e-11,3.0259079405976114e-09,1.1920928955078125e-07,-2.384185791015625e-07,7857,3,0.0,0.0,0.0,0.0,11155.0,0.0
74,9.59817146141556e-12,2.1614860502566644e-09,2.1614860502566644e-09,-1.1920928955078125e-07,9315.0,5.0,-2.0862004980568183e-11,2.9835711326979577e-09,8.940696716308594e-08,-2.384185791015625e-07,7857,6,0.0,0.0,0.0,0.0,11155.0,0.0
75,-1.919634292283112e-11,2.8300123509857546e-09,2.8300123509857546e-09,-2.384185791015625e-07,9315.0,3.0,1.5172367258595042e-11,3.044551083162771e-09,2.384185791015625e-07,-1.1920928955078125e-07,7857,4,0.0,0.0,0.0,0.0,11155.0,0.0
76,0.0,0.0,0.0,0.0,9315.0,0.0,-2.6551642702541325e-11,1.5405183729842037e-09,0.0,-1.1920928955078125e-07,7857,3,0.0,0.0,0.0,0.0,11155.0,0.0
77,-2.8794514384246678e-11,3.0410606291060138e-09,3.0410606291060138e-09,-2.384185791015625e-07,9315.0,4.0,2.8448188609865706e-11,2.1328781589891657e-09,1.7881393432617188e-07,-1.4901161193847656e-08,7857,3,0.0,0.0,0.0,0.0,11155.0,0.0
78,-5.1190247794216315e-11,5.31232176304408e-09,5.31232176304408e-09,-4.76837158203125e-07,9315.0,5.0,-4.9310193590433886e-11,3.0993900752959073e-09,5.960464477539063e-08,-2.384185791015625e-07,7857,5,0.0,0.0,0.0,0.0,11155.0,0.0
79,3.99923810892315e-11,3.011394960524304e-09,3.011394960524304e-09,-4.470348358154297e-08,9315.0,6.0,0.0,0.0,0.0,0.0,7857,0,0.0,0.0,0.0,0.0,11155.0,0.0
80,6.398780974277039e-12,6.175403813268846e-10,6.175403813268846e-10,0.0,9315.0,1.0,-3.7930918146487606e-12,1.5407425027195775e-09,5.960464477539063e-08,-1.1920928955078125e-07,7857,3,0.0,0.0,0.0,0.0,11155.0,0.0
81,0.0,0.0,0.0,0.0,9315.0,0.0,-1.8965459073243802e-11,3.1718232021696928e-09,1.1920928955078125e-07,-2.384185791015625e-07,7857,5,,,,,,
82,1.2797561948554079e-11,1.2350807626537692e-09,1.2350807626537692e-09,0.0,9315.0,1.0,-5.689637721973141e-11,3.09926009497331e-09,0.0,-2.384185791015625e-07,7857,4,,,,,,
83,-1.2797561948554079e-11,1.2350807626537692e-09,1.2350807626537692e-09,-1.1920928955078125e-07,9315.0,1.0,2.6551642702541325e-11,1.9128670518585327e-09,1.1920928955078125e-07,-5.960464477539063e-08,7857,7,,,,,,
84,0.0,0.0,0.0,0.0,9315.0,0.0,6.448256084902893e-11,2.4002150319850864e-09,1.1920928955078125e-07,0.0,7857,7,,,,,,
85,-6.398780974277039e-12,6.175403813268846e-10,6.175403813268846e-10,-5.960464477539063e-08,9315.0,1.0,4.551710177578513e-11,3.0068860640119343e-09,2.384185791015625e-07,0.0,7857,2,,,,,,
86,0.0,0.0,0.0,0.0,9315.0,0.0,-7.586183629297521e-12,2.017297319099097e-09,1.1920928955078125e-07,-1.1920928955078125e-07,7857,3,,,,,,
87,0.0,0.0,0.0,0.0,9315.0,0.0,7.586183629297521e-12,1.1646706792451805e-09,5.960464477539063e-08,-5.960464477539063e-08,7857,3,,,,,,
88,0.0,0.0,0.0,0.0,9315.0,0.0,3.941259463658478e-11,2.1825442324021807e-09,1.4901161193847656e-07,0.0,7857,4,,,,,,
89,0.0,0.0,0.0,0.0,9315.0,0.0,-2.2758550887892565e-11,1.5034430320059674e-09,0.0,-1.1920928955078125e-07,7857,2,,,,,,
90,0.0,0.0,0.0,0.0,9315.0,0.0,-2.6373841523729663e-11,2.476670925636723e-09,1.1920928955078125e-07,-1.1920928955078125e-07,7857,5,,,,,,
91,0.0,0.0,0.0,0.0,9315.0,0.0,3.0344734517190084e-11,2.6895776032473355e-09,2.384185791015625e-07,0.0,7857,1,,,,,,
92,0.0,0.0,0.0,0.0,9315.0,0.0,9.482729536621901e-12,1.176726882242687e-09,7.450580596923828e-08,-5.960464477539063e-08,7857,4,,,,,,
93,0.0,0.0,0.0,0.0,9315.0,0.0,1.8965459073243802e-11,1.9313356776774285e-09,5.960464477539063e-08,-1.1920928955078125e-07,7857,6,,,,,,
94,0.0,0.0,0.0,0.0,9315.0,0.0,7.1120471524664265e-12,4.466999762016956e-10,2.9802322387695312e-08,0.0,7857,2,,,,,,
95,0.0,0.0,0.0,0.0,9315.0,0.0,2.1810277934230374e-11,1.4677893080633526e-09,1.1920928955078125e-07,0.0,7857,2,,,,,,
96,0.0,0.0,0.0,0.0,9315.0,0.0,3.7930918146487606e-12,1.871982080776815e-09,1.1920928955078125e-07,-8.940696716308594e-08,7857,5,,,,,,
97,,,,,,,-1.3749957828101758e-11,1.3507015675255387e-09,1.1175870895385742e-08,-1.1920928955078125e-07,7857,2,,,,,,
98,,,,,,,5.808171841180915e-12,3.8528628848292815e-10,3.073364496231079e-08,0.0,7857,2,,,,,,
99,,,,,,,-3.0344734517190084e-11,2.6895776032473355e-09,0.0,-2.384185791015625e-07,7857,1,,,,,,
100,,,,,,,0.0,0.0,0.0,0.0,7857,0,,,,,,
101,,,,,,,-6.637910675635331e-12,5.883451007103546e-10,0.0,-5.21540641784668e-08,7857,1,,,,,,
102,,,,,,,0.0,0.0,0.0,0.0,7857,0,,,,,,
103,,,,,,,0.0,0.0,0.0,0.0,7857,0,,,,,,
104,,,,,,,0.0,0.0,0.0,0.0,7857,0,,,,,,
105,,,,,,,0.0,0.0,0.0,0.0,7857,0,,,,,,
106,,,,,,,0.0,0.0,0.0,0.0,7857,0,,,,,,
107,,,,,,,0.0,0.0,0.0,0.0,7857,0,,,,,,
108,,,,,,,0.0,0.0,0.0,0.0,7857,0,,,,,,
109,,,,,,,0.0,0.0,0.0,0.0,7857,0,,,,,,
110,,,,,,,0.0,0.0,0.0,0.0,7857,0,,,,,,
111,,,,,,,0.0,0.0,0.0,0.0,7857,0,,,,,,
112,,,,,,,0.0,0.0,0.0,0.0,7857,0,,,,,,
113,,,,,,,0.0,0.0,0.0,0.0,7857,0,,,,,,
114,,,,,,,0.0,0.0,0.0,0.0,7857,0,,,,,,
