,sag_mean,sag_std,sag_max,sag_min,sag_nb_elements,sag_non_zero_elements,hor_mean,hor_std,hor_max,hor_min,hor_nb_elements,hor_non_zero_elements,frt_mean,frt_std,frt_max,frt_min,frt_nb_elements,frt_non_zero_elements
0,0.0,0.0,0.0,0.0,9315.0,0.0,0.0,0.0,0.0,0.0,7857,0,4.7570971938218307e-07,2.097109925986733e-05,0.0012595653533935547,-0.00021988153457641602,11155.0,8.0
1,0.0,0.0,0.0,0.0,9315.0,0.0,0.0,0.0,0.0,0.0,7857,0,1.3413725914254096e-06,4.321133894232821e-05,0.0013892650604248047,-0.0006390810012817383,11155.0,26.0
2,0.0,0.0,0.0,0.0,9315.0,0.0,0.0,0.0,0.0,0.0,7857,0,1.001517329714e-06,3.873817497030293e-05,0.0011502504348754883,-0.0008792877197265625,11155.0,36.0
3,0.0,0.0,0.0,0.0,9315.0,0.0,0.0,0.0,0.0,0.0,7857,0,-2.0882431192282655e-07,3.6989740724367444e-05,0.0009804964065551758,-0.0010300874710083008,11155.0,52.0
4,0.0,0.0,0.0,0.0,9315.0,0.0,0.0,0.0,0.0,0.0,7857,0,-1.2500598151712662e-06,4.1295652248154376e-05,0.000793755054473877,-0.0014798641204833984,11155.0,62.0
5,0.0,0.0,0.0,0.0,9315.0,0.0,0.0,0.0,0.0,0.0,7857,0,-1.2286580662384583e-06,4.889292963873886e-05,0.0011052191257476807,-0.0017944574356079102,11155.0,72.0
6,0.0,0.0,0.0,0.0,9315.0,0.0,0.0,0.0,0.0,0.0,7857,0,-8.616642796875703e-07,4.704959873979853e-05,0.0010325908660888672,-0.0016438961029052734,11155.0,93.0
7,0.0,0.0,0.0,0.0,9315.0,0.0,0.0,0.0,0.0,0.0,7857,0,5.97475846316824e-07,7.163558428913186e-05,0.0015121698379516602,-0.0015439987182617188,11155.0,191.0
8,0.0,0.0,0.0,0.0,9315.0,0.0,0.0,0.0,0.0,0.0,7857,0,-1.3635640364667924e-06,0.00010653940080433015,0.0011340975761413574,-0.0013145208358764648,11155.0,416.0
9,0.0,0.0,0.0,0.0,9315.0,0.0,0.0,0.0,0.0,0.0,7857,0,-3.470310499680411e-06,0.00012976645720140772,0.0013767480850219727,-0.0013686418533325195,11155.0,584.0
10,4.165222487395896e-07,1.39914662509131e-05,1.39914662509131e-05,-7.039308547973633e-05,9315.0,11.0,0.0,0.0,0.0,0.0,7857,0,-8.161001889254683e-07,0.00013557673174413985,0.0017729401588439941,-0.0012330040335655212,11155.0,714.0
11,-1.2590597377179198e-06,7.584559619862681e-05,7.584559619862681e-05,-0.001327425241470337,9315.0,273.0,2.0908262920589018e-07,1.0060399415932725e-05,0.0003237128257751465,-0.0003752708435058594,7857,21,2.818171846174607e-06,0.00013186156555318622,0.0014874935150146484,-0.0016779899597167969,11155.0,833.0
12,2.2836758390716886e-06,9.279620707250228e-05,9.279620707250228e-05,-0.0012246295809745789,9315.0,545.0,1.295532939242728e-06,4.0408177945120305e-05,0.001029372215270996,-0.0004105567932128906,7857,103,2.701816172850394e-06,0.0001411960870223094,0.0012445449829101562,-0.0021140575408935547,11155.0,945.0
13,1.888563961462506e-06,0.00011094715994766444,0.00011094715994766444,-0.0009774565696716309,9315.0,768.0,6.027662758776496e-06,7.333766614639589e-05,0.0016796588897705078,-0.00038123130798339844,7857,222,-3.167604322072264e-06,0.00014223003943633145,0.0013823509216308594,-0.0013537406921386719,11155.0,1040.0
14,2.5374030079982546e-06,0.00011589421893361571,0.00011589421893361571,-0.0009993314743041992,9315.0,947.0,9.755439562273796e-06,8.490004784755225e-05,0.001440286636352539,-0.0003647804260253906,7857,348,-9.019376337695207e-06,0.0001397578920608091,0.001079261302947998,-0.001250147819519043,11155.0,1094.0
15,5.007347554944243e-06,0.0001231190091312452,0.0001231190091312452,-0.0009393692016601562,9315.0,1115.0,9.496754241721563e-06,8.873537878995251e-05,0.0011570453643798828,-0.0007560253143310547,7857,491,-1.2675807288990212e-05,0.0001545084540927447,0.0017472505569458008,-0.001755833625793457,11155.0,1193.0
16,5.716378124293552e-06,0.00014173039164377613,0.00014173039164377613,-0.0010358095169067383,9315.0,1277.0,5.136700207195665e-06,9.844268730113804e-05,0.0009527206420898438,-0.0010986328125,7857,617,-1.1726465417574783e-05,0.00018269937409633863,0.001767665147781372,-0.0018051862716674805,11155.0,1321.0
17,4.0893342947838325e-06,0.00016264415108201025,0.00016264415108201025,-0.0012357234954833984,9315.0,1459.0,-8.036538161289014e-07,0.00011757263389101217,0.000941932201385498,-0.0014109611511230469,7857,757,-1.0468325765944553e-05,0.00018379604017050824,0.0015567243099212646,-0.0021350085735321045,11155.0,1466.0
18,3.5829179091913944e-06,0.0001736133840987482,0.0001736133840987482,-0.0011768341064453125,9315.0,1623.0,-3.697049677911546e-06,0.00013148183203796825,0.0016050338745117188,-0.0013518333435058594,7857,893,-1.3619515104974895e-05,0.00017764491753533376,0.0013218522071838379,-0.0019428730010986328,11155.0,1592.0
19,5.0152962906381105e-06,0.00018198520639905612,0.00018198520639905612,-0.0016502141952514648,9315.0,1787.0,-4.626092708063775e-06,0.00014908423416939138,0.001462697982788086,-0.0015474557876586914,7857,1128,-1.0919824696903825e-05,0.00020094012428137527,0.0017547011375427246,-0.001959562301635742,11155.0,1778.0
20,6.389877432982287e-06,0.00019723929464106758,0.00019723929464106758,-0.0015811920166015625,9315.0,1950.0,8.555183459044382e-07,0.00015237348494775437,0.001214742660522461,-0.0013846158981323242,7857,1369,-8.593294819619078e-08,0.00022852108957109365,0.0023076534271240234,-0.0017886757850646973,11155.0,2088.0
21,1.0783078188453543e-05,0.00021619315405970767,0.00021619315405970767,-0.0015759468078613281,9315.0,2137.0,7.297084246585125e-06,0.00016545803376763043,0.0015152692794799805,-0.001336812973022461,7857,1567,1.1825537700302053e-05,0.00024638143239272405,0.00203704833984375,-0.001768745481967926,11155.0,2319.0
22,1.4996582042399278e-05,0.00022774408473734764,0.00022774408473734764,-0.0016339123249053955,9315.0,2330.0,9.943982658570423e-06,0.00018339694927946952,0.002329111099243164,-0.0014810562133789062,7857,1768,1.9815716904215004e-05,0.0002618703902209727,0.0016994476318359375,-0.0015426874160766602,11155.0,2583.0
23,1.865215156418189e-05,0.00023439987457866076,0.00023439987457866076,-0.0014619380235671997,9315.0,2490.0,1.1886362899005845e-05,0.0001972546988643628,0.0014042854309082031,-0.0019326210021972656,7857,1950,2.9584544972209273e-05,0.0002797338681410509,0.0016351938247680664,-0.0017254352569580078,11155.0,3093.0
24,2.1058798575350416e-05,0.0002334205906553536,0.0002334205906553536,-0.0014232397079467773,9315.0,2625.0,1.2989743292131136e-05,0.00021197529876952248,0.0016326904296875,-0.002139568328857422,7857,2108,3.727288074091791e-05,0.00030049907951890776,0.001920938491821289,-0.0015996694564819336,11155.0,3617.0
25,2.3279379267431495e-05,0.00023415162531608146,0.00023415162531608146,-0.0015232563018798828,9315.0,2772.0,1.0606472828992415e-05,0.00022186437192550204,0.0012459754943847656,-0.0021109580993652344,7857,2250,4.4379820680910385e-05,0.0003122085832942907,0.001955270767211914,-0.0021004676818847656,11155.0,4070.0
26,2.4568500840597523e-05,0.000243831487638442,0.000243831487638442,-0.0015823841094970703,9315.0,2886.0,5.717318424386284e-06,0.00022861594061196526,0.0011398792266845703,-0.0018933415412902832,7857,2396,4.4479178056431455e-05,0.00031807311178377564,0.0022842884063720703,-0.0017142295837402344,11155.0,4437.0
27,2.6361547872337643e-05,0.00025364412298068355,0.00025364412298068355,-0.0015772581100463867,9315.0,2993.0,3.553599701663063e-06,0.00023123589303090616,0.0016236305236816406,-0.001571565866470337,7857,2521,3.8182706763131324e-05,0.000332306488604568,0.0019069015979766846,-0.0016820430755615234,11155.0,4818.0
28,2.4934314612261213e-05,0.00025887687839756026,0.00025887687839756026,-0.0014733970165252686,9315.0,3086.0,2.6191008571557635e-06,0.0002372550694320173,0.0015225410461425781,-0.0014732927083969116,7857,2640,3.0465015212663774e-05,0.0003425608846669914,0.0019866228103637695,-0.0016170740127563477,11155.0,5023.0
29,1.7184324920715733e-05,0.0002689433711291109,0.0002689433711291109,-0.0014994144439697266,9315.0,3172.0,1.3646914080969266e-06,0.0002513629045954746,0.0015659332275390625,-0.0020525455474853516,7857,2751,2.635730028065637e-05,0.00034695476115371597,0.0021659135818481445,-0.0015988349914550781,11155.0,5143.0
30,5.573092806600415e-07,0.0002833884292015163,0.0002833884292015163,-0.0016758441925048828,9315.0,3250.0,3.1715284251877384e-07,0.00026079859276250316,0.001203775405883789,-0.002351522445678711,7857,2841,3.1546986214916494e-05,0.00035555337103299175,0.0020148754119873047,-0.001621246337890625,11155.0,5244.0
31,-2.029605519893353e-05,0.00029704745037391106,0.00029704745037391106,-0.002254962921142578,9315.0,3309.0,1.5287588997404423e-06,0.0002693712025747646,0.0013089179992675781,-0.0018355846405029297,7857,2938,3.872879430487191e-05,0.0003716150927550415,0.0023270249366760254,-0.0019375085830688477,11155.0,5345.0
32,-3.576915325706658e-05,0.00030270649514539156,0.00030270649514539156,-0.001956254243850708,9315.0,3368.0,5.686401859052888e-06,0.0002849640852595353,0.0017077922821044922,-0.0016057491302490234,7857,3016,3.686707247270541e-05,0.00037893414597287695,0.0023781340569257736,-0.002162158489227295,11155.0,5425.0
33,-4.2146240540750634e-05,0.000302705426083278,0.000302705426083278,-0.002162158489227295,9315.0,3405.0,9.85766226801283e-06,0.0003059017291552977,0.0020394325256347656,-0.0015039443969726562,7857,3092,2.801412782151334e-05,0.00036762973250043754,0.001825958490371704,-0.001986086368560791,11155.0,5496.0
34,-4.06934601507588e-05,0.00030230241175703505,0.00030230241175703505,-0.0020728111267089844,9315.0,3453.0,1.4291806683462055e-05,0.00031584546530666807,0.0022842884063720703,-0.001735687255859375,7857,3170,2.790973153372735e-05,0.00035130910338035436,0.002329111099243164,-0.0016339123249053955,11155.0,5558.0
35,-3.73663434356859e-05,0.00031146514067848885,0.00031146514067848885,-0.0021140575408935547,9315.0,3491.0,1.844051462050873e-05,0.00030738164044012597,0.0021767616271972656,-0.0021140575408935547,7857,3253,3.093985866861145e-05,0.0003533863792237038,0.001997649669647217,-0.001956939697265625,11155.0,5572.0
36,-3.489279379448832e-05,0.0003302059313488375,0.0003302059313488375,-0.001959562301635742,9315.0,3521.0,1.920302418075773e-05,0.00029888560672842806,0.0017461776733398438,-0.0019502639770507812,7857,3308,2.6626299782011178e-05,0.0003686396983320698,0.002298593521118164,-0.002139568328857422,11155.0,5577.0
37,-3.412711510520481e-05,0.0003443843991006364,0.0003443843991006364,-0.002349853515625,9315.0,3548.0,1.6850843077916778e-05,0.00029568983646041143,0.0017664432525634766,-0.0016306638717651367,7857,3381,1.3322553114248803e-05,0.0003797051287553084,0.0018546581268310547,-0.002351522445678711,11155.0,5547.0
38,-3.319553272852147e-05,0.0003510046797735715,0.0003510046797735715,-0.0026816129684448242,9315.0,3574.0,1.3781628085223753e-05,0.0002894734709897131,0.0016093254089355469,-0.0017944574356079102,7857,3428,-6.174889648784452e-07,0.0003828450444340861,0.0017771720886230469,-0.0022678375244140625,11155.0,5506.0
39,-3.2534076253688826e-05,0.00034777446106751747,0.00034777446106751747,-0.0023870468139648438,9315.0,3589.0,1.5455227775744115e-05,0.0002878929989331945,0.0014913082122802734,-0.001920461654663086,7857,3486,-4.778044581215399e-06,0.00038000258996075874,0.0017774105072021484,-0.0019559860229492188,11155.0,5456.0
40,-2.8781477480224058e-05,0.00032915685860237354,0.00032915685860237354,-0.0016402006149291992,9315.0,3576.0,2.502688690651519e-05,0.00030012783714447713,0.0018634796142578125,-0.001959562301635742,7857,3515,-6.620679392468089e-08,0.0003756389624956528,0.0020096302032470703,-0.0020728111267089844,11155.0,5395.0
41,-1.9666553472369455e-05,0.00031457745130444886,0.00031457745130444886,-0.001746058464050293,9315.0,3591.0,3.822690140558138e-05,0.000326923841164025,0.0021469593048095703,-0.001768745481967926,7857,3537,2.2884317493614716e-06,0.0003705205380327613,0.0017399787902832031,-0.002254962921142578,11155.0,5348.0
42,-9.319779563218283e-06,0.000319601849445947,0.000319601849445947,-0.0020203590393066406,9315.0,3605.0,4.548209687352884e-05,0.0003512697239043621,0.0021491050720214844,-0.001755833625793457,7857,3541,-5.0584113237068475e-06,0.0003641991386233726,0.0019614696502685547,-0.0020308494567871094,11155.0,5277.0
43,2.013962250077918e-06,0.0003311001877052136,0.0003311001877052136,-0.0019178390502929688,9315.0,3618.0,4.702993594350488e-05,0.0003578625547142401,0.0017998218536376953,-0.0021350085735321045,7857,3518,-1.621839909061512e-05,0.00035538980134229266,0.002313375473022461,-0.0018267631530761719,11155.0,5181.0
44,1.2738645282087591e-05,0.0003215478151776468,0.0003215478151776468,-0.0017254352569580078,9315.0,3611.0,4.880878163489293e-05,0.000346179091292557,0.0016252994537353516,-0.001433044672012329,7857,3414,-2.2060984537107282e-05,0.00033709137533171837,0.00194549560546875,-0.0018486380577087402,11155.0,5085.0
45,2.049215816454267e-05,0.0002964321380251483,0.0002964321380251483,-0.0017042160034179688,9315.0,3588.0,5.322653375215382e-05,0.00033439523058968843,0.0018100738525390625,-0.001651763916015625,7857,3299,-2.060704343764753e-05,0.00031429689840271213,0.0014934539794921875,-0.0020368099212646484,11155.0,4975.0
46,2.5202838525164675e-05,0.0002735272328275435,0.0002735272328275435,-0.0015662312507629395,9315.0,3523.0,6.037630502795715e-05,0.00033828124091346996,0.0018429756164550781,-0.0017254352569580078,7857,3194,-1.6284471791837045e-05,0.00030412691062650703,0.0013549327850341797,-0.002391815185546875,11155.0,4870.0
47,2.9107086380200797e-05,0.000264829171562271,0.000264829171562271,-0.0014861822128295898,9315.0,3450.0,7.231690208736389e-05,0.0003514429005925004,0.0018062591552734375,-0.0017993450164794922,7857,3088,-1.1176991743774076e-05,0.00029977326476815665,0.0016050338745117188,-0.0026816129684448242,11155.0,4757.0
48,3.359403337303987e-05,0.00026949321458906146,0.00026949321458906146,-0.0015044212341308594,9315.0,3397.0,7.756161390293702e-05,0.0003539670649530948,0.0020096302032470703,-0.0016632080078125,7857,3027,-1.706348124846957e-06,0.0002971990251535617,0.0014781653881072998,-0.0022932887077331543,11155.0,4633.0
49,3.667468544967089e-05,0.0002895856965009914,0.0002895856965009914,-0.0014791488647460938,9315.0,3427.0,7.731856288451432e-05,0.00033477924007190246,0.001997649669647217,-0.0014851093292236328,7857,2988,8.352855466730336e-06,0.00030107159680584555,0.0015532970428466797,-0.0019714832305908203,11155.0,4495.0
50,3.3174435144677254e-05,0.0003129723718183728,0.0003129723718183728,-0.0016736984252929688,9315.0,3503.0,7.325721905039186e-05,0.0003073749648300882,0.0019249320030212402,-0.0013365745544433594,7857,2971,1.932082387260447e-05,0.0002989830433893017,0.0022139549255371094,-0.002188444137573242,11155.0,4352.0
51,2.2906529529933015e-05,0.0003244319063422726,0.0003244319063422726,-0.0019174814224243164,9315.0,3573.0,6.89967119080169e-05,0.0002908196413441277,0.0016198158264160156,-0.0012253522872924805,7857,2941,3.012137235810622e-05,0.0002917651352222016,0.002725839614868164,-0.0017049312591552734,11155.0,4196.0
52,1.1880884926211076e-05,0.00032764032571802316,0.00032764032571802316,-0.001857161521911621,9315.0,3599.0,6.500578010063019e-05,0.0002819624314907574,0.0015555620193481445,-0.0015232563018798828,7857,2919,3.0551364006460424e-05,0.00028790881708795103,0.0029685497283935547,-0.001842498779296875,11155.0,4031.0
53,3.601893789426864e-06,0.00032793840239613985,0.00032793840239613985,-0.0016248226165771484,9315.0,3604.0,6.405599920944058e-05,0.00028329222860712616,0.001489102840423584,-0.0017254352569580078,7857,2904,2.4074244891939972e-05,0.0002782453509033046,0.0021686553955078125,-0.0019174814224243164,11155.0,3862.0
54,-1.712424254000024e-06,0.0003257485662739784,0.0003257485662739784,-0.0014653205871582031,9315.0,3586.0,6.85678650783293e-05,0.0002880648905581447,0.0016887187957763672,-0.0016558170318603516,7857,2886,1.5942703413116234e-05,0.00026469909301493817,0.001653432846069336,-0.0016191154718399048,11155.0,3679.0
55,-5.460917277054654e-06,0.0003286350003887001,0.0003286350003887001,-0.0016976594924926758,9315.0,3576.0,7.080348559598281e-05,0.0002980779355920363,0.0018639564514160156,-0.0015044212341308594,7857,2866,7.501967363593852e-06,0.00025337997959188013,0.0014514923095703125,-0.0016140937805175781,11155.0,3466.0
56,-1.0837396958985846e-05,0.00032675503984573345,0.00032675503984573345,-0.0019974708557128906,9315.0,3568.0,6.608657604795809e-05,0.0003160708348404313,0.001977682113647461,-0.0016120672225952148,7857,2853,2.399864188199867e-06,0.00024096531979778986,0.0014510154724121094,-0.0017254352569580078,11155.0,3246.0
57,-1.750188140184591e-05,0.0003243904814631239,0.0003243904814631239,-0.002007603645324707,9315.0,3573.0,5.735324900207357e-05,0.00033028500387232665,0.0022839903831481934,-0.001649409532546997,7857,2856,2.514221630486439e-06,0.00022631645284867954,0.0016736984252929688,-0.0013911724090576172,11155.0,3019.0
58,-2.21809311395599e-05,0.00032477065170865226,0.00032477065170865226,-0.0018938183784484863,9315.0,3558.0,4.861137962819973e-05,0.00032849379226132064,0.00215756893157959,-0.0014296621084213257,7857,2859,7.700343136869768e-06,0.00021607051555618188,0.0017664432525634766,-0.0014188289642333984,11155.0,2774.0
59,-2.4664209615607583e-05,0.0003295117735258163,0.0003295117735258163,-0.002139568328857422,9315.0,3536.0,3.97140748339646e-05,0.00031452335974759606,0.0020158886909484863,-0.0015058517456054688,7857,2852,1.4871394166540052e-05,0.00020960893618205027,0.0014922618865966797,-0.0020203590393066406,11155.0,2508.0
60,-2.414626128418182e-05,0.00032477741756716823,0.00032477741756716823,-0.0019404888153076172,9315.0,3521.0,3.224554258547235e-05,0.0003002099329674133,0.0021659135818481445,-0.0014879703521728516,7857,2838,2.0337867273367585e-05,0.00019828535406726927,0.0014002323150634766,-0.0015265941619873047,11155.0,2248.0
61,-2.130531521326094e-05,0.00030611737657462994,0.00030611737657462994,-0.0016014575958251953,9315.0,3479.0,2.6629512364202316e-05,0.00029569311199058925,0.0020530223846435547,-0.0017663240432739258,7857,2817,2.0319598568089936e-05,0.00018504471078232052,0.0018429756164550781,-0.0012295246124267578,11155.0,2004.0
62,-1.668917198406083e-05,0.0002944292384591981,0.0002944292384591981,-0.0018858909606933594,9315.0,3428.0,2.304437423573087e-05,0.00029721449308865223,0.0017995834350585938,-0.001842498779296875,7857,2814,1.6792277888578987e-05,0.00016409887526964273,0.0016188621520996094,-0.0009798109531402588,11155.0,1746.0
63,-1.169331592992068e-05,0.00029424588422029296,0.00029424588422029296,-0.0019805431365966797,9315.0,3365.0,2.0737255695212546e-05,0.0003001660655308058,0.0015528202056884766,-0.0016906261444091797,7857,2804,1.1379823235221748e-05,0.00013899932327411703,0.0013148784637451172,-0.0009846687316894531,11155.0,1487.0
64,-2.5035254338579238e-06,0.00029847813465278363,0.00029847813465278363,-0.0022678375244140625,9315.0,3322.0,1.8630863939713846e-05,0.00031300274753449063,0.0016067028045654297,-0.0021004676818847656,7857,2782,6.600522069057599e-06,0.00012359630807395593,0.0014607906341552734,-0.001078099012374878,11155.0,1215.0
65,1.0971698554565654e-05,0.0003019813300952816,0.0003019813300952816,-0.002351522445678711,9315.0,3271.0,1.719177212215817e-05,0.00033267879018754174,0.002186998724937439,-0.0019307136535644531,7857,2768,4.117515201420293e-06,0.00011672217294666952,0.0018100738525390625,-0.0010510683059692383,11155.0,942.0
66,2.6524115896969233e-05,0.0003066687579017822,0.0003066687579017822,-0.002068042755126953,9315.0,3210.0,1.8898397535929642e-05,0.00033848377828993824,0.0027132034301757812,-0.0018486380577087402,7857,2731,4.1139442409989425e-06,0.00010040323623108116,0.0012087821960449219,-0.0009398460388183594,11155.0,686.0
67,3.7037919537592376e-05,0.0003007700075277591,0.0003007700075277591,-0.0017066001892089844,9315.0,3138.0,2.6316465562093858e-05,0.00032474781132423665,0.0029685497283935547,-0.002188444137573242,7857,2705,2.8706708416202474e-06,7.033496948563734e-05,0.0011181831359863281,-0.0010290145874023438,11155.0,381.0
68,4.231051706333539e-05,0.00028680812376067206,0.00028680812376067206,-0.0018486380577087402,9315.0,3065.0,3.509449514884325e-05,0.0003062734124166603,0.002313375473022461,-0.0021524429321289062,7857,2677,-3.086088257806283e-07,3.339755541249037e-05,0.0005857944488525391,-0.001050412654876709,11155.0,109.0
69,4.033373558310911e-05,0.00026805052326042065,0.00026805052326042065,-0.001705944538116455,9315.0,2973.0,4.471031779953678e-05,0.0003018835772342447,0.0023076534271240234,-0.0018723011016845703,7857,2635,0.0,0.0,0.0,0.0,11155.0,0.0
70,3.457099891163237e-05,0.0002558981928874583,0.0002558981928874583,-0.0017993450164794922,9315.0,2864.0,4.921916259656402e-05,0.00030472724522264023,0.0018892288208007812,-0.001705944538116455,7857,2609,0.0,0.0,0.0,0.0,11155.0,0.0
71,3.264122490496292e-05,0.00025307639054340266,0.00025307639054340266,-0.0020012259483337402,9315.0,2751.0,4.27268776853921e-05,0.00030451334057059903,0.0018546581268310547,-0.001550137996673584,7857,2563,0.0,0.0,0.0,0.0,11155.0,0.0
72,3.67142340934211e-05,0.00024771652073567966,0.00024771652073567966,-0.0021350085735321045,9315.0,2617.0,2.6080746789249147e-05,0.000297643687417762,0.0016568172723054886,-0.0013992786407470703,7857,2505,0.0,0.0,0.0,0.0,11155.0,0.0
73,4.400634804217648e-05,0.00024393963838906046,0.00024393963838906046,-0.0017183423042297363,9315.0,2483.0,4.368288277522624e-06,0.0002910436933938722,0.00194549560546875,-0.0020412206649780273,7857,2433,0.0,0.0,0.0,0.0,11155.0,0.0
74,4.851544132532169e-05,0.0002428310069790468,0.0002428310069790468,-0.0017170906066894531,9315.0,2321.0,-1.5059144357396695e-05,0.0002975765033273185,0.0016143321990966797,-0.0026816129684448242,7857,2371,0.0,0.0,0.0,0.0,11155.0,0.0
75,5.264649320206938e-05,0.00024715541699306035,0.00024715541699306035,-0.001556396484375,9315.0,2127.0,-2.8924084384910846e-05,0.00031040141758208526,0.001346290111541748,-0.0026553869247436523,7857,2302,0.0,0.0,0.0,0.0,11155.0,0.0
76,5.627199314914342e-05,0.00024649354404918935,0.00024649354404918935,-0.0012454986572265625,9315.0,1926.0,-3.588748085071921e-05,0.000312291369399847,0.0013152360916137695,-0.002106606960296631,7857,2240,0.0,0.0,0.0,0.0,11155.0,0.0
77,5.498948717970747e-05,0.00024164408766709036,0.00024164408766709036,-0.0009984970092773438,9315.0,1764.0,-3.772247454953513e-05,0.000293389034413564,0.001374959945678711,-0.0018938183784484863,7857,2179,0.0,0.0,0.0,0.0,11155.0,0.0
78,5.053755380473836e-05,0.0002265183386659071,0.0002265183386659071,-0.0009095668792724609,9315.0,1589.0,-3.767847645508861e-05,0.00026695771172397317,0.0013602972030639648,-0.0016402006149291992,7857,2103,0.0,0.0,0.0,0.0,11155.0,0.0
79,4.531904827339462e-05,0.000203302510951016,0.000203302510951016,-0.0010085105895996094,9315.0,1407.0,-3.486694363425325e-05,0.00025681390547142917,0.0012812614440917969,-0.0017955303192138672,7857,2013,0.0,0.0,0.0,0.0,11155.0,0.0
80,4.2615688559776685e-05,0.00019563141710444808,0.00019563141710444808,-0.0012886524200439453,9315.0,1258.0,-3.0877077795562285e-05,0.00025342253531674975,0.0015577077865600586,-0.0018122196197509766,7857,1953,0.0,0.0,0.0,0.0,11155.0,0.0
81,3.863605253210454e-05,0.00018971514283764332,0.00018971514283764332,-0.0015726089477539062,9315.0,1098.0,-2.9523050766967502e-05,0.0002510198853627323,0.0017564892768859863,-0.0017735958099365234,7857,1927,,,,,,
82,3.640844336807352e-05,0.00019421898490063833,0.00019421898490063833,-0.001483917236328125,9315.0,945.0,-3.184194613710511e-05,0.0002501600981718346,0.001805126667022705,-0.0019818544387817383,7857,1898,,,,,,
83,3.1902005366573106e-05,0.00018400007665603016,0.00018400007665603016,-0.0010180473327636719,9315.0,773.0,-3.5359460750594854e-05,0.0002612727843647437,0.002298593521118164,-0.0020728111267089844,7857,1856,,,,,,
84,2.2574857285249253e-05,0.00015993447854340876,0.00015993447854340876,-0.001064300537109375,9315.0,587.0,-3.745339104470082e-05,0.000271416350027515,0.002177000045776367,-0.0019559860229492188,7857,1825,,,,,,
85,8.23842775490549e-06,9.660826576399205e-05,9.660826576399205e-05,-0.0012390613555908203,9315.0,276.0,-3.803111515598806e-05,0.0002730993699128372,0.0017657279968261719,-0.002162158489227295,7857,1767,,,,,,
86,3.698495403132129e-09,3.917427007983315e-05,3.917427007983315e-05,-0.0014879703521728516,9315.0,26.0,-3.9964190115472965e-05,0.00026892119508110647,0.001553565263748169,-0.00205075740814209,7857,1716,,,,,,
87,0.0,0.0,0.0,0.0,9315.0,0.0,-4.1801948032726956e-05,0.0002565197688928251,0.001555800437927246,-0.0019049644470214844,7857,1663,,,,,,
88,0.0,0.0,0.0,0.0,9315.0,0.0,-4.417019233396079e-05,0.0002326480879231147,0.0016880035400390625,-0.0018275976181030273,7857,1602,,,,,,
89,0.0,0.0,0.0,0.0,9315.0,0.0,-4.59945363311323e-05,0.00020797809937803585,0.0015320777893066406,-0.0015714168548583984,7857,1532,,,,,,
90,0.0,0.0,0.0,0.0,9315.0,0.0,-4.7506179772691974e-05,0.00019561584497747103,0.0012001991271972656,-0.0013642311096191406,7857,1460,,,,,,
91,0.0,0.0,0.0,0.0,9315.0,0.0,-4.8911115510819015e-05,0.00019813653674888334,0.0009351968765258789,-0.0015759468078613281,7857,1394,,,,,,
92,0.0,0.0,0.0,0.0,9315.0,0.0,-4.703641587875919e-05,0.00019959702527468255,0.000983595848083496,-0.0015602707862854004,7857,1313,,,,,,
93,0.0,0.0,0.0,0.0,9315.0,0.0,-4.095951989207754e-05,0.00019743335817995713,0.0010570287704467773,-0.0016740262508392334,7857,1253,,,,,,
94,0.0,0.0,0.0,0.0,9315.0,0.0,-3.112090649967225e-05,0.0001878096790250467,0.001172780990600586,-0.0019174814224243164,7857,1201,,,,,,
95,0.0,0.0,0.0,0.0,9315.0,0.0,-2.011075350573881e-05,0.00017522670733620968,0.001134343445301056,-0.001629948616027832,7857,1131,,,,,,
96,0.0,0.0,0.0,0.0,9315.0,0.0,-1.5025552726562664e-05,0.00017438521978280935,0.0014816224575042725,-0.0013930797576904297,7857,1044,,,,,,
97,,,,,,,-1.4775392759543453e-05,0.00017528215021055585,0.0018302202224731445,-0.0013934522867202759,7857,950,,,,,,
98,,,,,,,-1.784009567134872e-05,0.00016990243586618463,0.0018860101699829102,-0.0014818906784057617,7857,851,,,,,,
99,,,,,,,-1.8938388310366193e-05,0.00015175799772462476,0.001585245132446289,-0.0015250444412231445,7857,725,,,,,,
100,,,,,,,-1.576698937073902e-05,0.0001263929168299021,0.0009951591491699219,-0.0013511180877685547,7857,590,,,,,,
101,,,,,,,-1.1604543581161165e-05,0.00010606796367663929,0.0010747909545898438,-0.0014982223510742188,7857,460,,,,,,
102,,,,,,,-9.165045710329611e-06,8.846292852085253e-05,0.0005461350083351135,-0.0014481544494628906,7857,341,,,,,,
103,,,,,,,-5.215751955916744e-06,6.584280140186177e-05,0.0005215480923652649,-0.0012890100479125977,7857,177,,,,,,
104,,,,,,,-1.0990450343391406e-06,3.311918191381446e-05,0.0003458261489868164,-0.0011445283889770508,7857,41,,,,,,
105,,,,,,,0.0,0.0,0.0,0.0,7857,0,,,,,,
106,,,,,,,0.0,0.0,0.0,0.0,7857,0,,,,,,
107,,,,,,,0.0,0.0,0.0,0.0,7857,0,,,,,,
108,,,,,,,0.0,0.0,0.0,0.0,7857,0,,,,,,
109,,,,,,,0.0,0.0,0.0,0.0,7857,0,,,,,,
110,,,,,,,0.0,0.0,0.0,0.0,7857,0,,,,,,
111,,,,,,,0.0,0.0,0.0,0.0,7857,0,,,,,,
112,,,,,,,0.0,0.0,0.0,0.0,7857,0,,,,,,
113,,,,,,,0.0,0.0,0.0,0.0,7857,0,,,,,,
114,,,,,,,0.0,0.0,0.0,0.0,7857,0,,,,,,
