,sag_mean,sag_std,sag_max,sag_min,sag_nb_elements,sag_non_zero_elements,hor_mean,hor_std,hor_max,hor_min,hor_nb_elements,hor_non_zero_elements,frt_mean,frt_std,frt_max,frt_min,frt_nb_elements,frt_non_zero_elements
0,0.0,0.0,0.0,0.0,9315.0,0.0,0.0,0.0,0.0,0.0,7857,0,2.555742839802973e-07,1.3067942986870686e-05,0.0008829832077026367,0.0,11155.0,5.0
1,0.0,0.0,0.0,0.0,9315.0,0.0,0.0,0.0,0.0,0.0,7857,0,1.326397709224535e-06,3.5219428395257313e-05,0.0014472007751464844,-7.700920104980469e-05,11155.0,20.0
2,0.0,0.0,0.0,0.0,9315.0,0.0,0.0,0.0,0.0,0.0,7857,0,2.19138075440207e-06,5.686027240502048e-05,0.0026330947875976562,-0.0006254315376281738,11155.0,41.0
3,0.0,0.0,0.0,0.0,9315.0,0.0,0.0,0.0,0.0,0.0,7857,0,3.3296915192819934e-07,8.412332840687496e-05,0.0032994747161865234,-0.00170174241065979,11155.0,61.0
4,0.0,0.0,0.0,0.0,9315.0,0.0,0.0,0.0,0.0,0.0,7857,0,-4.495665737219465e-06,0.00011210918522847106,0.0024961233139038086,-0.0023935511708259583,11155.0,82.0
5,0.0,0.0,0.0,0.0,9315.0,0.0,0.0,0.0,0.0,0.0,7857,0,-5.9723590238913996e-06,0.00011074115198457487,0.0015958547592163086,-0.0025784075260162354,11155.0,99.0
6,0.0,0.0,0.0,0.0,9315.0,0.0,0.0,0.0,0.0,0.0,7857,0,-4.661795217752563e-06,9.519037070357443e-05,0.0013388246297836304,-0.002146899700164795,11155.0,111.0
7,0.0,0.0,0.0,0.0,9315.0,0.0,0.0,0.0,0.0,0.0,7857,0,-3.221071338183353e-06,7.812747524550628e-05,0.0013108253479003906,-0.0018669366836547852,11155.0,132.0
8,0.0,0.0,0.0,0.0,9315.0,0.0,0.0,0.0,0.0,0.0,7857,0,-4.539928966335842e-06,7.938659391408981e-05,0.0008809566497802734,-0.0016393661499023438,11155.0,207.0
9,0.0,0.0,0.0,0.0,9315.0,0.0,0.0,0.0,0.0,0.0,7857,0,-9.403594929523722e-06,0.00010531040214399542,0.0009055137634277344,-0.0014139413833618164,11155.0,399.0
10,1.1543926777407103e-06,2.792714823834357e-05,2.792714823834357e-05,-0.0005164146423339844,9315.0,66.0,0.0,0.0,0.0,0.0,7857,0,-1.496501589016108e-05,0.0001269497155960324,0.0007004737854003906,-0.001535564661026001,11155.0,550.0
11,3.94191279710169e-06,6.756472881338335e-05,6.756472881338335e-05,-0.0006875991821289062,9315.0,286.0,1.8019646887896366e-06,3.557528655318129e-05,0.001190781593322754,-0.00011360645294189453,7857,33,-1.9661586518305075e-05,0.00016948838418033734,0.0008096694946289062,-0.0022045373916625977,11155.0,670.0
12,1.132161345510827e-05,0.00011306269180762262,0.00011306269180762262,-0.0006263256072998047,9315.0,569.0,4.99002392484029e-06,7.000313655186151e-05,0.0014865398406982422,-0.0006285607814788818,7857,123,-2.0961801081909186e-05,0.00019957450320851763,0.0011802315711975098,-0.0022527575492858887,11155.0,786.0
13,1.5936883579353714e-05,0.00013147075574789014,0.00013147075574789014,-0.0008921027183532715,9315.0,759.0,3.906241640025641e-06,9.387888240110444e-05,0.0015717744827270508,-0.0011868476867675781,7857,257,-1.6943724840171453e-05,0.00020524922393261815,0.0017342567443847656,-0.002262592315673828,11155.0,896.0
14,2.3235064209851283e-05,0.00014965471626249884,0.00014965471626249884,-0.0007047653198242188,9315.0,929.0,-1.6401157428403688e-06,0.0001167309682397479,0.0013883113861083984,-0.0012693405151367188,7857,405,-1.0183170343469953e-05,0.00020053390567714024,0.0019217729568481445,-0.0020341873168945312,11155.0,1009.0
15,3.31796127083045e-05,0.00017596715402912874,0.00017596715402912874,-0.0007414817810058594,9315.0,1110.0,-4.329805179294381e-06,0.00012324907148445895,0.0011739730834960938,-0.0011413097381591797,7857,534,1.3564677816343542e-07,0.0001936082735053816,0.0018451213836669922,-0.0015819072723388672,11155.0,1112.0
16,4.201558861237617e-05,0.0001956873284218857,0.0001956873284218857,-0.0007915496826171875,9315.0,1268.0,-3.0993920551423083e-06,0.00011918495039464694,0.0010489225387573242,-0.0010730624198913574,7857,649,7.47915118676412e-06,0.00018137044154499163,0.0021523386240005493,-0.00140458345413208,11155.0,1261.0
17,5.230984083910223e-05,0.00021566913289951088,0.00021566913289951088,-0.0009537339210510254,9315.0,1465.0,-1.205990428314328e-06,0.00011959530226023214,0.0008224248886108398,-0.0009435117244720459,7857,760,8.722067907025118e-06,0.00018620783164448575,0.00234869122505188,-0.0013583898544311523,11155.0,1404.0
18,6.129284935712942e-05,0.00023132971135349863,0.00023132971135349863,-0.0009690523147583008,9315.0,1643.0,-1.1139335716492926e-07,0.0001255967008804781,0.0007691383361816406,-0.0009630918502807617,7857,884,5.0100877214134075e-06,0.0001957317726806254,0.0019653737545013428,-0.0014122724533081055,11155.0,1531.0
19,6.874643581500326e-05,0.00024541424943726826,0.00024541424943726826,-0.0013544559478759766,9315.0,1806.0,-3.4332135757432572e-06,0.0001472180039155899,0.0008281469345092773,-0.001631319522857666,7857,1041,3.0906047391926878e-06,0.00020734868642301472,0.0014883875846862793,-0.0016950368881225586,11155.0,1653.0
20,7.714386790080003e-05,0.00025499882799535597,0.00025499882799535597,-0.0011739730834960938,9315.0,1959.0,-5.736373917531448e-06,0.00015876650763224135,0.0008701086044311523,-0.0013322234153747559,7857,1281,1.678361036346792e-05,0.00023413428819081094,0.002305150032043457,-0.001631319522857666,11155.0,1962.0
21,8.383151553711197e-05,0.00026193969101697567,0.00026193969101697567,-0.0010710954666137695,9315.0,2150.0,-6.17686398085541e-06,0.00016117765431618463,0.0009529590606689453,-0.0010461807250976562,7857,1475,2.7086685748928627e-05,0.00023554270410931487,0.0018545985221862793,-0.0016825199127197266,11155.0,2279.0
22,8.912988010614834e-05,0.00026924816546210293,0.00026924816546210293,-0.0009155869483947754,9315.0,2316.0,-5.46788485482263e-06,0.00017094690166470403,0.0013575553894042969,-0.0011320114135742188,7857,1656,2.2071259008496765e-05,0.00023034436906539966,0.0014885663986206055,-0.0015349388122558594,11155.0,2581.0
23,9.071919116003102e-05,0.0002728376706718243,0.0002728376706718243,-0.0008600950241088867,9315.0,2472.0,-4.283273425458178e-06,0.00017887851011908536,0.0013260841369628906,-0.0012286901473999023,7857,1824,2.0812176291007217e-05,0.00024675907896604463,0.0014350414276123047,-0.0016862154006958008,11155.0,3175.0
24,9.193236236493001e-05,0.0002808946831550197,0.0002808946831550197,-0.001346975564956665,9315.0,2614.0,-1.4132327708692226e-06,0.00018916181500006437,0.00150299072265625,-0.0013382136821746826,7857,1981,3.008625444318005e-05,0.00026693127173270354,0.0019516944885253906,-0.001756429672241211,11155.0,3729.0
25,9.426481032497097e-05,0.00029375248802414246,0.00029375248802414246,-0.0016862154006958008,9315.0,2755.0,3.9596684643091005e-06,0.0002099750646004789,0.0015604496002197266,-0.0013066604733467102,7857,2127,3.958579003272377e-05,0.00027823719497492187,0.0019148588180541992,-0.00222170352935791,11155.0,4270.0
26,9.869895393670733e-05,0.0002978407200677902,0.0002978407200677902,-0.0014113187789916992,9315.0,2870.0,1.0262642148458391e-05,0.00024079645756835808,0.001603841781616211,-0.0013544559478759766,7857,2271,4.8073354719439625e-05,0.00028619798813888644,0.001913994550704956,-0.0023027658462524414,11155.0,4664.0
27,0.00010669437979192533,0.00029390011409768946,0.00029390011409768946,-0.0009996891021728516,9315.0,2990.0,1.6034447564438235e-05,0.00026782409312679296,0.0019217729568481445,-0.0014990270137786865,7857,2390,5.364940071068919e-05,0.00030452359184081877,0.0018544197082519531,-0.0022768378257751465,11155.0,4937.0
28,0.00011433248957690307,0.00029344867957069044,0.00029344867957069044,-0.001033782958984375,9315.0,3091.0,1.876584612741304e-05,0.00029157328534898256,0.0017962455749511719,-0.0016725659370422363,7857,2506,6.280987275989662e-05,0.0003294333512241834,0.0020815134048461914,-0.0017562508583068848,11155.0,5081.0
29,0.00011857557934032694,0.00030403823222197886,0.00030403823222197886,-0.0013287067413330078,9315.0,3171.0,2.2418153390693266e-05,0.0003235895090767529,0.0018601417541503906,-0.0016950368881225586,7857,2632,6.997194289603843e-05,0.00035937517134369856,0.0021208524703979492,-0.0013382136821746826,11155.0,5163.0
30,0.00012023469224837507,0.00031675941831632717,0.00031675941831632717,-0.0014511346817016602,9315.0,3248.0,2.831775146260052e-05,0.00034993711647592063,0.001764535903930664,-0.0020961761474609375,7857,2746,7.009736100449266e-05,0.0003647404527205708,0.0019335150718688965,-0.0013830065727233887,11155.0,5216.0
31,0.00011764315011452682,0.00032120078367213944,0.00032120078367213944,-0.0013570785522460938,9315.0,3308.0,3.326492277928815e-05,0.0003540264506531924,0.0018184185028076172,-0.0022389888763427734,7857,2854,7.703278224384274e-05,0.0003525395144073785,0.0020189285278320312,-0.0014662742614746094,11155.0,5310.0
32,0.00011149389468852937,0.0003176009720445604,0.0003176009720445604,-0.0012134909629821777,9315.0,3358.0,3.5701843120141244e-05,0.00034036120804212564,0.0017235279083251953,-0.0022527575492858887,7857,2956,9.555499693109554e-05,0.00034283808150876836,0.0021245479583740234,-0.0015107393264770508,11155.0,5420.0
33,0.00010336053927928113,0.0003126030916746976,0.0003126030916746976,-0.0011309981346130371,9315.0,3396.0,3.404353567191591e-05,0.0003175426684431915,0.0015283823013305664,-0.002262592315673828,7857,3037,0.00011525535717526343,0.00034423656608471593,0.002037644386291504,-0.0010874271392822266,11155.0,5486.0
34,9.680423167540984e-05,0.00031275773354353916,0.00031275773354353916,-0.0010731220245361328,9315.0,3444.0,2.988874093191199e-05,0.000301198226864036,0.0014604628086090088,-0.0019168853759765625,7857,3119,0.00012498289656622693,0.00035537307118075115,0.0023040175437927246,-0.0015883445739746094,11155.0,5546.0
35,9.20592721093494e-05,0.0003209207059455263,0.0003209207059455263,-0.001070261001586914,9315.0,3473.0,2.7544983061756174e-05,0.0003006047216321835,0.00164109468460083,-0.0020673274993896484,7857,3198,0.0001270241702471489,0.00036072214261101404,0.0023839175701141357,-0.0018515586853027344,11155.0,5570.0
36,8.727749349554162e-05,0.0003322678755790585,0.0003322678755790585,-0.0014338493347167969,9315.0,3505.0,3.108923841505841e-05,0.00031199493662295206,0.0019654035568237305,-0.0018985271453857422,7857,3260,0.00012532046965974813,0.00034932388963029105,0.002088002860546112,-0.0014338493347167969,11155.0,5555.0
37,8.099374953223472e-05,0.0003413894347959848,0.0003413894347959848,-0.0013995766639709473,9315.0,3530.0,4.083046064259748e-05,0.00033034911587908526,0.0019241571426391602,-0.0018534064292907715,7857,3349,0.00012177434318861955,0.00034499306608762114,0.0016745924949645996,-0.0013544559478759766,11155.0,5539.0
38,7.521729142325358e-05,0.0003466806986554777,0.0003466806986554777,-0.001361846923828125,9315.0,3538.0,5.519591228967938e-05,0.00034798981292150495,0.001918196678161621,-0.0025784075260162354,7857,3412,0.00011739971647339878,0.00035112773513462967,0.002094566822052002,-0.0014878511428833008,11155.0,5523.0
39,7.077954722402424e-05,0.0003534930856952588,0.0003534930856952588,-0.0014721155166625977,9315.0,3549.0,7.258047621014475e-05,0.00035466244068806986,0.0018431544303894043,-0.0023935511708259583,7857,3443,0.00011155661350754408,0.0003561599410282174,0.0022736191749572754,-0.0017873048782348633,11155.0,5471.0
40,6.402427821707078e-05,0.00035806965844323513,0.00035806965844323513,-0.0018515586853027344,9315.0,3538.0,8.829667032656153e-05,0.0003469302822486544,0.0019233226776123047,-0.002174854278564453,7857,3469,0.00010491733951864581,0.0003544796674547787,0.0020737648010253906,-0.0023322105407714844,11155.0,5402.0
41,5.0940882752077596e-05,0.0003521904838601734,0.0003521904838601734,-0.0018126964569091797,9315.0,3528.0,0.00010104175611753887,0.0003260070062739131,0.0021208524703979492,-0.0016685724258422852,7857,3495,9.998567252343078e-05,0.0003428067801547466,0.0017409920692443848,-0.0016091465950012207,11155.0,5318.0
42,3.6012949558538326e-05,0.000330347997267528,0.000330347997267528,-0.0018755793571472168,9315.0,3546.0,0.00010656424329950514,0.0003142272166088822,0.0024493932723999023,-0.0008766651153564453,7857,3504,9.714485539444015e-05,0.0003363468293644325,0.0016415119171142578,-0.0013995766639709473,11155.0,5243.0
43,2.9730169849032342e-05,0.0003173199458816164,0.0003173199458816164,-0.002187013626098633,9315.0,3574.0,0.00010465371423328988,0.0003196745654400469,0.0032994747161865234,-0.0009590387344360352,7857,3496,9.67692128039378e-05,0.00033468053618892335,0.001929163932800293,-0.0014729499816894531,11155.0,5156.0
44,2.846708312536671e-05,0.00030807644366444867,0.00030807644366444867,-0.0023322105407714844,9315.0,3589.0,0.00010305034983853386,0.0003161598320620003,0.0026993751525878906,-0.0011744499206542969,7857,3430,9.257270143033811e-05,0.00032006803290584446,0.0019241571426391602,-0.0014455318450927734,11155.0,5062.0
45,2.8488357822344274e-05,0.0002900844336552313,0.0002900844336552313,-0.002174854278564453,9315.0,3553.0,0.00010408486634439993,0.000309222214582567,0.00234869122505188,-0.0011779814958572388,7857,3364,8.467992162185833e-05,0.00030065619626482053,0.0019654035568237305,-0.0013713836669921875,11155.0,4952.0
46,2.5863606371421675e-05,0.0002737089616825843,0.0002737089616825843,-0.0018616020679473877,9315.0,3496.0,0.00011063510535394639,0.0003086476554310006,0.0022054286673665047,-0.001125037670135498,7857,3277,8.1125020476299e-05,0.00028471744292268386,0.0018763840198516846,-0.001410067081451416,11155.0,4844.0
47,2.2169793297357204e-05,0.0002665548117354272,0.0002665548117354272,-0.0020673274993896484,9315.0,3435.0,0.00011315408895283878,0.00030536848674420775,0.0018451213836669922,-0.0011991262435913086,7857,3152,8.26769550322588e-05,0.0002604139915616114,0.0016971826553344727,-0.0010497570037841797,11155.0,4717.0
48,1.969821952641814e-05,0.00026452977674076334,0.00026452977674076334,-0.00194549560546875,9315.0,3409.0,0.00010824543844154124,0.00031294156556744125,0.0018754005432128906,-0.0017458200454711914,7857,3042,8.543213906730072e-05,0.0002570952512933983,0.0015779733657836914,-0.0008984804153442383,11155.0,4594.0
49,1.669901628460899e-05,0.0002595860612787504,0.0002595860612787504,-0.001482456922531128,9315.0,3450.0,0.00010372910049720363,0.00032854690072579753,0.0021462440490722656,-0.0023322105407714844,7857,3014,8.754251027399253e-05,0.00026246342692134723,0.0019295215606689453,-0.0009860992431640625,11155.0,4461.0
50,1.549249740769378e-05,0.0002591455924285003,0.0002591455924285003,-0.00191439688205719,9315.0,3526.0,9.627065486328297e-05,0.00032856214809840725,0.0022680461406707764,-0.002068758010864258,7857,2982,9.02721217630163e-05,0.0002612737657255737,0.0018053054809570312,-0.0011309981346130371,11155.0,4313.0
51,2.186125658420767e-05,0.00027001623858009566,0.00027001623858009566,-0.00234781950712204,9315.0,3585.0,8.538821373906567e-05,0.00032385225147004625,0.0023839175701141357,-0.0015218257904052734,7857,2958,9.518566080669616e-05,0.0002614022575859038,0.0019707679748535156,-0.0009109377861022949,11155.0,4159.0
52,3.3975127744255494e-05,0.0002749497867887813,0.0002749497867887813,-0.0025784075260162354,9315.0,3601.0,7.553090214313196e-05,0.00031074882007634837,0.0020714998245239258,-0.0012857913970947266,7857,2953,0.0001013390570418748,0.00027134225894466957,0.0021462440490722656,-0.0008829236030578613,11155.0,3994.0
53,4.344854979216952e-05,0.0002736152123581834,0.0002736152123581834,-0.0018756985664367676,9315.0,3580.0,6.74522743107929e-05,0.0002901041304824507,0.0019442439079284668,-0.0011165142059326172,7857,2913,0.00010640510786424927,0.00028334761986622783,0.0024312734603881836,-0.0010377764701843262,11155.0,3819.0
54,4.500616090002275e-05,0.00027269823433262447,0.00027269823433262447,-0.0013883709907531738,9315.0,3558.0,6.251036484809459e-05,0.00027726940519561905,0.001674354076385498,-0.0011970996856689453,7857,2881,0.00010651507673915856,0.00028819359933481,0.0022649765014648438,-0.001099228858947754,11155.0,3640.0
55,4.237044073717661e-05,0.0002747880440149941,0.0002747880440149941,-0.001410067081451416,9315.0,3552.0,5.970199203945576e-05,0.000274494017860953,0.0015178918838500977,-0.001811981201171875,7857,2853,9.910634293875076e-05,0.0002798979627202538,0.002079010009765625,-0.0009306073188781738,11155.0,3435.0
56,4.0509929247870364e-05,0.00028570173141620654,0.00028570173141620654,-0.0015060901641845703,9315.0,3558.0,5.446870869839443e-05,0.00027243831042161794,0.0013866350054740906,-0.0023027658462524414,7857,2846,8.841215571334752e-05,0.00026563136426778554,0.0017664432525634766,-0.0007569789886474609,11155.0,3223.0
57,4.136100916881304e-05,0.0003047226199768502,0.0003047226199768502,-0.0019066333770751953,9315.0,3561.0,4.896998219735803e-05,0.0002657079731674536,0.0013710260391235352,-0.0019812285900115967,7857,2844,7.997175630682755e-05,0.00025113207831375977,0.0015788078308105469,-0.00145721435546875,11155.0,3004.0
58,4.4113191062613514e-05,0.00031725407660970984,0.00031725407660970984,-0.0022045373916625977,9315.0,3539.0,5.1440374656556446e-05,0.00026345882512402574,0.0016309469938278198,-0.0010850876569747925,7857,2843,7.429143866778325e-05,0.00023068747469199218,0.0015680789947509766,-0.0011017322540283203,11155.0,2768.0
59,4.9612606711629665e-05,0.0003183410655728738,0.0003183410655728738,-0.0022527575492858887,9315.0,3511.0,6.236571737720261e-05,0.00027420978629087543,0.0022197961807250977,-0.0010398626327514648,7857,2835,6.634150329599068e-05,0.00021201251183219878,0.0015250444412231445,-0.0006134510040283203,11155.0,2519.0
60,5.5820105815507145e-05,0.00031015455536106235,0.00031015455536106235,-0.0019299983978271484,9315.0,3482.0,7.210636202930366e-05,0.0002930383725126242,0.0024312734603881836,-0.001189887523651123,7857,2827,5.249163161885266e-05,0.00019384222917539297,0.0014276504516601562,-0.0005285739898681641,11155.0,2278.0
61,6.586531314574446e-05,0.00030243567032953205,0.00030243567032953205,-0.0015217065811157227,9315.0,3463.0,7.64976137064343e-05,0.00030307975095730555,0.002087712287902832,-0.0012331008911132812,7857,2811,3.686690530733463e-05,0.00017373301527279426,0.0016075372695922852,-0.000789642333984375,11155.0,2022.0
62,7.608619660301053e-05,0.0002998088701495684,0.0002998088701495684,-0.0013696253299713135,9315.0,3424.0,7.630253223524747e-05,0.0003051976014440419,0.002113848924636841,-0.0013995766639709473,7857,2803,2.812704113982067e-05,0.00016049825974155427,0.0015643835067749023,-0.000796973705291748,11155.0,1753.0
63,7.956398426390379e-05,0.00029914073300149044,0.00029914073300149044,-0.001629471778869629,9315.0,3383.0,8.016148603674078e-05,0.0003123674289009916,0.002305150032043457,-0.0016862154006958008,7857,2785,2.299178827821988e-05,0.00014708560732048696,0.0015094280242919922,-0.0011074244976043701,11155.0,1488.0
64,7.639927548521073e-05,0.00029519317328230617,0.00029519317328230617,-0.0017673969268798828,9315.0,3336.0,9.132524875704584e-05,0.0003220322378166968,0.0021554231643676758,-0.001522839069366455,7857,2760,1.9097667955970856e-05,0.00014595738192021027,0.001521766185760498,-0.0009845495223999023,11155.0,1220.0
65,6.945766278935504e-05,0.0002862495240943118,0.0002862495240943118,-0.0017604827880859375,9315.0,3281.0,0.00010527550800307206,0.00032957859957316615,0.001913994550704956,-0.0016973018646240234,7857,2725,1.2783345389411568e-05,0.0001386261958275374,0.0015852749347686768,-0.0010513663291931152,11155.0,967.0
66,6.147674873357032e-05,0.0002743207945966083,0.0002743207945966083,-0.0017955303192138672,9315.0,3207.0,0.00011208029080984968,0.00032681766039835273,0.0017101764678955078,-0.0015474557876586914,7857,2710,5.4422152741694865e-06,0.00010899114098236988,0.0014996528625488281,-0.0010241270065307617,11155.0,663.0
67,5.357269366670218e-05,0.000263411320860574,0.000263411320860574,-0.0021104812622070312,9315.0,3116.0,0.00010989299193366014,0.00031464042227745523,0.0017830133438110352,-0.001385718584060669,7857,2664,2.592305015356805e-06,9.671748536717091e-05,0.0015398859977722168,-0.0009263753890991211,11155.0,353.0
68,4.866708970172953e-05,0.00025959797678012697,0.00025959797678012697,-0.002262592315673828,9315.0,3026.0,0.00010465053690770357,0.00030462256288988173,0.0019295215606689453,-0.0012058913707733154,7857,2634,2.7880828171394054e-06,5.733114860951909e-05,0.0014951229095458984,-0.0004177093505859375,11155.0,95.0
69,4.954250595395884e-05,0.00025833214131367664,0.00025833214131367664,-0.0020218491554260254,9315.0,2920.0,9.84145986852143e-05,0.0002962678495217664,0.0018085241317749023,-0.0014722347259521484,7857,2607,0.0,0.0,0.0,0.0,11155.0,0.0
70,5.1121467410002386e-05,0.00025246998938748536,0.00025246998938748536,-0.0023027658462524414,9315.0,2804.0,9.471227488723148e-05,0.00029063557416683346,0.001682877540588379,-0.0015107393264770508,7857,2592,0.0,0.0,0.0,0.0,11155.0,0.0
71,5.0674895789065324e-05,0.00023680769405616105,0.00023680769405616105,-0.00222170352935791,9315.0,2683.0,8.811584506918477e-05,0.000278008199646154,0.0016971826553344727,-0.001287221908569336,7857,2559,0.0,0.0,0.0,0.0,11155.0,0.0
72,4.63200507733533e-05,0.00021599715667409348,0.00021599715667409348,-0.0017810463905334473,9315.0,2544.0,8.036852973555889e-05,0.0002629399839443379,0.0017409920692443848,-0.0010148286819458008,7857,2509,0.0,0.0,0.0,0.0,11155.0,0.0
73,4.251803135967019e-05,0.00019778388003236847,0.00019778388003236847,-0.0012322068214416504,9315.0,2414.0,7.250509098519137e-05,0.0002529588767259156,0.001792997121810913,-0.0009454637765884399,7857,2455,0.0,0.0,0.0,0.0,11155.0,0.0
74,4.175564392442766e-05,0.00018850101636642703,0.00018850101636642703,-0.0008724033832550049,9315.0,2268.0,6.59445250113845e-05,0.00024801738375169845,0.002199888229370117,-0.0009136199951171875,7857,2386,0.0,0.0,0.0,0.0,11155.0,0.0
75,4.214740767152665e-05,0.00018586531844457107,0.00018586531844457107,-0.0007503032684326172,9315.0,2093.0,6.08386452198306e-05,0.00024872673178623394,0.0022736191749572754,-0.0010050535202026367,7857,2320,0.0,0.0,0.0,0.0,11155.0,0.0
76,3.9966366620223434e-05,0.00018273656845538695,0.00018273656845538695,-0.0006221048533916473,9315.0,1923.0,5.359140451851366e-05,0.0002447816253774202,0.0017181634902954102,-0.0013682842254638672,7857,2251,0.0,0.0,0.0,0.0,11155.0,0.0
77,3.5414716532034976e-05,0.00017362728819177506,0.00017362728819177506,-0.0007666349411010742,9315.0,1747.0,4.7898451141637083e-05,0.00024168876754335756,0.0014548301696777344,-0.0018515586853027344,7857,2180,0.0,0.0,0.0,0.0,11155.0,0.0
78,3.0218113100799066e-05,0.00016583236181864184,0.00016583236181864184,-0.0008072853088378906,9315.0,1568.0,4.591386417284716e-05,0.0002313962765978435,0.0015178918838500977,-0.001750946044921875,7857,2098,0.0,0.0,0.0,0.0,11155.0,0.0
79,2.6534338549461357e-05,0.0001593217590779912,0.0001593217590779912,-0.0011229515075683594,9315.0,1397.0,4.781959299247039e-05,0.0002141523160254339,0.0014222487807273865,-0.0011625289916992188,7857,2007,0.0,0.0,0.0,0.0,11155.0,0.0
80,2.237462695594027e-05,0.00014934496915910772,0.00014934496915910772,-0.0009875297546386719,9315.0,1221.0,5.1279706141893786e-05,0.00020591443313542726,0.0016113817691802979,-0.0011570081114768982,7857,1935,0.0,0.0,0.0,0.0,11155.0,0.0
81,1.8767368030807847e-05,0.00013429155294589036,0.00013429155294589036,-0.0005776286125183105,9315.0,1038.0,5.337537526022285e-05,0.0002159847656123129,0.002098679542541504,-0.0013375282287597656,7857,1910,,,,,,
82,1.5146514626796759e-05,0.00011167890161740058,0.00011167890161740058,-0.0006885528564453125,9315.0,865.0,5.2287450619107115e-05,0.00022582968827127418,0.0021245479583740234,-0.0013513565063476562,7857,1887,,,,,,
83,1.1058158680003775e-05,9.46970336782975e-05,9.46970336782975e-05,-0.0008089542388916016,9315.0,682.0,5.160918939522394e-05,0.00023181834057839376,0.001958101987838745,-0.0011718273162841797,7857,1872,,,,,,
84,9.38962379163526e-06,8.12122328863863e-05,8.12122328863863e-05,-0.0008320808410644531,9315.0,492.0,5.422582725599393e-05,0.00023405190140286737,0.0019326210021972656,-0.0009772777557373047,7857,1851,,,,,,
85,8.794278810245659e-06,7.459452118265511e-05,7.459452118265511e-05,-0.000643610954284668,9315.0,234.0,5.7449214095337485e-05,0.00023135510415562752,0.0017671585083007812,-0.0008327960968017578,7857,1815,,,,,,
86,1.9964484584888205e-06,3.70311239858326e-05,3.70311239858326e-05,0.0,9315.0,30.0,5.683538318792728e-05,0.00022763223760569339,0.0018413066864013672,-0.0008696913719177246,7857,1761,,,,,,
87,0.0,0.0,0.0,0.0,9315.0,0.0,5.549494042174173e-05,0.0002218249037886471,0.001674652099609375,-0.0008721649646759033,7857,1699,,,,,,
88,0.0,0.0,0.0,0.0,9315.0,0.0,5.637479838032683e-05,0.00022030235063193543,0.001443028450012207,-0.0008702278137207031,7857,1632,,,,,,
89,0.0,0.0,0.0,0.0,9315.0,0.0,6.043755715345212e-05,0.0002251999216754483,0.0018544197082519531,-0.0008436441421508789,7857,1555,,,,,,
90,0.0,0.0,0.0,0.0,9315.0,0.0,6.513377381531131e-05,0.00023283287529301568,0.0020951032638549805,-0.0007843971252441406,7857,1490,,,,,,
91,0.0,0.0,0.0,0.0,9315.0,0.0,6.644760910551998e-05,0.00023252155609176218,0.0019436478614807129,-0.0008525848388671875,7857,1416,,,,,,
92,0.0,0.0,0.0,0.0,9315.0,0.0,6.41564542586317e-05,0.00022543514085854045,0.0017554759979248047,-0.0007615089416503906,7857,1337,,,,,,
93,0.0,0.0,0.0,0.0,9315.0,0.0,6.035055645854248e-05,0.0002185610027219557,0.0016647577285766602,-0.0008689165115356445,7857,1264,,,,,,
94,0.0,0.0,0.0,0.0,9315.0,0.0,5.75622465941615e-05,0.00021749810878264288,0.0018780827522277832,-0.0009657144546508789,7857,1189,,,,,,
95,0.0,0.0,0.0,0.0,9315.0,0.0,5.5836189510651616e-05,0.00021616528489452034,0.0019025877118110657,-0.0009000301361083984,7857,1107,,,,,,
96,0.0,0.0,0.0,0.0,9315.0,0.0,5.3529265025303205e-05,0.00020692824410962248,0.0020690560340881348,-0.00066375732421875,7857,1024,,,,,,
97,,,,,,,4.6803681151432905e-05,0.00018366829862973046,0.0018489360809326172,-0.00070958212018013,7857,942,,,,,,
98,,,,,,,3.353047246254238e-05,0.00014344499829910834,0.0013085603713989258,-0.0007765591144561768,7857,837,,,,,,
99,,,,,,,1.932293240303823e-05,0.00010926321255231306,0.001185297966003418,-0.0006744861602783203,7857,730,,,,,,
100,,,,,,,8.592460187386963e-06,9.983349748361423e-05,0.0011606216430664062,-0.0009181499481201172,7857,613,,,,,,
101,,,,,,,5.34666043338664e-06,0.00010319089437657582,0.0011348724365234375,-0.0008285045623779297,7857,479,,,,,,
102,,,,,,,4.704109020507471e-06,9.659661344722598e-05,0.0011272430419921875,-0.0009038448333740234,7857,319,,,,,,
103,,,,,,,2.413605011130041e-06,7.730475799624061e-05,0.0010477304458618164,-0.0011212825775146484,7857,198,,,,,,
104,,,,,,,3.4288032767698937e-07,3.48154097003022e-05,0.0006663799285888672,-0.001275777816772461,7857,69,,,,,,
105,,,,,,,0.0,0.0,0.0,0.0,7857,0,,,,,,
106,,,,,,,0.0,0.0,0.0,0.0,7857,0,,,,,,
107,,,,,,,0.0,0.0,0.0,0.0,7857,0,,,,,,
108,,,,,,,0.0,0.0,0.0,0.0,7857,0,,,,,,
109,,,,,,,0.0,0.0,0.0,0.0,7857,0,,,,,,
110,,,,,,,0.0,0.0,0.0,0.0,7857,0,,,,,,
111,,,,,,,0.0,0.0,0.0,0.0,7857,0,,,,,,
112,,,,,,,0.0,0.0,0.0,0.0,7857,0,,,,,,
113,,,,,,,0.0,0.0,0.0,0.0,7857,0,,,,,,
114,,,,,,,0.0,0.0,0.0,0.0,7857,0,,,,,,
