,sag_mean,sag_std,sag_max,sag_min,sag_nb_elements,sag_non_zero_elements,hor_mean,hor_std,hor_max,hor_min,hor_nb_elements,hor_non_zero_elements,frt_mean,frt_std,frt_max,frt_min,frt_nb_elements,frt_non_zero_elements
0,0.0,0.0,0.0,0.0,9315.0,0.0,0.0,0.0,0.0,0.0,7857,0,4.7570971938218307e-07,2.097109925986733e-05,0.0012595653533935547,-0.00021988153457641602,11155.0,8.0
1,0.0,0.0,0.0,0.0,9315.0,0.0,0.0,0.0,0.0,0.0,7857,0,1.3413725914254096e-06,4.321133894232821e-05,0.0013892650604248047,-0.0006390810012817383,11155.0,26.0
2,0.0,0.0,0.0,0.0,9315.0,0.0,0.0,0.0,0.0,0.0,7857,0,1.001517329714e-06,3.873817497030293e-05,0.0011502504348754883,-0.0008792877197265625,11155.0,36.0
3,0.0,0.0,0.0,0.0,9315.0,0.0,0.0,0.0,0.0,0.0,7857,0,-2.0882431192282655e-07,3.6989740724367444e-05,0.0009804964065551758,-0.0010300874710083008,11155.0,52.0
4,0.0,0.0,0.0,0.0,9315.0,0.0,0.0,0.0,0.0,0.0,7857,0,-1.2500705017951612e-06,4.129582441855006e-05,0.000793755054473877,-0.0014798641204833984,11155.0,62.0
5,0.0,0.0,0.0,0.0,9315.0,0.0,0.0,0.0,0.0,0.0,7857,0,-1.2286580662384583e-06,4.889292963873886e-05,0.0011052191257476807,-0.0017944574356079102,11155.0,72.0
6,0.0,0.0,0.0,0.0,9315.0,0.0,0.0,0.0,0.0,0.0,7857,0,-8.616642796875703e-07,4.704959873979853e-05,0.0010325908660888672,-0.0016438961029052734,11155.0,93.0
7,0.0,0.0,0.0,0.0,9315.0,0.0,0.0,0.0,0.0,0.0,7857,0,5.97475846316824e-07,7.163558428913186e-05,0.0015121698379516602,-0.0015439987182617188,11155.0,191.0
8,0.0,0.0,0.0,0.0,9315.0,0.0,0.0,0.0,0.0,0.0,7857,0,-1.3635319765951068e-06,0.00010653929766863179,0.0011340975761413574,-0.0013145208358764648,11155.0,416.0
9,0.0,0.0,0.0,0.0,9315.0,0.0,0.0,0.0,0.0,0.0,7857,0,-3.470307828024437e-06,0.00012976645634482173,0.0013767480850219727,-0.0013686418533325195,11155.0,584.0
10,4.165222487395896e-07,1.39914662509131e-05,1.39914662509131e-05,-7.039308547973633e-05,9315.0,11.0,0.0,0.0,0.0,0.0,7857,0,-8.160895023015731e-07,0.00013557673217023196,0.0017729401588439941,-0.0012330040335655212,11155.0,714.0
11,-1.2590597377179198e-06,7.584559619862681e-05,7.584559619862681e-05,-0.001327425241470337,9315.0,273.0,2.0908262920589018e-07,1.0060399415932725e-05,0.0003237128257751465,-0.0003752708435058594,7857,21,2.8181932194223976e-06,0.00013186165539021109,0.0014874935150146484,-0.0016779899597167969,11155.0,833.0
12,2.283682237852663e-06,9.279632187922814e-05,9.279632187922814e-05,-0.0012246295809745789,9315.0,545.0,1.295532939242728e-06,4.0408177945120305e-05,0.001029372215270996,-0.0004105567932128906,7857,103,2.7017947996026034e-06,0.0001411961444355734,0.0012445449829101562,-0.0021140575408935547,11155.0,945.0
13,1.888563961462506e-06,0.00011094715994766444,0.00011094715994766444,-0.0009774565696716309,9315.0,768.0,6.027662758776496e-06,7.333766614639589e-05,0.0016796588897705078,-0.00038123130798339844,7857,222,-3.167604322072264e-06,0.00014223003943633145,0.0013823509216308594,-0.0013537406921386719,11155.0,1040.0
14,2.5374030079982546e-06,0.00011589421893361571,0.00011589421893361571,-0.0009993314743041992,9315.0,947.0,9.755439562273796e-06,8.490004784755225e-05,0.001440286636352539,-0.0003647804260253906,7857,348,-9.019381681007154e-06,0.00013975788630030543,0.001079261302947998,-0.001250147819519043,11155.0,1094.0
15,5.007347554944243e-06,0.0001231190091312452,0.0001231190091312452,-0.0009393692016601562,9315.0,1115.0,9.496754241721563e-06,8.873537878995251e-05,0.0011570453643798828,-0.0007560253143310547,7857,491,-1.2675785915742422e-05,0.00015450836691402036,0.0017472505569458008,-0.001755833625793457,11155.0,1193.0
16,5.716381123722133e-06,0.00014173040280255546,0.00014173040280255546,-0.0010358095169067383,9315.0,1277.0,5.136700207195665e-06,9.844268730113804e-05,0.0009527206420898438,-0.0010986328125,7857,617,-1.1726457402606862e-05,0.00018269939881916398,0.001767665147781372,-0.0018051862716674805,11155.0,1321.0
17,4.089331095393345e-06,0.00016264416704587115,0.00016264416704587115,-0.0012357234954833984,9315.0,1459.0,-8.036538161289014e-07,0.00011757263389101217,0.000941932201385498,-0.0014109611511230469,7857,757,-1.04683311092565e-05,0.00018379603936105515,0.0015567243099212646,-0.0021350085735321045,11155.0,1466.0
18,3.58291151041042e-06,0.0001736134024918534,0.0001736134024918534,-0.0011768341064453125,9315.0,1623.0,-3.697049677911546e-06,0.00013148183203796825,0.0016050338745117188,-0.0013518333435058594,7857,893,-1.3619520448286843e-05,0.0001776449263204034,0.0013218522071838379,-0.0019428730010986328,11155.0,1592.0
19,5.015309088200059e-06,0.00018198521284081942,0.00018198521284081942,-0.0016502141952514648,9315.0,1787.0,-4.626100294247404e-06,0.00014908421323228064,0.001462697982788086,-0.0015474557876586914,7857,1128,-1.0919859261452987e-05,0.00020094025872990044,0.0017547011375427246,-0.001959562301635742,11155.0,1778.0
20,6.389880632372774e-06,0.00019723929951832818,0.00019723929951832818,-0.0015811920166015625,9315.0,1950.0,8.555183459044382e-07,0.00015237348494775437,0.001214742660522461,-0.0013846158981323242,7857,1369,-8.591357869038076e-08,0.00022852107449027569,0.0023076534271240234,-0.0017886757850646973,11155.0,2088.0
21,1.0783078188453543e-05,0.00021619315405970767,0.00021619315405970767,-0.0015759468078613281,9315.0,2137.0,7.297084246585125e-06,0.00016545803376763043,0.0015152692794799805,-0.001336812973022461,7857,1567,1.182554638318397e-05,0.0002463814176271878,0.00203704833984375,-0.001768745481967926,11155.0,2319.0
22,1.499657844308498e-05,0.00022774408932602614,0.00022774408932602614,-0.0016339123249053955,9315.0,2330.0,9.943997830937682e-06,0.00018339690878632793,0.002329111099243164,-0.0014810562133789062,7857,1768,1.9815728926666886e-05,0.0002618703680094896,0.0016994476318359375,-0.0015426874160766602,11155.0,2583.0
23,1.8652157962962864e-05,0.0002343998869213022,0.0002343998869213022,-0.0014619380235671997,9315.0,2490.0,1.1886340140454957e-05,0.0001972546928051981,0.0014042854309082031,-0.0019326210021972656,7857,1950,2.9584576364166968e-05,0.0002797339579869712,0.0016351938247680664,-0.0017254352569580078,11155.0,3093.0
24,2.105880497413139e-05,0.0002334205706214235,0.0002334205706214235,-0.0014232397079467773,9315.0,2625.0,1.2989766050682024e-05,0.00021197537356296633,0.0016326904296875,-0.002139568328857422,7857,2108,3.727292615906947e-05,0.0003004990771456459,0.001920938491821289,-0.0015996694564819336,11155.0,3617.0
25,2.327936327047906e-05,0.0002341516240521496,0.0002341516240521496,-0.0015232563018798828,9315.0,2772.0,1.060653351846145e-05,0.00022186436035020408,0.0012459754943847656,-0.0021109580993652344,7857,2250,4.437983136753428e-05,0.00031220858045927024,0.001955270767211914,-0.0021004676818847656,11155.0,4070.0
26,2.456849444181655e-05,0.00024383148456590323,0.00024383148456590323,-0.0015823841094970703,9315.0,2886.0,5.71736394148806e-06,0.00022861584963498657,0.0011398792266845703,-0.0018933415412902832,7857,2396,4.4479201182953474e-05,0.0003180731363046059,0.0022842884063720703,-0.0017142295837402344,11155.0,4437.0
27,2.636156546898532e-05,0.0002536441107890643,0.0002536441107890643,-0.0015772581100463867,9315.0,2993.0,3.553599701663063e-06,0.00023123589303090616,0.0016236305236816406,-0.001571565866470337,7857,2521,3.818269273693746e-05,0.0003323065083831495,0.0019069015979766846,-0.0016820430755615234,11155.0,4818.0
28,2.4934337607880337e-05,0.0002588768963212823,0.0002588768963212823,-0.0014733970165252686,9315.0,3086.0,2.6191501673493537e-06,0.00023725505523727931,0.0015225410461425781,-0.0014732927083969116,7857,2640,3.0465017884319748e-05,0.00034256088375824996,0.0019866228103637695,-0.0016170740127563477,11155.0,5023.0
29,1.7184304124677566e-05,0.00026894334705711265,0.00026894334705711265,-0.0014994144439697266,9315.0,3172.0,1.3646838219132973e-06,0.00025136290882136266,0.0015659332275390625,-0.0020525455474853516,7857,2751,2.635727890740858e-05,0.0003469547884586288,0.0021659135818481445,-0.0015988349914550781,11155.0,5143.0
30,5.573412745649128e-07,0.00028338851213957254,0.00028338851213957254,-0.0016758441925048828,9315.0,3250.0,3.1716422179421777e-07,0.0002607985898200651,0.001203775405883789,-0.002351522445678711,7857,2841,3.154695933137826e-05,0.00035555336923825617,0.0020148754119873047,-0.001621246337890625,11155.0,5244.0
31,-2.0296032803200118e-05,0.00029704750725691783,0.00029704750725691783,-0.002254962921142578,9315.0,3309.0,1.528751313556813e-06,0.0002693711857464318,0.0013089179992675781,-0.0018355846405029297,7857,2938,3.8728831374098544e-05,0.00037161509943414934,0.0023270249366760254,-0.0019375085830688477,11155.0,5345.0
32,-3.5769146058437984e-05,0.0003027064600724126,0.0003027064600724126,-0.001956254243850708,9315.0,3368.0,5.686428410695591e-06,0.0002849640997085888,0.0017077922821044922,-0.0016057491302490234,7857,3016,3.6867103864663104e-05,0.0003789341132525837,0.0023781340569257736,-0.002162158489227295,11155.0,5425.0
33,-4.2146259737093554e-05,0.0003027053987181305,0.0003027053987181305,-0.002162158489227295,9315.0,3405.0,9.857664164558737e-06,0.00030590168157146406,0.0020394325256347656,-0.0015039443969726562,7857,3092,2.8014191273342715e-05,0.0003676297155823447,0.001825958490371704,-0.001986086368560791,11155.0,5496.0
34,-4.0693514540397084e-05,0.0003023025808918967,0.0003023025808918967,-0.0020728111267089844,9315.0,3453.0,1.4291802416233764e-05,0.0003158454618885124,0.0022842884063720703,-0.001735687255859375,7857,3170,2.7909728862071375e-05,0.0003513091006271575,0.002329111099243164,-0.0016339123249053955,11155.0,5558.0
35,-3.736633543720968e-05,0.00031146512983528025,0.00031146512983528025,-0.0021140575408935547,9315.0,3491.0,1.8440533585967802e-05,0.00030738165757840564,0.0021767616271972656,-0.0021140575408935547,7857,3253,3.0939869355235345e-05,0.0003533864024123061,0.001997649669647217,-0.001956939697265625,11155.0,5572.0
36,-3.4892736205459555e-05,0.00033020591055386573,0.00033020591055386573,-0.001959562301635742,9315.0,3521.0,1.9203054525492247e-05,0.0002988856320949966,0.0017461776733398438,-0.0019502639770507812,7857,3308,2.6626306461151112e-05,0.0003686396957084806,0.002298593521118164,-0.002139568328857422,11155.0,5577.0
37,-3.4127119104442916e-05,0.00034438440785483025,0.00034438440785483025,-0.002349853515625,9315.0,3548.0,1.685082790554952e-05,0.0002956897932073531,0.0017664432525634766,-0.0016306638717651367,7857,3381,1.332255445007679e-05,0.00037970512506384127,0.0018546581268310547,-0.002351522445678711,11155.0,5547.0
38,-3.319554192676912e-05,0.0003510046898231276,0.0003510046898231276,-0.0026816129684448242,9315.0,3574.0,1.3781577826757209e-05,0.00028947336114572644,0.0016093254089355469,-0.0017944574356079102,7857,3428,-6.174315242750085e-07,0.00038284504603523594,0.0017771720886230469,-0.0022678375244140625,11155.0,5506.0
39,-3.253406825521261e-05,0.00034777444596748475,0.00034777444596748475,-0.0023870468139648438,9315.0,3589.0,1.5455226827471164e-05,0.00028789299843098404,0.0014913082122802734,-0.001920461654663086,7857,3486,-4.7780419095594256e-06,0.000380002625744288,0.0017774105072021484,-0.0019559860229492188,11155.0,5456.0
40,-2.8781529920233763e-05,0.0003291568354711085,0.0003291568354711085,-0.0016402006149291992,9315.0,3576.0,2.5026960871805574e-05,0.00030012796268335314,0.0018634796142578125,-0.001959562301635742,7857,3515,-6.6205458096694e-08,0.0003756389453483745,0.0020096302032470703,-0.0020728111267089844,11155.0,5395.0
41,-1.966652467785507e-05,0.0003145774285710188,0.0003145774285710188,-0.001746058464050293,9315.0,3591.0,3.8226867267755044e-05,0.0003269239697831168,0.0021469593048095703,-0.001768745481967926,7857,3537,2.2884769170452788e-06,0.0003705205723568616,0.0017399787902832031,-0.002254962921142578,11155.0,5348.0
42,-9.319785562075447e-06,0.00031960184764702265,0.00031960184764702265,-0.0020203590393066406,9315.0,3605.0,4.548209023561817e-05,0.000351269748625702,0.0021491050720214844,-0.001755833625793457,7857,3541,-5.058437372352592e-06,0.00036419911840859126,0.0019614696502685547,-0.0020308494567871094,11155.0,5277.0
43,2.0139590506874308e-06,0.00033110019857608263,0.00033110019857608263,-0.0019178390502929688,9315.0,3618.0,4.702997102960417e-05,0.0003578625098654877,0.0017998218536376953,-0.0021350085735321045,7857,3518,-1.6218390407733207e-05,0.0003553897889724785,0.002313375473022461,-0.0018267631530761719,11155.0,5181.0
44,1.2738674076601975e-05,0.0003215478233976822,0.0003215478233976822,-0.0017254352569580078,9315.0,3611.0,4.880877784180111e-05,0.00034617908191525486,0.0016252994537353516,-0.001433044672012329,7857,3414,-2.2061012923452003e-05,0.0003370913917328783,0.00194549560546875,-0.0018486380577087402,11155.0,5085.0
45,2.0492121371552067e-05,0.0002964322070851673,0.0002964322070851673,-0.0017042160034179688,9315.0,3588.0,5.322655485122704e-05,0.0003343952651545707,0.0018100738525390625,-0.001651763916015625,7857,3299,-2.0607035756636605e-05,0.00031429689055308314,0.0014934539794921875,-0.0020368099212646484,11155.0,4975.0
46,2.520288721588865e-05,0.00027352731872747705,0.00027352731872747705,-0.0015662312507629395,9315.0,3523.0,6.037630976932192e-05,0.0003382812582045115,0.0018429756164550781,-0.0017254352569580078,7857,3194,-1.6284479806804966e-05,0.0003041268850994012,0.0013549327850341797,-0.002391815185546875,11155.0,4870.0
47,2.9107086380200797e-05,0.0002648291791148436,0.0002648291791148436,-0.0014861822128295898,9315.0,3450.0,7.231689639772618e-05,0.00035144289876328053,0.0018062591552734375,-0.0017993450164794922,7857,3088,-1.1176991493306329e-05,0.0002997733249372077,0.0016050338745117188,-0.0026816129684448242,11155.0,4757.0
48,3.3594020575477923e-05,0.00026949322607404185,0.00026949322607404185,-0.0015044212341308594,9315.0,3397.0,7.756160418313924e-05,0.00035396713936413694,0.0020096302032470703,-0.0016632080078125,7857,3027,-1.7063192375667405e-06,0.0002971990145560995,0.0014781653881072998,-0.0022932887077331543,11155.0,4633.0
49,3.667473663991868e-05,0.00028958570199254225,0.00028958570199254225,-0.0014791488647460938,9315.0,3427.0,7.731859512579473e-05,0.00033477924696164764,0.001997649669647217,-0.0014851093292236328,7857,2988,8.352854798816342e-06,0.00030107160697067655,0.0015532970428466797,-0.0019714832305908203,11155.0,4495.0
50,3.3174445542696335e-05,0.0003129723491628958,0.0003129723491628958,-0.0016736984252929688,9315.0,3503.0,7.32573105587319e-05,0.00030737498543754506,0.0019249320030212402,-0.0013365745544433594,7857,2971,1.9320789141076813e-05,0.000298983015832691,0.0022139549255371094,-0.002188444137573242,11155.0,4352.0
51,2.2906542327494965e-05,0.00032443190392219607,0.00032443190392219607,-0.0019174814224243164,9315.0,3573.0,6.899674225275142e-05,0.0002908196457686874,0.0016198158264160156,-0.0012253522872924805,7857,2941,3.0121353948726775e-05,0.00029176524978424714,0.002725839614868164,-0.0017049312591552734,11155.0,4196.0
52,1.1880868129411018e-05,0.0003276403545782075,0.0003276403545782075,-0.001857161521911621,9315.0,3599.0,6.500576386145585e-05,0.0002819624279057235,0.0015555620193481445,-0.0015232563018798828,7857,2919,3.055137865882365e-05,0.0002879088669684027,0.0029685497283935547,-0.001842498779296875,11155.0,4031.0
53,3.6018459985314625e-06,0.00032793831857718216,0.00032793831857718216,-0.0016248226165771484,9315.0,3604.0,6.405599731289467e-05,0.0002832922264906278,0.001489102840423584,-0.0017254352569580078,7857,2904,2.4074244891939972e-05,0.000278245387084856,0.0021686553955078125,-0.0019174814224243164,11155.0,3862.0
54,-1.7124328523619582e-06,0.00032574857067552295,0.00032574857067552295,-0.0014653205871582031,9315.0,3586.0,6.856785749214569e-05,0.0002880648765900907,0.0016887187957763672,-0.0016558170318603516,7857,2886,1.5942728125933995e-05,0.00026469910904757356,0.001653432846069336,-0.0016191154718399048,11155.0,3679.0
55,-5.4609540700452565e-06,0.0003286349605652899,0.0003286349605652899,-0.0016976594924926758,9315.0,3576.0,7.080352352690095e-05,0.00029807797841738986,0.0018639564514160156,-0.0015044212341308594,7857,2866,7.501937474442645e-06,0.00025338007724738,0.0014514923095703125,-0.0016140937805175781,11155.0,3466.0
56,-1.0837388960509629e-05,0.00032675504855177683,0.00032675504855177683,-0.0019974708557128906,9315.0,3568.0,6.608653053085631e-05,0.00031607099258792743,0.001977682113647461,-0.0016120672225952148,7857,2853,2.3998742069097688e-06,0.00024096531732170965,0.0014510154724121094,-0.0017254352569580078,11155.0,3246.0
57,-1.7501822213121898e-05,0.00032439052857546804,0.00032439052857546804,-0.002007603645324707,9315.0,3573.0,5.7353243312435844e-05,0.0003302849924782092,0.0022839903831481934,-0.001649409532546997,7857,2856,2.5142266398413898e-06,0.00022631645190187297,0.0016736984252929688,-0.0013911724090576172,11155.0,3019.0
58,-2.2180927940169414e-05,0.0003247706716797186,0.0003247706716797186,-0.0018938183784484863,9315.0,3558.0,4.861139480056699e-05,0.000328493818683066,0.00215756893157959,-0.0014296621084213257,7857,2859,7.700343136869768e-06,0.0002160705441729976,0.0017664432525634766,-0.0014188289642333984,11155.0,2774.0
59,-2.4664213114940927e-05,0.0003295117920524075,0.0003295117920524075,-0.002139568328857422,9315.0,3536.0,3.971410043733435e-05,0.00031452332377672904,0.0020158886909484863,-0.0015058517456054688,7857,2852,1.4871366114152328e-05,0.00020960887466386436,0.0014922618865966797,-0.0020203590393066406,11155.0,2508.0
60,-2.4146258884638955e-05,0.00032477740107480813,0.00032477740107480813,-0.0019404888153076172,9315.0,3521.0,3.2245546378564165e-05,0.0003002099383898757,0.0021659135818481445,-0.0014879703521728516,7857,2838,2.0337863933797618e-05,0.00019828535620025473,0.0014002323150634766,-0.0015265941619873047,11155.0,2248.0
61,-2.1305304815241854e-05,0.0003061173976314692,0.0003061173976314692,-0.0016014575958251953,9315.0,3479.0,2.6629534174480252e-05,0.00029569303804509873,0.0020530223846435547,-0.0017663240432739258,7857,2817,2.031961125845581e-05,0.00018504468991159363,0.0018429756164550781,-0.0012295246124267578,11155.0,2004.0
62,-1.668917258394655e-05,0.0002944291974808552,0.0002944291974808552,-0.0018858909606933594,9315.0,3428.0,2.3044388459825174e-05,0.00029721458339107613,0.0017995834350585938,-0.001842498779296875,7857,2814,1.6792277888578987e-05,0.00016409887526964273,0.0016188621520996094,-0.0009798109531402588,11155.0,1746.0
63,-1.169330673167303e-05,0.00029424589686474425,0.00029424589686474425,-0.0019805431365966797,9315.0,3365.0,2.0737251902120733e-05,0.0003001660680025635,0.0015528202056884766,-0.0016906261444091797,7857,2804,1.1379823235221748e-05,0.00013899932327411703,0.0013148784637451172,-0.0009846687316894531,11155.0,1487.0
64,-2.503502238276892e-06,0.00029847815475700866,0.00029847815475700866,-0.0022678375244140625,9315.0,3322.0,1.8630870814692758e-05,0.0003130027545433805,0.0016067028045654297,-0.0021004676818847656,7857,2782,6.600522069057599e-06,0.00012359630807395593,0.0014607906341552734,-0.001078099012374878,11155.0,1215.0
65,1.0971686056946562e-05,0.0003019813444989628,0.0003019813444989628,-0.002351522445678711,9315.0,3271.0,1.719177235922641e-05,0.0003326788104875406,0.002186998724937439,-0.0019307136535644531,7857,2768,4.117509858108346e-06,0.00011672219699252968,0.0018100738525390625,-0.0010510683059692383,11155.0,942.0
66,2.65240999000168e-05,0.0003066687484347548,0.0003066687484347548,-0.002068042755126953,9315.0,3210.0,1.8898401329021456e-05,0.0003384837557211343,0.0027132034301757812,-0.0018486380577087402,7857,2731,4.113937561859008e-06,0.00010040324390509607,0.0012087821960449219,-0.0009398460388183594,11155.0,686.0
67,3.7037969128144926e-05,0.000300769987882931,0.000300769987882931,-0.0017066001892089844,9315.0,3138.0,2.6316457975910227e-05,0.000324747823513139,0.0029685497283935547,-0.002188444137573242,7857,2705,2.8706708416202474e-06,7.033496948563734e-05,0.0011181831359863281,-0.0010290145874023438,11155.0,381.0
68,4.2310537859373555e-05,0.00028680814432942823,0.00028680814432942823,-0.0018486380577087402,9315.0,3065.0,3.5094483769567814e-05,0.00030627344594446996,0.002313375473022461,-0.0021524429321289062,7857,2677,-3.086088257806283e-07,3.339755541249037e-05,0.0005857944488525391,-0.001050412654876709,11155.0,109.0
69,4.0333729184328134e-05,0.0002680505192667334,0.0002680505192667334,-0.001705944538116455,9315.0,2973.0,4.471029498171883e-05,0.0003018835882258481,0.0023076534271240234,-0.0018723011016845703,7857,2635,0.0,0.0,0.0,0.0,11155.0,0.0
70,3.457102605646103e-05,0.0002558982206415569,0.0002558982206415569,-0.0017993450164794922,9315.0,2864.0,4.9219203846437496e-05,0.00030472740341859304,0.0018892288208007812,-0.001705944538116455,7857,2609,0.0,0.0,0.0,0.0,11155.0,0.0
71,3.2641236902677246e-05,0.0002530763891343648,0.0002530763891343648,-0.0020012259483337402,9315.0,2751.0,4.272686666171902e-05,0.0003045133555747828,0.0018546581268310547,-0.001550137996673584,7857,2563,0.0,0.0,0.0,0.0,11155.0,0.0
72,3.671423729281159e-05,0.0002477165173124861,0.0002477165173124861,-0.0021350085735321045,9315.0,2617.0,2.6080741099611425e-05,0.0002976436977084625,0.0016568172723054886,-0.0013992786407470703,7857,2505,0.0,0.0,0.0,0.0,11155.0,0.0
73,4.4006375236995615e-05,0.00024393971412436471,0.00024393971412436471,-0.0017183423042297363,9315.0,2483.0,4.3682868551131945e-06,0.00029104369737212863,0.00194549560546875,-0.0020412206649780273,7857,2433,0.0,0.0,0.0,0.0,11155.0,0.0
74,4.8515466920445584e-05,0.00024283109480881035,0.00024283109480881035,-0.0017170906066894531,9315.0,2321.0,-1.5059138667758973e-05,0.0002975765250688436,0.0016143321990966797,-0.0026816129684448242,7857,2371,0.0,0.0,0.0,0.0,11155.0,0.0
75,5.2646486803288405e-05,0.00024715541572885525,0.00024715541572885525,-0.001556396484375,9315.0,2127.0,-2.8924091971094477e-05,0.00031040142186667633,0.001346290111541748,-0.0026553869247436523,7857,2302,0.0,0.0,0.0,0.0,11155.0,0.0
76,5.627199394899104e-05,0.0002464935512698321,0.0002464935512698321,-0.0012454986572265625,9315.0,1926.0,-3.5887499401308864e-05,0.0003122913664908089,0.0013152360916137695,-0.002106606960296631,7857,2240,0.0,0.0,0.0,0.0,11155.0,0.0
77,5.498953836995526e-05,0.00024164411774623895,0.00024164411774623895,-0.0009984970092773438,9315.0,1764.0,-3.772247739435399e-05,0.0002933891214114067,0.001374959945678711,-0.0018938183784484863,7857,2179,0.0,0.0,0.0,0.0,11155.0,0.0
78,5.053754100717641e-05,0.00022651831066833794,0.00022651831066833794,-0.0009095668792724609,9315.0,1589.0,-3.767849162745587e-05,0.0002669576839215373,0.0013602972030639648,-0.0016402006149291992,7857,2103,0.0,0.0,0.0,0.0,11155.0,0.0
79,4.531904347430889e-05,0.00020330251329941747,0.00020330251329941747,-0.0010085105895996094,9315.0,1407.0,-3.486693604806962e-05,0.00025681388373247527,0.0012812614440917969,-0.0017955303192138672,7857,2013,0.0,0.0,0.0,0.0,11155.0,0.0
80,4.2615714154900585e-05,0.00019563150169256825,0.00019563150169256825,-0.0012886524200439453,9315.0,1258.0,-3.087707589901638e-05,0.0002534225285432096,0.0015577077865600586,-0.0018122196197509766,7857,1953,0.0,0.0,0.0,0.0,11155.0,0.0
81,3.863606532966649e-05,0.00018971514693394501,0.00018971514693394501,-0.0015726089477539062,9315.0,1098.0,-2.952309249097746e-05,0.00025101994070933357,0.0017564892768859863,-0.0017735958099365234,7857,1927,,,,,,
82,3.6408442568225897e-05,0.0001942189840743657,0.0001942189840743657,-0.001483917236328125,9315.0,945.0,-3.184195846465351e-05,0.00025016009665833046,0.001805126667022705,-0.0019818544387817383,7857,1898,,,,,,
83,3.1902005366573106e-05,0.00018400007665603016,0.00018400007665603016,-0.0010180473327636719,9315.0,773.0,-3.53594598023219e-05,0.0002612727823776698,0.002298593521118164,-0.0020728111267089844,7857,1856,,,,,,
84,2.2574857285249253e-05,0.00015993447854340876,0.00015993447854340876,-0.001064300537109375,9315.0,587.0,-3.745338002102774e-05,0.00027141631932053195,0.002177000045776367,-0.0019559860229492188,7857,1825,,,,,,
85,8.23842775490549e-06,9.660826576399205e-05,9.660826576399205e-05,-0.0012390613555908203,9315.0,276.0,-3.8031105673258523e-05,0.0002730993659665306,0.0017657279968261719,-0.002162158489227295,7857,1767,,,,,,
86,3.698495403132129e-09,3.917427007983315e-05,3.917427007983315e-05,-0.0014879703521728516,9315.0,26.0,-3.996419983527074e-05,0.00026892121475459397,0.001553565263748169,-0.00205075740814209,7857,1716,,,,,,
87,0.0,0.0,0.0,0.0,9315.0,0.0,-4.180195087754582e-05,0.0002565197811712183,0.001555800437927246,-0.0019049644470214844,7857,1663,,,,,,
88,0.0,0.0,0.0,0.0,9315.0,0.0,-4.4170196127052606e-05,0.00023264808998496608,0.0016880035400390625,-0.0018275976181030273,7857,1602,,,,,,
89,0.0,0.0,0.0,0.0,9315.0,0.0,-4.599453253804048e-05,0.00020797809605260377,0.0015320777893066406,-0.0015714168548583984,7857,1532,,,,,,
90,0.0,0.0,0.0,0.0,9315.0,0.0,-4.7506174083054255e-05,0.00019561581816831582,0.0012001991271972656,-0.0013642311096191406,7857,1460,,,,,,
91,0.0,0.0,0.0,0.0,9315.0,0.0,-4.891112214872969e-05,0.00019813655497099767,0.0009351968765258789,-0.0015759468078613281,7857,1394,,,,,,
92,0.0,0.0,0.0,0.0,9315.0,0.0,-4.703640829257556e-05,0.0001995970153105345,0.000983595848083496,-0.0015602707862854004,7857,1313,,,,,,
93,0.0,0.0,0.0,0.0,9315.0,0.0,-4.095950471971028e-05,0.00019743329081996257,0.0010570287704467773,-0.0016740262508392334,7857,1253,,,,,,
94,0.0,0.0,0.0,0.0,9315.0,0.0,-3.112089891348862e-05,0.0001878096654693125,0.001172780990600586,-0.0019174814224243164,7857,1201,,,,,,
95,0.0,0.0,0.0,0.0,9315.0,0.0,-2.0110754454011765e-05,0.00017522671993339456,0.001134343445301056,-0.001629948616027832,7857,1131,,,,,,
96,0.0,0.0,0.0,0.0,9315.0,0.0,-1.5025518588736331e-05,0.00017438528092973357,0.0014816224575042725,-0.0013930797576904297,7857,1044,,,,,,
97,,,,,,,-1.4775406035364805e-05,0.00017528214033982737,0.0018302202224731445,-0.0013934522867202759,7857,950,,,,,,
98,,,,,,,-1.784009567134872e-05,0.00016990243586618463,0.0018860101699829102,-0.0014818906784057617,7857,851,,,,,,
99,,,,,,,-1.8938386413820284e-05,0.00015175799381068338,0.001585245132446289,-0.0015250444412231445,7857,725,,,,,,
100,,,,,,,-1.576698937073902e-05,0.0001263929168299021,0.0009951591491699219,-0.0013511180877685547,7857,590,,,,,,
101,,,,,,,-1.1604545477707074e-05,0.00010606797659410575,0.0010747909545898438,-0.0014982223510742188,7857,460,,,,,,
102,,,,,,,-9.165045710329611e-06,8.846292852085253e-05,0.0005461350083351135,-0.0014481544494628906,7857,341,,,,,,
103,,,,,,,-5.215751955916744e-06,6.584280140186177e-05,0.0005215480923652649,-0.0012890100479125977,7857,177,,,,,,
104,,,,,,,-1.0990450343391406e-06,3.311918191381446e-05,0.0003458261489868164,-0.0011445283889770508,7857,41,,,,,,
105,,,,,,,0.0,0.0,0.0,0.0,7857,0,,,,,,
106,,,,,,,0.0,0.0,0.0,0.0,7857,0,,,,,,
107,,,,,,,0.0,0.0,0.0,0.0,7857,0,,,,,,
108,,,,,,,0.0,0.0,0.0,0.0,7857,0,,,,,,
109,,,,,,,0.0,0.0,0.0,0.0,7857,0,,,,,,
110,,,,,,,0.0,0.0,0.0,0.0,7857,0,,,,,,
111,,,,,,,0.0,0.0,0.0,0.0,7857,0,,,,,,
112,,,,,,,0.0,0.0,0.0,0.0,7857,0,,,,,,
113,,,,,,,0.0,0.0,0.0,0.0,7857,0,,,,,,
114,,,,,,,0.0,0.0,0.0,0.0,7857,0,,,,,,
