,sag_mean,sag_std,sag_max,sag_min,sag_nb_elements,sag_non_zero_elements,hor_mean,hor_std,hor_max,hor_min,hor_nb_elements,hor_non_zero_elements,frt_mean,frt_std,frt_max,frt_min,frt_nb_elements,frt_non_zero_elements
0,0.0,0.0,0.0,0.0,9315.0,0.0,0.0,0.0,0.0,0.0,7857,0,3.7962828768256106e-07,1.7998169854265916e-05,0.0009474605321884155,0.0,11155.0,5.0
1,0.0,0.0,0.0,0.0,9315.0,0.0,0.0,0.0,0.0,0.0,7857,0,1.7651524987524265e-06,4.384184583368182e-05,0.001753091812133789,0.0,11155.0,20.0
2,0.0,0.0,0.0,0.0,9315.0,0.0,0.0,0.0,0.0,0.0,7857,0,4.1032641631827015e-06,7.073402638770767e-05,0.0019664764404296875,0.0,11155.0,41.0
3,0.0,0.0,0.0,0.0,9315.0,0.0,0.0,0.0,0.0,0.0,7857,0,5.1600397708489724e-06,7.3620297981125e-05,0.0014787912368774414,0.0,11155.0,61.0
4,0.0,0.0,0.0,0.0,9315.0,0.0,0.0,0.0,0.0,0.0,7857,0,4.19567194268448e-06,6.814439004659286e-05,0.001710668671876192,-0.0005955696105957031,11155.0,82.0
5,0.0,0.0,0.0,0.0,9315.0,0.0,0.0,0.0,0.0,0.0,7857,0,3.3296480631277946e-06,8.62956104370945e-05,0.002216815948486328,-0.0010881423950195312,11155.0,99.0
6,0.0,0.0,0.0,0.0,9315.0,0.0,0.0,0.0,0.0,0.0,7857,0,2.1661252304343887e-06,9.750778329794606e-05,0.0022962093353271484,-0.0013327598571777344,11155.0,111.0
7,0.0,0.0,0.0,0.0,9315.0,0.0,0.0,0.0,0.0,0.0,7857,0,-1.640521166892075e-07,0.00010588147546345886,0.0021479129791259766,-0.0014055967330932617,11155.0,132.0
8,0.0,0.0,0.0,0.0,9315.0,0.0,0.0,0.0,0.0,0.0,7857,0,-4.029993382368132e-06,0.00010030157194845217,0.0016489028930664062,-0.0014364123344421387,11155.0,207.0
9,0.0,0.0,0.0,0.0,9315.0,0.0,0.0,0.0,0.0,0.0,7857,0,4.474612571556223e-08,0.0001043825119521488,0.0016205310821533203,-0.0010995864868164062,11155.0,399.0
10,-3.113718008521546e-06,4.368010194898605e-05,4.368010194898605e-05,-0.0010104626417160034,9315.0,66.0,0.0,0.0,0.0,0.0,7857,0,1.3406377941944417e-05,0.00016119871195345876,0.001988649368286133,-0.001120835542678833,11155.0,550.0
11,-4.641248150196244e-06,7.439883953778084e-05,7.439883953778084e-05,-0.0011606216430664062,9315.0,286.0,-1.5853739306719472e-06,4.518003429463206e-05,0.0006192922592163086,-0.001499176025390625,7857,33,2.404607445041677e-05,0.000212644850339764,0.0023407340049743652,-0.0010402202606201172,11155.0,670.0
12,-1.210636484661148e-06,8.429522020710757e-05,8.429522020710757e-05,-0.0010085105895996094,9315.0,569.0,-2.2422113126662755e-06,8.939195285407049e-05,0.0017888844013214111,-0.0018644332885742188,7857,123,2.9125328500079287e-05,0.00022362329158293504,0.002645254135131836,-0.0014907121658325195,11155.0,786.0
13,6.3111142911990755e-06,9.280863361366818e-05,9.280863361366818e-05,-0.0007315874099731445,9315.0,759.0,-2.877112652025894e-06,0.00012717967836517455,0.0014990977942943573,-0.0014162063598632812,7857,257,3.1721593239632694e-05,0.0002076690162465303,0.0021039843559265137,-0.0015878677368164062,11155.0,896.0
14,1.2833159266942558e-05,0.0001170288716959124,0.0001170288716959124,-0.0008996427059173584,9315.0,929.0,1.5573562579830441e-06,0.000135835286952877,0.0014832019805908203,-0.0012328624725341797,7857,405,2.985432903073204e-05,0.00018865837194857496,0.0017311573028564453,-0.0012918710708618164,11155.0,1010.0
15,2.2980851533418292e-05,0.00015338738530919167,0.00015338738530919167,-0.0008432865142822266,9315.0,1110.0,1.0054068110264013e-05,0.0001317702676981998,0.0013414339628070593,-0.0008828639984130859,7857,534,2.5586616079087555e-05,0.0001732278443072055,0.0014648884534835815,-0.0012221336364746094,11155.0,1113.0
16,3.332824914171788e-05,0.00019091301115076244,0.00019091301115076244,-0.0011167526245117188,9315.0,1268.0,1.5138749108993007e-05,0.00012251601627950474,0.0011799931526184082,-0.000828862190246582,7857,649,2.394063119570537e-05,0.00017878493855846952,0.0014619957655668259,-0.0011476874351501465,11155.0,1261.0
17,4.738445439482417e-05,0.00024179305684931385,0.00024179305684931385,-0.0012903213500976562,9315.0,1465.0,1.3105358767946804e-05,0.00011728466898552655,0.0010443329811096191,-0.0009799003601074219,7857,760,2.375755619578287e-05,0.0002046233830981803,0.001745656132698059,-0.0012787282466888428,11155.0,1404.0
18,5.816079025525226e-05,0.0002797106621147635,0.0002797106621147635,-0.0014345645904541016,9315.0,1643.0,3.344119557175836e-06,0.000124040656814922,0.0011463165283203125,-0.0011734142899513245,7857,884,2.191916088511435e-05,0.00024222897013335626,0.0019150376319885254,-0.0016870498657226562,11155.0,1531.0
19,6.864788485157303e-05,0.0003076893907258166,0.0003076893907258166,-0.0017666816711425781,9315.0,1806.0,-8.876961320463226e-06,0.0001564677881694162,0.0016711950302124023,-0.0012942254543304443,7857,1041,1.9263539697364614e-05,0.0002725261840835971,0.0021482110023498535,-0.0020578503608703613,11155.0,1653.0
20,8.372219111440454e-05,0.00033384111033975586,0.00033384111033975586,-0.0023620128631591797,9315.0,1959.0,-1.273806460485748e-05,0.00021543166678825865,0.0016541481018066406,-0.0015441402792930603,7857,1281,2.7717229872259447e-05,0.0002987040895932783,0.0022561848163604736,-0.001944035291671753,11155.0,1962.0
21,9.949919683943736e-05,0.00036510085055085613,0.00036510085055085613,-0.0027059316635131836,9315.0,2150.0,-1.7445677693955058e-05,0.00024746550224255905,0.0015647411346435547,-0.0017178654670715332,7857,1476,4.865610198988585e-05,0.00033655289721043496,0.002995610237121582,-0.0016331672668457031,11155.0,2279.0
22,0.00011302747118691212,0.00039745659935813346,0.00039745659935813346,-0.002601027488708496,9315.0,2316.0,-1.8571405639199333e-05,0.00025951336911133417,0.0017933845520019531,-0.0017042160034179688,7857,1656,7.927964579574689e-05,0.0003925179174618952,0.00331878662109375,-0.0014886856079101562,11155.0,2581.0
23,0.0001229717111378964,0.00041737925016020966,0.00041737925016020966,-0.0022200047969818115,9315.0,2472.0,-1.0389289237294273e-05,0.0002634050431295785,0.0018391609191894531,-0.0014594197273254395,7857,1825,0.00010340815373595783,0.00048757787229814615,0.0034708380699157715,-0.0027059316635131836,11155.0,3175.0
24,0.00012833182791835852,0.00042083137162817104,0.00042083137162817104,-0.0019093751907348633,9315.0,2614.0,6.422330100471347e-06,0.00027353652649675267,0.0024178028106689453,-0.0015270709991455078,7857,1981,0.00015709263501872357,0.0005431813944632053,0.0035843849182128906,-0.002369403839111328,11155.0,3729.0
25,0.00012805013434603505,0.0004264206497973982,0.0004264206497973982,-0.002722024917602539,9315.0,2755.0,2.5117763767136084e-05,0.000301805759767662,0.002924680709838867,-0.0017795562744140625,7857,2127,0.00019669352413662544,0.0005863158409591296,0.0034821033477783203,-0.002367734909057617,11155.0,4271.0
26,0.00012147622874083614,0.00043597667923221526,0.00043597667923221526,-0.003565549850463867,9315.0,2870.0,3.816517025129902e-05,0.00032967230387588207,0.00261533260345459,-0.001889944076538086,7857,2271,0.00020881768537720549,0.0005787008068410341,0.0030937790870666504,-0.003315448760986328,11155.0,4664.0
27,0.00011434230528036018,0.0004443723816391149,0.0004443723816391149,-0.0033415555953979492,9315.0,2991.0,4.4992148818227e-05,0.00034782005586901985,0.0027532577514648438,-0.0017976760864257812,7857,2390,0.00021259299432618793,0.0005587349328028664,0.002946760505437851,-0.0019112825393676758,11155.0,4937.0
28,0.00010855833110872579,0.0004427816637046798,0.0004427816637046798,-0.002964615821838379,9315.0,3091.0,4.682740208106616e-05,0.0003572035711045223,0.0026493072509765625,-0.0016696453094482422,7857,2506,0.00021312843560574493,0.0005689987459167203,0.002710670232772827,-0.001456141471862793,11155.0,5081.0
29,0.00010706306941883756,0.0004312909197088062,0.0004312909197088062,-0.0028006434440612793,9315.0,3172.0,4.6482447257903876e-05,0.0003752248315256269,0.002837657928466797,-0.0017991065979003906,7857,2632,0.00020474960466768344,0.0005795043251075828,0.0030836910009384155,-0.0018644332885742188,11155.0,5162.0
30,0.00011286618831276021,0.0004244570257357904,0.0004244570257357904,-0.0028251856565475464,9315.0,3248.0,4.807829648948897e-05,0.0003938440965242756,0.0028094053268432617,-0.001947551965713501,7857,2746,0.00018627766591220417,0.0005593440104201602,0.0028429627418518066,-0.002176642417907715,11155.0,5216.0
31,0.00012506896130837125,0.0004357475357914298,0.0004357475357914298,-0.002729371190071106,9315.0,3308.0,5.203704564761979e-05,0.0004001209982319656,0.0027292966842651367,-0.0020578503608703613,7857,2854,0.00016617134615448307,0.0005270745284124861,0.0024423599243164062,-0.0022565126419067383,11155.0,5310.0
32,0.00014019681415915533,0.00045209106917256005,0.00045209106917256005,-0.0025678277015686035,9315.0,3358.0,5.7382024615258407e-05,0.0003910084931023134,0.0022878646850585938,-0.0017409920692443848,7857,2956,0.00015688709138749564,0.0005114889280455426,0.0026967525482177734,-0.001805230975151062,11155.0,5421.0
33,0.00015298897124051055,0.00046304706426356795,0.00046304706426356795,-0.002260074019432068,9315.0,3396.0,6.0618186435961864e-05,0.0003781877281223499,0.0019491910934448242,-0.0017504692077636719,7857,3037,0.0001595287760830802,0.0005185273789322057,0.0028344392776489258,-0.0017398595809936523,11155.0,5487.0
34,0.0001612086911977022,0.00046895860543946614,0.00046895860543946614,-0.001916646957397461,9315.0,3444.0,6.399797387640123e-05,0.00037380261019793304,0.0021077394485473633,-0.0023325681686401367,7857,3119,0.0001671278134993591,0.0005188030315195195,0.0031082630157470703,-0.0016050338745117188,11155.0,5546.0
35,0.00016006193906983627,0.0004737463683462696,0.0004737463683462696,-0.0016864240169525146,9315.0,3473.0,6.199360850635872e-05,0.00036939089180102987,0.00209808349609375,-0.0026220083236694336,7857,3199,0.00017560864558432157,0.0005249784005735568,0.003374814987182617,-0.0014567375183105469,11155.0,5571.0
36,0.0001613178778825874,0.0004943750368183547,0.0004943750368183547,-0.0017673373222351074,9315.0,3505.0,5.2819221694391886e-05,0.00036912077349317155,0.0018063187599182129,-0.00230330228805542,7857,3260,0.00018685910610888272,0.0005384393461475334,0.004045724868774414,-0.0017178654670715332,11155.0,5556.0
37,0.00016291258612271037,0.0005094334042780753,0.0005094334042780753,-0.0018644332885742188,9315.0,3530.0,5.180158783226875e-05,0.0003977592778368297,0.0022962093353271484,-0.0018109679222106934,7857,3349,0.00019345237144111673,0.0005430287689102516,0.0038890838623046875,-0.0017042160034179688,11155.0,5540.0
38,0.00016243207317532523,0.0005141000406375723,0.0005141000406375723,-0.0017611980438232422,9315.0,3538.0,5.1917276881656584e-05,0.00042599318596753873,0.00231170654296875,-0.0018888115882873535,7857,3413,0.00018777475833389487,0.0005324454558412562,0.0031638145446777344,-0.0014764070510864258,11155.0,5523.0
39,0.0001643690837322726,0.0005168087735754588,0.0005168087735754588,-0.001805230975151062,9315.0,3549.0,5.490818195474473e-05,0.0004507918944315986,0.0026108622550964355,-0.00222700834274292,7857,3443,0.00016742148765083945,0.0005153702765661196,0.002478361129760742,-0.0014987438917160034,11155.0,5471.0
40,0.00016499185205489232,0.0005156311272571936,0.0005156311272571936,-0.00156402587890625,9315.0,3538.0,5.2803885185159624e-05,0.00046605396665071674,0.002992972731590271,-0.002610325813293457,7857,3469,0.00014200314904036965,0.0005094143578543516,0.0024051666259765625,-0.002209693193435669,11155.0,5402.0
41,0.00016251052239644445,0.0005139576452693303,0.0005139576452693303,-0.0015492439270019531,9315.0,3529.0,4.5698341333059706e-05,0.00047723886555352187,0.0030836910009384155,-0.002964496612548828,7857,3495,0.00012229485888376828,0.0005114300776068609,0.00267791748046875,-0.0026220083236694336,11155.0,5318.0
42,0.00016250047490198936,0.000516007776918045,0.000516007776918045,-0.0017991065979003906,9315.0,3546.0,3.462272622528078e-05,0.00048464536507169143,0.002907484769821167,-0.003565549850463867,7857,3504,0.00011310828553938696,0.0005186616511858832,0.0030269622802734375,-0.002454042434692383,11155.0,5243.0
43,0.00016793116886654625,0.000508249020231066,0.000508249020231066,-0.001714468002319336,9315.0,3576.0,2.9217298389255553e-05,0.0004835234250284721,0.0028429627418518066,-0.0032432079315185547,7857,3496,0.00011693692093239235,0.0005296757686129811,0.0028159618377685547,-0.0024194717407226562,11155.0,5156.0
44,0.00017697016990479597,0.0004949261471707956,0.0004949261471707956,-0.0015004873275756836,9315.0,3589.0,3.0030998662355952e-05,0.0004806922418729696,0.0029692649841308594,-0.002642035484313965,7857,3431,0.00012560280109620025,0.0005364483125019624,0.0023976564407348633,-0.003269672393798828,11155.0,5062.0
45,0.00019274831340115897,0.0004939421097524779,0.0004939421097524779,-0.0013779401779174805,9315.0,3553.0,3.104115355310852e-05,0.0004782524716336122,0.0028611421585083008,-0.002504110336303711,7857,3364,0.00013376418088910518,0.0005352999006140906,0.0023196935653686523,-0.003565549850463867,11155.0,4951.0
46,0.0002082646438555509,0.0005028780364610886,0.0005028780364610886,-0.0012660622596740723,9315.0,3496.0,2.4600172247887e-05,0.0004702317324206511,0.002462625503540039,-0.002817511558532715,7857,3277,0.00014891120153278644,0.000518469512011131,0.0025922060012817383,-0.002699136734008789,11155.0,4844.0
47,0.00021686470458992697,0.0005139460509762614,0.0005139460509762614,-0.0013599395751953125,9315.0,3435.0,1.5980635348691318e-05,0.0004515846628231208,0.002767801284790039,-0.0028617382049560547,7857,3153,0.0001661852314758917,0.0004961405657600435,0.002760767936706543,-0.0018793344497680664,11155.0,4717.0
48,0.00021882548203117698,0.0005160802214922006,0.0005160802214922006,-0.0015113353729248047,9315.0,3409.0,2.1232427570215462e-05,0.00042306950124690215,0.002527475357055664,-0.002481222152709961,7857,3042,0.00017956374501659197,0.0004713212861852008,0.0025786161422729492,-0.0014448165893554688,11155.0,4594.0
49,0.0002204993993597669,0.0005163495279298555,0.0005163495279298555,-0.0017491579055786133,9315.0,3450.0,3.3564883991563854e-05,0.00040325191184387594,0.002287626266479492,-0.002245187759399414,7857,3014,0.00018630969441541336,0.0004482665512672879,0.0025321226567029953,-0.0012862682342529297,11155.0,4461.0
50,0.0002190066218497449,0.0005103199046017055,0.0005103199046017055,-0.001944035291671753,9315.0,3526.0,4.8877392133478696e-05,0.00039394234109648286,0.002632617950439453,-0.0026078224182128906,7857,2981,0.00019298932183254113,0.00042232149256994216,0.002413153648376465,-0.0013797283172607422,11155.0,4313.0
51,0.00021280963988561645,0.0005009845026061619,0.0005009845026061619,-0.0019024498760700226,9315.0,3585.0,5.9123334546989635e-05,0.0003862556023107706,0.0026369094848632812,-0.0031061172485351562,7857,2958,0.00019728051608007574,0.00039638786019619135,0.0021543502807617188,-0.0011935234069824219,11155.0,4159.0
52,0.00020152563325434892,0.0004888591248993028,0.0004888591248993028,-0.0019510239362716675,9315.0,3601.0,6.459609965893475e-05,0.0003740768845298845,0.002341747283935547,-0.003315448760986328,7857,2952,0.0001959612793729009,0.0003897282782063903,0.001950085163116455,-0.0009975433349609375,11155.0,3995.0
53,0.0001875595903721507,0.0004764704132262388,0.0004764704132262388,-0.0020578503608703613,9315.0,3580.0,7.050798290549137e-05,0.0003601882710414587,0.0021703243255615234,-0.002407073974609375,7857,2912,0.00018984021914879496,0.00040252546580018053,0.002095937728881836,-0.0011713504791259766,11155.0,3818.0
54,0.00017863669554176538,0.0004669039545819787,0.0004669039545819787,-0.00200604647397995,9315.0,3559.0,8.090494241155575e-05,0.00035990728673223135,0.002351522445678711,-0.0022509098052978516,7857,2881,0.00018338064754115445,0.0004103545554515292,0.0024178028106689453,-0.001265406608581543,11155.0,3640.0
55,0.000171740892154759,0.0004634137221354217,0.0004634137221354217,-0.0017370916903018951,9315.0,3553.0,9.536779273259402e-05,0.00036782917161039903,0.0022025108337402344,-0.00198972225189209,7857,2853,0.00017761378456157575,0.00040707953756475977,0.002924680709838867,-0.0013711750507354736,11155.0,3435.0
56,0.00016489242553092057,0.00046033706436820766,0.00046033706436820766,-0.0014278590679168701,9315.0,3559.0,0.00011026776294978567,0.00037832115877458076,0.0020208358764648438,-0.0022565126419067383,7857,2847,0.0001706123552685883,0.0004100665291486328,0.0027532577514648438,-0.00120621919631958,11155.0,3223.0
57,0.0001526565710220124,0.0004524526396013645,0.0004524526396013645,-0.001460433006286621,9315.0,3562.0,0.00012495344407753104,0.0003826626784469149,0.002076387405395508,-0.0022329092025756836,7857,2845,0.00015947791412330794,0.0004054174056232877,0.002837657928466797,-0.0010744333267211914,11155.0,3004.0
58,0.00013823520588829524,0.0004455324126082824,0.0004455324126082824,-0.002008676528930664,9315.0,3539.0,0.00013858828319149395,0.0003816272256510194,0.002032756805419922,-0.001743614673614502,7857,2843,0.00014119022618728748,0.000379608482676629,0.0025877952575683594,-0.0012611150741577148,11155.0,2768.0
59,0.00012544304121463642,0.00044607559860582267,0.00044607559860582267,-0.002266407012939453,9315.0,3512.0,0.00014692782005372204,0.00038574381802125763,0.0021636486053466797,-0.0017398595809936523,7857,2835,0.00011907926959057427,0.00034577114678935143,0.0022706985473632812,-0.0014820098876953125,11155.0,2520.0
60,0.00011508504625647796,0.00045058395476492777,0.00045058395476492777,-0.002454042434692383,9315.0,3481.0,0.00014990299210891056,0.0003980497723346139,0.002576112747192383,-0.0016862154006958008,7857,2827,0.0001026516275823987,0.00032800007750840904,0.0019758939743041992,-0.0014719963073730469,11155.0,2278.0
61,0.00010945113298047776,0.00045365458640002533,0.00045365458640002533,-0.0024194717407226562,9315.0,3463.0,0.00014675694129710564,0.00039812254285819584,0.0025687217712402344,-0.0016050338745117188,7857,2811,9.0280011703178e-05,0.0003178968415033043,0.002031564712524414,-0.0012247562408447266,11155.0,2022.0
62,0.0001075114494341263,0.0004571288243492555,0.0004571288243492555,-0.0022433996200561523,9315.0,3423.0,0.00014404711298417788,0.0003908248537129922,0.0027780532836914062,-0.0015056133270263672,7857,2803,7.933283208317117e-05,0.0002994778781450347,0.002149820327758789,-0.0012471675872802734,11155.0,1753.0
63,0.00010884509551422835,0.0004536346594603227,0.0004536346594603227,-0.0022565126419067383,9315.0,3383.0,0.000149313914807094,0.00038458320758371435,0.0030269622802734375,-0.0014463067054748535,7857,2785,6.856775408671649e-05,0.00027412460355623894,0.0020236968994140625,-0.0013388395309448242,11155.0,1488.0
64,0.0001053314734035598,0.00044121711470882684,0.00044121711470882684,-0.0021181106567382812,9315.0,3336.0,0.00016260247685743475,0.00037871682308453095,0.0028123855590820312,-0.0014019608497619629,7857,2760,5.758205640156044e-05,0.0002508677894217239,0.0022478103637695312,-0.0012482404708862305,11155.0,1221.0
65,9.660657360489038e-05,0.0004359171058923608,0.0004359171058923608,-0.002547845244407654,9315.0,3281.0,0.0001753394368539479,0.0003826728655925666,0.002438664436340332,-0.001394033432006836,7857,2725,4.700591299231596e-05,0.00022479884242457683,0.002028942108154297,-0.0010091066360473633,11155.0,968.0
66,9.21479675401916e-05,0.0004405836535971745,0.0004405836535971745,-0.0026220083236694336,9315.0,3208.0,0.00018493280546697975,0.0004003572641625244,0.00235140323638916,-0.0013880729675292969,7857,2710,3.54051026256846e-05,0.00019299009089973005,0.0018440783023834229,-0.0006269216537475586,11155.0,663.0
67,9.322837413482616e-05,0.000445973683294918,0.000445973683294918,-0.002375960350036621,9315.0,3116.0,0.00018816893340729815,0.00041836338979425486,0.002341032028198242,-0.001453995704650879,7857,2664,2.0624285564661454e-05,0.0001379981353459873,0.0018976926803588867,-0.0001595020294189453,11155.0,353.0
68,0.00010581682323689622,0.00045003347585543504,0.00045003347585543504,-0.002334117889404297,9315.0,3025.0,0.00019079334331875263,0.00042727648698926297,0.0025615692138671875,-0.0015441179275512695,7857,2634,6.798969883119403e-06,8.264627435977957e-05,0.0016481876373291016,0.0,11155.0,95.0
69,0.00011834533743913872,0.0004446373151338078,0.0004446373151338078,-0.0019298791885375977,9315.0,2920.0,0.00019453557193124742,0.0004313324178577638,0.0023555755615234375,-0.001579485833644867,7857,2607,0.0,0.0,0.0,0.0,11155.0,0.0
70,0.00012180277721789404,0.00043296148664298176,0.00043296148664298176,-0.0015906095504760742,9315.0,2805.0,0.00020262958510933887,0.00044118835269350284,0.002126336097717285,-0.0016614645719528198,7857,2592,0.0,0.0,0.0,0.0,11155.0,0.0
71,0.00011613545356937237,0.00041646391419881734,0.00041646391419881734,-0.0016675293445587158,9315.0,2683.0,0.00021161939679724775,0.00045002443379202486,0.002303868532180786,-0.0014761537313461304,7857,2559,0.0,0.0,0.0,0.0,11155.0,0.0
72,0.00010226478628210336,0.00039976432100645573,0.00039976432100645573,-0.001635819673538208,9315.0,2545.0,0.000221691332466531,0.0004578536438278999,0.002458930015563965,-0.0011246204376220703,7857,2509,0.0,0.0,0.0,0.0,11155.0,0.0
73,8.618646514319809e-05,0.00039190211009840973,0.00039190211009840973,-0.0016833068802952766,9315.0,2414.0,0.00023210330638943593,0.0004657755908017009,0.0025321226567029953,-0.0009262561798095703,7857,2455,0.0,0.0,0.0,0.0,11155.0,0.0
74,7.045068576885962e-05,0.00039350177481315877,0.00039350177481315877,-0.0028612613677978516,9315.0,2268.0,0.0002398494338509811,0.00046907633923355625,0.002470344305038452,-0.0008016824722290039,7857,2386,0.0,0.0,0.0,0.0,11155.0,0.0
75,6.113255395735472e-05,0.00038724991580108307,0.00038724991580108307,-0.003315448760986328,9315.0,2093.0,0.00024335410933300124,0.00046869921925287225,0.0023950934410095215,-0.0006768703460693359,7857,2320,0.0,0.0,0.0,0.0,11155.0,0.0
76,6.16035904581356e-05,0.00036934705770742896,0.00036934705770742896,-0.002475738525390625,9315.0,1923.0,0.00024027197900436465,0.0004668325985400031,0.002252340316772461,-0.0006543397903442383,7857,2252,0.0,0.0,0.0,0.0,11155.0,0.0
77,6.288738945780008e-05,0.00034632814351362283,0.00034632814351362283,-0.0021560192108154297,9315.0,1747.0,0.0002329642372588126,0.00046689098248821483,0.002409696578979492,-0.00075531005859375,7857,2180,0.0,0.0,0.0,0.0,11155.0,0.0
78,6.11072804596849e-05,0.00032436638637304703,0.00032436638637304703,-0.0017843246459960938,9315.0,1568.0,0.0002283636280343487,0.00047392503390163507,0.0026567578315734863,-0.000682830810546875,7857,2098,0.0,0.0,0.0,0.0,11155.0,0.0
79,5.5866579048263565e-05,0.0002965585668166122,0.0002965585668166122,-0.0014448165893554688,9315.0,1397.0,0.00022865418180477442,0.0004787761790583889,0.0028344392776489258,-0.0005394220352172852,7857,2007,0.0,0.0,0.0,0.0,11155.0,0.0
80,4.766887556001648e-05,0.0002587013038869759,0.0002587013038869759,-0.0015325546264648438,9315.0,1221.0,0.00023118030248374358,0.00048165318796044036,0.0025537610054016113,-0.0005240440368652344,7857,1935,0.0,0.0,0.0,0.0,11155.0,0.0
81,4.1303752061185565e-05,0.00022330008037121078,0.00022330008037121078,-0.00145721435546875,9315.0,1038.0,0.0002331951166678799,0.0004828420341443752,0.002631664276123047,-0.0005123615264892578,7857,1910,,,,,,
82,3.543785934187012e-05,0.00019154037454531983,0.00019154037454531983,-0.001308441162109375,9315.0,865.0,0.00023199833584334033,0.00048496777990031294,0.0027823448181152344,-0.0006855055689811707,7857,1887,,,,,,
83,2.5713858152157315e-05,0.0001577353190745349,0.0001577353190745349,-0.0010364055633544922,9315.0,682.0,0.00023311425413083465,0.0004922696194176281,0.002930879592895508,-0.0007544755935668945,7857,1872,,,,,,
84,1.5727085497788184e-05,0.00012520175376697055,0.00012520175376697055,-0.0009913444519042969,9315.0,491.0,0.00023754596426478846,0.0005075252209108022,0.0029667019844055176,-0.0007736682891845703,7857,1851,,,,,,
85,4.822297108730064e-06,8.56435929963655e-05,8.56435929963655e-05,-0.0014448165893554688,9315.0,234.0,0.00024087301174819723,0.0005182842779795902,0.0027680397033691406,-0.0006084442138671875,7857,1815,,,,,,
86,-8.382565045446334e-07,3.096124555570776e-05,3.096124555570776e-05,-0.0011157989501953125,9315.0,30.0,0.00023684888371773216,0.0005181147777124564,0.0030920766294002533,-0.0005564689636230469,7857,1761,,,,,,
87,0.0,0.0,0.0,0.0,9315.0,0.0,0.0002320482299072945,0.0005192235821835928,0.003440067172050476,-0.0008301734924316406,7857,1699,,,,,,
88,0.0,0.0,0.0,0.0,9315.0,0.0,0.00022304887264824487,0.000511008609475611,0.0034699440002441406,-0.0007600784301757812,7857,1634,,,,,,
89,0.0,0.0,0.0,0.0,9315.0,0.0,0.0002142430370370327,0.0005083386416387014,0.0035843849182128906,-0.0008674860000610352,7857,1555,,,,,,
90,0.0,0.0,0.0,0.0,9315.0,0.0,0.00020766121688440767,0.0005102323572377003,0.0034903287887573242,-0.0007260441780090332,7857,1491,,,,,,
91,0.0,0.0,0.0,0.0,9315.0,0.0,0.00020021287619710097,0.000508801448077751,0.0033875703811645508,-0.0007100105285644531,7857,1416,,,,,,
92,0.0,0.0,0.0,0.0,9315.0,0.0,0.00019127627599957914,0.0005038420534126755,0.003802061080932617,-0.0005844831466674805,7857,1337,,,,,,
93,0.0,0.0,0.0,0.0,9315.0,0.0,0.00018136941626207116,0.0004971706794000974,0.004045724868774414,-0.0005688667297363281,7857,1264,,,,,,
94,0.0,0.0,0.0,0.0,9315.0,0.0,0.00016787993739799672,0.00047067516534817833,0.003767251968383789,-0.000367581844329834,7857,1189,,,,,,
95,0.0,0.0,0.0,0.0,9315.0,0.0,0.0001524110544204142,0.0004347897750180785,0.0030019283294677734,-0.00029966235160827637,7857,1107,,,,,,
96,0.0,0.0,0.0,0.0,9315.0,0.0,0.00013658540573973526,0.00040179133012847694,0.0029094815254211426,-0.000594019889831543,7857,1024,,,,,,
97,,,,,,,0.00012493495555530317,0.00038020735855380516,0.002615213394165039,-0.0005350112915039062,7857,942,,,,,,
98,,,,,,,0.0001141905659884963,0.0003636617805827645,0.00227510929107666,-0.0005280971527099609,7857,837,,,,,,
99,,,,,,,0.00010415327154605844,0.0003501095925466876,0.0020990967750549316,-0.00014841556549072266,7857,730,,,,,,
100,,,,,,,9.232499053284755e-05,0.0003379029294586623,0.0020545125007629395,-3.509223461151123e-05,7857,613,,,,,,
101,,,,,,,7.784320616427763e-05,0.000321213361266812,0.0021626949310302734,0.0,7857,479,,,,,,
102,,,,,,,5.334144071990545e-05,0.0002733570148261231,0.0025146007537841797,0.0,7857,319,,,,,,
103,,,,,,,3.323516394410544e-05,0.00021858626662015155,0.0026967525482177734,0.0,7857,198,,,,,,
104,,,,,,,1.130995289794176e-05,0.00012344679859100044,0.002082347869873047,0.0,7857,69,,,,,,
105,,,,,,,0.0,0.0,0.0,0.0,7857,0,,,,,,
106,,,,,,,0.0,0.0,0.0,0.0,7857,0,,,,,,
107,,,,,,,0.0,0.0,0.0,0.0,7857,0,,,,,,
108,,,,,,,0.0,0.0,0.0,0.0,7857,0,,,,,,
109,,,,,,,0.0,0.0,0.0,0.0,7857,0,,,,,,
110,,,,,,,0.0,0.0,0.0,0.0,7857,0,,,,,,
111,,,,,,,0.0,0.0,0.0,0.0,7857,0,,,,,,
112,,,,,,,0.0,0.0,0.0,0.0,7857,0,,,,,,
113,,,,,,,0.0,0.0,0.0,0.0,7857,0,,,,,,
114,,,,,,,0.0,0.0,0.0,0.0,7857,0,,,,,,
