,sag_mean,sag_std,sag_max,sag_min,sag_nb_elements,sag_non_zero_elements,hor_mean,hor_std,hor_max,hor_min,hor_nb_elements,hor_non_zero_elements,frt_mean,frt_std,frt_max,frt_min,frt_nb_elements,frt_non_zero_elements
0,0.0,0.0,0.0,0.0,9315.0,0.0,0.0,0.0,0.0,0.0,7857,0,0.0,0.0,0.0,0.0,11155.0,0.0
1,0.0,0.0,0.0,0.0,9315.0,0.0,0.0,0.0,0.0,0.0,7857,0,0.0,0.0,0.0,0.0,11155.0,0.0
2,0.0,0.0,0.0,0.0,9315.0,0.0,0.0,0.0,0.0,0.0,7857,0,0.0,0.0,0.0,0.0,11155.0,0.0
3,0.0,0.0,0.0,0.0,9315.0,0.0,0.0,0.0,0.0,0.0,7857,0,0.0,0.0,0.0,0.0,11155.0,0.0
4,0.0,0.0,0.0,0.0,9315.0,0.0,0.0,0.0,0.0,0.0,7857,0,0.0,0.0,0.0,0.0,11155.0,0.0
5,0.0,0.0,0.0,0.0,9315.0,0.0,0.0,0.0,0.0,0.0,7857,0,0.0,0.0,0.0,0.0,11155.0,0.0
6,0.0,0.0,0.0,0.0,9315.0,0.0,0.0,0.0,0.0,0.0,7857,0,0.0,0.0,0.0,0.0,11155.0,0.0
7,0.0,0.0,0.0,0.0,9315.0,0.0,0.0,0.0,0.0,0.0,7857,0,0.0,0.0,0.0,0.0,11155.0,0.0
8,0.0,0.0,0.0,0.0,9315.0,0.0,0.0,0.0,0.0,0.0,7857,0,0.0,0.0,0.0,0.0,11155.0,0.0
9,0.0,0.0,0.0,0.0,9315.0,0.0,0.0,0.0,0.0,0.0,7857,0,0.0,0.0,0.0,0.0,11155.0,0.0
10,0.0,0.0,0.0,0.0,9315.0,0.0,0.0,0.0,0.0,0.0,7857,0,-6.157632688405214e-08,4.648044268471675e-06,0.0,-0.0003941059112548828,11155.0,2.0
11,0.0,0.0,0.0,0.0,9315.0,0.0,0.0,0.0,0.0,0.0,7857,0,-1.280471275120987e-07,5.631009692410324e-06,0.0,-0.00030303001403808594,11155.0,6.0
12,0.0,0.0,0.0,0.0,9315.0,0.0,0.0,0.0,0.0,0.0,7857,0,-8.730971722365602e-08,4.211997210565487e-06,0.0,-0.00029778480529785156,11155.0,6.0
13,0.0,0.0,0.0,0.0,9315.0,0.0,1.6713879772068298e-07,1.021916332083646e-05,0.000782012939453125,0.0,7857,3,0.0,0.0,0.0,0.0,11155.0,0.0
14,0.0,0.0,0.0,0.0,9315.0,0.0,-1.068134655005091e-07,2.3084009937995167e-05,0.0007169246673583984,-0.0005426406860351562,7857,32,0.0,0.0,0.0,0.0,11155.0,0.0
15,0.0,0.0,0.0,0.0,9315.0,0.0,-4.244924911609721e-07,3.891359147592942e-05,0.0006115436553955078,-0.0008499622344970703,7857,76,0.0,0.0,0.0,0.0,11155.0,0.0
16,0.0,0.0,0.0,0.0,9315.0,0.0,5.11005329269481e-07,5.0469254887538255e-05,0.0009965896606445312,-0.0007510185241699219,7857,133,0.0,0.0,0.0,0.0,11155.0,0.0
17,0.0,0.0,0.0,0.0,9315.0,0.0,1.186903945905373e-06,5.739044849044707e-05,0.0010063648223876953,-0.0007450580596923828,7857,176,0.0,0.0,0.0,0.0,11155.0,0.0
18,1.9836221020258824e-07,7.96797728894255e-06,7.96797728894255e-06,0.0,9315.0,6.0,1.0090231121656047e-06,5.57970621545348e-05,0.0007333755493164062,-0.0007963180541992188,7857,181,0.0,0.0,0.0,0.0,11155.0,0.0
19,6.478893712074988e-07,1.4370905945948676e-05,1.4370905945948676e-05,-5.1975250244140625e-05,9315.0,25.0,2.190525695326918e-06,4.0538024530802225e-05,0.0007262229919433594,-0.0006036758422851562,7857,142,-7.920284433676918e-07,2.2662747943092766e-05,0.0,-0.0009024143218994141,11155.0,17.0
20,1.1710792987882867e-06,2.1528386497702245e-05,2.1528386497702245e-05,-0.00039839744567871094,9315.0,54.0,2.951359223876425e-06,3.59628183847686e-05,0.0006511211395263672,-0.0002300739288330078,7857,117,-1.7093468652825246e-06,4.351902030680292e-05,0.0,-0.0015130043029785156,11155.0,19.0
21,1.0881255022377592e-06,3.270513409513183e-05,3.270513409513183e-05,-0.0006401538848876953,9315.0,88.0,2.5752362395358536e-06,3.305322591541262e-05,0.0007534027099609375,-0.000293731689453125,7857,92,-5.010103014540319e-07,2.3785879813788908e-05,0.0,-0.001222372055053711,11155.0,5.0
22,3.9948869378606416e-07,3.7143439056411684e-05,3.7143439056411684e-05,-0.0006184577941894531,9315.0,111.0,1.5297084117460694e-06,2.9622787721190202e-05,0.0007529258728027344,-0.0003426074981689453,7857,59,4.652956043963259e-08,3.791759017792478e-06,0.00037288665771484375,0.0,11155.0,2.0
23,-7.358598120418595e-08,3.8362834719830795e-05,3.8362834719830795e-05,-0.0006413459777832031,9315.0,128.0,1.8012634409404034e-07,2.3115649247563983e-05,0.0007615089416503906,-0.0005342960357666016,7857,33,7.594556137351699e-07,2.06545734819607e-05,0.000926971435546875,-5.14984130859375e-05,11155.0,20.0
24,-4.407224383843054e-07,5.040497939785022e-05,5.040497939785022e-05,-0.0007913112640380859,9315.0,138.0,-3.8428571792569524e-07,1.157799604843745e-05,0.00010466575622558594,-0.0004925727844238281,7857,13,1.0040296882003586e-06,1.898659402073069e-05,0.0005769729614257812,-1.52587890625e-05,11155.0,38.0
25,-1.36665164048609e-06,6.20285083604567e-05,6.20285083604567e-05,-0.001058340072631836,9315.0,132.0,-6.830599739819488e-08,4.344508084951585e-06,8.130073547363281e-05,-0.0002734661102294922,7857,4,1.9941240188413967e-07,9.367789418599808e-06,0.00026702880859375,-0.00033020973205566406,11155.0,49.0
26,-1.5803197347791491e-06,7.75401138976381e-05,7.75401138976381e-05,-0.0011968612670898438,9315.0,137.0,0.0,0.0,0.0,0.0,7857,0,-2.158206442128057e-06,3.0427476066165288e-05,8.58306884765625e-06,-0.001032114028930664,11155.0,77.0
27,-2.1625576131905656e-06,9.768984692547006e-05,9.768984692547006e-05,-0.0016841888427734375,9315.0,137.0,-3.959684407148134e-07,2.036739281502967e-05,0.0,-0.001470327377319336,7857,4,-4.898064449623207e-06,6.113718338552653e-05,0.0011436939239501953,-0.0011980533599853516,11155.0,113.0
28,-4.090638296359723e-06,0.00011558631820766162,0.00011558631820766162,-0.0022361278533935547,9315.0,121.0,-1.5299511696222069e-06,3.49046836780064e-05,0.0,-0.0013248920440673828,7857,17,-8.838521905246736e-06,9.364113049114649e-05,0.0010249614715576172,-0.002033710479736328,11155.0,263.0
29,-6.3108873188143705e-06,0.0001187266158989783,0.0001187266158989783,-0.0026988983154296875,9315.0,89.0,-3.205374996519823e-06,6.494330986751959e-05,0.0,-0.0024862289428710938,7857,26,-7.0980128446858545e-06,0.00010023378943682556,0.001186370849609375,-0.002625703811645508,11155.0,311.0
30,-2.8264951270815512e-06,6.87144771438417e-05,6.87144771438417e-05,-0.0025224685668945312,9315.0,49.0,-3.755767791192617e-06,6.361151213942574e-05,0.0,-0.0018379688262939453,7857,33,-4.93185555437978e-06,0.0001060555120652287,0.0009815692901611328,-0.0026988983154296875,11155.0,279.0
31,-2.6329959904194135e-06,6.14766589282988e-05,6.14766589282988e-05,-0.0024862289428710938,9315.0,57.0,-2.9881977315802938e-06,5.0923684163598814e-05,0.00026106834411621094,-0.001346588134765625,7857,36,-1.7801778084598064e-06,8.385779991370128e-05,0.0012509822845458984,-0.0021505355834960938,11155.0,205.0
32,-1.7654236708030353e-06,6.36916203480206e-05,6.36916203480206e-05,-0.002385854721069336,9315.0,75.0,-2.787619036421667e-06,4.599454131578865e-05,2.5272369384765625e-05,-0.0015130043029785156,7857,40,-1.5886735082581032e-06,6.521367535585353e-05,0.0016756057739257812,-0.0015413761138916016,11155.0,165.0
33,-5.476588660264232e-07,3.7110755094886536e-05,3.7110755094886536e-05,-0.0008950233459472656,9315.0,70.0,-3.4563866404460195e-06,5.343208174126562e-05,9.799003601074219e-05,-0.0014348030090332031,7857,52,-7.899766115798164e-07,5.00959102550665e-05,0.0014622211456298828,-0.0012161731719970703,11155.0,149.0
34,-1.4766338878719639e-06,3.652075095239651e-05,3.652075095239651e-05,-0.0009377002716064453,9315.0,63.0,-2.7069323873404587e-06,4.3505145360061015e-05,0.00029349327087402344,-0.0012311935424804688,7857,59,6.40962327985366e-07,3.99249735468103e-05,0.0012013912200927734,-0.0008785724639892578,11155.0,120.0
35,-2.016895763092123e-06,4.301829696527571e-05,4.301829696527571e-05,-0.001001596450805664,9315.0,68.0,-2.033491694200459e-06,3.451073797853386e-05,0.0004584789276123047,-0.0009832382202148438,7857,59,1.3052642425578145e-06,4.0671964827836336e-05,0.0013570785522460938,-0.0007371902465820312,11155.0,69.0
36,-1.3983895941185043e-06,3.429176782101258e-05,3.429176782101258e-05,-0.0008089542388916016,9315.0,61.0,-1.7728304246977964e-06,3.378843977326254e-05,0.0005953311920166016,-0.0007190704345703125,7857,63,-4.0468107366284036e-07,6.306866068203516e-05,0.0009570121765136719,-0.0024862289428710938,11155.0,66.0
37,-6.995915214796573e-07,2.3345731799182654e-05,2.3345731799182654e-05,-0.0006909370422363281,9315.0,48.0,-1.9706174042808412e-06,4.069003675389469e-05,0.0005981922149658203,-0.0010342597961425781,7857,73,-1.2777141261560295e-06,5.127862781483083e-05,0.0008492469787597656,-0.001973867416381836,11155.0,45.0
38,-3.550555587006844e-07,1.8291486594860357e-05,1.8291486594860357e-05,-0.000743865966796875,9315.0,37.0,-1.989704242292154e-06,5.2657608714467945e-05,0.0013570785522460938,-0.0013079643249511719,7857,76,-3.936952242985909e-07,2.365919613186296e-05,0.0004489421844482422,-0.0014567375183105469,11155.0,10.0
39,-2.0675741084083972e-07,1.9827789720171732e-05,1.9827789720171732e-05,-0.0007963180541992188,9315.0,33.0,-2.841571974393231e-06,6.576244762762866e-05,0.0009343624114990234,-0.0015172958374023438,7857,88,-5.760090279504356e-08,5.7973338549814e-06,0.0,-0.0006115436553955078,11155.0,2.0
40,-1.2462265825501962e-07,2.3805364601398355e-05,2.3805364601398355e-05,-0.0007176399230957031,9315.0,41.0,-2.7999996881046806e-06,7.373261650197948e-05,0.0009539127349853516,-0.0015413761138916016,7857,96,-7.183334849865006e-07,2.579234418532369e-05,0.0003292560577392578,-0.001001596450805664,11155.0,30.0
41,3.6590789123305825e-07,2.2957467579724055e-05,2.2957467579724055e-05,-0.0005273818969726562,9315.0,31.0,-3.243821775153103e-06,7.865762792824465e-05,0.0009570121765136719,-0.0016961097717285156,7857,91,4.853864573192725e-08,3.916407268593163e-05,0.0008599758148193359,-0.0009107589721679688,11155.0,92.0
42,3.195807169792925e-07,1.3423260408299125e-05,1.3423260408299125e-05,-0.00040841102600097656,9315.0,16.0,-3.575884204974714e-06,8.1836956593668e-05,0.0009508132934570312,-0.0021698474884033203,7857,80,1.2529852784625728e-06,5.126811044774525e-05,0.0010333061218261719,-0.001306295394897461,11155.0,117.0
43,2.008193420967106e-07,9.340504294816354e-06,9.340504294816354e-06,-4.6253204345703125e-05,9315.0,8.0,-3.4996885766020496e-06,8.075178711642224e-05,0.0006835460662841797,-0.002625703811645508,7857,67,1.8754811203570604e-06,7.266762292693661e-05,0.0018336772918701172,-0.0012965202331542969,11155.0,111.0
44,1.6268260749001947e-07,7.933669105683952e-06,7.933669105683952e-06,-0.00011277198791503906,9315.0,8.0,-2.63510640073827e-06,7.736641784420493e-05,0.0008356571197509766,-0.0026988983154296875,7857,55,2.4452491599527084e-06,7.448321675065285e-05,0.0017642974853515625,-0.0012073516845703125,11155.0,100.0
45,8.43871234887656e-07,2.588406487649447e-05,2.588406487649447e-05,-0.0006411075592041016,9315.0,32.0,-2.529628103556517e-06,6.883520302552406e-05,0.00086212158203125,-0.002381563186645508,7857,28,2.708610319225631e-06,6.972962353122346e-05,0.0018210411071777344,-0.00124359130859375,11155.0,76.0
46,7.05913517082243e-07,3.1830982103399404e-05,3.1830982103399404e-05,-0.0005908012390136719,9315.0,45.0,7.393494565113364e-07,6.283781974362642e-05,0.002113819122314453,-0.001981496810913086,7857,26,1.2741234205272474e-06,3.8160397201724745e-05,0.0017139911651611328,-0.0004868507385253906,11155.0,49.0
47,-8.03174987891254e-08,3.83388872394626e-05,3.83388872394626e-05,-0.0009093284606933594,9315.0,64.0,2.6687890560523507e-06,6.781898064140851e-05,0.001825571060180664,-0.0013957023620605469,7857,50,1.7765443563354438e-07,1.665505422346383e-05,0.0006263256072998047,-0.000396728515625,11155.0,46.0
48,-8.108023348125923e-07,4.5004841391390925e-05,4.5004841391390925e-05,-0.0012311935424804688,9315.0,63.0,2.5137274626695093e-06,6.521843426138384e-05,0.0015492439270019531,-0.0010046958923339844,7857,54,1.55661363657255e-07,8.402245074382842e-06,0.0003447532653808594,-0.00018858909606933594,11155.0,23.0
49,-1.7148733011062466e-07,4.685191600634901e-05,4.685191600634901e-05,-0.0014047622680664062,9315.0,72.0,4.650755391042621e-06,8.074973106567797e-05,0.0018336772918701172,-0.0008370876312255859,7857,67,7.566557182746316e-07,2.0285753530391536e-05,0.0010004043579101562,-1.3113021850585938e-05,11155.0,22.0
50,9.717956641254025e-07,4.777830273398909e-05,4.777830273398909e-05,-0.0015130043029785156,9315.0,65.0,5.728782429500316e-06,8.814696547057776e-05,0.0018210411071777344,-0.001064300537109375,7857,80,1.2084861765630253e-06,3.0451158966225075e-05,0.0008885860443115234,-0.0004303455352783203,11155.0,28.0
51,1.5788608127170138e-06,4.14819718656649e-05,4.14819718656649e-05,-0.0014214515686035156,9315.0,62.0,3.3132201829939166e-06,7.717325881646052e-05,0.0016756057739257812,-0.001306295394897461,7857,66,2.5274292977066758e-06,4.813316486449494e-05,0.0010464191436767578,-0.0007839202880859375,11155.0,62.0
52,1.327363125304029e-06,2.8516235954738213e-05,2.8516235954738213e-05,-0.0006649494171142578,9315.0,47.0,1.6520280365848626e-06,6.267887771415961e-05,0.001337289810180664,-0.0012764930725097656,7857,51,4.266741456391298e-06,6.10912193882225e-05,0.0011148452758789062,-0.001039266586303711,11155.0,84.0
53,2.192324742282902e-06,4.5119097257496876e-05,4.5119097257496876e-05,-0.0005998611450195312,9315.0,46.0,-3.8474088894345307e-07,3.226266177866592e-05,0.0011148452758789062,-0.00104522705078125,7857,28,5.09418537134763e-06,6.0753547075043096e-05,0.0011568069458007812,0.0,11155.0,87.0
54,1.8391632227506039e-06,3.963677446890279e-05,3.963677446890279e-05,-0.0006394386291503906,9315.0,47.0,-1.0654036288985438e-07,1.8617371649384676e-05,0.0009517669677734375,-0.0006055831909179688,7857,19,5.051011410811085e-06,6.544805362320249e-05,0.002113819122314453,-5.14984130859375e-05,11155.0,91.0
55,2.1534969393309894e-06,4.1717603594539626e-05,4.1717603594539626e-05,-0.0006580352783203125,9315.0,52.0,2.164520257845686e-06,3.824083211693077e-05,0.0010004043579101562,-0.0003292560577392578,7857,40,4.211577103844356e-06,5.3262327334297443e-05,0.0011904239654541016,-0.00010752677917480469,11155.0,97.0
56,-1.5098563586904103e-07,4.35228133446759e-05,4.35228133446759e-05,-0.001010894775390625,9315.0,69.0,3.5644138953272163e-06,4.953099784172285e-05,0.0008625984191894531,-0.0008776187896728516,7857,81,2.5756900912173282e-06,4.2314653239319796e-05,0.0010547637939453125,-0.0006511211395263672,11155.0,99.0
57,-1.1369354035095444e-06,6.10841080125505e-05,6.10841080125505e-05,-0.0014567375183105469,9315.0,62.0,3.974765740203178e-06,6.738231930463118e-05,0.0009529590606689453,-0.00124359130859375,7857,105,1.757714525032129e-06,3.587191227004966e-05,0.0008835792541503906,-0.00038313865661621094,11155.0,82.0
58,8.653199487134326e-07,4.387207989874598e-05,4.387207989874598e-05,-0.0006701946258544922,9315.0,23.0,5.2872665422752e-06,8.215250800302095e-05,0.0013761520385742188,-0.0012965202331542969,7857,126,1.5076475258848156e-06,3.1492671944345796e-05,0.0009889602661132812,-0.0003590583801269531,11155.0,50.0
59,1.1993619106945912e-06,4.843503554163308e-05,4.843503554163308e-05,-0.0009379386901855469,9315.0,43.0,6.230896751556261e-06,8.663828715706484e-05,0.001569509506225586,-0.0011076927185058594,7857,139,1.1903616624367926e-06,2.8549489608598358e-05,0.00092315673828125,-4.100799560546875e-05,11155.0,26.0
60,2.860357475997425e-06,6.257904140376475e-05,6.257904140376475e-05,-0.001306295394897461,9315.0,87.0,6.269404219658575e-06,8.541065617728124e-05,0.0017931461334228516,-0.0009522438049316406,7857,133,1.0203161030166195e-06,2.891599635518923e-05,0.0008935928344726562,0.0,11155.0,14.0
61,2.7527811702578794e-06,5.808994882348429e-05,5.808994882348429e-05,-0.001470327377319336,9315.0,97.0,3.1950881315184955e-06,5.329028322506205e-05,0.00089263916015625,-0.0006728172302246094,7857,93,2.347423804816191e-07,1.4319027548170818e-05,0.0009024143218994141,0.0,11155.0,3.0
62,3.548559167342869e-06,5.7104486789697806e-05,5.7104486789697806e-05,-0.0009927749633789062,9315.0,92.0,2.05248749800822e-06,3.72556718999205e-05,0.0009074211120605469,-0.00030040740966796875,7857,44,7.221592963409766e-07,2.8956430261432818e-05,0.0013232231140136719,0.0,11155.0,7.0
63,4.16581117524553e-06,6.711349710466569e-05,6.711349710466569e-05,-0.00048160552978515625,9315.0,81.0,1.1546474931136e-06,2.640168619816634e-05,0.0007357597351074219,-8.106231689453125e-05,7857,18,1.1534928099984067e-06,3.5449340866821916e-05,0.001321554183959961,0.0,11155.0,12.0
64,3.6387307888323813e-06,6.46554336450413e-05,6.46554336450413e-05,-0.0006582736968994141,9315.0,74.0,1.270564378969266e-06,3.0380242818627066e-05,0.0008540153503417969,0.0,7857,14,5.732305057376876e-07,2.3256204631158364e-05,0.001123666763305664,-8.058547973632812e-05,11155.0,11.0
65,1.5822649641953292e-06,5.168555255869411e-05,5.168555255869411e-05,-0.0008618831634521484,9315.0,82.0,1.017671361503004e-06,2.9218929386466228e-05,0.0009832382202148438,0.0,7857,10,2.204864242054432e-07,1.9829860474122195e-05,0.0010366439819335938,-0.0002872943878173828,11155.0,15.0
66,4.3736947715378424e-07,5.1214369270739584e-05,5.1214369270739584e-05,-0.0012965202331542969,9315.0,80.0,6.05195385210839e-07,2.001670789105994e-05,0.0008654594421386719,0.0,7857,8,1.197329341216453e-06,3.957800040852869e-05,0.0015263557434082031,-0.00017023086547851562,11155.0,25.0
67,-4.807020219115883e-07,5.3944901851412726e-05,5.3944901851412726e-05,-0.00124359130859375,9315.0,60.0,9.016634414437862e-07,2.4807060559117357e-05,0.001218557357788086,-5.650520324707031e-05,7857,14,2.5784686134300762e-06,5.365096742920081e-05,0.0015764236450195312,0.0,11155.0,29.0
68,1.7890991604078603e-07,4.211253361741145e-05,4.211253361741145e-05,-0.0009710788726806641,9315.0,43.0,1.251416851488919e-06,3.4850283729324086e-05,0.0015208721160888672,-0.00018215179443359375,7857,17,0.0,0.0,0.0,0.0,11155.0,0.0
69,9.007947904348245e-07,2.8940521196650533e-05,2.8940521196650533e-05,-0.0005381107330322266,9315.0,38.0,9.705156440632906e-07,3.611173985974263e-05,0.001566171646118164,-0.0005624294281005859,7857,13,0.0,0.0,0.0,0.0,11155.0,0.0
70,1.4751749658098287e-06,3.3000432260505285e-05,3.3000432260505285e-05,-0.0009183883666992188,9315.0,34.0,1.5448504342701471e-07,2.7452491336894674e-05,0.001168966293334961,-0.0006411075592041016,7857,11,0.0,0.0,0.0,0.0,11155.0,0.0
71,1.5938083650729251e-06,3.399551609001761e-05,3.399551609001761e-05,-0.00017261505126953125,9315.0,27.0,2.1811795170956233e-07,3.304148292065365e-05,0.001186370849609375,-0.0007450580596923828,7857,19,0.0,0.0,0.0,0.0,11155.0,0.0
72,1.6156921960049525e-06,3.513251451664531e-05,3.513251451664531e-05,0.0,9315.0,20.0,-1.6131260869338248e-07,2.907037265695379e-05,0.0009663105010986328,-0.0007736682891845703,7857,26,0.0,0.0,0.0,0.0,11155.0,0.0
73,1.751167186792346e-06,3.40527093650425e-05,3.40527093650425e-05,0.0,9315.0,25.0,-6.386049379142654e-07,2.048503131635054e-05,0.000392913818359375,-0.0006916522979736328,7857,22,0.0,0.0,0.0,0.0,11155.0,0.0
74,1.7552112163680891e-06,3.3282346113474873e-05,3.3282346113474873e-05,0.0,9315.0,26.0,-5.226273625895648e-07,1.4737230799714514e-05,0.0,-0.0005648136138916016,7857,12,0.0,0.0,0.0,0.0,11155.0,0.0
75,1.1045319766558054e-06,2.6743807249287474e-05,2.6743807249287474e-05,0.0,9315.0,16.0,-2.381454764909078e-07,9.906379799314689e-06,0.0001442432403564453,-0.0004596710205078125,7857,7,0.0,0.0,0.0,0.0,11155.0,0.0
76,8.42207551834344e-07,2.410364590572375e-05,2.410364590572375e-05,0.0,9315.0,12.0,0.0,0.0,0.0,0.0,7857,0,0.0,0.0,0.0,0.0,11155.0,0.0
77,4.888156761869716e-07,1.9460897558394873e-05,1.9460897558394873e-05,0.0,9315.0,7.0,0.0,0.0,0.0,0.0,7857,0,0.0,0.0,0.0,0.0,11155.0,0.0
78,1.8233966264299853e-07,1.2445972765344118e-05,1.2445972765344118e-05,0.0,9315.0,2.0,0.0,0.0,0.0,0.0,7857,0,0.0,0.0,0.0,0.0,11155.0,0.0
79,0.0,0.0,0.0,0.0,9315.0,0.0,0.0,0.0,0.0,0.0,7857,0,0.0,0.0,0.0,0.0,11155.0,0.0
80,0.0,0.0,0.0,0.0,9315.0,0.0,-1.175888807275633e-06,2.771050620186733e-05,0.0,-0.0010714530944824219,7857,17,0.0,0.0,0.0,0.0,11155.0,0.0
81,0.0,0.0,0.0,0.0,9315.0,0.0,-6.900696076554197e-07,2.045533561208816e-05,0.0,-0.0009770393371582031,7857,11,,,,,,
82,0.0,0.0,0.0,0.0,9315.0,0.0,-2.5641300667025622e-08,2.2726930747439985e-06,0.0,-0.0002014636993408203,7857,1,,,,,,
83,0.0,0.0,0.0,0.0,9315.0,0.0,0.0,0.0,0.0,0.0,7857,0,,,,,,
84,0.0,0.0,0.0,0.0,9315.0,0.0,0.0,0.0,0.0,0.0,7857,0,,,,,,
85,0.0,0.0,0.0,0.0,9315.0,0.0,0.0,0.0,0.0,0.0,7857,0,,,,,,
86,0.0,0.0,0.0,0.0,9315.0,0.0,0.0,0.0,0.0,0.0,7857,0,,,,,,
87,0.0,0.0,0.0,0.0,9315.0,0.0,0.0,0.0,0.0,0.0,7857,0,,,,,,
88,0.0,0.0,0.0,0.0,9315.0,0.0,0.0,0.0,0.0,0.0,7857,0,,,,,,
89,0.0,0.0,0.0,0.0,9315.0,0.0,0.0,0.0,0.0,0.0,7857,0,,,,,,
90,0.0,0.0,0.0,0.0,9315.0,0.0,0.0,0.0,0.0,0.0,7857,0,,,,,,
91,0.0,0.0,0.0,0.0,9315.0,0.0,0.0,0.0,0.0,0.0,7857,0,,,,,,
92,0.0,0.0,0.0,0.0,9315.0,0.0,0.0,0.0,0.0,0.0,7857,0,,,,,,
93,0.0,0.0,0.0,0.0,9315.0,0.0,0.0,0.0,0.0,0.0,7857,0,,,,,,
94,0.0,0.0,0.0,0.0,9315.0,0.0,0.0,0.0,0.0,0.0,7857,0,,,,,,
95,0.0,0.0,0.0,0.0,9315.0,0.0,0.0,0.0,0.0,0.0,7857,0,,,,,,
96,0.0,0.0,0.0,0.0,9315.0,0.0,0.0,0.0,0.0,0.0,7857,0,,,,,,
97,,,,,,,0.0,0.0,0.0,0.0,7857,0,,,,,,
98,,,,,,,0.0,0.0,0.0,0.0,7857,0,,,,,,
99,,,,,,,0.0,0.0,0.0,0.0,7857,0,,,,,,
100,,,,,,,0.0,0.0,0.0,0.0,7857,0,,,,,,
101,,,,,,,0.0,0.0,0.0,0.0,7857,0,,,,,,
102,,,,,,,0.0,0.0,0.0,0.0,7857,0,,,,,,
103,,,,,,,0.0,0.0,0.0,0.0,7857,0,,,,,,
104,,,,,,,0.0,0.0,0.0,0.0,7857,0,,,,,,
105,,,,,,,0.0,0.0,0.0,0.0,7857,0,,,,,,
106,,,,,,,0.0,0.0,0.0,0.0,7857,0,,,,,,
107,,,,,,,0.0,0.0,0.0,0.0,7857,0,,,,,,
108,,,,,,,0.0,0.0,0.0,0.0,7857,0,,,,,,
109,,,,,,,0.0,0.0,0.0,0.0,7857,0,,,,,,
110,,,,,,,0.0,0.0,0.0,0.0,7857,0,,,,,,
111,,,,,,,0.0,0.0,0.0,0.0,7857,0,,,,,,
112,,,,,,,0.0,0.0,0.0,0.0,7857,0,,,,,,
113,,,,,,,0.0,0.0,0.0,0.0,7857,0,,,,,,
114,,,,,,,0.0,0.0,0.0,0.0,7857,0,,,,,,
