,sag_mean,sag_std,sag_max,sag_min,sag_nb_elements,sag_non_zero_elements,hor_mean,hor_std,hor_max,hor_min,hor_nb_elements,hor_non_zero_elements,frt_mean,frt_std,frt_max,frt_min,frt_nb_elements,frt_non_zero_elements
0,0.0,0.0,0.0,0.0,9315.0,0.0,0.0,0.0,0.0,0.0,7857,0,0.0,0.0,0.0,0.0,11155.0,0.0
1,0.0,0.0,0.0,0.0,9315.0,0.0,0.0,0.0,0.0,0.0,7857,0,0.0,0.0,0.0,0.0,11155.0,0.0
2,0.0,0.0,0.0,0.0,9315.0,0.0,0.0,0.0,0.0,0.0,7857,0,0.0,0.0,0.0,0.0,11155.0,0.0
3,0.0,0.0,0.0,0.0,9315.0,0.0,0.0,0.0,0.0,0.0,7857,0,0.0,0.0,0.0,0.0,11155.0,0.0
4,0.0,0.0,0.0,0.0,9315.0,0.0,0.0,0.0,0.0,0.0,7857,0,0.0,0.0,0.0,0.0,11155.0,0.0
5,0.0,0.0,0.0,0.0,9315.0,0.0,0.0,0.0,0.0,0.0,7857,0,-2.6716559737960835e-12,2.82160264556228e-10,0.0,-2.9802322387695312e-08,11155.0,1.0
6,0.0,0.0,0.0,0.0,9315.0,0.0,0.0,0.0,0.0,0.0,7857,0,0.0,0.0,0.0,0.0,11155.0,0.0
7,0.0,0.0,0.0,0.0,9315.0,0.0,0.0,0.0,0.0,0.0,7857,0,-1.0686623895184334e-11,1.1286410582249123e-09,0.0,-1.1920928955078125e-07,11155.0,1.0
8,0.0,0.0,0.0,0.0,9315.0,0.0,0.0,0.0,0.0,0.0,7857,0,1.3358279868980417e-12,1.4108013227811404e-10,1.4901161193847656e-08,0.0,11155.0,1.0
9,0.0,0.0,0.0,0.0,9315.0,0.0,0.0,0.0,0.0,0.0,7857,0,-5.343311947592167e-12,5.643205291124561e-10,0.0,-5.960464477539063e-08,11155.0,1.0
10,0.0,0.0,0.0,0.0,9315.0,0.0,0.0,0.0,0.0,0.0,7857,0,2.1373247790368668e-11,1.5960679398952752e-09,1.1920928955078125e-07,0.0,11155.0,2.0
11,0.0,0.0,0.0,0.0,9315.0,0.0,0.0,0.0,0.0,0.0,7857,0,-1.0686623895184334e-11,1.128641058224912e-09,0.0,-1.1920928955078125e-07,11155.0,1.0
12,6.398780974277039e-12,6.175403813268845e-10,6.175403813268845e-10,0.0,9315.0,1.0,0.0,0.0,0.0,0.0,7857,0,5.343311947592167e-12,5.643205291124561e-10,5.960464477539063e-08,0.0,11155.0,1.0
13,3.1993904871385197e-12,9.263547725234434e-10,9.263547725234434e-10,-5.960464477539063e-08,9315.0,3.0,0.0,0.0,0.0,0.0,7857,0,0.0,0.0,0.0,0.0,11155.0,0.0
14,-2.479527627532353e-11,2.471375648282302e-09,2.471375648282302e-09,-2.384185791015625e-07,9315.0,2.0,0.0,0.0,0.0,0.0,7857,0,1.2022451882082376e-11,7.053298268549697e-10,5.960464477539063e-08,0.0,11155.0,4.0
15,0.0,4.366904320953866e-10,4.366904320953866e-10,-2.9802322387695312e-08,9315.0,2.0,0.0,0.0,0.0,0.0,7857,0,2.0037419803470627e-12,2.1162019841717108e-10,1.4901161193847656e-08,-7.450580596923828e-09,11155.0,3.0
16,1.4397257192123339e-11,1.1655555628353325e-09,1.1655555628353325e-09,-2.9802322387695312e-08,9315.0,4.0,0.0,0.0,0.0,0.0,7857,0,1.3358279868980419e-11,8.464133329051996e-10,5.960464477539063e-08,0.0,11155.0,3.0
17,6.398780974277039e-12,6.175403813268846e-10,6.175403813268846e-10,0.0,9315.0,1.0,-1.0431002490284092e-11,1.3887715597113626e-09,2.9802322387695312e-08,-1.1920928955078125e-07,7857,3,3.072404369865496e-11,1.7219055923545555e-09,1.1920928955078125e-07,0.0,11155.0,5.0
18,0.0,0.0,0.0,0.0,9315.0,0.0,-1.8965459073243803e-12,1.6809860020295852e-10,0.0,-1.4901161193847656e-08,7857,1,6.679139934490209e-12,9.825307704345654e-10,5.960464477539063e-08,-5.960464477539063e-08,11155.0,5.0
19,1.2797561948554079e-11,7.795433264978444e-10,7.795433264978444e-10,-1.4901161193847656e-08,9315.0,6.0,4.267228291479856e-12,3.388082523881093e-10,2.9802322387695312e-08,0.0,7857,2,1.3358279868980417e-12,1.41080132278114e-10,1.4901161193847656e-08,0.0,11155.0,1.0
20,7.9984762178463e-12,4.6311108229808633e-10,4.6311108229808633e-10,0.0,9315.0,3.0,1.5172367258595042e-11,9.508487577538793e-10,5.960464477539063e-08,0.0,7857,2,2.0037419803470626e-11,1.0269294397809025e-09,5.960464477539063e-08,0.0,11155.0,5.0
21,7.1986285960616695e-12,6.223379916773609e-10,6.223379916773609e-10,0.0,9315.0,2.0,1.7543049642750517e-11,1.3558784589349225e-09,1.1920928955078125e-07,0.0,7857,3,2.6716559737960837e-11,2.7861061731103953e-09,2.384185791015625e-07,-1.1920928955078125e-07,11155.0,9.0
22,-1.2797561948554079e-11,1.7467148474054547e-09,1.7467148474054547e-09,-1.1920928955078125e-07,9315.0,5.0,-1.5172367258595042e-11,2.812965687084026e-09,5.960464477539063e-08,-2.384185791015625e-07,7857,4,1.2022451882082376e-11,1.0651115367753395e-09,5.960464477539063e-08,-5.960464477539063e-08,11155.0,6.0
23,1.4397257192123339e-11,7.718326477428686e-10,7.718326477428686e-10,0.0,9315.0,4.0,3.5086099285501035e-11,2.798938745009739e-09,2.384185791015625e-07,-2.9802322387695312e-08,7857,5,2.6716559737960835e-12,1.4108620337426446e-09,5.960464477539063e-08,-1.1920928955078125e-07,11155.0,4.0
24,2.3195581031754268e-11,1.6644969299175553e-09,1.6644969299175553e-09,-5.960464477539063e-08,9315.0,6.0,7.586183629297521e-12,6.723944008118339e-10,5.960464477539063e-08,0.0,7857,1,5.543686145626874e-11,2.8640745491974237e-09,2.384185791015625e-07,-7.450580596923828e-09,11155.0,8.0
25,2.239573340996964e-11,1.414861488875647e-09,1.414861488875647e-09,0.0,9315.0,3.0,2.6551642702541325e-11,4.110865517583887e-09,2.384185791015625e-07,-2.384185791015625e-07,7857,7,3.940692561349223e-11,1.8104860655572883e-09,1.1920928955078125e-07,-2.2351741790771484e-08,11155.0,12.0
26,3.759283822387761e-11,3.709269178044954e-09,3.709269178044954e-09,-1.1920928955078125e-07,9315.0,5.0,8.534456582959711e-11,5.59766673139822e-09,4.76837158203125e-07,-1.4901161193847656e-08,7857,5,2.6716559737960837e-11,1.4928796667374403e-09,1.1920928955078125e-07,0.0,11155.0,4.0
27,6.918681928437049e-11,3.3431130016512235e-09,3.3431130016512235e-09,-2.9802322387695312e-08,9315.0,8.0,-5.689637721973141e-12,7.703525750139465e-10,2.9802322387695312e-08,-5.960464477539063e-08,7857,3,3.2059871685553004e-11,2.8426325400227035e-09,2.384185791015625e-07,-1.1920928955078125e-07,11155.0,7.0
28,3.19939048713852e-11,1.9032205668919547e-09,1.9032205668919547e-09,-2.9802322387695312e-08,9315.0,5.0,4.2672282914798554e-11,1.8120401950349802e-09,1.1920928955078125e-07,0.0,7857,6,3.2393828682277514e-11,2.6187021494913178e-09,2.384185791015625e-07,-5.960464477539063e-08,11155.0,8.0
29,1.999619054461575e-11,1.0497980991914999e-09,1.0497980991914999e-09,-2.2351741790771484e-08,9315.0,6.0,3.413782633183885e-11,2.744143004021465e-09,2.384185791015625e-07,-2.2351741790771484e-08,7857,5,6.745931333835111e-11,3.151700220505476e-09,2.384185791015625e-07,-1.4901161193847656e-08,11155.0,11.0
30,3.0994095344154412e-12,2.880185708373309e-09,2.880185708373309e-09,-2.384185791015625e-07,9315.0,10.0,-1.5172367258595042e-11,1.64705812946075e-09,5.960464477539063e-08,-1.1920928955078125e-07,7857,3,3.3395699672451047e-12,1.7236206166542357e-09,1.1920928955078125e-07,-1.1920928955078125e-07,11155.0,6.0
31,1.59969524356926e-11,2.172448572747636e-09,2.172448572747636e-09,-1.1920928955078125e-07,9315.0,6.0,2.4655096795216943e-11,2.0792510133501518e-09,1.1920928955078125e-07,-5.960464477539063e-08,7857,6,1.402619386242944e-11,4.1894366299043134e-09,2.384185791015625e-07,-2.384185791015625e-07,11155.0,14.0
32,1.7596647679261858e-11,2.8593513217340362e-09,2.8593513217340362e-09,-1.1920928955078125e-07,9315.0,7.0,3.7930918146487606e-12,1.0086486595495485e-09,5.960464477539063e-08,-5.960464477539063e-08,7857,3,1.7365763829674543e-11,2.9560385370450968e-09,1.1920928955078125e-07,-2.384185791015625e-07,11155.0,10.0
33,5.59893335249241e-12,1.1579368357135317e-09,1.1579368357135317e-09,-5.960464477539063e-08,9315.0,6.0,1.9913732026905993e-11,1.0119560925764116e-09,5.960464477539063e-08,0.0,7857,4,1.3358279868980419e-11,1.7621186422378534e-09,1.1920928955078125e-07,-5.960464477539063e-08,11155.0,9.0
34,0.0,5.776871416228658e-10,5.776871416228658e-10,-2.9802322387695312e-08,9315.0,5.0,5.689637721973141e-12,1.5129729893243226e-09,1.1920928955078125e-07,-5.960464477539063e-08,7857,3,9.350795908286292e-12,1.40376137233432e-09,1.1920928955078125e-07,-5.960464477539063e-08,11155.0,6.0
35,-3.0394209627815937e-11,1.9094987941593494e-09,1.9094987941593494e-09,-1.1920928955078125e-07,9315.0,6.0,-3.6982645192825416e-11,3.1905426697647905e-09,5.960464477539063e-08,-2.384185791015625e-07,7857,7,-6.011225941041188e-12,2.7692083081289993e-09,1.1920928955078125e-07,-2.384185791015625e-07,11155.0,11.0
36,3.359360011495446e-11,2.9169836349797107e-09,2.9169836349797107e-09,-5.960464477539063e-08,9315.0,6.0,-1.3275821351270662e-11,1.7710916066841413e-09,2.9802322387695312e-08,-1.1920928955078125e-07,7857,9,1.7365763829674543e-11,9.032271833860306e-10,5.960464477539063e-08,0.0,11155.0,5.0
37,-1.2797561948554079e-11,1.310008787665591e-09,1.310008787665591e-09,-1.1920928955078125e-07,9315.0,3.0,1.3275821351270662e-11,1.2237821600373979e-09,5.960464477539063e-08,-5.960464477539063e-08,7857,5,3.072404369865496e-11,1.7219055923545555e-09,1.1920928955078125e-07,-5.960464477539063e-08,11155.0,8.0
38,-3.1993904871385197e-12,1.677138376158756e-09,1.677138376158756e-09,-1.1920928955078125e-07,9315.0,7.0,3.129300747085228e-11,1.428586344490876e-09,5.960464477539063e-08,-2.9802322387695312e-08,7857,7,-9.76824215419193e-12,9.885405843205098e-10,2.9802322387695312e-08,-5.960464477539063e-08,11155.0,8.0
39,1.039801908320019e-11,8.058900426719807e-10,8.058900426719807e-10,-2.9802322387695312e-08,9315.0,5.0,2.7019296844728246e-11,2.2112687048860007e-09,1.1920928955078125e-07,-1.1920928955078125e-07,7857,7,3.706922663642066e-11,2.9569091478240733e-09,2.384185791015625e-07,-1.1920928955078125e-07,11155.0,19.0
40,1.919634292283112e-11,9.00055702567305e-10,9.00055702567305e-10,-1.4901161193847656e-08,9315.0,7.0,2.2758550887892565e-11,3.628909636963195e-09,1.1920928955078125e-07,-2.384185791015625e-07,7857,7,-4.675397954143146e-12,2.7547971570810573e-09,5.960464477539063e-08,-2.384185791015625e-07,11155.0,13.0
41,1.999619054461575e-12,8.843969444006423e-10,8.843969444006423e-10,-5.960464477539063e-08,9315.0,4.0,8.534456582959711e-11,3.337900053355592e-09,1.1920928955078125e-07,-1.1920928955078125e-07,7857,15,3.873901162004321e-11,3.36521398309684e-09,2.384185791015625e-07,-1.1920928955078125e-07,11155.0,11.0
42,2.8794514384246678e-11,1.5590308457044658e-09,1.5590308457044658e-09,-1.4901161193847656e-08,9315.0,6.0,4.9310193590433886e-11,3.099390075295908e-09,2.384185791015625e-07,-2.9802322387695312e-08,7857,4,1.3019757053941315e-11,1.8626010120631526e-09,1.1920928955078125e-07,-1.1920928955078125e-07,11155.0,9.0
43,1.119786670498482e-11,7.074307444378235e-10,7.074307444378235e-10,0.0,9315.0,3.0,4.7413647683109505e-12,3.0341246450259224e-09,5.960464477539063e-08,-2.384185791015625e-07,7857,10,-1.2690365875531396e-11,1.369642942045809e-09,2.9802322387695312e-08,-1.1920928955078125e-07,11155.0,8.0
44,5.59893335249241e-12,1.905045961993078e-09,1.905045961993078e-09,-8.940696716308594e-08,9315.0,7.0,-7.586183629297521e-12,1.4064828435420134e-09,2.9802322387695312e-08,-1.1920928955078125e-07,7857,4,2.404490376416475e-11,1.8609028406788412e-09,1.1920928955078125e-07,-5.960464477539063e-08,11155.0,9.0
45,4.9990476361539375e-11,2.532040476168163e-09,2.532040476168163e-09,-5.960464477539063e-08,9315.0,12.0,3.0344734517190084e-11,1.646848468936367e-09,1.1920928955078125e-07,0.0,7857,3,6.679139934490209e-12,3.255698785867755e-09,2.384185791015625e-07,-2.384185791015625e-07,11155.0,6.0
46,4.0792228711016126e-11,2.7235456325211914e-09,2.7235456325211914e-09,-5.960464477539063e-08,9315.0,9.0,-2.8448188609865706e-12,1.1432632941703032e-09,2.9802322387695312e-08,-5.960464477539063e-08,7857,8,4.5585130052895674e-11,3.2231732248110533e-09,2.384185791015625e-07,-1.1920928955078125e-07,11155.0,10.0
47,4.79908573070778e-12,1.5516268733195164e-09,1.5516268733195164e-09,-1.1920928955078125e-07,9315.0,5.0,6.73273797100155e-11,2.892699456541594e-09,1.1920928955078125e-07,-5.960464477539063e-08,7857,9,1.6697849836225523e-11,2.065054622787322e-09,1.1920928955078125e-07,-1.1920928955078125e-07,11155.0,11.0
48,-1.2797561948554079e-11,1.9528970510708656e-09,1.9528970510708656e-09,-1.1920928955078125e-07,9315.0,4.0,5.571103602765367e-12,5.576266271870694e-10,2.9802322387695312e-08,-1.4901161193847656e-08,7857,6,4.007483960694125e-11,2.4696954221678503e-09,1.1920928955078125e-07,-1.1920928955078125e-07,11155.0,11.0
49,2.719481914067742e-11,2.8509271178956374e-09,2.8509271178956374e-09,-5.960464477539063e-08,9315.0,5.0,-1.0431002490284092e-11,1.3887715597113626e-09,2.9802322387695312e-08,-1.1920928955078125e-07,7857,3,-1.7365763829674543e-11,2.680586420172664e-09,5.960464477539063e-08,-2.384185791015625e-07,11155.0,7.0
50,1.2797561948554079e-11,8.732870984634975e-10,8.732870984634975e-10,0.0,9315.0,2.0,-2.3706823841554756e-11,1.5610658187141685e-09,2.2351741790771484e-08,-1.1920928955078125e-07,7857,4,9.350795908286292e-12,1.1374369402376686e-09,5.960464477539063e-08,-5.960464477539063e-08,11155.0,5.0
51,8.398400028738614e-11,5.180706959932361e-09,5.180706959932361e-09,0.0,9315.0,8.0,3.0344734517190084e-11,3.1087378473706868e-09,2.384185791015625e-07,-1.1920928955078125e-07,7857,6,5.0761463502125585e-11,3.2598927208229104e-09,2.384185791015625e-07,-1.4901161193847656e-08,11155.0,6.0
52,1.7596647679261858e-11,1.5515345124171753e-09,1.5515345124171753e-09,-5.960464477539063e-08,9315.0,5.0,7.396529038565083e-11,3.882219975654352e-09,2.384185791015625e-07,-7.450580596923828e-09,7857,7,4.466674831190327e-11,2.6513507886632178e-09,2.384185791015625e-07,-9.313225746154785e-10,11155.0,7.0
53,6.15882668774165e-11,2.1564885736350426e-09,2.1564885736350426e-09,-7.450580596923828e-09,9315.0,13.0,5.926705960388689e-12,3.7644405898306295e-10,2.9802322387695312e-08,0.0,7857,3,-6.679139934490209e-12,1.564710239236737e-09,5.960464477539063e-08,-1.1920928955078125e-07,11155.0,7.0
54,-2.479527627532353e-11,2.504906946718973e-09,2.504906946718973e-09,-2.384185791015625e-07,9315.0,6.0,5.120673949775827e-11,2.1587958114338876e-09,1.1920928955078125e-07,0.0,7857,6,5.343311947592167e-12,1.2619043156353374e-09,1.1920928955078125e-07,-5.960464477539063e-08,11155.0,2.0
55,-1.5197104813907968e-11,1.4254474018498462e-09,1.4254474018498462e-09,-1.1920928955078125e-07,9315.0,5.0,4.362055586846075e-11,3.1040309788107785e-09,2.384185791015625e-07,-5.960464477539063e-08,7857,5,3.4731527659349087e-11,2.410636236289603e-09,2.384185791015625e-07,0.0,11155.0,4.0
56,1.4597219097569498e-11,1.5206508796423818e-09,1.5206508796423818e-09,-5.960464477539063e-08,9315.0,8.0,3.7930918146487604e-11,1.9601074917112183e-09,1.1920928955078125e-07,0.0,7857,4,2.938821571175692e-11,5.086859634470392e-09,4.76837158203125e-07,-2.384185791015625e-07,11155.0,4.0
57,-1.839649530104649e-11,1.867048240996658e-09,1.867048240996658e-09,-1.1920928955078125e-07,9315.0,6.0,-1.1379275443946282e-11,7.884203892435616e-10,1.4901161193847656e-08,-5.960464477539063e-08,7857,4,2.404490376416475e-11,2.2748236776085225e-09,2.384185791015625e-07,0.0,11155.0,2.0
58,-3.99923810892315e-12,7.117070926023627e-10,7.117070926023627e-10,-5.960464477539063e-08,9315.0,4.0,1.8965459073243803e-12,9.657125349919193e-10,5.960464477539063e-08,-5.960464477539063e-08,7857,3,1.0686623895184334e-11,7.980339699476375e-10,5.960464477539063e-08,0.0,11155.0,2.0
59,3.0394209627815937e-11,3.060578646172267e-09,3.060578646172267e-09,-1.1920928955078125e-07,9315.0,6.0,1.8965459073243803e-12,3.3997996323653895e-09,5.960464477539063e-08,-2.384185791015625e-07,7857,10,1.2022451882082376e-11,2.4149811990027625e-09,2.384185791015625e-07,-5.960464477539063e-08,11155.0,5.0
60,3.5993142980308347e-11,3.810720362906865e-09,3.810720362906865e-09,-2.384185791015625e-07,9315.0,10.0,8.534456582959711e-11,3.987920614655431e-09,2.384185791015625e-07,-1.4901161193847656e-08,7857,8,-6.011225941041188e-12,5.859452286033596e-10,7.450580596923828e-09,-5.960464477539063e-08,11155.0,3.0
61,5.918872401206261e-11,2.932877088866797e-09,2.932877088866797e-09,0.0,9315.0,7.0,-4.7413647683109505e-12,2.199915590840521e-09,1.1920928955078125e-07,-1.1920928955078125e-07,7857,10,5.343311947592167e-12,5.643205291124561e-10,5.960464477539063e-08,0.0,11155.0,1.0
62,6.558750498633966e-11,3.790725555948386e-09,3.790725555948386e-09,-5.960464477539063e-08,9315.0,9.0,1.6120640212257233e-11,2.330851062193859e-09,1.1920928955078125e-07,-1.1920928955078125e-07,7857,7,-9.684752905010803e-12,1.1335995009889988e-09,1.1175870895385742e-08,-1.1920928955078125e-07,11155.0,2.0
63,-9.59817146141556e-12,1.4808582005602813e-09,1.4808582005602813e-09,-1.1920928955078125e-07,9315.0,5.0,1.3275821351270662e-11,9.051989309472563e-10,5.960464477539063e-08,-2.9802322387695312e-08,7857,5,7.34705392793923e-12,6.34846541330265e-10,5.960464477539063e-08,-7.450580596923828e-09,11155.0,3.0
64,3.629308583847758e-11,1.666750751832324e-09,1.666750751832324e-09,-4.6566128730773926e-09,9315.0,8.0,-1.1379275443946282e-11,1.8105567983835243e-09,8.940696716308594e-08,-1.1920928955078125e-07,7857,3,-2.6716559737960835e-12,2.8216026455622807e-10,0.0,-2.9802322387695312e-08,11155.0,1.0
65,3.0394209627815937e-11,1.982985992164718e-09,1.982985992164718e-09,-5.960464477539063e-08,9315.0,6.0,-3.7930918146487606e-12,1.0086486595495487e-09,5.960464477539063e-08,-5.960464477539063e-08,7857,3,-6.679139934490209e-12,9.033694170440936e-10,2.9802322387695312e-08,-5.960464477539063e-08,11155.0,5.0
66,1.2797561948554079e-11,1.7467148474054547e-09,1.7467148474054547e-09,-5.960464477539063e-08,9315.0,5.0,3.413782633183885e-11,2.7104660191048745e-09,2.384185791015625e-07,0.0,7857,2,2.0037419803470627e-12,2.1162019841717105e-10,2.2351741790771484e-08,0.0,11155.0,1.0
67,-1.5197104813907968e-11,2.566091927886207e-09,2.566091927886207e-09,-2.384185791015625e-07,9315.0,4.0,3.7930918146487606e-12,1.5407425027195777e-09,1.1920928955078125e-07,-5.960464477539063e-08,7857,3,0.0,0.0,0.0,0.0,11155.0,0.0
68,-1.5996952435692598e-12,1.4234357587327104e-09,1.4234357587327104e-09,-1.1920928955078125e-07,9315.0,4.0,-1.3275821351270662e-11,1.3963576030698449e-09,2.9802322387695312e-08,-1.1920928955078125e-07,7857,3,0.0,0.0,0.0,0.0,11155.0,0.0
69,3.558775146106399e-11,3.1090012705458093e-09,3.1090012705458093e-09,-1.1920928955078125e-07,9315.0,7.0,1.94395955500749e-11,1.0197894176280614e-09,5.960464477539063e-08,-7.450580596923828e-09,7857,5,0.0,0.0,0.0,0.0,11155.0,0.0
70,-2.239573340996964e-11,2.5648777429560153e-09,2.5648777429560153e-09,-2.384185791015625e-07,9315.0,3.0,7.586183629297521e-12,1.7143684034015266e-09,5.960464477539063e-08,-1.1920928955078125e-07,7857,5,0.0,0.0,0.0,0.0,11155.0,0.0
71,-2.159588578818501e-11,2.4906214656400906e-09,2.4906214656400906e-09,-2.384185791015625e-07,9315.0,3.0,8.534456582959712e-12,7.181125260697549e-10,5.960464477539063e-08,-1.4901161193847656e-08,7857,4,0.0,0.0,0.0,0.0,11155.0,0.0
72,5.1190247794216315e-11,2.863113078159497e-09,2.863113078159497e-09,0.0,9315.0,5.0,2.5603369748879134e-11,1.477324048684898e-09,1.1920928955078125e-07,-1.4901161193847656e-08,7857,6,0.0,0.0,0.0,0.0,11155.0,0.0
73,4.0792228711016126e-11,1.966199538778345e-09,1.966199538778345e-09,-7.450580596923828e-09,9315.0,7.0,1.5172367258595042e-11,1.4263740081707184e-09,5.960464477539063e-08,-5.960464477539063e-08,7857,6,0.0,0.0,0.0,0.0,11155.0,0.0
74,1.4397257192123339e-11,1.2446759833547221e-09,1.2446759833547221e-09,0.0,9315.0,2.0,7.586183629297521e-12,6.723944008118341e-10,5.960464477539063e-08,0.0,7857,1,0.0,0.0,0.0,0.0,11155.0,0.0
75,1.119786670498482e-11,1.239911905738964e-09,1.239911905738964e-09,-7.450580596923828e-09,9315.0,3.0,3.0344734517190084e-11,2.689577603247336e-09,2.384185791015625e-07,0.0,7857,1,0.0,0.0,0.0,0.0,11155.0,0.0
76,6.398780974277039e-12,6.175403813268845e-10,6.175403813268845e-10,0.0,9315.0,1.0,2.0862004980568183e-11,1.0223561116271468e-09,5.960464477539063e-08,0.0,7857,4,0.0,0.0,0.0,0.0,11155.0,0.0
77,-1.919634292283112e-11,2.546248542240657e-09,2.546248542240657e-09,-2.384185791015625e-07,9315.0,2.0,4.172400996113637e-11,2.8026315833302025e-09,2.384185791015625e-07,-1.4901161193847656e-08,7857,5,0.0,0.0,0.0,0.0,11155.0,0.0
78,6.398780974277039e-12,6.175403813268846e-10,6.175403813268846e-10,0.0,9315.0,1.0,2.8448188609865706e-12,7.564864946621613e-10,5.960464477539063e-08,-2.9802322387695312e-08,7857,3,0.0,0.0,0.0,0.0,11155.0,0.0
79,2.5595123897108158e-11,1.4315565390797486e-09,1.4315565390797486e-09,0.0,9315.0,5.0,1.5172367258595042e-11,1.6641279861765113e-09,1.1920928955078125e-07,-5.960464477539063e-08,7857,5,0.0,0.0,0.0,0.0,11155.0,0.0
80,2.8794514384246678e-11,2.489351966709444e-09,2.489351966709444e-09,0.0,9315.0,2.0,7.870665515396179e-11,3.935448376750155e-09,2.384185791015625e-07,-7.450580596923828e-09,7857,6,0.0,0.0,0.0,0.0,11155.0,0.0
81,6.398780974277039e-12,6.175403813268846e-10,6.175403813268846e-10,0.0,9315.0,1.0,7.586183629297521e-12,6.72394400811834e-10,5.960464477539063e-08,0.0,7857,1,,,,,,
82,1.2797561948554079e-11,1.2350807626537692e-09,1.2350807626537692e-09,0.0,9315.0,1.0,7.586183629297521e-12,6.723944008118339e-10,5.960464477539063e-08,0.0,7857,1,,,,,,
83,2.5595123897108158e-11,2.4701615253075385e-09,2.4701615253075385e-09,0.0,9315.0,1.0,5.310328540508265e-11,3.0810367459684075e-09,2.384185791015625e-07,0.0,7857,3,,,,,,
84,0.0,0.0,0.0,0.0,9315.0,0.0,-5.926705960388688e-13,5.2530812563424505e-11,0.0,-4.6566128730773926e-09,7857,1,,,,,,
85,0.0,0.0,0.0,0.0,9315.0,0.0,-7.586183629297521e-12,3.081485005439155e-09,1.1920928955078125e-07,-2.384185791015625e-07,7857,3,,,,,,
86,0.0,0.0,0.0,0.0,9315.0,0.0,-2.2758550887892565e-11,1.7142341208612786e-09,2.9802322387695312e-08,-1.1920928955078125e-07,7857,3,,,,,,
87,0.0,0.0,0.0,0.0,9315.0,0.0,1.5172367258595042e-11,1.3447888016236678e-09,1.1920928955078125e-07,0.0,7857,1,,,,,,
88,0.0,0.0,0.0,0.0,9315.0,0.0,5.689637721973141e-12,7.703525750139465e-10,5.960464477539063e-08,-2.9802322387695312e-08,7857,3,,,,,,
89,0.0,0.0,0.0,0.0,9315.0,0.0,4.7413647683109505e-12,7.56476985149403e-10,5.960464477539063e-08,-2.9802322387695312e-08,7857,3,,,,,,
90,0.0,0.0,0.0,0.0,9315.0,0.0,6.637910675635331e-12,6.776377370219045e-10,5.960464477539063e-08,-7.450580596923828e-09,7857,2,,,,,,
91,0.0,0.0,0.0,0.0,9315.0,0.0,0.0,0.0,0.0,0.0,7857,0,,,,,,
92,0.0,0.0,0.0,0.0,9315.0,0.0,5.689637721973141e-12,1.6894679612104014e-09,1.1920928955078125e-07,-5.960464477539063e-08,7857,5,,,,,,
93,0.0,0.0,0.0,0.0,9315.0,0.0,-3.7930918146487606e-12,3.3619720040591694e-10,0.0,-2.9802322387695312e-08,7857,1,,,,,,
94,0.0,0.0,0.0,0.0,9315.0,0.0,3.7930918146487606e-12,3.36197200405917e-10,2.9802322387695312e-08,0.0,7857,1,,,,,,
95,0.0,0.0,0.0,0.0,9315.0,0.0,1.1379275443946282e-11,7.517215160029836e-10,5.960464477539063e-08,0.0,7857,2,,,,,,
96,0.0,0.0,0.0,0.0,9315.0,0.0,-2.2758550887892565e-11,2.7724361697953014e-09,5.960464477539063e-08,-2.384185791015625e-07,7857,2,,,,,,
97,,,,,,,1.8965459073243803e-12,1.680986002029585e-10,1.4901161193847656e-08,0.0,7857,1,,,,,,
98,,,,,,,-7.586183629297521e-12,6.723944008118339e-10,0.0,-5.960464477539063e-08,7857,1,,,,,,
99,,,,,,,1.7068913165919424e-11,1.3552330095524374e-09,1.1920928955078125e-07,0.0,7857,2,,,,,,
100,,,,,,,1.8965459073243803e-12,1.680986002029585e-10,1.4901161193847656e-08,0.0,7857,1,,,,,,
101,,,,,,,0.0,0.0,0.0,0.0,7857,0,,,,,,
102,,,,,,,0.0,0.0,0.0,0.0,7857,0,,,,,,
103,,,,,,,0.0,0.0,0.0,0.0,7857,0,,,,,,
104,,,,,,,0.0,0.0,0.0,0.0,7857,0,,,,,,
105,,,,,,,0.0,0.0,0.0,0.0,7857,0,,,,,,
106,,,,,,,0.0,0.0,0.0,0.0,7857,0,,,,,,
107,,,,,,,0.0,0.0,0.0,0.0,7857,0,,,,,,
108,,,,,,,0.0,0.0,0.0,0.0,7857,0,,,,,,
109,,,,,,,0.0,0.0,0.0,0.0,7857,0,,,,,,
110,,,,,,,0.0,0.0,0.0,0.0,7857,0,,,,,,
111,,,,,,,0.0,0.0,0.0,0.0,7857,0,,,,,,
112,,,,,,,0.0,0.0,0.0,0.0,7857,0,,,,,,
113,,,,,,,0.0,0.0,0.0,0.0,7857,0,,,,,,
114,,,,,,,0.0,0.0,0.0,0.0,7857,0,,,,,,
