,sag_mean,sag_std,sag_max,sag_min,sag_nb_elements,sag_non_zero_elements,hor_mean,hor_std,hor_max,hor_min,hor_nb_elements,hor_non_zero_elements,frt_mean,frt_std,frt_max,frt_min,frt_nb_elements,frt_non_zero_elements
0,0.0,0.0,0.0,0.0,9315.0,0.0,0.0,0.0,0.0,0.0,7857,0,0.0,0.0,0.0,0.0,11155.0,0.0
1,0.0,0.0,0.0,0.0,9315.0,0.0,0.0,0.0,0.0,0.0,7857,0,0.0,0.0,0.0,0.0,11155.0,0.0
2,0.0,0.0,0.0,0.0,9315.0,0.0,0.0,0.0,0.0,0.0,7857,0,0.0,0.0,0.0,0.0,11155.0,0.0
3,0.0,0.0,0.0,0.0,9315.0,0.0,0.0,0.0,0.0,0.0,7857,0,0.0,0.0,0.0,0.0,11155.0,0.0
4,0.0,0.0,0.0,0.0,9315.0,0.0,0.0,0.0,0.0,0.0,7857,0,0.0,0.0,0.0,0.0,11155.0,0.0
5,0.0,0.0,0.0,0.0,9315.0,0.0,0.0,0.0,0.0,0.0,7857,0,0.0,0.0,0.0,0.0,11155.0,0.0
6,0.0,0.0,0.0,0.0,9315.0,0.0,0.0,0.0,0.0,0.0,7857,0,0.0,0.0,0.0,0.0,11155.0,0.0
7,0.0,0.0,0.0,0.0,9315.0,0.0,0.0,0.0,0.0,0.0,7857,0,0.0,0.0,0.0,0.0,11155.0,0.0
8,0.0,0.0,0.0,0.0,9315.0,0.0,0.0,0.0,0.0,0.0,7857,0,0.0,0.0,0.0,0.0,11155.0,0.0
9,0.0,0.0,0.0,0.0,9315.0,0.0,0.0,0.0,0.0,0.0,7857,0,0.0,0.0,0.0,0.0,11155.0,0.0
10,0.0,0.0,0.0,0.0,9315.0,0.0,0.0,0.0,0.0,0.0,7857,0,0.0,0.0,0.0,0.0,11155.0,0.0
11,0.0,0.0,0.0,0.0,9315.0,0.0,0.0,0.0,0.0,0.0,7857,0,0.0,0.0,0.0,0.0,11155.0,0.0
12,0.0,0.0,0.0,0.0,9315.0,0.0,0.0,0.0,0.0,0.0,7857,0,0.0,0.0,0.0,0.0,11155.0,0.0
13,0.0,0.0,0.0,0.0,9315.0,0.0,0.0,0.0,0.0,0.0,7857,0,0.0,0.0,0.0,0.0,11155.0,0.0
14,0.0,0.0,0.0,0.0,9315.0,0.0,0.0,0.0,0.0,0.0,7857,0,0.0,0.0,0.0,0.0,11155.0,0.0
15,0.0,0.0,0.0,0.0,9315.0,0.0,1.0363030284965586e-06,3.12177885493729e-05,0.0011739730834960938,0.0,7857,9,0.0,0.0,0.0,0.0,11155.0,0.0
16,0.0,0.0,0.0,0.0,9315.0,0.0,1.437703176689949e-06,3.213137637294423e-05,0.0009515285491943359,0.0,7857,17,0.0,0.0,0.0,0.0,11155.0,0.0
17,0.0,0.0,0.0,0.0,9315.0,0.0,1.3803516284524598e-06,2.616891202434536e-05,0.0006995201110839844,-0.00016951560974121094,7857,32,0.0,0.0,0.0,0.0,11155.0,0.0
18,0.0,0.0,0.0,0.0,9315.0,0.0,8.992055179478938e-07,2.1576736669964153e-05,0.0006761550903320312,-0.0002818107604980469,7857,40,0.0,0.0,0.0,0.0,11155.0,0.0
19,0.0,0.0,0.0,0.0,9315.0,0.0,1.0411278412847919e-07,1.7602463382623243e-05,0.0006413459777832031,-0.00039124488830566406,7857,33,0.0,0.0,0.0,0.0,11155.0,0.0
20,0.0,0.0,0.0,0.0,9315.0,0.0,9.473626116266745e-08,1.0229083645835104e-05,0.0004127025604248047,-0.00039267539978027344,7857,17,0.0,0.0,0.0,0.0,11155.0,0.0
21,0.0,0.0,0.0,0.0,9315.0,0.0,7.061219722150132e-08,5.100492681799392e-06,0.0002377033233642578,-0.0001862049102783203,7857,9,0.0,0.0,0.0,0.0,11155.0,0.0
22,0.0,0.0,0.0,0.0,9315.0,0.0,2.9130945136502483e-08,2.218546636629133e-06,0.00015664100646972656,-3.981590270996094e-05,7857,3,0.0,0.0,0.0,0.0,11155.0,0.0
23,0.0,0.0,0.0,0.0,9315.0,0.0,0.0,0.0,0.0,0.0,7857,0,0.0,0.0,0.0,0.0,11155.0,0.0
24,5.444082852914905e-07,2.165055063527513e-05,2.165055063527513e-05,0.0,9315.0,6.0,0.0,0.0,0.0,0.0,7857,0,0.0,0.0,0.0,0.0,11155.0,0.0
25,7.315342361032483e-07,2.1822954499725138e-05,2.1822954499725138e-05,0.0,9315.0,11.0,0.0,0.0,0.0,0.0,7857,0,0.0,0.0,0.0,0.0,11155.0,0.0
26,6.389822680913052e-07,1.719997179449409e-05,1.719997179449409e-05,0.0,9315.0,16.0,0.0,0.0,0.0,0.0,7857,0,0.0,0.0,0.0,0.0,11155.0,0.0
27,3.412597869201431e-07,9.570379457695239e-06,9.570379457695239e-06,-1.2159347534179688e-05,9315.0,18.0,0.0,0.0,0.0,0.0,7857,0,-7.192097881459057e-08,7.20965675528311e-06,0.0003669261932373047,-0.00039124488830566406,11155.0,8.0
28,2.1901747518755452e-07,7.350958759904381e-06,7.350958759904381e-06,0.0,9315.0,10.0,0.0,0.0,0.0,0.0,7857,0,4.082290327960416e-08,1.3788512412227554e-05,0.0006582736968994141,-0.00039267539978027344,11155.0,18.0
29,2.864094364086403e-08,2.764110746819136e-06,2.764110746819136e-06,0.0,9315.0,1.0,0.0,0.0,0.0,0.0,7857,0,2.8456342108096843e-07,1.4270539338867835e-05,0.0007708072662353516,-0.0002675056457519531,11155.0,18.0
30,0.0,0.0,0.0,0.0,9315.0,0.0,0.0,0.0,0.0,0.0,7857,0,8.130169726978337e-07,2.342637764252477e-05,0.001046895980834961,-0.00019812583923339844,11155.0,31.0
31,0.0,0.0,0.0,0.0,9315.0,0.0,0.0,0.0,0.0,0.0,7857,0,1.0008878207751744e-06,2.731207259152268e-05,0.0011739730834960938,-0.0001823902130126953,11155.0,39.0
32,0.0,0.0,0.0,0.0,9315.0,0.0,0.0,0.0,0.0,0.0,7857,0,7.795892131536972e-07,2.1339678926669397e-05,0.0010297298431396484,-0.0001862049102783203,11155.0,28.0
33,1.3309464426496242e-08,8.028330864489254e-06,8.028330864489254e-06,-0.0003714561462402344,9315.0,8.0,0.0,0.0,0.0,0.0,7857,0,4.856215630449665e-07,1.4156131470112914e-05,0.0005052089691162109,0.0,11155.0,14.0
34,1.4100353754916886e-07,1.5428538124936754e-05,1.5428538124936754e-05,-0.00039267539978027344,9315.0,18.0,0.0,0.0,0.0,0.0,7857,0,2.2589385589640647e-07,1.1950760148708695e-05,0.0006761550903320312,0.0,11155.0,4.0
35,5.981324503515206e-07,2.269938205283198e-05,2.269938205283198e-05,-0.000370025634765625,9315.0,22.0,0.0,0.0,0.0,0.0,7857,0,0.0,0.0,0.0,0.0,11155.0,0.0
36,9.167405526227229e-07,2.6893473435945763e-05,2.6893473435945763e-05,-0.00021982192993164062,9315.0,20.0,0.0,0.0,0.0,0.0,7857,0,0.0,0.0,0.0,0.0,11155.0,0.0
37,9.238048068183248e-07,2.610473716883245e-05,2.610473716883245e-05,0.0,9315.0,14.0,0.0,0.0,0.0,0.0,7857,0,0.0,0.0,0.0,0.0,11155.0,0.0
38,3.702334671716695e-07,1.6164202839625257e-05,1.6164202839625257e-05,0.0,9315.0,5.0,0.0,0.0,0.0,0.0,7857,0,0.0,0.0,0.0,0.0,11155.0,0.0
39,0.0,0.0,0.0,0.0,9315.0,0.0,0.0,0.0,0.0,0.0,7857,0,0.0,0.0,0.0,0.0,11155.0,0.0
40,0.0,0.0,0.0,0.0,9315.0,0.0,0.0,0.0,0.0,0.0,7857,0,0.0,0.0,0.0,0.0,11155.0,0.0
41,0.0,0.0,0.0,0.0,9315.0,0.0,0.0,0.0,0.0,0.0,7857,0,0.0,0.0,0.0,0.0,11155.0,0.0
42,0.0,0.0,0.0,0.0,9315.0,0.0,0.0,0.0,0.0,0.0,7857,0,0.0,0.0,0.0,0.0,11155.0,0.0
43,0.0,0.0,0.0,0.0,9315.0,0.0,0.0,0.0,0.0,0.0,7857,0,0.0,0.0,0.0,0.0,11155.0,0.0
44,0.0,0.0,0.0,0.0,9315.0,0.0,0.0,0.0,0.0,0.0,7857,0,0.0,0.0,0.0,0.0,11155.0,0.0
45,0.0,0.0,0.0,0.0,9315.0,0.0,0.0,0.0,0.0,0.0,7857,0,0.0,0.0,0.0,0.0,11155.0,0.0
46,0.0,0.0,0.0,0.0,9315.0,0.0,0.0,0.0,0.0,0.0,7857,0,0.0,0.0,0.0,0.0,11155.0,0.0
47,0.0,0.0,0.0,0.0,9315.0,0.0,0.0,0.0,0.0,0.0,7857,0,0.0,0.0,0.0,0.0,11155.0,0.0
48,0.0,0.0,0.0,0.0,9315.0,0.0,0.0,0.0,0.0,0.0,7857,0,0.0,0.0,0.0,0.0,11155.0,0.0
49,0.0,0.0,0.0,0.0,9315.0,0.0,0.0,0.0,0.0,0.0,7857,0,0.0,0.0,0.0,0.0,11155.0,0.0
50,0.0,0.0,0.0,0.0,9315.0,0.0,3.626802669494559e-07,1.6167974684051608e-05,0.0008230209350585938,0.0,7857,4,0.0,0.0,0.0,0.0,11155.0,0.0
51,0.0,0.0,0.0,0.0,9315.0,0.0,1.2836733042806921e-06,2.5125167030950703e-05,0.0008873939514160156,0.0,7857,25,0.0,0.0,0.0,0.0,11155.0,0.0
52,0.0,0.0,0.0,0.0,9315.0,0.0,8.258622946198454e-07,2.1680078278837987e-05,0.0009768009185791016,0.0,7857,20,0.0,0.0,0.0,0.0,11155.0,0.0
53,0.0,0.0,0.0,0.0,9315.0,0.0,4.962577882941267e-07,1.700143752760299e-05,0.0009791851043701172,-1.2159347534179688e-05,7857,13,0.0,0.0,0.0,0.0,11155.0,0.0
54,0.0,0.0,0.0,0.0,9315.0,0.0,0.0,0.0,0.0,0.0,7857,0,0.0,0.0,0.0,0.0,11155.0,0.0
55,5.1087867298627886e-08,3.172025323318345e-06,3.172025323318345e-06,0.0,9315.0,3.0,0.0,0.0,0.0,0.0,7857,0,0.0,0.0,0.0,0.0,11155.0,0.0
56,2.9319214424137394e-07,1.0504138651402576e-05,1.0504138651402576e-05,-6.818771362304688e-05,9315.0,12.0,0.0,0.0,0.0,0.0,7857,0,0.0,0.0,0.0,0.0,11155.0,0.0
57,4.97901945170445e-07,1.5210063791311087e-05,1.5210063791311087e-05,-0.00019812583923339844,9315.0,19.0,0.0,0.0,0.0,0.0,7857,0,7.769175571799011e-08,4.749985324958503e-06,0.0003180503845214844,0.0,11155.0,3.0
58,3.6780193040144424e-07,1.2134528757418471e-05,1.2134528757418471e-05,-0.00012946128845214844,9315.0,21.0,0.0,0.0,0.0,0.0,7857,0,1.9759567582195834e-07,8.821776238957583e-06,0.0005309581756591797,0.0,11155.0,6.0
59,8.802163108215496e-08,7.563364262406678e-06,7.563364262406678e-06,-0.0001862049102783203,9315.0,16.0,0.0,0.0,0.0,0.0,7857,0,3.8608634808521964e-07,1.414555700125601e-05,0.0008077621459960938,0.0,11155.0,10.0
60,1.5357074338264896e-10,1.0830429719587248e-06,1.0830429719587248e-06,-7.319450378417969e-05,9315.0,2.0,0.0,0.0,0.0,0.0,7857,0,5.879353002174614e-07,1.994543636437641e-05,0.0009791851043701172,0.0,11155.0,14.0
61,0.0,0.0,0.0,0.0,9315.0,0.0,0.0,0.0,0.0,0.0,7857,0,5.342243285202648e-07,1.7451827341892843e-05,0.0008242130279541016,-1.2159347534179688e-05,11155.0,16.0
62,0.0,0.0,0.0,0.0,9315.0,0.0,0.0,0.0,0.0,0.0,7857,0,2.707563030083903e-07,1.2373802405718243e-05,0.0008230209350585938,-5.245208740234375e-06,11155.0,10.0
63,0.0,0.0,0.0,0.0,9315.0,0.0,0.0,0.0,0.0,0.0,7857,0,3.6548253721530427e-08,2.904258387078057e-06,0.0002963542938232422,0.0,11155.0,3.0
64,0.0,0.0,0.0,0.0,9315.0,0.0,0.0,0.0,0.0,0.0,7857,0,0.0,0.0,0.0,0.0,11155.0,0.0
65,0.0,0.0,0.0,0.0,9315.0,0.0,0.0,0.0,0.0,0.0,7857,0,0.0,0.0,0.0,0.0,11155.0,0.0
66,0.0,0.0,0.0,0.0,9315.0,0.0,0.0,0.0,0.0,0.0,7857,0,0.0,0.0,0.0,0.0,11155.0,0.0
67,0.0,0.0,0.0,0.0,9315.0,0.0,0.0,0.0,0.0,0.0,7857,0,0.0,0.0,0.0,0.0,11155.0,0.0
68,0.0,0.0,0.0,0.0,9315.0,0.0,0.0,0.0,0.0,0.0,7857,0,0.0,0.0,0.0,0.0,11155.0,0.0
69,0.0,0.0,0.0,0.0,9315.0,0.0,0.0,0.0,0.0,0.0,7857,0,0.0,0.0,0.0,0.0,11155.0,0.0
70,0.0,0.0,0.0,0.0,9315.0,0.0,0.0,0.0,0.0,0.0,7857,0,0.0,0.0,0.0,0.0,11155.0,0.0
71,0.0,0.0,0.0,0.0,9315.0,0.0,0.0,0.0,0.0,0.0,7857,0,0.0,0.0,0.0,0.0,11155.0,0.0
72,0.0,0.0,0.0,0.0,9315.0,0.0,0.0,0.0,0.0,0.0,7857,0,0.0,0.0,0.0,0.0,11155.0,0.0
73,0.0,0.0,0.0,0.0,9315.0,0.0,0.0,0.0,0.0,0.0,7857,0,0.0,0.0,0.0,0.0,11155.0,0.0
74,0.0,0.0,0.0,0.0,9315.0,0.0,0.0,0.0,0.0,0.0,7857,0,0.0,0.0,0.0,0.0,11155.0,0.0
75,0.0,0.0,0.0,0.0,9315.0,0.0,0.0,0.0,0.0,0.0,7857,0,0.0,0.0,0.0,0.0,11155.0,0.0
76,0.0,0.0,0.0,0.0,9315.0,0.0,0.0,0.0,0.0,0.0,7857,0,0.0,0.0,0.0,0.0,11155.0,0.0
77,0.0,0.0,0.0,0.0,9315.0,0.0,0.0,0.0,0.0,0.0,7857,0,0.0,0.0,0.0,0.0,11155.0,0.0
78,0.0,0.0,0.0,0.0,9315.0,0.0,0.0,0.0,0.0,0.0,7857,0,0.0,0.0,0.0,0.0,11155.0,0.0
79,0.0,0.0,0.0,0.0,9315.0,0.0,0.0,0.0,0.0,0.0,7857,0,0.0,0.0,0.0,0.0,11155.0,0.0
80,0.0,0.0,0.0,0.0,9315.0,0.0,0.0,0.0,0.0,0.0,7857,0,0.0,0.0,0.0,0.0,11155.0,0.0
81,0.0,0.0,0.0,0.0,9315.0,0.0,0.0,0.0,0.0,0.0,7857,0,,,,,,
82,0.0,0.0,0.0,0.0,9315.0,0.0,0.0,0.0,0.0,0.0,7857,0,,,,,,
83,0.0,0.0,0.0,0.0,9315.0,0.0,0.0,0.0,0.0,0.0,7857,0,,,,,,
84,0.0,0.0,0.0,0.0,9315.0,0.0,0.0,0.0,0.0,0.0,7857,0,,,,,,
85,0.0,0.0,0.0,0.0,9315.0,0.0,0.0,0.0,0.0,0.0,7857,0,,,,,,
86,0.0,0.0,0.0,0.0,9315.0,0.0,0.0,0.0,0.0,0.0,7857,0,,,,,,
87,0.0,0.0,0.0,0.0,9315.0,0.0,0.0,0.0,0.0,0.0,7857,0,,,,,,
88,0.0,0.0,0.0,0.0,9315.0,0.0,0.0,0.0,0.0,0.0,7857,0,,,,,,
89,0.0,0.0,0.0,0.0,9315.0,0.0,0.0,0.0,0.0,0.0,7857,0,,,,,,
90,0.0,0.0,0.0,0.0,9315.0,0.0,0.0,0.0,0.0,0.0,7857,0,,,,,,
91,0.0,0.0,0.0,0.0,9315.0,0.0,0.0,0.0,0.0,0.0,7857,0,,,,,,
92,0.0,0.0,0.0,0.0,9315.0,0.0,0.0,0.0,0.0,0.0,7857,0,,,,,,
93,0.0,0.0,0.0,0.0,9315.0,0.0,0.0,0.0,0.0,0.0,7857,0,,,,,,
94,0.0,0.0,0.0,0.0,9315.0,0.0,0.0,0.0,0.0,0.0,7857,0,,,,,,
95,0.0,0.0,0.0,0.0,9315.0,0.0,0.0,0.0,0.0,0.0,7857,0,,,,,,
96,0.0,0.0,0.0,0.0,9315.0,0.0,0.0,0.0,0.0,0.0,7857,0,,,,,,
97,,,,,,,0.0,0.0,0.0,0.0,7857,0,,,,,,
98,,,,,,,0.0,0.0,0.0,0.0,7857,0,,,,,,
99,,,,,,,0.0,0.0,0.0,0.0,7857,0,,,,,,
100,,,,,,,0.0,0.0,0.0,0.0,7857,0,,,,,,
101,,,,,,,0.0,0.0,0.0,0.0,7857,0,,,,,,
102,,,,,,,0.0,0.0,0.0,0.0,7857,0,,,,,,
103,,,,,,,0.0,0.0,0.0,0.0,7857,0,,,,,,
104,,,,,,,0.0,0.0,0.0,0.0,7857,0,,,,,,
105,,,,,,,0.0,0.0,0.0,0.0,7857,0,,,,,,
106,,,,,,,0.0,0.0,0.0,0.0,7857,0,,,,,,
107,,,,,,,0.0,0.0,0.0,0.0,7857,0,,,,,,
108,,,,,,,0.0,0.0,0.0,0.0,7857,0,,,,,,
109,,,,,,,0.0,0.0,0.0,0.0,7857,0,,,,,,
110,,,,,,,0.0,0.0,0.0,0.0,7857,0,,,,,,
111,,,,,,,0.0,0.0,0.0,0.0,7857,0,,,,,,
112,,,,,,,0.0,0.0,0.0,0.0,7857,0,,,,,,
113,,,,,,,0.0,0.0,0.0,0.0,7857,0,,,,,,
114,,,,,,,0.0,0.0,0.0,0.0,7857,0,,,,,,
