,sag_mean,sag_std,sag_max,sag_min,sag_nb_elements,sag_non_zero_elements,hor_mean,hor_std,hor_max,hor_min,hor_nb_elements,hor_non_zero_elements,frt_mean,frt_std,frt_max,frt_min,frt_nb_elements,frt_non_zero_elements
0,0.0,0.0,0.0,0.0,9315.0,0.0,0.0,0.0,0.0,0.0,7857,0,0.0,0.0,0.0,0.0,11155.0,0.0
1,0.0,0.0,0.0,0.0,9315.0,0.0,0.0,0.0,0.0,0.0,7857,0,0.0,0.0,0.0,0.0,11155.0,0.0
2,0.0,0.0,0.0,0.0,9315.0,0.0,0.0,0.0,0.0,0.0,7857,0,0.0,0.0,0.0,0.0,11155.0,0.0
3,0.0,0.0,0.0,0.0,9315.0,0.0,0.0,0.0,0.0,0.0,7857,0,0.0,0.0,0.0,0.0,11155.0,0.0
4,0.0,0.0,0.0,0.0,9315.0,0.0,0.0,0.0,0.0,0.0,7857,0,0.0,0.0,0.0,0.0,11155.0,0.0
5,0.0,0.0,0.0,0.0,9315.0,0.0,0.0,0.0,0.0,0.0,7857,0,0.0,0.0,0.0,0.0,11155.0,0.0
6,0.0,0.0,0.0,0.0,9315.0,0.0,0.0,0.0,0.0,0.0,7857,0,0.0,0.0,0.0,0.0,11155.0,0.0
7,0.0,0.0,0.0,0.0,9315.0,0.0,0.0,0.0,0.0,0.0,7857,0,0.0,0.0,0.0,0.0,11155.0,0.0
8,0.0,0.0,0.0,0.0,9315.0,0.0,0.0,0.0,0.0,0.0,7857,0,0.0,0.0,0.0,0.0,11155.0,0.0
9,0.0,0.0,0.0,0.0,9315.0,0.0,0.0,0.0,0.0,0.0,7857,0,0.0,0.0,0.0,0.0,11155.0,0.0
10,0.0,0.0,0.0,0.0,9315.0,0.0,0.0,0.0,0.0,0.0,7857,0,-5.343311947592167e-12,5.643205291124561e-10,0.0,-5.960464477539063e-08,11155.0,1.0
11,-6.398780974277039e-12,6.175403813268846e-10,6.175403813268846e-10,-5.960464477539063e-08,9315.0,1.0,0.0,0.0,0.0,0.0,7857,0,6.679139934490209e-12,1.2054247072178542e-09,1.1920928955078125e-07,-4.470348358154297e-08,11155.0,2.0
12,0.0,0.0,0.0,0.0,9315.0,0.0,0.0,0.0,0.0,0.0,7857,0,0.0,0.0,0.0,0.0,11155.0,0.0
13,1.2997523854000236e-11,1.2352294484492015e-09,1.2352294484492015e-09,0.0,9315.0,2.0,0.0,0.0,0.0,0.0,7857,0,2.270907577726671e-11,1.6987541261407871e-09,1.341104507446289e-07,0.0,11155.0,2.0
14,0.0,0.0,0.0,0.0,9315.0,0.0,0.0,0.0,0.0,0.0,7857,0,-1.0686623895184334e-11,1.1286410582249123e-09,0.0,-1.1920928955078125e-07,11155.0,1.0
15,-1.119786670498482e-11,1.909707846937894e-09,1.909707846937894e-09,-1.1920928955078125e-07,9315.0,4.0,0.0,0.0,0.0,0.0,7857,0,0.0,0.0,0.0,0.0,11155.0,0.0
16,7.598552406953984e-12,4.3832707853589796e-10,4.3832707853589796e-10,0.0,9315.0,3.0,0.0,0.0,0.0,0.0,7857,0,0.0,7.981055200414689e-10,5.960464477539063e-08,-5.960464477539063e-08,11155.0,2.0
17,-6.398780974277039e-12,6.175403813268846e-10,6.175403813268846e-10,-5.960464477539063e-08,9315.0,1.0,-6.4008424372197835e-12,5.673327756849847e-10,0.0,-5.029141902923584e-08,7857,1,4.2746495580737336e-11,4.514564232899648e-09,4.76837158203125e-07,0.0,11155.0,1.0
18,7.9984762178463e-12,1.3191133925544644e-09,1.3191133925544644e-09,-4.470348358154297e-08,9315.0,2.0,0.0,0.0,0.0,0.0,7857,0,-6.679139934490209e-12,5.816760161895004e-10,0.0,-5.960464477539063e-08,11155.0,2.0
19,-1.9596266733723435e-11,2.504060723484579e-09,2.504060723484579e-09,-2.384185791015625e-07,9315.0,3.0,0.0,0.0,0.0,0.0,7857,0,-5.343311947592167e-12,5.64320529112456e-10,0.0,-5.960464477539063e-08,11155.0,1.0
20,-7.1986285960616695e-12,2.922270843421479e-09,2.922270843421479e-09,-2.384185791015625e-07,9315.0,3.0,0.0,0.0,0.0,0.0,7857,0,5.343311947592167e-12,9.774610379439302e-10,5.960464477539063e-08,-5.960464477539063e-08,11155.0,3.0
21,-1.919634292283112e-11,1.8526211439806542e-09,1.8526211439806542e-09,-1.1920928955078125e-07,9315.0,3.0,0.0,0.0,0.0,0.0,7857,0,-3.072404369865496e-11,1.6868688567940805e-09,4.470348358154297e-08,-1.1920928955078125e-07,11155.0,8.0
22,0.0,0.0,0.0,0.0,9315.0,0.0,2.2758550887892565e-11,1.5034430320059672e-09,1.1920928955078125e-07,0.0,7857,2,2.6716559737960835e-12,2.3859869815278313e-09,1.1920928955078125e-07,-1.1920928955078125e-07,11155.0,9.0
23,-2.5595123897108158e-11,1.746574196926995e-09,1.746574196926995e-09,-1.1920928955078125e-07,9315.0,2.0,7.586183629297521e-12,1.1646706792451805e-09,5.960464477539063e-08,-5.960464477539063e-08,7857,3,1.0686623895184334e-11,7.980339699476375e-10,5.960464477539063e-08,0.0,11155.0,2.0
24,1.4397257192123339e-11,3.122379740412308e-09,3.122379740412308e-09,-1.1920928955078125e-07,9315.0,5.0,3.7930918146487604e-11,2.0169549497385965e-09,1.1920928955078125e-07,0.0,7857,3,-1.0018709901735313e-11,2.905987018611869e-09,8.940696716308594e-08,-2.384185791015625e-07,11155.0,9.0
25,-1.7596647679261858e-11,3.227475445225746e-09,3.227475445225746e-09,-1.1920928955078125e-07,9315.0,6.0,9.103420355157026e-11,6.013772128023869e-09,4.76837158203125e-07,0.0,7857,2,-3.2059871685553004e-11,2.7645327305126035e-09,1.1920928955078125e-07,-2.384185791015625e-07,11155.0,6.0
26,-2.239573340996964e-11,1.4148614888756467e-09,1.4148614888756467e-09,-1.1920928955078125e-07,9315.0,3.0,2.2758550887892565e-11,2.0171832024355014e-09,1.7881393432617188e-07,0.0,7857,1,4.80898075283295e-11,5.067113388985747e-09,4.76837158203125e-07,-1.1920928955078125e-07,11155.0,7.0
27,1.7596647679261858e-11,3.182852486262857e-09,3.182852486262857e-09,-1.1920928955078125e-07,9315.0,6.0,1.5172367258595042e-11,2.1918245747069086e-09,1.341104507446289e-07,-1.1920928955078125e-07,7857,4,1.0686623895184334e-11,3.827564693358557e-09,2.384185791015625e-07,-1.1920928955078125e-07,11155.0,7.0
28,-1.119786670498482e-11,6.36481729065356e-10,6.36481729065356e-10,-4.470348358154297e-08,9315.0,3.0,-2.8448188609865706e-11,1.909142655812469e-09,1.4901161193847656e-08,-1.1920928955078125e-07,7857,3,-2.6716559737960835e-12,3.2296154969446786e-09,1.4901161193847656e-07,-2.384185791015625e-07,11155.0,8.0
29,-6.398780974277039e-12,6.175403813268846e-10,6.175403813268846e-10,-5.960464477539063e-08,9315.0,1.0,4.030160053064308e-11,2.899605338540458e-09,1.1920928955078125e-07,-8.940696716308594e-08,7857,8,1.8367634819848075e-11,2.9257859842374055e-09,2.384185791015625e-07,-1.1920928955078125e-07,11155.0,9.0
30,-9.59817146141556e-12,1.2731242711203285e-09,1.2731242711203285e-09,-1.1920928955078125e-07,9315.0,2.0,-3.0344734517190084e-11,3.6521427572904893e-09,1.1920928955078125e-07,-2.384185791015625e-07,7857,6,-1.6363892839501012e-11,2.7988830898662586e-09,1.1920928955078125e-07,-2.384185791015625e-07,11155.0,5.0
31,-5.518948590313947e-11,4.0764596379187415e-09,4.0764596379187415e-09,-2.384185791015625e-07,9315.0,5.0,4.9310193590433886e-11,3.7587147594748915e-09,2.384185791015625e-07,-1.1920928955078125e-07,7857,6,-2.204116178381769e-11,2.2451177560904174e-09,1.1920928955078125e-07,-1.1175870895385742e-07,11155.0,7.0
32,3.99923810892315e-11,2.817130999032876e-09,2.817130999032876e-09,-2.9802322387695312e-08,9315.0,4.0,5.689637721973141e-11,3.1713695648282827e-09,2.384185791015625e-07,0.0,7857,3,3.50654846560736e-12,1.1232999156276886e-09,5.960464477539063e-08,-5.960464477539063e-08,11155.0,5.0
33,1.59969524356926e-11,1.2730599483621507e-09,1.2730599483621507e-09,0.0,9315.0,2.0,2.607750622571023e-11,2.0384833804430474e-09,1.7881393432617188e-07,0.0,7857,2,6.211600139075894e-11,3.3269375958053015e-09,2.384185791015625e-07,-2.9802322387695312e-08,11155.0,9.0
34,5.7589028768493356e-11,4.978703933418888e-09,4.978703933418888e-09,0.0,9315.0,2.0,-1.3275821351270662e-11,4.335113998096043e-09,2.384185791015625e-07,-2.384185791015625e-07,7857,6,-2.0371376800195137e-11,2.0761371896894854e-09,5.960464477539063e-08,-1.1920928955078125e-07,11155.0,10.0
35,1.039801908320019e-11,1.2754562889341138e-09,1.2754562889341138e-09,-5.960464477539063e-08,9315.0,6.0,-1.5172367258595042e-11,1.6470581294607502e-09,5.960464477539063e-08,-1.1920928955078125e-07,7857,3,7.01309693121472e-12,1.853341404284438e-09,1.1920928955078125e-07,-8.940696716308594e-08,11155.0,7.0
36,1.919634292283112e-11,1.0003993208752097e-09,1.0003993208752097e-09,0.0,9315.0,4.0,3.7930918146487604e-11,2.604061817973222e-09,1.7881393432617188e-07,-5.960464477539063e-08,7857,4,-2.149848166414036e-11,2.777461928407804e-09,7.450580596923828e-08,-2.384185791015625e-07,11155.0,7.0
37,1.4397257192123339e-11,1.9344899685969123e-09,1.9344899685969123e-09,-1.1920928955078125e-07,9315.0,5.0,9.482729536621901e-12,1.512953970298806e-09,1.1920928955078125e-07,-5.960464477539063e-08,7857,3,1.6029935842776502e-11,2.870639952938275e-09,2.384185791015625e-07,-1.1920928955078125e-07,11155.0,7.0
38,1.2797561948554079e-11,1.8004752960344433e-09,1.8004752960344433e-09,-1.1920928955078125e-07,9315.0,5.0,2.6551642702541325e-11,1.8103978618945131e-09,1.4901161193847656e-07,0.0,7857,2,-1.0686623895184334e-11,2.9945388897389634e-09,1.4901161193847656e-07,-1.6391277313232422e-07,11155.0,15.0
39,2.799466676246205e-12,2.0783960036220063e-10,2.0783960036220063e-10,0.0,9315.0,2.0,-2.1810277934230374e-11,1.9621543337514137e-09,5.960464477539063e-08,-1.1920928955078125e-07,7857,3,2.805238772485888e-11,3.0812470228582492e-09,2.384185791015625e-07,-1.1920928955078125e-07,11155.0,5.0
40,-2.9594362006031306e-11,1.6643954573423421e-09,1.6643954573423421e-09,-1.1920928955078125e-07,9315.0,4.0,-3.413782633183885e-11,2.7104660191048753e-09,0.0,-2.384185791015625e-07,7857,2,4.9425635515227544e-11,3.6706273157170224e-09,2.384185791015625e-07,-1.1920928955078125e-07,11155.0,8.0
41,1.199771432676945e-11,8.349236898666538e-10,8.349236898666538e-10,-2.9802322387695312e-08,9315.0,6.0,1.1379275443946282e-11,3.534277287697653e-09,2.384185791015625e-07,-1.1920928955078125e-07,7857,7,1.6029935842776502e-11,1.3965926681888704e-09,1.1920928955078125e-07,-4.470348358154297e-08,11155.0,6.0
42,3.5193295358523716e-11,2.871667286635049e-09,2.871667286635049e-09,-1.043081283569336e-07,9315.0,6.0,1.469823078176395e-11,1.894904684978613e-09,8.940696716308594e-08,-1.1920928955078125e-07,7857,6,2.5046774754338282e-11,1.466423767918621e-09,1.1920928955078125e-07,-2.9802322387695312e-08,11155.0,7.0
43,-1.5896971482969522e-11,1.4170865645985492e-09,1.4170865645985492e-09,-1.1920928955078125e-07,9315.0,3.0,-1.1142207205530734e-11,3.099833505086622e-09,1.1920928955078125e-07,-2.384185791015625e-07,7857,5,2.404490376416475e-11,3.302661737794886e-09,2.384185791015625e-07,-1.1920928955078125e-07,11155.0,8.0
44,-1.59969524356926e-11,1.543850953317212e-09,1.543850953317212e-09,-1.1920928955078125e-07,9315.0,4.0,4.551710177578513e-11,3.0068860640119343e-09,2.384185791015625e-07,0.0,7857,2,-6.512161436127954e-12,2.20841316620068e-09,1.1920928955078125e-07,-1.1920928955078125e-07,11155.0,8.0
45,0.0,0.0,0.0,0.0,9315.0,0.0,-2.4418028556801398e-11,2.7210582938165354e-09,5.960464477539063e-08,-1.7695128917694092e-07,7857,6,-5.343311947592167e-12,2.586151942710327e-09,1.1920928955078125e-07,-2.384185791015625e-07,11155.0,3.0
46,-1.199771432676945e-12,3.345610344416004e-09,3.345610344416004e-09,-2.384185791015625e-07,9315.0,7.0,-2.6551642702541325e-11,2.5382558738882806e-09,1.1920928955078125e-07,-1.1920928955078125e-07,7857,6,1.402619386242944e-11,2.540497072773842e-09,2.384185791015625e-07,-1.1920928955078125e-07,11155.0,4.0
47,-2.3195581031754268e-11,1.7346247999378817e-09,1.7346247999378817e-09,-1.1920928955078125e-07,9315.0,5.0,3.2241280424514466e-11,6.247162339637367e-09,4.76837158203125e-07,-2.384185791015625e-07,7857,7,-2.588166724614956e-12,2.1292071788015904e-09,1.1920928955078125e-07,-1.1920928955078125e-07,11155.0,6.0
48,9.59817146141556e-12,5.347482354623346e-10,5.347482354623346e-10,0.0,9315.0,3.0,-5.310328540508265e-11,3.0810367459684075e-09,0.0,-2.384185791015625e-07,7857,3,1.2773855124712524e-11,1.787380592859585e-09,1.1920928955078125e-07,-5.960464477539063e-08,11155.0,8.0
49,2.079603816640038e-11,2.624605122088585e-09,2.624605122088585e-09,-1.1920928955078125e-07,9315.0,6.0,0.0,2.4706920155575225e-09,1.1920928955078125e-07,-1.1920928955078125e-07,7857,6,-2.6549581239598582e-11,3.0291896743511387e-09,1.1920928955078125e-07,-2.384185791015625e-07,11155.0,3.0
50,-1.679680005747723e-11,2.0956486983278642e-09,2.0956486983278642e-09,-1.1920928955078125e-07,9315.0,4.0,-1.1379275443946282e-11,1.5407051500278932e-09,5.960464477539063e-08,-1.1920928955078125e-07,7857,3,2.838634472158339e-11,2.340811054578958e-09,1.1920928955078125e-07,-1.1920928955078125e-07,11155.0,7.0
51,-3.19939048713852e-11,1.8524443291923453e-09,1.8524443291923453e-09,-1.1920928955078125e-07,9315.0,3.0,-3.7930918146487606e-12,3.3619720040591694e-10,0.0,-2.9802322387695312e-08,7857,1,4.0074839606941254e-12,1.5773894446441866e-09,1.1920928955078125e-07,-8.940696716308594e-08,11155.0,4.0
52,1.2797561948554079e-11,8.732870984634975e-10,8.732870984634975e-10,0.0,9315.0,2.0,1.94395955500749e-11,1.6539693566993734e-09,1.1920928955078125e-07,-5.960464477539063e-08,7857,5,0.0,3.5243385495512403e-09,2.384185791015625e-07,-2.384185791015625e-07,11155.0,7.0
53,3.839268584566224e-11,2.1389929418493386e-09,2.1389929418493386e-09,0.0,9315.0,3.0,1.4224094304932853e-11,1.588102133940167e-09,1.1920928955078125e-07,-5.960464477539063e-08,7857,4,-5.343311947592167e-12,5.64320529112456e-10,0.0,-5.960464477539063e-08,11155.0,1.0
54,7.1986285960616695e-12,2.3930866080080267e-09,2.3930866080080267e-09,-1.1920928955078125e-07,9315.0,7.0,-3.7930918146487606e-12,1.5407425027195777e-09,5.960464477539063e-08,-1.1920928955078125e-07,7857,3,1.3358279868980419e-11,2.779048787345589e-09,1.7881393432617188e-07,-1.1920928955078125e-07,11155.0,8.0
55,1.6196914341138757e-11,2.7919370827766617e-09,2.7919370827766617e-09,-1.7695128917694092e-07,9315.0,8.0,-5.689637721973141e-12,5.042958006088754e-10,0.0,-4.470348358154297e-08,7857,1,-1.3358279868980419e-11,2.343866184005535e-09,5.960464477539063e-08,-2.384185791015625e-07,11155.0,3.0
56,2.159588578818501e-11,3.018500939329477e-09,3.018500939329477e-09,-1.1920928955078125e-07,9315.0,11.0,7.586183629297521e-12,8.23529064730375e-10,5.960464477539063e-08,-2.9802322387695312e-08,7857,3,1.0686623895184334e-11,1.1286410582249123e-09,1.1920928955078125e-07,0.0,11155.0,1.0
57,1.359740957033871e-11,1.9050056629348363e-09,1.9050056629348363e-09,-5.960464477539063e-08,9315.0,8.0,-1.8965459073243803e-12,7.703712513597888e-10,2.9802322387695312e-08,-5.960464477539063e-08,7857,3,1.6029935842776502e-11,1.2135657233946627e-09,1.1920928955078125e-07,0.0,11155.0,3.0
58,9.59817146141556e-12,1.4150061754928769e-09,1.4150061754928769e-09,-5.960464477539063e-08,9315.0,3.0,2.3706823841554756e-11,2.018922780692454e-09,1.1920928955078125e-07,-5.960464477539063e-08,7857,4,-1.0686623895184334e-11,1.1590942571124758e-09,2.2351741790771484e-08,-1.1920928955078125e-07,11155.0,4.0
59,3.439344773673909e-11,2.6661389296490736e-09,2.6661389296490736e-09,-2.9802322387695312e-08,9315.0,5.0,1.7068913165919424e-11,2.430267996334359e-09,1.7881393432617188e-07,-1.043081283569336e-07,7857,3,-5.343311947592167e-12,1.6930290440687713e-09,1.1920928955078125e-07,-1.1920928955078125e-07,11155.0,3.0
60,1.59969524356926e-11,2.9130445993042124e-09,2.9130445993042124e-09,-1.1920928955078125e-07,9315.0,5.0,2.1810277934230374e-11,1.699760158391762e-09,1.4901161193847656e-07,0.0,7857,2,1.436015085915395e-11,1.7382981695067305e-09,1.7881393432617188e-07,-3.725290298461914e-08,11155.0,3.0
61,-6.298800021553961e-12,8.699932438817258e-10,8.699932438817258e-10,-5.960464477539063e-08,9315.0,5.0,1.6120640212257233e-11,1.3474021043211044e-09,1.1920928955078125e-07,0.0,7857,2,1.8701591816572585e-11,2.779017966216046e-09,2.384185791015625e-07,-1.1920928955078125e-07,11155.0,4.0
62,1.359740957033871e-11,3.598532673163807e-09,3.598532673163807e-09,-1.1920928955078125e-07,9315.0,9.0,-1.3157287232062888e-11,1.7850308945442203e-09,5.960464477539063e-08,-1.1920928955078125e-07,7857,6,-5.343311947592167e-12,5.64320529112456e-10,0.0,-5.960464477539063e-08,11155.0,1.0
63,1.504713338482335e-11,1.2089286871938138e-09,1.2089286871938138e-09,-4.470348358154297e-08,9315.0,4.0,1.4224094304932853e-12,2.1384429769120156e-09,1.1920928955078125e-07,-1.1920928955078125e-07,7857,6,-1.0686623895184334e-11,1.128641058224912e-09,0.0,-1.1920928955078125e-07,11155.0,1.0
64,3.0394209627815937e-11,2.4941162456720733e-09,2.4941162456720733e-09,0.0,9315.0,3.0,-2.4655096795216943e-11,1.5127827883091486e-09,0.0,-1.1920928955078125e-07,7857,3,-8.014967921388251e-12,8.464807936686842e-10,0.0,-8.940696716308594e-08,11155.0,1.0
65,-2.8794514384246678e-11,1.878055841925101e-09,1.878055841925101e-09,-1.1920928955078125e-07,9315.0,4.0,1.8965459073243803e-12,1.680986002029585e-10,1.4901161193847656e-08,0.0,7857,1,1.6697849836225523e-12,1.763501653476425e-10,1.862645149230957e-08,0.0,11155.0,1.0
66,1.2797561948554079e-11,3.806957415990621e-09,3.806957415990621e-09,-2.384185791015625e-07,9315.0,5.0,1.1379275443946282e-11,7.517215160029836e-10,5.960464477539063e-08,0.0,7857,2,1.3358279868980417e-12,4.232572610171928e-10,2.9802322387695312e-08,-2.9802322387695312e-08,11155.0,3.0
67,2.4395352464431214e-11,1.5169692677235e-09,1.5169692677235e-09,-1.1175870895385742e-08,9315.0,4.0,-1.8965459073243803e-12,1.7551115797179508e-09,1.1920928955078125e-07,-5.960464477539063e-08,7857,5,0.0,0.0,0.0,0.0,11155.0,0.0
68,-5.998857163384725e-13,2.5852968425106087e-09,2.5852968425106087e-09,-1.1920928955078125e-07,9315.0,9.0,4.7413647683109505e-12,6.981942568017958e-10,5.960464477539063e-08,-1.4901161193847656e-08,7857,3,0.0,0.0,0.0,0.0,11155.0,0.0
69,-3.99923810892315e-12,1.7278911774032617e-09,1.7278911774032617e-09,-1.1175870895385742e-07,9315.0,4.0,-2.0862004980568183e-11,2.0519294534553367e-09,5.960464477539063e-08,-1.1920928955078125e-07,7857,5,0.0,0.0,0.0,0.0,11155.0,0.0
70,1.199771432676945e-12,4.004008474492922e-09,4.004008474492922e-09,-2.384185791015625e-07,9315.0,7.0,5.689637721973141e-12,5.042958006088754e-10,4.470348358154297e-08,0.0,7857,1,0.0,0.0,0.0,0.0,11155.0,0.0
71,6.398780974277039e-12,6.175403813268846e-10,6.175403813268846e-10,0.0,9315.0,1.0,-2.93964615635279e-11,1.6055927358096751e-09,4.470348358154297e-08,-5.960464477539063e-08,7857,7,0.0,0.0,0.0,0.0,11155.0,0.0
72,1.4397257192123339e-11,1.7535126379382865e-09,1.7535126379382865e-09,-5.960464477539063e-08,9315.0,6.0,1.7068913165919424e-11,2.810442036674194e-09,2.384185791015625e-07,-5.960464477539063e-08,7857,5,0.0,0.0,0.0,0.0,11155.0,0.0
73,1.7596647679261858e-11,2.5509366540783007e-09,2.5509366540783007e-09,-5.960464477539063e-08,9315.0,3.0,1.5172367258595042e-11,1.7143180486815528e-09,1.1920928955078125e-07,-5.960464477539063e-08,7857,5,0.0,0.0,0.0,0.0,11155.0,0.0
74,1.59969524356926e-11,1.41494830262139e-09,1.41494830262139e-09,-5.960464477539063e-08,9315.0,4.0,-3.271541690134556e-11,3.0747214966607637e-09,4.470348358154297e-08,-2.384185791015625e-07,7857,6,0.0,0.0,0.0,0.0,11155.0,0.0
75,2.5595123897108158e-11,2.4701615253075385e-09,2.4701615253075385e-09,0.0,9315.0,1.0,1.8965459073243802e-11,3.0259079405976114e-09,2.384185791015625e-07,-1.1920928955078125e-07,7857,3,0.0,0.0,0.0,0.0,11155.0,0.0
76,-1.039801908320019e-11,1.2459121679875865e-09,1.2459121679875865e-09,-1.1920928955078125e-07,9315.0,3.0,-2.6551642702541325e-11,1.8103978618945127e-09,5.960464477539063e-08,-1.1920928955078125e-07,7857,5,0.0,0.0,0.0,0.0,11155.0,0.0
77,-3.839268584566224e-11,2.7616059351434945e-09,2.7616059351434945e-09,-2.384185791015625e-07,9315.0,2.0,0.0,0.0,0.0,0.0,7857,0,0.0,0.0,0.0,0.0,11155.0,0.0
78,4.479146681993928e-11,4.9788355141915796e-09,4.9788355141915796e-09,-5.960464477539063e-08,9315.0,2.0,2.6551642702541325e-11,2.9501867370480423e-09,2.384185791015625e-07,-8.940696716308594e-08,7857,3,0.0,0.0,0.0,0.0,11155.0,0.0
79,1.59969524356926e-11,1.1132315864888718e-09,1.1132315864888718e-09,-2.9802322387695312e-08,9315.0,4.0,-1.1379275443946282e-11,2.255394209860761e-09,8.940696716308594e-08,-1.1920928955078125e-07,7857,4,0.0,0.0,0.0,0.0,11155.0,0.0
80,-2.5595123897108158e-11,2.4701615253075385e-09,2.4701615253075385e-09,-2.384185791015625e-07,9315.0,1.0,-2.2758550887892565e-11,2.0171832024355014e-09,5.960464477539063e-08,-1.1920928955078125e-07,7857,3,0.0,0.0,0.0,0.0,11155.0,0.0
81,0.0,0.0,0.0,0.0,9315.0,0.0,1.4224094304932853e-12,9.592904678757676e-10,5.960464477539063e-08,-5.960464477539063e-08,7857,3,,,,,,
82,2.8794514384246678e-11,2.4893519667094443e-09,2.4893519667094443e-09,0.0,9315.0,2.0,2.6551642702541325e-11,3.3112627025924697e-09,2.384185791015625e-07,-1.1920928955078125e-07,7857,4,,,,,,
83,-1.2797561948554079e-11,1.2350807626537692e-09,1.2350807626537692e-09,-1.1920928955078125e-07,9315.0,1.0,-6.637910675635331e-12,7.749171465511853e-10,1.4901161193847656e-08,-6.705522537231445e-08,7857,2,,,,,,
84,0.0,0.0,0.0,0.0,9315.0,0.0,0.0,8.235640051858408e-10,5.960464477539063e-08,-2.9802322387695312e-08,7857,3,,,,,,
85,1.919634292283112e-11,1.8526211439806533e-09,1.8526211439806533e-09,0.0,9315.0,1.0,6.922392561733988e-11,3.621498980328584e-09,2.384185791015625e-07,-5.960464477539063e-08,7857,6,,,,,,
86,0.0,0.0,0.0,0.0,9315.0,0.0,-3.0344734517190084e-11,2.689577603247335e-09,0.0,-2.384185791015625e-07,7857,1,,,,,,
87,0.0,0.0,0.0,0.0,9315.0,0.0,3.9827464053811985e-11,3.895436965685179e-09,2.384185791015625e-07,-1.6391277313232422e-07,7857,6,,,,,,
88,0.0,0.0,0.0,0.0,9315.0,0.0,-5.87929231270558e-11,3.22873893002291e-09,0.0,-2.384185791015625e-07,7857,3,,,,,,
89,0.0,0.0,0.0,0.0,9315.0,0.0,-1.8965459073243802e-11,1.540630441927669e-09,2.9802322387695312e-08,-1.1920928955078125e-07,7857,3,,,,,,
90,0.0,0.0,0.0,0.0,9315.0,0.0,9.30492835781024e-12,8.247337572457654e-10,7.310882210731506e-08,0.0,7857,1,,,,,,
91,0.0,0.0,0.0,0.0,9315.0,0.0,0.0,0.0,0.0,0.0,7857,0,,,,,,
92,0.0,0.0,0.0,0.0,9315.0,0.0,-9.482729536621901e-13,1.1055658934410797e-09,7.450580596923828e-08,-5.960464477539063e-08,7857,3,,,,,,
93,0.0,0.0,0.0,0.0,9315.0,0.0,-7.586183629297521e-12,1.5035961399071742e-09,5.960464477539063e-08,-1.1920928955078125e-07,7857,2,,,,,,
94,0.0,0.0,0.0,0.0,9315.0,0.0,-3.7930918146487606e-12,5.823353396225903e-10,2.9802322387695312e-08,-2.9802322387695312e-08,7857,3,,,,,,
95,0.0,0.0,0.0,0.0,9315.0,0.0,1.0431002490284092e-11,7.180874816026933e-10,5.960464477539063e-08,0.0,7857,2,,,,,,
96,0.0,0.0,0.0,0.0,9315.0,0.0,-5.689637721973141e-12,9.656976365040406e-10,2.9802322387695312e-08,-5.960464477539063e-08,7857,4,,,,,,
97,,,,,,,6.163774198804236e-12,6.841275118487494e-10,5.960464477539063e-08,-1.1175870895385742e-08,7857,2,,,,,,
98,,,,,,,3.911625933856535e-12,3.4670336291860187e-10,3.073364496231079e-08,0.0,7857,1,,,,,,
99,,,,,,,-3.7930918146487606e-12,3.3619720040591694e-10,0.0,-2.9802322387695312e-08,7857,1,,,,,,
100,,,,,,,0.0,0.0,0.0,0.0,7857,0,,,,,,
101,,,,,,,0.0,0.0,0.0,0.0,7857,0,,,,,,
102,,,,,,,1.5172367258595042e-11,1.344788801623668e-09,1.1920928955078125e-07,0.0,7857,1,,,,,,
103,,,,,,,0.0,0.0,0.0,0.0,7857,0,,,,,,
104,,,,,,,0.0,0.0,0.0,0.0,7857,0,,,,,,
105,,,,,,,0.0,0.0,0.0,0.0,7857,0,,,,,,
106,,,,,,,0.0,0.0,0.0,0.0,7857,0,,,,,,
107,,,,,,,0.0,0.0,0.0,0.0,7857,0,,,,,,
108,,,,,,,0.0,0.0,0.0,0.0,7857,0,,,,,,
109,,,,,,,0.0,0.0,0.0,0.0,7857,0,,,,,,
110,,,,,,,0.0,0.0,0.0,0.0,7857,0,,,,,,
111,,,,,,,0.0,0.0,0.0,0.0,7857,0,,,,,,
112,,,,,,,0.0,0.0,0.0,0.0,7857,0,,,,,,
113,,,,,,,0.0,0.0,0.0,0.0,7857,0,,,,,,
114,,,,,,,0.0,0.0,0.0,0.0,7857,0,,,,,,
