,sag_mean,sag_std,sag_max,sag_min,sag_nb_elements,sag_non_zero_elements,hor_mean,hor_std,hor_max,hor_min,hor_nb_elements,hor_non_zero_elements,frt_mean,frt_std,frt_max,frt_min,frt_nb_elements,frt_non_zero_elements
0,0.0,0.0,0.0,0.0,9315.0,0.0,0.0,0.0,0.0,0.0,7857,0,3.481167733856297e-08,2.256131232175377e-06,0.00021725893020629883,0.0,11155.0,5.0
1,0.0,0.0,0.0,0.0,9315.0,0.0,0.0,0.0,0.0,0.0,7857,0,1.7591602248709492e-07,2.1042239382875894e-05,0.0010958760976791382,-0.0007537752389907837,11155.0,18.0
2,0.0,0.0,0.0,0.0,9315.0,0.0,0.0,0.0,0.0,0.0,7857,0,1.4481961673709215e-07,3.76054417236864e-05,0.0012308359146118164,-0.0009160935878753662,11155.0,35.0
3,0.0,0.0,0.0,0.0,9315.0,0.0,0.0,0.0,0.0,0.0,7857,0,3.1362569476392227e-07,4.731952641987112e-05,0.001242220401763916,-0.0009237229824066162,11155.0,52.0
4,0.0,0.0,0.0,0.0,9315.0,0.0,0.0,0.0,0.0,0.0,7857,0,1.9458588004005377e-06,5.1741663911060654e-05,0.0015498101711273193,-0.0008652061223983765,11155.0,59.0
5,0.0,0.0,0.0,0.0,9315.0,0.0,0.0,0.0,0.0,0.0,7857,0,2.9314006292622275e-06,5.9977533627735036e-05,0.001995787024497986,-0.0008450746536254883,11155.0,72.0
6,0.0,0.0,0.0,0.0,9315.0,0.0,0.0,0.0,0.0,0.0,7857,0,2.95779074603589e-06,6.444708288037745e-05,0.002332329750061035,-0.0007629990577697754,11155.0,93.0
7,0.0,0.0,0.0,0.0,9315.0,0.0,0.0,0.0,0.0,0.0,7857,0,1.9663802908707607e-06,6.172906519605197e-05,0.0018564462661743164,-0.0008448362350463867,11155.0,120.0
8,0.0,0.0,0.0,0.0,9315.0,0.0,0.0,0.0,0.0,0.0,7857,0,2.6445397927669174e-06,7.26986591777313e-05,0.0012940764427185059,-0.0009744167327880859,11155.0,198.0
9,0.0,0.0,0.0,0.0,9315.0,0.0,0.0,0.0,0.0,0.0,7857,0,3.786152273066699e-06,9.753686557743028e-05,0.0012374520301818848,-0.0010557770729064941,11155.0,395.0
10,1.2632733349894813e-07,5.662170999490425e-06,5.662170999490425e-06,-0.00016233325004577637,9315.0,10.0,0.0,0.0,0.0,0.0,7857,0,7.013452245805e-06,9.738395443551266e-05,0.0017061233520507812,-0.0009278059005737305,11155.0,544.0
11,-2.287798053752461e-06,6.563140037087177e-05,6.563140037087177e-05,-0.0014736652374267578,9315.0,227.0,-6.577591033052879e-07,1.6588932831421233e-05,4.345923662185669e-05,-0.0007162541151046753,7857,21,1.1776684774945818e-05,0.0001328353727336051,0.002065598964691162,-0.001103520393371582,11155.0,661.0
12,-6.072104734059182e-06,0.00010119780251428316,0.00010119780251428316,-0.0017458200454711914,9315.0,525.0,-2.3079153676137405e-06,4.5079846722334506e-05,0.0007168054580688477,-0.0009511355310678482,7857,99,1.3212235412777057e-05,0.00016152337467113765,0.0020036697387695312,-0.0014265775680541992,11155.0,775.0
13,-8.906405061679345e-06,0.00011397574314232164,0.00011397574314232164,-0.001530289649963379,9315.0,735.0,1.2583175523068381e-06,7.725788785189066e-05,0.001429438591003418,-0.0009712576866149902,7857,222,8.128649095538377e-06,0.00016338829138080806,0.0017271637916564941,-0.001349806785583496,11155.0,885.0
14,-1.3970677915588621e-05,0.00013153418092127884,0.00013153418092127884,-0.0012606382369995117,9315.0,908.0,5.479861253300468e-06,8.956646881422831e-05,0.0014704465866088867,-0.000883251428604126,7857,348,-3.034680065707688e-07,0.00015096980929181887,0.00131303071975708,-0.0015493035316467285,11155.0,960.0
15,-2.105493228388661e-05,0.0001537458724010828,0.0001537458724010828,-0.0016570091247558594,9315.0,1088.0,7.6207713518788135e-06,9.037582972818411e-05,0.0012478828430175781,-0.0006666183471679688,7857,490,-1.1040509838305316e-05,0.00014730226117824297,0.001094222068786621,-0.0019199848175048828,11155.0,1054.0
16,-3.0448047071295403e-05,0.00017005223923381645,0.00017005223923381645,-0.0016751885414123535,9315.0,1248.0,5.0969901215533985e-06,8.355767502759533e-05,0.0010035037994384766,-0.0004811286926269531,7857,612,-1.4970248349258073e-05,0.000143417382097232,0.000995635986328125,-0.001796811819076538,11155.0,1154.0
17,-4.267945501481453e-05,0.00018810242106529238,0.00018810242106529238,-0.0015195608139038086,9315.0,1441.0,1.0148732450849852e-06,8.656210166054376e-05,0.000771641731262207,-0.0010285377502441406,7857,734,-1.3185522492648553e-05,0.00015437608645483828,0.0013184547424316406,-0.0018025040626525879,11155.0,1307.0
18,-5.2583965200303954e-05,0.00019910269330410195,0.00019910269330410195,-0.0016067028045654297,9315.0,1599.0,-1.0597501366745467e-06,9.777749168765237e-05,0.0007687807083129883,-0.0009137392044067383,7857,875,-1.0956442097334691e-05,0.00017585280401116995,0.0017139911651611328,-0.0019691884517669678,11155.0,1467.0
19,-5.795025790732112e-05,0.0002076783094477302,0.0002076783094477302,-0.001683354377746582,9315.0,1764.0,4.114276664685973e-06,0.00012125447126968479,0.0012535452842712402,-0.0008263885974884033,7857,1032,-8.842665100981974e-06,0.00019090606629028226,0.001363217830657959,-0.0019248425960540771,11155.0,1592.0
20,-6.25277590300284e-05,0.0002173465956665317,0.0002173465956665317,-0.00154876708984375,9315.0,1922.0,1.0788116602430259e-05,0.00014650908016979015,0.0011096000671386719,-0.0008044242858886719,7857,1276,-1.3189711930991682e-05,0.00021250556231184497,0.0014466047286987305,-0.0018705129623413086,11155.0,1906.0
21,-6.472486825144969e-05,0.00023434302872272572,0.00023434302872272572,-0.0014986991882324219,9315.0,2103.0,1.5849853776812798e-05,0.0001617559410297472,0.000986337661743164,-0.0009131431579589844,7857,1470,-1.4492701058896322e-05,0.00020987447850101648,0.0014175474643707275,-0.0015417933464050293,11155.0,2195.0
22,-6.602411886994086e-05,0.0002469111419310137,0.0002469111419310137,-0.0017072558403015137,9315.0,2287.0,1.6836077484565486e-05,0.00017254905026111662,0.0012581348419189453,-0.0009655356407165527,7857,1650,-8.01865518233371e-06,0.00022071316780496403,0.0013998150825500488,-0.0015901923179626465,11155.0,2462.0
23,-6.636503274775982e-05,0.00025051517109593954,0.00025051517109593954,-0.001726388931274414,9315.0,2448.0,1.2847901979456334e-05,0.00017505782917942263,0.0013904571533203125,-0.0008968114852905273,7857,1812,1.4495322719159574e-06,0.00024340248925665357,0.0016680359840393066,-0.0015164017677307129,11155.0,2975.0
24,-6.787432704165365e-05,0.0002513309626380264,0.0002513309626380264,-0.001705557107925415,9315.0,2580.0,6.174494365278327e-06,0.00017536468726579764,0.0012736320495605469,-0.001043856143951416,7857,1969,2.6801957407881095e-06,0.0002609072421472152,0.0018167495727539062,-0.0014519691467285156,11155.0,3467.0
25,-7.161153486346945e-05,0.00025876638017696457,0.00025876638017696457,-0.0018694400787353516,9315.0,2719.0,-5.978206442250608e-07,0.00018553949080424002,0.001148223876953125,-0.0011954307556152344,7857,2115,-5.7189680724845156e-06,0.00027581398131951276,0.0018541812896728516,-0.002007603645324707,11155.0,3963.0
26,-7.691977462853528e-05,0.00026862022851031306,0.00026862022851031306,-0.001958191394805908,9315.0,2831.0,-9.302026240667286e-06,0.00021029484714273945,0.0012072324752807617,-0.0013616085052490234,7857,2261,-2.7129205605115345e-05,0.0002885332915813835,0.001916050910949707,-0.0021246671676635742,11155.0,4347.0
27,-8.258993573180864e-05,0.0002737510199396094,0.0002737510199396094,-0.0018999576568603516,9315.0,2934.0,-1.982480724913146e-05,0.0002386355558310513,0.0014148950576782227,-0.0014013051986694336,7857,2382,-4.6982091099424776e-05,0.0003092131149310982,0.0020656585693359375,-0.0015628337860107422,11155.0,4734.0
28,-8.808619576949732e-05,0.00027887861961255157,0.00027887861961255157,-0.00173921138048172,9315.0,3040.0,-3.0594319921552065e-05,0.00026190680962915355,0.0014780759811401367,-0.001571059226989746,7857,2496,-5.8335481597263415e-05,0.0003311965465802432,0.001780688762664795,-0.0017896294593811035,11155.0,4963.0
29,-9.451542115633806e-05,0.0002917601904959103,0.0002917601904959103,-0.0021257400512695312,9315.0,3122.0,-4.183273287053805e-05,0.0002835869477246811,0.0012913942337036133,-0.0016198158264160156,7857,2624,-6.261453652949165e-05,0.0003530533441823195,0.0015584826469421387,-0.0021257400512695312,11155.0,5070.0
30,-0.00010320443339425654,0.00030747806921188793,0.00030747806921188793,-0.0019102096557617188,9315.0,3199.0,-5.285182603741515e-05,0.0003034506568843942,0.0016106367111206055,-0.0018792152404785156,7857,2731,-5.90086785053631e-05,0.0003593296168717216,0.0016508102416992188,-0.0018951892852783203,11155.0,5138.0
31,-0.00011219370605406424,0.0003188672816682983,0.0003188672816682983,-0.00189971923828125,9315.0,3258.0,-6.096587124967774e-05,0.00031543398330679477,0.0020036697387695312,-0.00189971923828125,7857,2842,-5.8773867750447704e-05,0.0003543836075950843,0.0019971132278442383,-0.0017944574356079102,11155.0,5229.0
32,-0.00011669707556279658,0.00032394473053583365,0.00032394473053583365,-0.00206880085170269,9315.0,3310.0,-6.557877896315909e-05,0.0003165776296289664,0.001981973648071289,-0.001685023307800293,7857,2934,-7.249794342135155e-05,0.00034970828781752167,0.001837611198425293,-0.0019328594207763672,11155.0,5325.0
33,-0.00011631429684185936,0.00031979194376019373,0.00031979194376019373,-0.00237438827753067,9315.0,3343.0,-6.765884455748351e-05,0.0003138018905389476,0.0018341541290283203,-0.0019104480743408203,7857,3018,-9.224389336889164e-05,0.00034335971875446296,0.0014704465866088867,-0.001958191394805908,11155.0,5399.0
34,-0.00011418023590604368,0.0003148703709780971,0.0003148703709780971,-0.0024133026599884033,9315.0,3390.0,-6.666870470283158e-05,0.000314486098466192,0.002065598964691162,-0.002200007438659668,7857,3099,-0.000101335841881325,0.00033529129486991927,0.0013453960418701172,-0.0019152462482452393,11155.0,5465.0
35,-0.00011246011754166949,0.0003181925058409292,0.0003181925058409292,-0.0022085905075073242,9315.0,3416.0,-6.486893834226048e-05,0.00031679155594106084,0.0017888545989990234,-0.002340555191040039,7857,3181,-0.00010524315089068753,0.0003335028992655889,0.0014336760505102575,-0.0018216371536254883,11155.0,5519.0
36,-0.0001126477305965585,0.0003257181997086529,0.0003257181997086529,-0.002242565155029297,9315.0,3441.0,-6.535262951724376e-05,0.00031522290136954653,0.001300811767578125,-0.0022077560424804688,7857,3244,-0.0001100749601283288,0.00033278880978840483,0.0014913678169250488,-0.0019462108612060547,11155.0,5513.0
37,-0.00011061419150260913,0.0003289167011974848,0.0003289167011974848,-0.002340555191040039,9315.0,3469.0,-7.167040230297392e-05,0.0003128338551121199,0.0012173652648925781,-0.001958191394805908,7857,3334,-0.00011711769042724884,0.00034414634153302043,0.0012954473495483398,-0.0018572807312011719,11155.0,5477.0
38,-0.00010540016643449345,0.0003285478535982963,0.0003285478535982963,-0.0021483898162841797,9315.0,3493.0,-8.030446709201368e-05,0.0003194280377055511,0.001328110694885254,-0.0021257400512695312,7857,3395,-0.00012240247582413126,0.0003639766867780702,0.0018017292022705078,-0.0018792152404785156,11155.0,5462.0
39,-9.943835725492918e-05,0.0003321859150636612,0.0003321859150636612,-0.002472400665283203,9315.0,3498.0,-8.848728736063116e-05,0.0003335462112356448,0.0019024014472961426,-0.0019462108612060547,7857,3432,-0.00012008588962013328,0.0003753753309618976,0.0019750595092773438,-0.002024352550506592,11155.0,5416.0
40,-8.975265210834053e-05,0.00032976251466348944,0.00032976251466348944,-0.002105712890625,9315.0,3478.0,-9.061934438754436e-05,0.00033942305459282185,0.002332329750061035,-0.001811385154724121,7857,3459,-0.00011227244113479112,0.0003746701746959077,0.0017342567443847656,-0.0024133026599884033,11155.0,5350.0
41,-7.121126511848071e-05,0.0003204250120323309,0.0003204250120323309,-0.0019199848175048828,9315.0,3471.0,-9.02932680770583e-05,0.0003244146471906264,0.00151844322681427,-0.0018275976181030273,7857,3473,-0.00010619820309539898,0.00036698930169011746,0.001554042100906372,-0.0023384690284729004,11155.0,5287.0
42,-5.2760434953092935e-05,0.000314640931905983,0.000314640931905983,-0.0016846656799316406,9315.0,3486.0,-8.731074301592055e-05,0.0003082311365095974,0.0010797977447509766,-0.0018656402826309204,7857,3479,-0.00010566139249431644,0.00036036226677479635,0.0016514360904693604,-0.002070188522338867,11155.0,5222.0
43,-3.79053495813839e-05,0.0003034937353667642,0.0003034937353667642,-0.0015749931335449219,9315.0,3506.0,-8.173686464819017e-05,0.0003019790246712487,0.0014731884002685547,-0.0019691884517669678,7857,3456,-0.00011127668107596381,0.00035956438085400387,0.001379847526550293,-0.0018560290336608887,11155.0,5138.0
44,-2.7768912827662307e-05,0.0002840050159618475,0.0002840050159618475,-0.0018038563430309296,9315.0,3520.0,-7.60751313062173e-05,0.00030369540879202035,0.0017139911651611328,-0.0018038563430309296,7857,3369,-0.00011418789671556561,0.00035195382695745955,0.001436769962310791,-0.002200007438659668,11155.0,5044.0
45,-2.1238719967445852e-05,0.0002572713024575931,0.0002572713024575931,-0.0016900897026062012,9315.0,3498.0,-7.449357130713984e-05,0.00030001208646135213,0.0012636780738830566,-0.001755833625793457,7857,3265,-0.0001112053166430884,0.0003353606168424761,0.0014935135841369629,-0.002340555191040039,11155.0,4938.0
46,-1.3521826519594356e-05,0.00023687571798464857,0.00023687571798464857,-0.0013418793678283691,9315.0,3418.0,-7.538773994735185e-05,0.00029533365900769596,0.0013026595115661621,-0.0019199848175048828,7857,3165,-0.00010568644106017608,0.0003158168608946552,0.0011752545833587646,-0.0017240047454833984,11155.0,4830.0
47,-6.881624889701017e-06,0.000229140761396716,0.000229140761396716,-0.0012788772583007812,9315.0,3341.0,-6.841473442056513e-05,0.00028793628832022466,0.0012282133102416992,-0.0016133785247802734,7857,3038,-0.00010148095855272915,0.0002965555921685595,0.0010833591222763062,-0.0017341375350952148,11155.0,4707.0
48,-9.356673687678461e-07,0.00023344216824911087,0.00023344216824911087,-0.0013831853866577148,9315.0,3301.0,-6.439530816910281e-05,0.00029062042196828345,0.0011458396911621094,-0.001596689224243164,7857,2998,-9.727698078653297e-05,0.00029283785103435345,0.0011379718780517578,-0.002150297164916992,11155.0,4582.0
49,1.730280478399445e-06,0.0002471739750720642,0.0002471739750720642,-0.0014722347259521484,9315.0,3337.0,-6.237303928160475e-05,0.0002894013383658783,0.0010654926300048828,-0.0016144216060638428,7857,2962,-9.078982037044177e-05,0.00029175339364579224,0.0012503862380981445,-0.002472400665283203,11155.0,4453.0
50,-5.444843921986855e-06,0.0002599472449868182,0.0002599472449868182,-0.0015901923179626465,9315.0,3415.0,-5.800594613545162e-05,0.0002844665797765754,0.001312553882598877,-0.0017741620540618896,7857,2939,-8.478548323171207e-05,0.00027690878241677305,0.0011353492736816406,-0.0019001960754394531,11155.0,4295.0
51,-2.2904826823064096e-05,0.0002685340345569936,0.0002685340345569936,-0.0015833377838134766,9315.0,3485.0,-5.094655194986302e-05,0.0002834668720958706,0.0013573169708251953,-0.0018216371536254883,7857,2912,-8.167340202592664e-05,0.0002552881075606016,0.0011949539184570312,-0.0017021894454956055,11155.0,4142.0
52,-4.1845184944568066e-05,0.00028069101284488505,0.00028069101284488505,-0.0015698522329330444,9315.0,3522.0,-4.229397712835697e-05,0.00027844573138310013,0.0012751221656799316,-0.0017468929290771484,7857,2891,-8.447520595286225e-05,0.00025355907469364015,0.0010156631469726562,-0.002356290817260742,11155.0,3983.0
53,-5.364172904608722e-05,0.0002919170641975937,0.0002919170641975937,-0.0015053749084472656,9315.0,3513.0,-3.688025655043207e-05,0.000270758848289586,0.0012169480323791504,-0.0017371177673339844,7857,2866,-8.920737925147192e-05,0.00026325574121776685,0.0011134147644042969,-0.002696394920349121,11155.0,3805.0
54,-5.7393505545562983e-05,0.0002966129082970443,0.0002966129082970443,-0.001665957272052765,9315.0,3488.0,-3.2119409382789335e-05,0.0002688227304253817,0.0013048648834228516,-0.0014691352844238281,7857,2831,-9.227178385335133e-05,0.0002635330318166586,0.0009653568267822266,-0.0024884939193725586,11155.0,3621.0
55,-5.892270718130293e-05,0.00030007504492166927,0.00030007504492166927,-0.002047300338745117,9315.0,3479.0,-2.9098479065497123e-05,0.00027448734277290334,0.0017599165439605713,-0.0014331340789794922,7857,2807,-9.185069127580012e-05,0.00025041192103291104,0.0008963346481323242,-0.0022237300872802734,11155.0,3422.0
56,-6.52338652047956e-05,0.0003045114402152709,0.0003045114402152709,-0.0024690628051757812,9315.0,3480.0,-2.5359826624947964e-05,0.0002766901923935413,0.0020656585693359375,-0.0014636516571044922,7857,2807,-8.830879540973711e-05,0.00023055444460802802,0.0007285475730895996,-0.0017580986022949219,11155.0,3203.0
57,-7.387322714060877e-05,0.0003137869714079691,0.0003137869714079691,-0.002696394920349121,9315.0,3495.0,-2.588118599333757e-05,0.0002682012747815202,0.0017300248146057129,-0.0015111565589904785,7857,2802,-8.200315677392635e-05,0.0002121589472716063,0.0005373954772949219,-0.001514136791229248,11155.0,2977.0
58,-8.091433956836447e-05,0.00032510017175121914,0.00032510017175121914,-0.0024433135986328125,9315.0,3479.0,-3.217474955704361e-05,0.00026418418821906164,0.0015694499015808105,-0.0017458200454711914,7857,2792,-7.228432449665386e-05,0.0001976987248956893,0.0007410049438476562,-0.0012791752815246582,11155.0,2739.0
59,-8.813037799613304e-05,0.0003320098117708076,0.0003320098117708076,-0.0019102990627288818,9315.0,3456.0,-4.1923904077306276e-05,0.0002740130911614053,0.0013669133186340332,-0.002181529998779297,7857,2785,-6.0101947877622875e-05,0.00018352299261582846,0.0007536411285400391,-0.0013024210929870605,11155.0,2484.0
60,-9.431878465057627e-05,0.00033038788089624366,0.00033038788089624366,-0.0018742680549621582,9315.0,3432.0,-5.219234480560267e-05,0.0002863458344992819,0.0015206113457679749,-0.002696394920349121,7857,2764,-4.67126719987146e-05,0.00017115878895287214,0.0009860992431640625,-0.0011320114135742188,11155.0,2235.0
61,-9.789863766045562e-05,0.0003224473175877964,0.0003224473175877964,-0.0018216371536254883,9315.0,3414.0,-5.811128421047454e-05,0.00029043899372656833,0.0016267374157905579,-0.0025815963745117188,7857,2750,-3.7242594376562895e-05,0.00016586508951553852,0.0008051395416259766,-0.0013627707958221436,11155.0,1986.0
62,-9.831312257545074e-05,0.00031827214488378415,0.00031827214488378415,-0.0017853975296020508,9315.0,3367.0,-5.9587569128005056e-05,0.00028823590776370933,0.0016514360904693604,-0.0021135807037353516,7857,2736,-3.0372281967282815e-05,0.00015829090527210067,0.0006056278944015503,-0.0013514161109924316,11155.0,1723.0
63,-9.15444639826159e-05,0.00031928159434043064,0.00031928159434043064,-0.0018825531005859375,9315.0,3317.0,-6.426202496427194e-05,0.0002960268972818195,0.0015668272972106934,-0.0018389225006103516,7857,2722,-2.3898967092582086e-05,0.00014451795144496338,0.0008292198181152344,-0.0014092624187469482,11155.0,1459.0
64,-8.147209397203704e-05,0.0003128199280134217,0.0003128199280134217,-0.0018715858459472656,9315.0,3273.0,-7.443905866587414e-05,0.000312619860495629,0.0018017292022705078,-0.0021246671676635742,7857,2703,-1.6912514711627906e-05,0.00013733195434725091,0.0008590221405029297,-0.0015338659286499023,11155.0,1191.0
65,-6.881924801237028e-05,0.00029915453755206134,0.00029915453755206134,-0.0021246671676635742,9315.0,3219.0,-8.511859409422367e-05,0.00032697690164935867,0.0019750595092773438,-0.002007603645324707,7857,2669,-9.029398503921406e-06,0.00012804425863852014,0.0008692741394042969,-0.0016797184944152832,11155.0,932.0
66,-5.5750855013490184e-05,0.00028298061699776354,0.00028298061699776354,-0.002052783966064453,9315.0,3161.0,-8.893700974368259e-05,0.00032358629820013386,0.0019378662109375,-0.0019328594207763672,7857,2636,-2.4956913188213405e-06,0.00010372529323188341,0.0009081363677978516,-0.0016090869903564453,11155.0,644.0
67,-4.704034094217819e-05,0.00026981805555211717,0.00026981805555211717,-0.0018705129623413086,9315.0,3078.0,-8.415461183782011e-05,0.00030569621863001204,0.0019971132278442383,-0.0022454261779785156,7857,2590,-1.0755775118157342e-06,8.816514672380461e-05,0.0008332729339599609,-0.0016214847564697266,11155.0,332.0
68,-4.34236610993159e-05,0.0002592638387005032,0.0002592638387005032,-0.001721501350402832,9315.0,2998.0,-7.554317839681551e-05,0.00028766240592859537,0.0016891956329345703,-0.002472400665283203,7857,2580,-1.5033120961533379e-06,3.660734975472268e-05,0.0002983212471008301,-0.0013055801391601562,11155.0,80.0
69,-4.330695858220227e-05,0.00024916207780351725,0.00024916207780351725,-0.0016854852437973022,9315.0,2898.0,-6.446148716526266e-05,0.00027309139266937585,0.0013564825057983398,-0.001966238021850586,7857,2543,0.0,0.0,0.0,0.0,11155.0,0.0
70,-4.3388438522035855e-05,0.0002431568030975644,0.0002431568030975644,-0.0017944574356079102,9315.0,2790.0,-5.7264861806163175e-05,0.0002674513969391946,0.0014466047286987305,-0.0015164017677307129,7857,2523,0.0,0.0,0.0,0.0,11155.0,0.0
71,-4.116662151626498e-05,0.0002386240414190382,0.0002386240414190382,-0.0019691884517669678,9315.0,2668.0,-5.431842534500355e-05,0.00026621269840851374,0.0013248026371002197,-0.001696944236755371,7857,2496,0.0,0.0,0.0,0.0,11155.0,0.0
72,-3.343565709749837e-05,0.00022385842507972883,0.00022385842507972883,-0.0018656402826309204,9315.0,2532.0,-5.639019742556745e-05,0.0002662988960624886,0.001403212547302246,-0.0016751885414123535,7857,2441,0.0,0.0,0.0,0.0,11155.0,0.0
73,-2.5283560215311063e-05,0.00021358868341759204,0.00021358868341759204,-0.0017919503152370453,9315.0,2399.0,-6.189589778658753e-05,0.00026607241310061856,0.001259446144104004,-0.0016289949417114258,7857,2381,0.0,0.0,0.0,0.0,11155.0,0.0
74,-2.0588010753756386e-05,0.00020923518862960307,0.00020923518862960307,-0.0012620911002159119,9315.0,2243.0,-6.789732219250578e-05,0.0002699055800898501,0.0012503862380981445,-0.0015072822570800781,7857,2320,0.0,0.0,0.0,0.0,11155.0,0.0
75,-1.7171713920491106e-05,0.00020577493161816023,0.00020577493161816023,-0.0012816190719604492,9315.0,2054.0,-7.134071907517628e-05,0.0002778549124132402,0.0012142658233642578,-0.0017534494400024414,7857,2264,0.0,0.0,0.0,0.0,11155.0,0.0
76,-1.4601634193953652e-05,0.00020258150124602235,0.00020258150124602235,-0.0014491081237792969,9315.0,1879.0,-6.86559313653371e-05,0.00027762594917758846,0.00104522705078125,-0.001638650894165039,7857,2198,0.0,0.0,0.0,0.0,11155.0,0.0
77,-1.1203143785590675e-05,0.00019434161357611467,0.00019434161357611467,-0.0015982389450073242,9315.0,1712.0,-6.366660960698547e-05,0.0002676974488604452,0.0011136531829833984,-0.0018560290336608887,7857,2135,0.0,0.0,0.0,0.0,11155.0,0.0
78,-7.6986636598537e-06,0.00017598238676160282,0.00017598238676160282,-0.0015079975128173828,9315.0,1528.0,-5.9734898398154285e-05,0.00025400543464607707,0.0011532306671142578,-0.0018742680549621582,7857,2068,0.0,0.0,0.0,0.0,11155.0,0.0
79,-4.382034004615765e-06,0.00015472064788481688,0.00015472064788481688,-0.001251816749572754,9315.0,1357.0,-5.828098240060134e-05,0.00024027517464487777,0.0010267794132232666,-0.0017145872116088867,7857,1979,0.0,0.0,0.0,0.0,11155.0,0.0
80,-1.5099068115786783e-06,0.000133182512411854,0.000133182512411854,-0.0009789466857910156,9315.0,1198.0,-5.9539368045203384e-05,0.0002396212846714719,0.0012145265936851501,-0.0015258640050888062,7857,1920,0.0,0.0,0.0,0.0,11155.0,0.0
81,7.59532452189532e-07,0.00012069694649844834,0.00012069694649844834,-0.0010454952716827393,9315.0,1024.0,-6.397806157604423e-05,0.0002522598016538455,0.0013904944062232971,-0.002021193504333496,7857,1894,,,,,,
82,2.7813031865554794e-06,0.0001161888616316884,0.0001161888616316884,-0.0009388923645019531,9315.0,857.0,-6.85402581115467e-05,0.00026207519200448914,0.0016317963600158691,-0.0023384690284729004,7857,1862,,,,,,
83,3.917736135787114e-06,0.00011473035852945362,0.00011473035852945362,-0.0009902119636535645,9315.0,677.0,-7.427613926051945e-05,0.000271043944446821,0.0016089677810668945,-0.0024133026599884033,7857,1829,,,,,,
84,7.220588662470148e-07,9.588158331839269e-05,9.588158331839269e-05,-0.0010668635368347168,9315.0,479.0,-8.064860411471831e-05,0.0002759978798274019,0.0014435052871704102,-0.0020651817321777344,7857,1798,,,,,,
85,-3.6541766462566644e-06,6.855460560828068e-05,6.855460560828068e-05,-0.0011826753616333008,9315.0,201.0,-8.401056030832504e-05,0.00027327623148985455,0.0013265758752822876,-0.0017617344856262207,7857,1745,,,,,,
86,-2.0023065424707713e-07,1.0691850924740839e-05,1.0691850924740839e-05,-0.0008223056793212891,9315.0,4.0,-8.352539980373131e-05,0.0002649013678510022,0.001172587275505066,-0.0019096136093139648,7857,1692,,,,,,
87,0.0,0.0,0.0,0.0,9315.0,0.0,-8.196558540648322e-05,0.0002557549517226651,0.0010042637586593628,-0.0019102990627288818,7857,1632,,,,,,
88,0.0,0.0,0.0,0.0,9315.0,0.0,-8.314425418704826e-05,0.0002485655846012125,0.0009118765592575073,-0.0017305612564086914,7857,1571,,,,,,
89,0.0,0.0,0.0,0.0,9315.0,0.0,-8.621555513205853e-05,0.00024459922491681355,0.0007859468460083008,-0.0017163753509521484,7857,1506,,,,,,
90,0.0,0.0,0.0,0.0,9315.0,0.0,-8.86959632150037e-05,0.0002453189517319352,0.0006279945373535156,-0.0017839670181274414,7857,1441,,,,,,
91,0.0,0.0,0.0,0.0,9315.0,0.0,-8.855263606417997e-05,0.0002483757506984885,0.00039958953857421875,-0.0017421245574951172,7857,1372,,,,,,
92,0.0,0.0,0.0,0.0,9315.0,0.0,-8.50025756412967e-05,0.0002472017162174594,0.0004596710205078125,-0.0017406195402145386,7857,1298,,,,,,
93,0.0,0.0,0.0,0.0,9315.0,0.0,-7.644765643925432e-05,0.00023651416422660476,0.0006090998649597168,-0.0017896294593811035,7857,1226,,,,,,
94,0.0,0.0,0.0,0.0,9315.0,0.0,-6.60416274487827e-05,0.0002219031867628537,0.0008262991905212402,-0.0017725229263305664,7857,1160,,,,,,
95,0.0,0.0,0.0,0.0,9315.0,0.0,-5.623269358667808e-05,0.00020938504774805668,0.001106858253479004,-0.0015566349029541016,7857,1087,,,,,,
96,0.0,0.0,0.0,0.0,9315.0,0.0,-5.083874800122379e-05,0.0001989589513891417,0.001035928726196289,-0.0014623403549194336,7857,1002,,,,,,
97,,,,,,,-4.64058061042274e-05,0.00018526352234133047,0.0008592009544372559,-0.001694321632385254,7857,918,,,,,,
98,,,,,,,-4.0198739259378726e-05,0.00016568932873387105,0.0008442401885986328,-0.0017240047454833984,7857,821,,,,,,
99,,,,,,,-3.0100466546007387e-05,0.00014350281737139,0.0011708736419677734,-0.001350998878479004,7857,701,,,,,,
100,,,,,,,-1.9226068617420196e-05,0.00012392649019240805,0.0014035701751708984,-0.001287221908569336,7857,573,,,,,,
101,,,,,,,-1.1513468157369641e-05,0.0001090368604590438,0.0008215904235839844,-0.0012279152870178223,7857,448,,,,,,
102,,,,,,,-5.604062962884043e-06,9.236528475978882e-05,0.0007729530334472656,-0.0010548830032348633,7857,304,,,,,,
103,,,,,,,-1.3694707889797822e-06,6.32872578662038e-05,0.0008866786956787109,-0.0008743107318878174,7857,154,,,,,,
104,,,,,,,-3.9873976842189116e-07,2.5191540309714172e-05,0.0009291172027587891,-0.0007829070091247559,7857,29,,,,,,
105,,,,,,,0.0,0.0,0.0,0.0,7857,0,,,,,,
106,,,,,,,0.0,0.0,0.0,0.0,7857,0,,,,,,
107,,,,,,,0.0,0.0,0.0,0.0,7857,0,,,,,,
108,,,,,,,0.0,0.0,0.0,0.0,7857,0,,,,,,
109,,,,,,,0.0,0.0,0.0,0.0,7857,0,,,,,,
110,,,,,,,0.0,0.0,0.0,0.0,7857,0,,,,,,
111,,,,,,,0.0,0.0,0.0,0.0,7857,0,,,,,,
112,,,,,,,0.0,0.0,0.0,0.0,7857,0,,,,,,
113,,,,,,,0.0,0.0,0.0,0.0,7857,0,,,,,,
114,,,,,,,0.0,0.0,0.0,0.0,7857,0,,,,,,
