,sag_mean,sag_std,sag_max,sag_min,sag_nb_elements,sag_non_zero_elements,hor_mean,hor_std,hor_max,hor_min,hor_nb_elements,hor_non_zero_elements,frt_mean,frt_std,frt_max,frt_min,frt_nb_elements,frt_non_zero_elements
0,0.0,0.0,0.0,0.0,9315.0,0.0,0.0,0.0,0.0,0.0,7857,0,-1.2812086521697547e-06,4.896602249280937e-05,0.0,-0.0023398399353027344,11155.0,8.0
1,0.0,0.0,0.0,0.0,9315.0,0.0,0.0,0.0,0.0,0.0,7857,0,-4.333329809882191e-06,9.271938328164125e-05,0.0,-0.0026679039001464844,11155.0,26.0
2,0.0,0.0,0.0,0.0,9315.0,0.0,0.0,0.0,0.0,0.0,7857,0,-6.5691411789090895e-06,0.00011925048082796644,0.0,-0.0029163360595703125,11155.0,36.0
3,0.0,0.0,0.0,0.0,9315.0,0.0,0.0,0.0,0.0,0.0,7857,0,-9.030052421072682e-06,0.00013567534149376591,0.0,-0.0027811527252197266,11155.0,52.0
4,0.0,0.0,0.0,0.0,9315.0,0.0,0.0,0.0,0.0,0.0,7857,0,-9.267393780136685e-06,0.00012983095604984579,0.0,-0.002682507038116455,11155.0,62.0
5,0.0,0.0,0.0,0.0,9315.0,0.0,0.0,0.0,0.0,0.0,7857,0,-7.735543180105132e-06,0.00010761201215032305,0.0,-0.002419382333755493,11155.0,72.0
6,0.0,0.0,0.0,0.0,9315.0,0.0,0.0,0.0,0.0,0.0,7857,0,-7.155093964287808e-06,9.72914425218662e-05,0.00015372782945632935,-0.0021427273750305176,11155.0,93.0
7,0.0,0.0,0.0,0.0,9315.0,0.0,0.0,0.0,0.0,0.0,7857,0,-8.829937290178185e-06,0.00010875739442843521,0.0005372464656829834,-0.002307385206222534,11155.0,191.0
8,0.0,0.0,0.0,0.0,9315.0,0.0,0.0,0.0,0.0,0.0,7857,0,-1.1940858673750152e-05,0.00015188684311240742,0.0015919208526611328,-0.0027565360069274902,11155.0,416.0
9,0.0,0.0,0.0,0.0,9315.0,0.0,0.0,0.0,0.0,0.0,7857,0,-5.052410826297391e-06,0.0001829395803132261,0.0019505023956298828,-0.002583026885986328,11155.0,584.0
10,4.5207387583267285e-07,1.5334301115103154e-05,1.5334301115103154e-05,0.0,9315.0,11.0,0.0,0.0,0.0,0.0,7857,0,3.075218041052149e-06,0.00018614485789220504,0.0017998218536376953,-0.0020335912704467773,11155.0,714.0
11,1.7420125558324482e-06,6.133795161959131e-05,6.133795161959131e-05,-0.0008781552314758301,9315.0,273.0,-5.039016980394784e-07,1.2954817303815155e-05,0.00010243058204650879,-0.0005404949188232422,7857,21,9.421718006069446e-06,0.00017320783151472864,0.0015703439712524414,-0.0016541481018066406,11155.0,833.0
12,7.011887671898848e-07,8.372573854646139e-05,8.372573854646139e-05,-0.0009214878082275391,9315.0,545.0,-4.3462383939789893e-07,2.8272217672822695e-05,0.0004956722259521484,-0.0006557703018188477,7857,103,1.2758232355501849e-05,0.00017350343970160025,0.0017104744911193848,-0.0014411211013793945,11155.0,945.0
13,6.843178999928685e-06,9.818387945431993e-05,9.818387945431993e-05,-0.0007841587066650391,9315.0,769.0,4.771083642678724e-06,6.689280984368028e-05,0.0011307299137115479,-0.0006899833679199219,7857,222,1.4979928332839723e-05,0.00019381122345681992,0.0020596981048583984,-0.0014767646789550781,11155.0,1040.0
14,1.253469191517599e-05,0.00011146687660400199,0.00011146687660400199,-0.0009744167327880859,9315.0,947.0,1.1923807911765443e-05,0.00010936480661374045,0.0017429590225219727,-0.0008673667907714844,7857,348,1.4690367944525236e-05,0.00019970381549776634,0.0020149648189544678,-0.0016276836395263672,11155.0,1094.0
15,1.7888668324809342e-05,0.00013267437871527775,0.00013267437871527775,-0.0008642673492431641,9315.0,1115.0,1.715745530814877e-05,0.00013045757330645068,0.0014823675155639648,-0.0008714199066162109,7857,491,1.3115989768160452e-05,0.00019337295236586806,0.0018466338515281677,-0.001199550461024046,11155.0,1193.0
16,2.3695288490770477e-05,0.00015166852793367273,0.00015166852793367273,-0.0011286735534667969,9315.0,1277.0,1.8595158484838718e-05,0.00013547569713750097,0.0012390613555908203,-0.0007631778717041016,7857,617,1.1482146535826833e-05,0.00019879634529856546,0.002003908157348633,-0.0013539791107177734,11155.0,1321.0
17,2.7666258027300168e-05,0.00017695903807680026,0.00017695903807680026,-0.0013408660888671875,9315.0,1459.0,1.7789051560662517e-05,0.00013384684400462906,0.001234099268913269,-0.0007450580596923828,7857,757,7.213640852456855e-06,0.00019116268778191948,0.0018227994441986084,-0.0020258426666259766,11155.0,1466.0
18,3.10158758447718e-05,0.00019978805020625902,0.00019978805020625902,-0.001219719648361206,9315.0,1621.0,1.4263750605718528e-05,0.0001265708307264275,0.0011993944644927979,-0.0007963180541992188,7857,893,3.351301837404451e-07,0.00018509234580905206,0.0016546547412872314,-0.002396225929260254,11155.0,1592.0
19,3.690843954552375e-05,0.0002210404500838201,0.0002210404500838201,-0.0015025138854980469,9315.0,1787.0,1.1585045459389732e-05,0.00013761755704514225,0.001407478004693985,-0.0009734630584716797,7857,1128,-7.669181698212732e-07,0.00020623177409206212,0.0014542341232299805,-0.0022619962692260742,11155.0,1778.0
20,4.317836322453247e-05,0.00024104625777938418,0.00024104625777938418,-0.0015866756439208984,9315.0,1951.0,1.0225078795355089e-05,0.00016964745790214823,0.0016782283782958984,-0.0014077425003051758,7857,1369,4.6881357445212515e-06,0.00026065951511109527,0.0018665790557861328,-0.0022960901260375977,11155.0,2087.0
21,4.861792053647891e-05,0.00025521580583519516,0.00025521580583519516,-0.001520395278930664,9315.0,2137.0,9.929269966626115e-06,0.0002101792534674712,0.002003908157348633,-0.0016276836395263672,7857,1567,9.538457533609706e-06,0.00026916849917458857,0.0015327930450439453,-0.0021640658378601074,11155.0,2319.0
22,5.388160794073545e-05,0.00027150197972707367,0.00027150197972707367,-0.001294255256652832,9315.0,2330.0,1.181608374862706e-05,0.00024715487520274656,0.00240480899810791,-0.0014767646789550781,7857,1768,1.9344119800836833e-05,0.0002590077991653093,0.0015454292297363281,-0.0016932189464569092,11155.0,2583.0
23,5.5778629655165024e-05,0.0002862543520203454,0.0002862543520203454,-0.001110076904296875,9315.0,2489.0,1.3371349531475374e-05,0.00027197397641820953,0.0021561384201049805,-0.0018169879913330078,7857,1949,3.0467355835069087e-05,0.00027319792532124013,0.0015935897827148438,-0.001562952995300293,11155.0,3095.0
24,5.604977172964877e-05,0.0002994411087258493,0.0002994411087258493,-0.0012590885162353516,9315.0,2625.0,1.402086189384274e-05,0.00029275459438920815,0.0017801523208618164,-0.0020809173583984375,7857,2108,3.884055340518162e-05,0.00031228718055429354,0.0020945072174072266,-0.0016544163227081299,11155.0,3617.0
25,5.722495074740347e-05,0.0003137545319833872,0.0003137545319833872,-0.0014150142669677734,9315.0,2772.0,1.2945923139622694e-05,0.0003083389010177079,0.0017291936092078686,-0.0021239519119262695,7857,2249,4.243469766538235e-05,0.00034962892272057545,0.0019617080688476562,-0.0020636320114135742,11155.0,4069.0
26,6.295410817852959e-05,0.0003217298703240017,0.0003217298703240017,-0.0015778541564941406,9315.0,2885.0,1.2105014583230326e-05,0.00031904224730172767,0.0015181899070739746,-0.002228856086730957,7857,2399,4.135298598303068e-05,0.00037460573777450286,0.002321004867553711,-0.002291947603225708,11155.0,4434.0
27,6.828297001334189e-05,0.00033333770704683396,0.00033333770704683396,-0.0017217397689819336,9315.0,2993.0,1.2760375793162718e-05,0.00032570141014817965,0.001592874526977539,-0.0027774572372436523,7857,2521,3.971320244740562e-05,0.0003866206513584232,0.0022889375686645508,-0.002382516860961914,11155.0,4819.0
28,7.273519451800439e-05,0.0003529603204245688,0.0003529603204245688,-0.0022361278533935547,9315.0,3087.0,1.4140603925731823e-05,0.00032900524663759907,0.0022193193435668945,-0.0032938718795776367,7857,2641,3.2546941927959373e-05,0.00038412328134497254,0.0021375417709350586,-0.002239704132080078,11155.0,5023.0
29,7.356805057013412e-05,0.00037152713989992066,0.00037152713989992066,-0.0026988983154296875,9315.0,3172.0,1.6647170682066884e-05,0.0003155796131028058,0.0025482177734375,-0.0031671524047851562,7857,2751,3.2713673773641416e-05,0.00037521971828617467,0.001931905746459961,-0.002625703811645508,11155.0,5144.0
30,7.078176272851308e-05,0.00038431488450016156,0.00038431488450016156,-0.002621173858642578,9315.0,3249.0,2.311892349556737e-05,0.0002905966209354289,0.002180337905883789,-0.0021979808807373047,7857,2842,4.424824110549135e-05,0.0003774943069951481,0.0018498897552490234,-0.0026988983154296875,11155.0,5244.0
31,6.727200871843632e-05,0.0003928655109418574,0.0003928655109418574,-0.0032197237014770508,9315.0,3309.0,3.411038397653614e-05,0.00028091160149887356,0.0017299652099609375,-0.0016218572854995728,7857,2937,6.309719264963562e-05,0.00039450213622758306,0.0018606185913085938,-0.0022745132446289062,11155.0,5346.0
32,6.90855218090194e-05,0.00039367375790244223,0.00039367375790244223,-0.0032938718795776367,9315.0,3368.0,4.7685238487382696e-05,0.00028501384581969686,0.001842498779296875,-0.001611948013305664,7857,3016,8.748416555764941e-05,0.0004139150904813325,0.0021314620971679688,-0.003041386604309082,11155.0,5427.0
33,7.009569036744843e-05,0.00038726532588391504,0.00038726532588391504,-0.003052830696105957,9315.0,3405.0,6.280122800738822e-05,0.00029820295761908225,0.0016744136810302734,-0.0014775991439819336,7857,3092,0.00010819546515029174,0.00042556288411699743,0.0020749568939208984,-0.0032938718795776367,11155.0,5493.0
34,7.129633736457241e-05,0.000382506008859519,0.000382506008859519,-0.0025261640548706055,9315.0,3453.0,7.728329006435753e-05,0.0003199657696476907,0.0017154216766357422,-0.0018355846405029297,7857,3168,0.00012199943660308011,0.00042976510947410375,0.002215743064880371,-0.003075242042541504,11155.0,5559.0
35,7.471177146141555e-05,0.0003838409845585782,0.0003838409845585782,-0.0021239519119262695,9315.0,3490.0,8.914265762082877e-05,0.00035460030682778486,0.0019505023956298828,-0.0027565360069274902,7857,3254,0.00012843616200385158,0.0004332373203609725,0.002084672451019287,-0.002802610397338867,11155.0,5571.0
36,8.232008066820456e-05,0.00038771383076513754,0.00038771383076513754,-0.0020612478256225586,9315.0,3521.0,9.780393182988418e-05,0.0003725697892602272,0.0019371509552001953,-0.0024452805519104004,7857,3308,0.00012732835960401235,0.00043605306378641294,0.002824988216161728,-0.0025222301483154297,11155.0,5578.0
37,8.82311152755698e-05,0.00038825596786092395,0.00038825596786092395,-0.0020809173583984375,9315.0,3548.0,0.00010493772799110987,0.0003965243674039615,0.0024704933166503906,-0.002117335796356201,7857,3381,0.00012039076398614776,0.00044039042460581424,0.0033370256423950195,-0.001973867416381836,11155.0,5549.0
38,8.870851040042444e-05,0.00038629015696056517,0.00038629015696056517,-0.0019562244415283203,9315.0,3574.0,0.00011039493647040708,0.00041775702687082576,0.0022499561309814453,-0.0024256110191345215,7857,3428,0.00012693461212832588,0.0004423934064675862,0.0033881664276123047,-0.0015153884887695312,11155.0,5507.0
39,8.448707210389929e-05,0.0003817046091073991,0.0003817046091073991,-0.0017256736755371094,9315.0,3589.0,0.00011601980833869047,0.0004405000183805045,0.002615988254547119,-0.002428397536277771,7857,3486,0.0001552539128290551,0.0004420641333413517,0.0037848949432373047,-0.0014134645462036133,11155.0,5456.0
40,8.348172260395846e-05,0.00037732507252581524,0.00037732507252581524,-0.0014707446098327637,9315.0,3576.0,0.00011662458305233155,0.00045916543142946646,0.0026418715715408325,-0.002396881580352783,7857,3513,0.00018255323421652856,0.0004495628920987621,0.004008889198303223,-0.0012584924697875977,11155.0,5396.0
41,8.261275295992004e-05,0.00037338260625402697,0.00037338260625402697,-0.0014616996049880981,9315.0,3591.0,0.00011426790190861341,0.00047813363531421784,0.002521991729736328,-0.0027283430099487305,7857,3537,0.00019426203864250467,0.0004527944447322092,0.0036718249320983887,-0.0015625953674316406,11155.0,5349.0
42,7.67933820090364e-05,0.00036629053235501464,0.00036629053235501464,-0.0019953250885009766,9315.0,3604.0,0.00011152932105590793,0.0004958637119680703,0.0024938583374023438,-0.0029163360595703125,7857,3540,0.0001933916498589025,0.00043965313377683496,0.0030353665351867676,-0.0015277862548828125,11155.0,5277.0
43,7.365334977611292e-05,0.0003592989919108046,0.0003592989919108046,-0.0017251968383789062,9315.0,3619.0,0.00011453334232933907,0.0005003219793340012,0.0029495954513549805,-0.0028047561645507812,7857,3519,0.00018870857958258694,0.00042333987691264906,0.0025644004344940186,-0.0018291473388671875,11155.0,5180.0
44,7.360827830951046e-05,0.00035753611464382616,0.00035753611464382616,-0.0017850399017333984,9315.0,3612.0,0.0001322226907195711,0.0004792433304539979,0.0027745962142944336,-0.0026988983154296875,7857,3414,0.0001869830916957543,0.0004159383433137584,0.0028154850006103516,-0.0019414424896240234,11155.0,5085.0
45,7.486651653810832e-05,0.0003787403722829084,0.0003787403722829084,-0.0022414326667785645,9315.0,3588.0,0.0001543158293598643,0.0004715049925815341,0.0025076866149902344,-0.0027811527252197266,7857,3298,0.00018675349121592924,0.00040541107700560827,0.0025624483823776245,-0.0018258094787597656,11155.0,4976.0
46,7.564199936410719e-05,0.00040689636012979075,0.00040689636012979075,-0.0025479793548583984,9315.0,3524.0,0.00017537021907196976,0.00048175650365678085,0.0026674270629882812,-0.0025937519967556,7857,3195,0.00018992119917294562,0.0003878714437279545,0.0019207000732421875,-0.0014150142669677734,11155.0,4871.0
47,7.718944796933732e-05,0.00042564466609730533,0.00042564466609730533,-0.0028706789016723633,9315.0,3449.0,0.00019001500719773696,0.0005088417713141701,0.00316011905670166,-0.002382516860961914,7857,3088,0.00019524867343956355,0.0003838855909456222,0.0022089481353759766,-0.0012166202068328857,11155.0,4757.0
48,8.458239207583141e-05,0.0004359264113086715,0.0004359264113086715,-0.0029163360595703125,9315.0,3398.0,0.00020623489880059397,0.0005287556145938974,0.0033833980560302734,-0.0021772384643554688,7857,3027,0.00019781679735801394,0.00038696789374369537,0.00252377986907959,-0.0009490549564361572,11155.0,4634.0
49,9.936793495226558e-05,0.0004425008159727668,0.0004425008159727668,-0.0027565360069274902,9315.0,3428.0,0.00021954464477998338,0.000521981606733482,0.0028769969940185547,-0.0021628141403198242,7857,2988,0.00019910854061360898,0.00039464987910012734,0.002314329147338867,-0.0014171600341796875,11155.0,4496.0
50,0.00011544960330505878,0.00044180393829282966,0.00044180393829282966,-0.0026629269123077393,9315.0,3505.0,0.00022477199431208058,0.0004978067947285447,0.0028154850006103516,-0.0018678903579711914,7857,2971,0.00020177115482458818,0.0004029384177651237,0.0023910105228424072,-0.0016453266143798828,11155.0,4352.0
51,0.00013066532439739712,0.0004274445986998449,0.0004274445986998449,-0.002419382333755493,9315.0,3574.0,0.00022212007287973878,0.0004729751936185693,0.002432584762573242,-0.0013736486434936523,7857,2941,0.00020665462545846835,0.00041200314598887223,0.0026928186416625977,-0.0010803937911987305,11155.0,4198.0
52,0.00013801964582709527,0.0004094114478115452,0.0004094114478115452,-0.0020776838064193726,9315.0,3600.0,0.0002212433426902177,0.0004560220989598648,0.0028429031372070312,-0.0012981891632080078,7857,2920,0.0002069739442955701,0.00041611122445501283,0.0031179189682006836,-0.0011714696884155273,11155.0,4031.0
53,0.00013682803109596158,0.0004029234358288693,0.0004029234358288693,-0.001574493944644928,9315.0,3604.0,0.0002191251043524008,0.0004433458258458953,0.0033249855041503906,-0.0012884140014648438,7857,2904,0.00020113900201605442,0.0004078219790782998,0.0034197568893432617,-0.0010625123977661133,11155.0,3862.0
54,0.0001293029598058144,0.00040138424149944763,0.00040138424149944763,-0.0016453266143798828,9315.0,3585.0,0.0002150701640462542,0.0004312189830061588,0.0033326148986816406,-0.0011407136917114258,7857,2886,0.00018874039405001748,0.00039156890013770994,0.0037369728088378906,-0.001416921615600586,11155.0,3677.0
55,0.00012182733671564981,0.00040215443635594167,0.00040215443635594167,-0.0018916130065917969,9315.0,3576.0,0.00020349311869534222,0.0004165615334526379,0.0029065608978271484,-0.001317441463470459,7857,2866,0.0001718770399790279,0.0003740585495218193,0.003164529800415039,-0.0017251968383789062,11155.0,3465.0
56,0.00011440711884509383,0.00040121603315154024,0.00040121603315154024,-0.001906275749206543,9315.0,3568.0,0.00018737999365088618,0.000400144313030514,0.002269744873046875,-0.00158613920211792,7857,2852,0.00015881667245498343,0.00036213304786876537,0.0021965503692626953,-0.001906275749206543,11155.0,3244.0
57,0.00010829540135781818,0.00039838944577846646,0.00039838944577846646,-0.0018075406551361084,9315.0,3573.0,0.00017358171931090182,0.00039402486876577767,0.002253592014312744,-0.001414656639099121,7857,2856,0.00014800823054168707,0.0003531941732516873,0.002280712127685547,-0.0018916130065917969,11155.0,3018.0
58,0.00010989290394410851,0.00038723864985647287,0.00038723864985647287,-0.0015153884887695312,9315.0,3558.0,0.00016786948389624893,0.000397004918717493,0.0032743215560913086,-0.0012965202331542969,7857,2860,0.00013676203849630664,0.000339716938693043,0.0021839141845703125,-0.0014748573303222656,11155.0,2773.0
59,0.0001227315365433317,0.000382496606083111,0.000382496606083111,-0.0018503665924072266,9315.0,3536.0,0.00016878444242454256,0.00039885896535283893,0.0037369728088378906,-0.0011076927185058594,7857,2853,0.00012510868261310685,0.0003242594764442498,0.0024704933166503906,-0.0012524127960205078,11155.0,2508.0
60,0.0001439045355392256,0.00038856308952443433,0.00038856308952443433,-0.0016930103302001953,9315.0,3521.0,0.00017258084129111062,0.0004039538657557914,0.0032858848571777344,-0.0012409687042236328,7857,2838,0.00011575503150295051,0.000312276120496089,0.00220489501953125,-0.0007874965667724609,11155.0,2248.0
61,0.00016465680548468877,0.00039857189143174045,0.00039857189143174045,-0.0016732215881347656,9315.0,3481.0,0.00017634891691884725,0.00041220382548179315,0.0025870800018310547,-0.0013151541352272034,7857,2819,0.00010646079346789989,0.000303859477701069,0.0017795562744140625,-0.0011444091796875,11155.0,2004.0
62,0.00017624468199200867,0.00041223571790611005,0.00041223571790611005,-0.0012068748474121094,9315.0,3428.0,0.00017555325046229595,0.00041456354945176583,0.0023512840270996094,-0.0014134645462036133,7857,2813,9.945165071634769e-05,0.0003049223275458015,0.001947164535522461,-0.0017333030700683594,11155.0,1746.0
63,0.00017364165134292037,0.0004123973931328389,0.0004123973931328389,-0.0011569857597351074,9315.0,3366.0,0.00016689284584639445,0.00040977396361208584,0.0023658275604248047,-0.0013066530227661133,7857,2804,9.355935812375709e-05,0.00030737778027719757,0.0023658275604248047,-0.0019953250885009766,11155.0,1488.0
64,0.00016341516075230148,0.00040268228376807075,0.00040268228376807075,-0.001285463571548462,9315.0,3320.0,0.00015140836585770149,0.0004050444975066215,0.002056121826171875,-0.0014836788177490234,7857,2782,8.154177043882522e-05,0.0002899350185396073,0.0023374557495117188,-0.0009181499481201172,11155.0,1215.0
65,0.00015603161272725318,0.0003866937924073751,0.0003866937924073751,-0.0011993646621704102,9315.0,3270.0,0.00014245348392627905,0.00040786410464555277,0.0020911693572998047,-0.0016434192657470703,7857,2769,6.32928992298706e-05,0.00025988890324534294,0.0026418715715408325,-0.0002872943878173828,11155.0,943.0
66,0.00015223160932481417,0.0003780901521177866,0.0003780901521177866,-0.0012965202331542969,9315.0,3210.0,0.0001421375859572519,0.0004069060743885086,0.002058267593383789,-0.001906275749206543,7857,2731,4.045852464767768e-05,0.00019603369682076637,0.0029495954513549805,-0.00017023086547851562,11155.0,686.0
67,0.0001460155248545736,0.00036784059389097294,0.00036784059389097294,-0.00124359130859375,9315.0,3138.0,0.0001447828349299265,0.00040533762930982335,0.002341032028198242,-0.0018916130065917969,7857,2704,2.0126825278263385e-05,0.0001289254087345583,0.001604318618774414,-0.0001671314239501953,11155.0,381.0
68,0.00014154656329784607,0.0003634337439705857,0.0003634337439705857,-0.0015954971313476562,9315.0,3065.0,0.00014266157966448566,0.00041136884158001467,0.004008889198303223,-0.0015981793403625488,7857,2678,5.76960137477107e-06,6.231651594550305e-05,0.0012598037719726562,0.0,11155.0,109.0
69,0.00013728201934068337,0.0003624055967431277,0.0003624055967431277,-0.0018553733825683594,9315.0,2972.0,0.00013585905443816944,0.00040263544887356824,0.0037848949432373047,-0.001592874526977539,7857,2634,0.0,0.0,0.0,0.0,11155.0,0.0
70,0.00013214174414481479,0.00035998505273484525,0.00035998505273484525,-0.0022960901260375977,9315.0,2865.0,0.00012878320795575514,0.00038574774085364544,0.0033370256423950195,-0.001697540283203125,7857,2609,0.0,0.0,0.0,0.0,11155.0,0.0
71,0.0001273873377116712,0.00034833504045445285,0.00034833504045445285,-0.0022619962692260742,9315.0,2752.0,0.00012294244897751921,0.0003696297158332972,0.0029675811529159546,-0.0015780925750732422,7857,2564,0.0,0.0,0.0,0.0,11155.0,0.0
72,0.0001261030608561676,0.00033451705029614816,0.00033451705029614816,-0.002396225929260254,9315.0,2617.0,0.0001141710763771042,0.0003550590113702994,0.0024567842483520508,-0.001486063003540039,7857,2504,0.0,0.0,0.0,0.0,11155.0,0.0
73,0.00013041040792691826,0.0003253273615635297,0.0003253273615635297,-0.001987755298614502,9315.0,2483.0,0.00010269428918355537,0.00033969526422514203,0.0023033618927001953,-0.0015494823455810547,7857,2433,0.0,0.0,0.0,0.0,11155.0,0.0
74,0.0001355296475052625,0.0003219217240234839,0.0003219217240234839,-0.0018171072006225586,9315.0,2321.0,9.179605035422105e-05,0.0003263160842196401,0.002263784408569336,-0.00153350830078125,7857,2372,0.0,0.0,0.0,0.0,11155.0,0.0
75,0.0001372393571846167,0.0003239957616623795,0.0003239957616623795,-0.0007350444793701172,9315.0,2126.0,7.969294245989967e-05,0.00031381133231985094,0.001812577247619629,-0.0019953250885009766,7857,2302,0.0,0.0,0.0,0.0,11155.0,0.0
76,0.0001332465403523822,0.0003287002435128209,0.0003287002435128209,-0.0008056163787841797,9315.0,1927.0,6.767268420859794e-05,0.0003044406162638679,0.0017232894897460938,-0.0018503665924072266,7857,2240,0.0,0.0,0.0,0.0,11155.0,0.0
77,0.00012702632557525252,0.00032720171366270673,0.00032720171366270673,-0.0007205009460449219,9315.0,1764.0,5.867339322123351e-05,0.0002967749454429621,0.0017886161804199219,-0.0017251968383789062,7857,2180,0.0,0.0,0.0,0.0,11155.0,0.0
78,0.000117302250471496,0.0003168979240259305,0.0003168979240259305,-0.0006559193134307861,9315.0,1588.0,5.5083451392243226e-05,0.0002822456168873903,0.0018389225006103516,-0.001514434814453125,7857,2103,0.0,0.0,0.0,0.0,11155.0,0.0
79,0.00010872412426972095,0.0003106978199278693,0.0003106978199278693,-0.0004951953887939453,9315.0,1407.0,5.978635396727638e-05,0.00026974471798748634,0.001971721649169922,-0.0013041496276855469,7857,2013,0.0,0.0,0.0,0.0,11155.0,0.0
80,0.00010297071289669041,0.00031174627817901016,0.00031174627817901016,-0.0004723072052001953,9315.0,1259.0,6.788173891931457e-05,0.00026546117986848457,0.0019893646240234375,-0.0012352466583251953,7857,1953,0.0,0.0,0.0,0.0,11155.0,0.0
81,9.357817419474696e-05,0.0003113130541115966,0.0003113130541115966,-0.0009725093841552734,9315.0,1098.0,7.623065711625287e-05,0.000267301738207426,0.0018538236618041992,-0.0010938644409179688,7857,1926,,,,,,
82,8.560634479106624e-05,0.0003042556676821805,0.0003042556676821805,-0.0008001327514648438,9315.0,945.0,8.028167055094058e-05,0.0002698865128878847,0.001958131790161133,-0.001081705093383789,7857,1898,,,,,,
83,7.054083193269905e-05,0.00026529870356527415,0.00026529870356527415,-0.0002491474151611328,9315.0,774.0,7.785296630069511e-05,0.00026988888806130367,0.0019038766622543335,-0.0010342597961425781,7857,1856,,,,,,
84,4.870072417101166e-05,0.00021325072426372593,0.00021325072426372593,-0.0002034306526184082,9315.0,587.0,7.300770738814275e-05,0.00026278149471427,0.0016138404607772827,-0.0010972023010253906,7857,1825,,,,,,
85,1.7397408036218172e-05,0.00012135679483356228,0.00012135679483356228,-0.0003356337547302246,9315.0,276.0,6.958138363400778e-05,0.0002491749511350162,0.0016870498657226562,-0.0014505386352539062,7857,1767,,,,,,
86,1.7418207673698873e-06,4.2501210228831134e-05,4.2501210228831134e-05,-0.0002789497375488281,9315.0,26.0,7.005765506590184e-05,0.0002478387275261167,0.001795053482055664,-0.0015950202941894531,7857,1718,,,,,,
87,0.0,0.0,0.0,0.0,9315.0,0.0,7.257646186374705e-05,0.00024934288085698967,0.0018821954727172852,-0.0016453266143798828,7857,1663,,,,,,
88,0.0,0.0,0.0,0.0,9315.0,0.0,7.3893662366076e-05,0.00024949082555707485,0.001817464828491211,-0.0015025138854980469,7857,1601,,,,,,
89,0.0,0.0,0.0,0.0,9315.0,0.0,7.073750384224687e-05,0.00024034669659092248,0.002178668975830078,-0.0012438297271728516,7857,1532,,,,,,
90,0.0,0.0,0.0,0.0,9315.0,0.0,6.378788497216337e-05,0.00022707634779716977,0.0020728111267089844,-0.0015866756439208984,7857,1460,,,,,,
91,0.0,0.0,0.0,0.0,9315.0,0.0,5.796823129018768e-05,0.00021985623174840775,0.0017981529235839844,-0.0014133453369140625,7857,1394,,,,,,
92,0.0,0.0,0.0,0.0,9315.0,0.0,5.374895019439083e-05,0.0002191563102228887,0.0016469955444335938,-0.0014801025390625,7857,1313,,,,,,
93,0.0,0.0,0.0,0.0,9315.0,0.0,4.9991727682107655e-05,0.00022081481996634954,0.0015411376953125,-0.0017308592796325684,7857,1254,,,,,,
94,0.0,0.0,0.0,0.0,9315.0,0.0,4.5561167316145476e-05,0.00022038074223200703,0.001665949821472168,-0.0017088651657104492,7857,1201,,,,,,
95,0.0,0.0,0.0,0.0,9315.0,0.0,3.928991333451475e-05,0.00021544903211497744,0.0018783211708068848,-0.0016674995422363281,7857,1131,,,,,,
96,0.0,0.0,0.0,0.0,9315.0,0.0,2.905767898998545e-05,0.00019872877368178898,0.0020945072174072266,-0.0019414424896240234,7857,1044,,,,,,
97,,,,,,,1.8847686772820177e-05,0.00017068247643998413,0.0019057989120483398,-0.0018291473388671875,7857,950,,,,,,
98,,,,,,,9.028419432171856e-06,0.00014483054329373683,0.0015358924865722656,-0.0016252994537353516,7857,851,,,,,,
99,,,,,,,2.3357116185679635e-06,0.00011890303407231712,0.0012063980102539062,-0.001188516616821289,7857,725,,,,,,
100,,,,,,,6.935563184054461e-07,9.651411861707201e-05,0.000888824462890625,-0.0010030269622802734,7857,590,,,,,,
101,,,,,,,7.480425413793259e-07,8.671044616481682e-05,0.0008735060691833496,-0.0009604692459106445,7857,460,,,,,,
102,,,,,,,6.368665906057887e-07,8.964172830971385e-05,0.0011692047119140625,-0.0011420249938964844,7857,341,,,,,,
103,,,,,,,3.771888431404874e-07,6.970714731859526e-05,0.001466512680053711,-0.0012631416320800781,7857,177,,,,,,
104,,,,,,,-5.244859775787428e-07,3.223276552155703e-05,0.001226186752319336,-0.000690758228302002,7857,41,,,,,,
105,,,,,,,0.0,0.0,0.0,0.0,7857,0,,,,,,
106,,,,,,,0.0,0.0,0.0,0.0,7857,0,,,,,,
107,,,,,,,0.0,0.0,0.0,0.0,7857,0,,,,,,
108,,,,,,,0.0,0.0,0.0,0.0,7857,0,,,,,,
109,,,,,,,0.0,0.0,0.0,0.0,7857,0,,,,,,
110,,,,,,,0.0,0.0,0.0,0.0,7857,0,,,,,,
111,,,,,,,0.0,0.0,0.0,0.0,7857,0,,,,,,
112,,,,,,,0.0,0.0,0.0,0.0,7857,0,,,,,,
113,,,,,,,0.0,0.0,0.0,0.0,7857,0,,,,,,
114,,,,,,,0.0,0.0,0.0,0.0,7857,0,,,,,,
