,sag_mean,sag_std,sag_max,sag_min,sag_nb_elements,sag_non_zero_elements,hor_mean,hor_std,hor_max,hor_min,hor_nb_elements,hor_non_zero_elements,frt_mean,frt_std,frt_max,frt_min,frt_nb_elements,frt_non_zero_elements
0,0.0,0.0,0.0,0.0,9315.0,0.0,0.0,0.0,0.0,0.0,7857,0,0.0,0.0,0.0,0.0,11155.0,0.0
1,0.0,0.0,0.0,0.0,9315.0,0.0,0.0,0.0,0.0,0.0,7857,0,0.0,0.0,0.0,0.0,11155.0,0.0
2,0.0,0.0,0.0,0.0,9315.0,0.0,0.0,0.0,0.0,0.0,7857,0,0.0,0.0,0.0,0.0,11155.0,0.0
3,0.0,0.0,0.0,0.0,9315.0,0.0,0.0,0.0,0.0,0.0,7857,0,0.0,0.0,0.0,0.0,11155.0,0.0
4,0.0,0.0,0.0,0.0,9315.0,0.0,0.0,0.0,0.0,0.0,7857,0,0.0,0.0,0.0,0.0,11155.0,0.0
5,0.0,0.0,0.0,0.0,9315.0,0.0,0.0,0.0,0.0,0.0,7857,0,0.0,0.0,0.0,0.0,11155.0,0.0
6,0.0,0.0,0.0,0.0,9315.0,0.0,0.0,0.0,0.0,0.0,7857,0,0.0,0.0,0.0,0.0,11155.0,0.0
7,0.0,0.0,0.0,0.0,9315.0,0.0,0.0,0.0,0.0,0.0,7857,0,0.0,0.0,0.0,0.0,11155.0,0.0
8,0.0,0.0,0.0,0.0,9315.0,0.0,0.0,0.0,0.0,0.0,7857,0,0.0,0.0,0.0,0.0,11155.0,0.0
9,0.0,0.0,0.0,0.0,9315.0,0.0,0.0,0.0,0.0,0.0,7857,0,0.0,0.0,0.0,0.0,11155.0,0.0
10,0.0,0.0,0.0,0.0,9315.0,0.0,0.0,0.0,0.0,0.0,7857,0,0.0,0.0,0.0,0.0,11155.0,0.0
11,0.0,0.0,0.0,0.0,9315.0,0.0,0.0,0.0,0.0,0.0,7857,0,0.0,0.0,0.0,0.0,11155.0,0.0
12,0.0,0.0,0.0,0.0,9315.0,0.0,0.0,0.0,0.0,0.0,7857,0,0.0,0.0,0.0,0.0,11155.0,0.0
13,0.0,0.0,0.0,0.0,9315.0,0.0,1.66501558295822e-07,6.560503550519685e-06,0.0003895759582519531,0.0,7857,7,0.0,0.0,0.0,0.0,11155.0,0.0
14,0.0,0.0,0.0,0.0,9315.0,0.0,2.0437178697327523e-07,7.034566666437133e-06,0.00031948089599609375,0.0,7857,8,0.0,0.0,0.0,0.0,11155.0,0.0
15,0.0,0.0,0.0,0.0,9315.0,0.0,2.283744719763726e-07,7.508937056934969e-06,0.0004127025604248047,0.0,7857,10,0.0,0.0,0.0,0.0,11155.0,0.0
16,0.0,0.0,0.0,0.0,9315.0,0.0,3.617092354449058e-07,1.2858937528566026e-05,0.00041961669921875,-0.00024580955505371094,7857,35,0.0,0.0,0.0,0.0,11155.0,0.0
17,0.0,0.0,0.0,0.0,9315.0,0.0,-6.660669226523224e-08,1.275427529995321e-05,0.0004107952117919922,-0.0003151893615722656,7857,43,0.0,0.0,0.0,0.0,11155.0,0.0
18,0.0,0.0,0.0,0.0,9315.0,0.0,-1.4155818652269174e-07,1.6739069120141533e-05,0.00046706199645996094,-0.0003726482391357422,7857,48,0.0,0.0,0.0,0.0,11155.0,0.0
19,0.0,0.0,0.0,0.0,9315.0,0.0,2.1890691480700929e-07,2.4663103476743363e-05,0.0006856918334960938,-0.0005025863647460938,7857,61,0.0,0.0,0.0,0.0,11155.0,0.0
20,0.0,0.0,0.0,0.0,9315.0,0.0,1.1631136740438959e-07,1.8477792040231743e-05,0.00046372413635253906,-0.0004553794860839844,7857,64,0.0,0.0,0.0,0.0,11155.0,0.0
21,0.0,0.0,0.0,0.0,9315.0,0.0,3.1810385194370367e-07,1.4709411098693415e-05,0.0005049705505371094,-0.00038933753967285156,7857,69,0.0,0.0,0.0,0.0,11155.0,0.0
22,0.0,0.0,0.0,0.0,9315.0,0.0,5.52820373434169e-07,2.1113278587711645e-05,0.0005826950073242188,-0.0004029273986816406,7857,66,0.0,0.0,0.0,0.0,11155.0,0.0
23,0.0,0.0,0.0,0.0,9315.0,0.0,-1.6012916404721208e-07,2.2723663861510945e-05,0.0003845691680908203,-0.0005817413330078125,7857,53,0.0,0.0,0.0,0.0,11155.0,0.0
24,0.0,0.0,0.0,0.0,9315.0,0.0,-1.3348648714111918e-07,2.347871186172836e-05,0.0004673004150390625,-0.0006320476531982422,7857,47,0.0,0.0,0.0,0.0,11155.0,0.0
25,-4.686467185560504e-07,2.0320968164925643e-05,2.0320968164925643e-05,-0.0009608268737792969,9315.0,5.0,1.8807666453754415e-07,1.8394715938058702e-05,0.0004069805145263672,-0.0004532337188720703,7857,38,-3.774515559779107e-08,3.9863602176503905e-06,0.0,-0.0004210472106933594,11155.0,1.0
26,-6.764791246005687e-07,2.6797718644224327e-05,2.6797718644224327e-05,-0.0011887550354003906,9315.0,6.0,9.109489302060464e-08,5.803790425359375e-06,0.00028634071350097656,-0.00010585784912109375,7857,16,-5.569227176736364e-07,2.0665524418153738e-05,4.291534423828125e-05,-0.0011563301086425781,11155.0,14.0
27,0.0,0.0,0.0,0.0,9315.0,0.0,1.318782162117081e-07,7.266044585600157e-06,0.0003440380096435547,-0.000171661376953125,7857,8,-5.936847038730705e-07,2.5280672097851787e-05,0.0003204345703125,-0.0011887550354003906,11155.0,22.0
28,0.0,0.0,0.0,0.0,9315.0,0.0,1.04082439393962e-07,9.22525117913836e-06,0.0008177757263183594,0.0,7857,1,-3.070480777564363e-07,1.4222701255142956e-05,0.0003750324249267578,-0.0004477500915527344,11155.0,33.0
29,0.0,0.0,0.0,0.0,9315.0,0.0,3.5976717243580566e-07,2.010582292679484e-05,0.0010972023010253906,-0.0004658699035644531,7857,5,-2.2533815145385687e-07,1.637389463586291e-05,0.0004673004150390625,-0.0005106925964355469,11155.0,53.0
30,0.0,0.0,0.0,0.0,9315.0,0.0,-2.6885434782230415e-08,1.8286190565639194e-05,0.0008969306945800781,-0.0008327960968017578,7857,5,-3.7232197650822224e-08,2.0301923017708083e-05,0.0004277229309082031,-0.0006320476531982422,11155.0,59.0
31,0.0,0.0,0.0,0.0,9315.0,0.0,3.6170923544490585e-08,8.318190260866433e-06,0.0006437301635742188,-0.00035953521728515625,7857,2,-7.775587546136121e-08,1.8823503779035753e-05,0.0003292560577392578,-0.0007092952728271484,11155.0,68.0
32,-8.21603477097172e-09,2.5596347345504135e-06,2.5596347345504135e-06,-0.00017762184143066406,9315.0,3.0,4.181200969123622e-07,1.3854995024784475e-05,0.0005102157592773438,-0.0002903938293457031,7857,11,5.666261721704638e-07,2.5209513038402236e-05,0.0010972023010253906,-0.0005106925964355469,11155.0,43.0
33,9.232161189686913e-08,6.1385880960530835e-06,6.1385880960530835e-06,-0.00018143653869628906,9315.0,7.0,1.7736497325297606e-07,9.98545923077789e-06,0.000408172607421875,-0.0002865791320800781,7857,23,6.144808739730992e-08,9.000999951306623e-06,0.0004444122314453125,-0.00023055076599121094,11155.0,21.0
34,-4.584086689972071e-08,1.1255339579426022e-05,1.1255339579426022e-05,-0.0005314350128173828,9315.0,9.0,-2.9337289331219374e-07,1.1671464182846758e-05,0.00025844573974609375,-0.0003981590270996094,7857,23,1.3212941784005912e-07,8.918605176056023e-06,0.0005102157592773438,-0.0002856254577636719,11155.0,20.0
35,-1.1679055034250453e-07,5.2807006646970945e-06,5.2807006646970945e-06,-0.00032138824462890625,9315.0,6.0,-3.187410913685647e-07,1.52040226620371e-05,0.0002357959747314453,-0.0007092952728271484,7857,19,5.62116416886696e-08,1.136963810964758e-05,0.000408172607421875,-0.0004658699035644531,11155.0,18.0
36,-5.720510191003674e-08,5.1956591477744424e-06,5.1956591477744424e-06,-0.0004210472106933594,9315.0,6.0,-5.128260133405125e-09,4.545386149487996e-07,0.0,-4.029273986816406e-05,7857,1,-7.713605127544053e-08,1.039621339746252e-05,0.0002715587615966797,-0.0008327960968017578,11155.0,13.0
37,4.504741805891036e-09,4.3474842845412683e-07,4.3474842845412683e-07,0.0,9315.0,1.0,0.0,0.0,0.0,0.0,7857,0,3.8166208579261334e-07,1.2603932110082488e-05,0.0005049705505371094,-0.00038933753967285156,11155.0,31.0
38,0.0,0.0,0.0,0.0,9315.0,0.0,0.0,0.0,0.0,0.0,7857,0,7.286140171736679e-08,1.8877846045089024e-05,0.0005826950073242188,-0.0005025863647460938,11155.0,60.0
39,7.373955194756861e-08,3.96884403198557e-06,3.96884403198557e-06,0.0,9315.0,4.0,0.0,0.0,0.0,0.0,7857,0,1.9697585163603764e-07,1.5118902131939534e-05,0.00042438507080078125,-0.0003540515899658203,11155.0,49.0
40,9.186089966672119e-08,4.680127345369082e-06,4.680127345369082e-06,0.0,9315.0,5.0,0.0,0.0,0.0,0.0,7857,0,3.081808598893258e-07,1.3121875923593235e-05,0.00046706199645996094,-0.00021409988403320312,11155.0,50.0
41,1.3506546880503976e-07,6.247995320017091e-06,6.247995320017091e-06,0.0,9315.0,5.0,0.0,0.0,0.0,0.0,7857,0,4.4494827249989497e-07,1.6534605286621773e-05,0.000644683837890625,-0.00020456314086914062,11155.0,59.0
42,0.0,0.0,0.0,0.0,9315.0,0.0,0.0,0.0,0.0,0.0,7857,0,1.2364423846728275e-07,1.368061162687149e-05,0.0006856918334960938,-0.00028967857360839844,11155.0,47.0
43,0.0,0.0,0.0,0.0,9315.0,0.0,0.0,0.0,0.0,0.0,7857,0,5.23217105908225e-08,1.1397049836929862e-05,0.0006356239318847656,-0.0003151893615722656,11155.0,26.0
44,0.0,0.0,0.0,0.0,9315.0,0.0,-4.622109961658394e-07,2.0613239364056856e-05,0.0,-0.0010409355163574219,7857,4,4.7940194793796927e-08,3.3618190137274365e-06,0.0003154277801513672,0.0,11155.0,4.0
45,0.0,0.0,0.0,0.0,9315.0,0.0,-4.762606082472984e-07,2.1258842392562673e-05,0.0,-0.001094818115234375,7857,4,0.0,0.0,0.0,0.0,11155.0,0.0
46,0.0,0.0,0.0,0.0,9315.0,0.0,-4.1642079177939957e-07,2.162103095240379e-05,9.274482727050781e-05,-0.0011887550354003906,7857,8,0.0,0.0,0.0,0.0,11155.0,0.0
47,0.0,0.0,0.0,0.0,9315.0,0.0,-1.7803255741235422e-07,7.5949427884147434e-06,7.176399230957031e-05,-0.0004210472106933594,7857,7,0.0,0.0,0.0,0.0,11155.0,0.0
48,0.0,0.0,0.0,0.0,9315.0,0.0,-2.3938961060611257e-07,9.952161299363425e-06,0.0,-0.0005314350128173828,7857,5,0.0,0.0,0.0,0.0,11155.0,0.0
49,0.0,0.0,0.0,0.0,9315.0,0.0,0.0,0.0,0.0,0.0,7857,0,0.0,0.0,0.0,0.0,11155.0,0.0
50,0.0,0.0,0.0,0.0,9315.0,0.0,0.0,0.0,0.0,0.0,7857,0,0.0,0.0,0.0,0.0,11155.0,0.0
51,-2.3114956391478378e-07,8.644875858911923e-06,8.644875858911923e-06,-0.00041794776916503906,9315.0,9.0,0.0,0.0,0.0,0.0,7857,0,0.0,0.0,0.0,0.0,11155.0,0.0
52,-6.443316489858008e-07,1.664532368442514e-05,1.664532368442514e-05,-0.0006320476531982422,9315.0,22.0,0.0,0.0,0.0,0.0,7857,0,-3.3141358023745657e-07,1.2318681506510196e-05,1.1682510375976562e-05,-0.0006392002105712891,11155.0,11.0
53,-6.979790286741395e-07,1.8068957917693278e-05,1.8068957917693278e-05,-0.0005991458892822266,9315.0,26.0,0.0,0.0,0.0,0.0,7857,0,-1.0999100777879525e-06,2.878232575424089e-05,0.0,-0.0009853839874267578,11155.0,17.0
54,-6.782707832733662e-08,1.740279487408842e-05,1.740279487408842e-05,-0.0004477500915527344,9315.0,36.0,0.0,0.0,0.0,0.0,7857,0,-1.1633886237253474e-06,3.322503731105064e-05,0.0,-0.00118255615234375,11155.0,14.0
55,1.860509556080792e-07,1.0841541634708349e-05,1.0841541634708349e-05,-0.0003628730773925781,9315.0,41.0,0.0,0.0,0.0,0.0,7857,0,-8.489240289856531e-07,2.7500289439530026e-05,0.0,-0.0011017322540283203,11155.0,11.0
56,2.157924895765189e-07,8.378114647737904e-06,8.378114647737904e-06,-0.00022935867309570312,9315.0,39.0,0.0,0.0,0.0,0.0,7857,0,-2.1366835816031558e-07,1.1492677762695125e-05,0.0,-0.0007431507110595703,11155.0,4.0
57,3.3089376174181425e-07,9.498064603969279e-06,9.498064603969279e-06,-0.0001704692840576172,9315.0,40.0,0.0,0.0,0.0,0.0,7857,0,0.0,0.0,0.0,0.0,11155.0,0.0
58,3.2667056629879144e-07,1.1217454043360777e-05,1.1217454043360777e-05,-0.00023221969604492188,9315.0,37.0,0.0,0.0,0.0,0.0,7857,0,0.0,0.0,0.0,0.0,11155.0,0.0
59,1.2690062428186225e-07,1.5763417578499744e-05,1.5763417578499744e-05,-0.00044035911560058594,9315.0,49.0,0.0,0.0,0.0,0.0,7857,0,0.0,0.0,0.0,0.0,11155.0,0.0
60,-3.926292005816391e-08,1.803624511045842e-05,1.803624511045842e-05,-0.0005002021789550781,9315.0,48.0,0.0,0.0,0.0,0.0,7857,0,0.0,0.0,0.0,0.0,11155.0,0.0
61,-3.993607181665786e-07,1.2946572627092295e-05,1.2946572627092295e-05,-0.0005025863647460938,9315.0,37.0,0.0,0.0,0.0,0.0,7857,0,0.0,0.0,0.0,0.0,11155.0,0.0
62,-1.766319500139434e-07,8.808832770310074e-06,8.808832770310074e-06,-0.0003497600555419922,9315.0,34.0,0.0,0.0,0.0,0.0,7857,0,0.0,0.0,0.0,0.0,11155.0,0.0
63,8.832877256892026e-08,8.771406929287236e-06,8.771406929287236e-06,-0.00022649765014648438,9315.0,33.0,0.0,0.0,0.0,0.0,7857,0,0.0,0.0,0.0,0.0,11155.0,0.0
64,3.3890503552160913e-07,9.958850161451385e-06,9.958850161451385e-06,-0.00024580955505371094,9315.0,29.0,-2.874253253468245e-07,1.3079454033527551e-05,0.0,-0.0006744861602783203,7857,4,0.0,0.0,0.0,0.0,11155.0,0.0
65,6.109812025478689e-07,1.4170540372730604e-05,1.4170540372730604e-05,-0.00012946128845214844,9315.0,26.0,-1.2390665445404228e-06,3.11555149797326e-05,0.0,-0.00095367431640625,7857,14,0.0,0.0,0.0,0.0,11155.0,0.0
66,5.380606945650077e-07,1.4776190590254125e-05,1.4776190590254125e-05,-5.054473876953125e-05,9315.0,18.0,-1.7714649116445228e-06,3.99890194561415e-05,1.1682510375976562e-05,-0.00118255615234375,7857,18,0.0,0.0,0.0,0.0,11155.0,0.0
67,4.0629699674269494e-07,1.2049600627214593e-05,1.2049600627214593e-05,0.0,9315.0,13.0,-1.285251230475586e-06,3.254253854078014e-05,0.0,-0.0010404586791992188,7857,14,0.0,0.0,0.0,0.0,11155.0,0.0
68,3.3742051833557686e-07,1.7752379893663363e-05,1.7752379893663363e-05,-0.0008327960968017578,9315.0,9.0,-6.092615796361425e-07,2.045321229291452e-05,0.0,-0.0007452964782714844,7857,7,0.0,0.0,0.0,0.0,11155.0,0.0
69,-2.2856445640117587e-08,1.8849875088846653e-05,1.8849875088846653e-05,-0.0005872249603271484,9315.0,12.0,0.0,0.0,0.0,0.0,7857,0,0.0,0.0,0.0,0.0,11155.0,0.0
70,1.277452633704668e-07,1.8861231090613213e-05,1.8861231090613213e-05,-0.0006129741668701172,9315.0,20.0,0.0,0.0,0.0,0.0,7857,0,0.0,0.0,0.0,0.0,11155.0,0.0
71,-2.4571318941223832e-08,1.1338614806058598e-05,1.1338614806058598e-05,-0.0007092952728271484,9315.0,17.0,0.0,0.0,0.0,0.0,7857,0,0.0,0.0,0.0,0.0,11155.0,0.0
72,1.5167670421426294e-07,1.181227235655507e-05,1.181227235655507e-05,-0.0004317760467529297,9315.0,17.0,0.0,0.0,0.0,0.0,7857,0,0.0,0.0,0.0,0.0,11155.0,0.0
73,-7.791155714279723e-08,1.541154900714961e-05,1.541154900714961e-05,-0.0007116794586181641,9315.0,17.0,0.0,0.0,0.0,0.0,7857,0,0.0,0.0,0.0,0.0,11155.0,0.0
74,-1.1245729586672413e-06,3.1688103731622994e-05,3.1688103731622994e-05,-0.0010745525360107422,9315.0,21.0,0.0,0.0,0.0,0.0,7857,0,0.0,0.0,0.0,0.0,11155.0,0.0
75,-1.3941663986754815e-06,3.476020373293442e-05,3.476020373293442e-05,-0.00118255615234375,9315.0,16.0,0.0,0.0,0.0,0.0,7857,0,0.0,0.0,0.0,0.0,11155.0,0.0
76,-1.2089600821560068e-06,3.104772015613931e-05,3.104772015613931e-05,-0.0011000633239746094,9315.0,16.0,0.0,0.0,0.0,0.0,7857,0,0.0,0.0,0.0,0.0,11155.0,0.0
77,-4.43000404411148e-07,1.7416379200941203e-05,1.7416379200941203e-05,-0.0009074211120605469,9315.0,9.0,0.0,0.0,0.0,0.0,7857,0,0.0,0.0,0.0,0.0,11155.0,0.0
78,0.0,0.0,0.0,0.0,9315.0,0.0,0.0,0.0,0.0,0.0,7857,0,0.0,0.0,0.0,0.0,11155.0,0.0
79,0.0,0.0,0.0,0.0,9315.0,0.0,0.0,0.0,0.0,0.0,7857,0,0.0,0.0,0.0,0.0,11155.0,0.0
80,0.0,0.0,0.0,0.0,9315.0,0.0,0.0,0.0,0.0,0.0,7857,0,0.0,0.0,0.0,0.0,11155.0,0.0
81,0.0,0.0,0.0,0.0,9315.0,0.0,0.0,0.0,0.0,0.0,7857,0,,,,,,
82,0.0,0.0,0.0,0.0,9315.0,0.0,0.0,0.0,0.0,0.0,7857,0,,,,,,
83,0.0,0.0,0.0,0.0,9315.0,0.0,0.0,0.0,0.0,0.0,7857,0,,,,,,
84,0.0,0.0,0.0,0.0,9315.0,0.0,0.0,0.0,0.0,0.0,7857,0,,,,,,
85,0.0,0.0,0.0,0.0,9315.0,0.0,0.0,0.0,0.0,0.0,7857,0,,,,,,
86,0.0,0.0,0.0,0.0,9315.0,0.0,0.0,0.0,0.0,0.0,7857,0,,,,,,
87,0.0,0.0,0.0,0.0,9315.0,0.0,0.0,0.0,0.0,0.0,7857,0,,,,,,
88,0.0,0.0,0.0,0.0,9315.0,0.0,0.0,0.0,0.0,0.0,7857,0,,,,,,
89,0.0,0.0,0.0,0.0,9315.0,0.0,0.0,0.0,0.0,0.0,7857,0,,,,,,
90,0.0,0.0,0.0,0.0,9315.0,0.0,0.0,0.0,0.0,0.0,7857,0,,,,,,
91,0.0,0.0,0.0,0.0,9315.0,0.0,0.0,0.0,0.0,0.0,7857,0,,,,,,
92,0.0,0.0,0.0,0.0,9315.0,0.0,0.0,0.0,0.0,0.0,7857,0,,,,,,
93,0.0,0.0,0.0,0.0,9315.0,0.0,0.0,0.0,0.0,0.0,7857,0,,,,,,
94,0.0,0.0,0.0,0.0,9315.0,0.0,0.0,0.0,0.0,0.0,7857,0,,,,,,
95,0.0,0.0,0.0,0.0,9315.0,0.0,0.0,0.0,0.0,0.0,7857,0,,,,,,
96,0.0,0.0,0.0,0.0,9315.0,0.0,0.0,0.0,0.0,0.0,7857,0,,,,,,
97,,,,,,,0.0,0.0,0.0,0.0,7857,0,,,,,,
98,,,,,,,0.0,0.0,0.0,0.0,7857,0,,,,,,
99,,,,,,,0.0,0.0,0.0,0.0,7857,0,,,,,,
100,,,,,,,0.0,0.0,0.0,0.0,7857,0,,,,,,
101,,,,,,,0.0,0.0,0.0,0.0,7857,0,,,,,,
102,,,,,,,0.0,0.0,0.0,0.0,7857,0,,,,,,
103,,,,,,,0.0,0.0,0.0,0.0,7857,0,,,,,,
104,,,,,,,0.0,0.0,0.0,0.0,7857,0,,,,,,
105,,,,,,,0.0,0.0,0.0,0.0,7857,0,,,,,,
106,,,,,,,0.0,0.0,0.0,0.0,7857,0,,,,,,
107,,,,,,,0.0,0.0,0.0,0.0,7857,0,,,,,,
108,,,,,,,0.0,0.0,0.0,0.0,7857,0,,,,,,
109,,,,,,,0.0,0.0,0.0,0.0,7857,0,,,,,,
110,,,,,,,0.0,0.0,0.0,0.0,7857,0,,,,,,
111,,,,,,,0.0,0.0,0.0,0.0,7857,0,,,,,,
112,,,,,,,0.0,0.0,0.0,0.0,7857,0,,,,,,
113,,,,,,,0.0,0.0,0.0,0.0,7857,0,,,,,,
114,,,,,,,0.0,0.0,0.0,0.0,7857,0,,,,,,
