,sag_mean,sag_std,sag_max,sag_min,sag_nb_elements,sag_non_zero_elements,hor_mean,hor_std,hor_max,hor_min,hor_nb_elements,hor_non_zero_elements,frt_mean,frt_std,frt_max,frt_min,frt_nb_elements,frt_non_zero_elements
0,0.0,0.0,0.0,0.0,9315.0,0.0,0.0,0.0,0.0,0.0,7857,0,-2.555742839802973e-07,1.3067942986870686e-05,0.0,-0.0008829832077026367,11155.0,5.0
1,0.0,0.0,0.0,0.0,9315.0,0.0,0.0,0.0,0.0,0.0,7857,0,-1.326397709224535e-06,3.5219428395257313e-05,7.700920104980469e-05,-0.0014472007751464844,11155.0,20.0
2,0.0,0.0,0.0,0.0,9315.0,0.0,0.0,0.0,0.0,0.0,7857,0,-2.19138075440207e-06,5.686027240502048e-05,0.0006254315376281738,-0.0026330947875976562,11155.0,41.0
3,0.0,0.0,0.0,0.0,9315.0,0.0,0.0,0.0,0.0,0.0,7857,0,-3.3296915192819934e-07,8.412332840687496e-05,0.00170174241065979,-0.0032994747161865234,11155.0,61.0
4,0.0,0.0,0.0,0.0,9315.0,0.0,0.0,0.0,0.0,0.0,7857,0,4.495665737219465e-06,0.00011210918522847106,0.0023935511708259583,-0.0024961233139038086,11155.0,82.0
5,0.0,0.0,0.0,0.0,9315.0,0.0,0.0,0.0,0.0,0.0,7857,0,5.9723590238913996e-06,0.00011074115198457487,0.0025784075260162354,-0.0015958547592163086,11155.0,99.0
6,0.0,0.0,0.0,0.0,9315.0,0.0,0.0,0.0,0.0,0.0,7857,0,4.661795217752563e-06,9.519037070357443e-05,0.002146899700164795,-0.0013388246297836304,11155.0,111.0
7,0.0,0.0,0.0,0.0,9315.0,0.0,0.0,0.0,0.0,0.0,7857,0,3.221071338183353e-06,7.812747524550628e-05,0.0018669366836547852,-0.0013108253479003906,11155.0,132.0
8,0.0,0.0,0.0,0.0,9315.0,0.0,0.0,0.0,0.0,0.0,7857,0,4.539928966335842e-06,7.938659391408981e-05,0.0016393661499023438,-0.0008809566497802734,11155.0,207.0
9,0.0,0.0,0.0,0.0,9315.0,0.0,0.0,0.0,0.0,0.0,7857,0,9.403594929523722e-06,0.00010531040214399542,0.0014139413833618164,-0.0009055137634277344,11155.0,399.0
10,-1.1543926777407103e-06,2.792714823834357e-05,2.792714823834357e-05,-0.0007697343826293945,9315.0,66.0,0.0,0.0,0.0,0.0,7857,0,1.4965010546849133e-05,0.0001269497153942561,0.001535564661026001,-0.0007004737854003906,11155.0,550.0
11,-3.941925594663638e-06,6.756491415670963e-05,6.756491415670963e-05,-0.0010360479354858398,9315.0,286.0,-1.8019646887896366e-06,3.557528655318129e-05,0.00011360645294189453,-0.001190781593322754,7857,33,1.9661586518305075e-05,0.00016948838418033734,0.0022045373916625977,-0.0008096694946289062,11155.0,670.0
12,-1.132161345510827e-05,0.00011306269180762262,0.00011306269180762262,-0.0014085769653320312,9315.0,569.0,-4.99002392484029e-06,7.000313655186151e-05,0.0006285607814788818,-0.0014865398406982422,7857,123,2.0961801081909186e-05,0.00019957450320851763,0.0022527575492858887,-0.0011802315711975098,11155.0,786.0
13,-1.5936895976991853e-05,0.00013147077748573542,0.00013147077748573542,-0.0014693737030029297,9315.0,759.0,-3.906241640025641e-06,9.387888240110444e-05,0.0011868476867675781,-0.0015717744827270508,7857,257,1.6943724840171453e-05,0.00020524922393261815,0.002262592315673828,-0.0017342567443847656,11155.0,896.0
14,-2.3235057811070306e-05,0.00014965471028067785,0.00014965471028067785,-0.0012679100036621094,9315.0,929.0,1.6401157428403688e-06,0.0001167309682397479,0.0012693405151367188,-0.0013883113861083984,7857,405,1.01831756867819e-05,0.00020053389180691643,0.0020341873168945312,-0.0019217729568481445,11155.0,1009.0
15,-3.31796127083045e-05,0.00017596715402912874,0.00017596715402912874,-0.0017409920692443848,9315.0,1110.0,4.329797593110752e-06,0.00012324907588749694,0.0011413097381591797,-0.0011739730834960938,7857,534,-1.3564544233544854e-07,0.000193608273233504,0.0015819072723388672,-0.0018451213836669922,11155.0,1112.0
16,-4.201557901420471e-05,0.00019568733159167553,0.00019568733159167553,-0.0016268491744995117,9315.0,1268.0,3.0993920551423083e-06,0.00011918495039464694,0.0010730624198913574,-0.0010489225387573242,7857,649,-7.479147179280159e-06,0.00018137044803595754,0.00140458345413208,-0.0021523386240005493,11155.0,1261.0
17,-5.230985683605467e-05,0.00021566917303167122,0.00021566917303167122,-0.0016345977783203125,9315.0,1465.0,1.2059866352225133e-06,0.00011959529955405754,0.0009435117244720459,-0.0008224248886108398,7857,760,-8.722068574939112e-06,0.00018620783138645466,0.0013583898544311523,-0.00234869122505188,11155.0,1404.0
18,-6.129284615773894e-05,0.00023132971472518396,0.00023132971472518396,-0.0019559860229492188,9315.0,1643.0,1.1139715025674391e-07,0.00012559670680797408,0.0009630918502807617,-0.0007691383361816406,7857,884,-5.010076366875518e-06,0.00019573172928789314,0.0014122724533081055,-0.0019653737545013428,11155.0,1531.0
19,-6.874643581500326e-05,0.00024541424943726826,0.00024541424943726826,-0.0021462440490722656,9315.0,1806.0,3.4332135757432572e-06,0.0001472180039155899,0.001631319522857666,-0.0008281469345092773,7857,1041,-3.090604405235691e-06,0.00020734868621574942,0.0016950368881225586,-0.0014883875846862793,11155.0,1653.0
20,-7.7143874299581e-05,0.00025499882701006166,0.00025499882701006166,-0.0019598007202148438,9315.0,1959.0,5.736385296806892e-06,0.00015876647158760996,0.0013322234153747559,-0.0008701086044311523,7857,1281,-1.6783605020155972e-05,0.00023413428677896087,0.001631319522857666,-0.002305150032043457,11155.0,1962.0
21,-8.383150273955003e-05,0.0002619396316129569,0.0002619396316129569,-0.0016570091247558594,9315.0,2150.0,6.176873700653185e-06,0.00016117765151000115,0.0010461807250976562,-0.0009529590606689453,7857,1475,-2.708668040561668e-05,0.00023554269108273595,0.0016825199127197266,-0.0018545985221862793,11155.0,2279.0
22,-8.912988010614834e-05,0.00026924816546210293,0.00026924816546210293,-0.0017578303813934326,9315.0,2316.0,5.4678858030955835e-06,0.0001709468508321259,0.0011320114135742188,-0.0013575553894042969,7857,1656,-2.207124231064693e-05,0.00023034443541631832,0.0015349388122558594,-0.0014885663986206055,11155.0,2581.0
23,-9.071916716460236e-05,0.0002728376354412721,0.0002728376354412721,-0.0018764138221740723,9315.0,2472.0,4.283265839274548e-06,0.00017887855369194057,0.0012286901473999023,-0.0013260841369628906,7857,1824,-2.0812179630577184e-05,0.0002467590458328509,0.0016862154006958008,-0.0014350414276123047,11155.0,3175.0
24,-9.193236876371099e-05,0.0002808946602777282,0.0002808946602777282,-0.0019778013229370117,9315.0,2614.0,1.4132327708692226e-06,0.00018916181500006437,0.0013382136821746826,-0.00150299072265625,7857,1981,-3.008626646563193e-05,0.0002669312840913906,0.001756429672241211,-0.0019516944885253906,11155.0,3729.0
25,-9.426481312443765e-05,0.00029375249951518284,0.00029375249951518284,-0.0020189285278320312,9315.0,2755.0,-3.9596504471229815e-06,0.00020997504966173373,0.0013066604733467102,-0.0015604496002197266,7857,2127,-3.958580105330466e-05,0.0002782372059175534,0.00222170352935791,-0.0019148588180541992,11155.0,4270.0
26,-9.869894753792636e-05,0.00029784073991154724,0.00029784073991154724,-0.0019701123237609863,9315.0,2870.0,-1.0262626976091133e-05,0.00024079644495385053,0.0013544559478759766,-0.001603841781616211,7857,2271,-4.80733674098055e-05,0.00028619798078663574,0.0023027658462524414,-0.001913994550704956,11155.0,4664.0
27,-0.00010669437530840449,0.0002939001228313645,0.0002939001228313645,-0.0017931163311004639,9315.0,2990.0,-1.6034432392070976e-05,0.0002678240829057707,0.0014990270137786865,-0.0019217729568481445,7857,2390,-5.364941081288834e-05,0.0003045236155488505,0.0022768378257751465,-0.0018544197082519531,11155.0,4937.0
28,-0.00011433249577572214,0.0002934486880294626,0.0002934486880294626,-0.0018431544303894043,9315.0,3091.0,-1.8765861299780297e-05,0.0002915732776823285,0.0016725659370422363,-0.0017962455749511719,7857,2506,-6.280987409572461e-05,0.0003294333572102648,0.0017562508583068848,-0.0020815134048461914,11155.0,5081.0
29,-0.00011857550255495525,0.00030403815740780995,0.00030403815740780995,-0.0019185543060302734,9315.0,3171.0,-2.2418137270053053e-05,0.0003235894950899423,0.0016950368881225586,-0.0018601417541503906,7857,2632,-6.997190749659677e-05,0.00035937518053157634,0.0013382136821746826,-0.0021208524703979492,11155.0,5163.0
30,-0.0001202346898488322,0.0003167594151624896,0.0003167594151624896,-0.002305150032043457,9315.0,3248.0,-2.831771827304714e-05,0.0003499370929062173,0.0020961761474609375,-0.001764535903930664,7857,2746,-7.00973770344285e-05,0.00036474043480389553,0.0013830065727233887,-0.0019335150718688965,11155.0,5216.0
31,-0.00011764312411947911,0.00032120085491977354,0.00032120085491977354,-0.002025425434112549,9315.0,3308.0,-3.32649379516554e-05,0.0003540264621607609,0.0022389888763427734,-0.0018184185028076172,7857,2854,-7.703280228126255e-05,0.0003525395020145012,0.0014662742614746094,-0.0020189285278320312,11155.0,5310.0
32,-0.0001114938994876151,0.00031760096857366064,0.00031760096857366064,-0.001849532127380371,9315.0,3358.0,-3.5701843120141244e-05,0.00034036120804212564,0.0022527575492858887,-0.0017235279083251953,7857,2956,-9.555500227440749e-05,0.00034283808342370304,0.0015107393264770508,-0.0021245479583740234,11155.0,5420.0
33,-0.00010336054247867162,0.00031260309316510096,0.00031260309316510096,-0.0018229186534881592,9315.0,3396.0,-3.4043543258099536e-05,0.0003175426615416906,0.002262592315673828,-0.0015283823013305664,7857,3037,-0.00011525534264813406,0.0003442365606733921,0.0010874271392822266,-0.002037644386291504,11155.0,5486.0
34,-9.680422767617173e-05,0.00031275773109587724,0.00031275773109587724,-0.0017830133438110352,9315.0,3444.0,-2.9888744725003805e-05,0.0003011981874254747,0.0019168853759765625,-0.0014604628086090088,7857,3119,-0.00012498292779120613,0.0003553730322733286,0.0015883445739746094,-0.0023040175437927246,11155.0,5546.0
35,-9.205926731026367e-05,0.000320920676129408,0.000320920676129408,-0.0017557144165039062,9315.0,3473.0,-2.7544975475572543e-05,0.00030060472034251843,0.0020673274993896484,-0.00164109468460083,7857,3198,-0.0001270241709150629,0.00036072217484162995,0.0018515586853027344,-0.0023839175701141357,11155.0,5570.0
36,-8.727749009618923e-05,0.00033226785937909894,0.00033226785937909894,-0.0018396377563476562,9315.0,3505.0,-3.108930289761926e-05,0.00031199497291916207,0.0018985271453857422,-0.0019654035568237305,7857,3260,-0.00012532047099557612,0.00034932389092159606,0.0014338493347167969,-0.002088002860546112,11155.0,5555.0
37,-8.09938223183683e-05,0.00034138944492695736,0.00034138944492695736,-0.0019745826721191406,9315.0,3530.0,-4.0830463487416335e-05,0.000330349132851783,0.0018534064292907715,-0.0019241571426391602,7857,3349,-0.00012177435116184285,0.00034499307974698607,0.0013544559478759766,-0.0016745924949645996,11155.0,5539.0
38,-7.521730582051077e-05,0.000346680679831459,0.000346680679831459,-0.0020951032638549805,9315.0,3538.0,-5.5195880996671905e-05,0.00034798977743436606,0.0025784075260162354,-0.001918196678161621,7857,3412,-0.00011739969910763495,0.0003511277801449319,0.0014878511428833008,-0.002094566822052002,11155.0,5523.0
39,-7.077956562051955e-05,0.0003534931026697233,0.0003534931026697233,-0.0019190311431884766,9315.0,3549.0,-7.258049796115563e-05,0.0003546624569767014,0.0023935511708259583,-0.0018431544303894043,7857,3443,-0.00011155663888827583,0.0003561599717330017,0.0017873048782348633,-0.0022736191749572754,11155.0,5471.0
40,-6.402428701539463e-05,0.0003580696689257089,0.0003580696689257089,-0.0019025877118110657,9315.0,3538.0,-8.829666558519676e-05,0.00034693031578721063,0.002174854278564453,-0.0019233226776123047,7857,3469,-0.0001049173294999359,0.0003544796545805039,0.0023322105407714844,-0.0020737648010253906,11155.0,5402.0
41,-5.094088115238235e-05,0.0003521904860958171,0.0003521904860958171,-0.0020690560340881348,9315.0,3528.0,-0.00010104171735688189,0.00032600706510566344,0.0016685724258422852,-0.0021208524703979492,7857,3495,-9.998567319134478e-05,0.00034280678466562086,0.0016091465950012207,-0.0017409920692443848,11155.0,5318.0
42,-3.601293836067162e-05,0.00033034800451928366,0.00033034800451928366,-0.0018489360809326172,9315.0,3546.0,-0.00010656420347204109,0.00031422718604615064,0.0008766651153564453,-0.0024493932723999023,7857,3504,-9.71448500511282e-05,0.00033634683164960103,0.0013995766639709473,-0.0016415119171142578,11155.0,5243.0
43,-2.9730166649641855e-05,0.0003173199437106501,0.0003173199437106501,-0.0032994747161865234,9315.0,3574.0,-0.00010465375003059388,0.0003196745460376473,0.0009590387344360352,-0.0032994747161865234,7857,3496,-9.676919944565793e-05,0.0003346805186168442,0.0014729499816894531,-0.001929163932800293,11155.0,5156.0
44,-2.846708552490958e-05,0.0003080764438918168,0.0003080764438918168,-0.0027157068252563477,9315.0,3589.0,-0.00010305035363162566,0.00031615984217841375,0.0011744499206542969,-0.0026993751525878906,7857,3430,-9.257269575306917e-05,0.00032006803871319255,0.0014455318450927734,-0.0019241571426391602,11155.0,5062.0
45,-2.848834582462995e-05,0.0002900844183822618,0.0002900844183822618,-0.002237975597381592,9315.0,3553.0,-0.00010408486255130812,0.00030922221266075874,0.0011779814958572388,-0.00234869122505188,7857,3364,-8.467992329164332e-05,0.00030065620246276905,0.0013713836669921875,-0.0019654035568237305,11155.0,4952.0
46,-2.5863615969593135e-05,0.00027370896656902496,0.00027370896656902496,-0.0019418299198150635,9315.0,3496.0,-0.00011063510867290173,0.0003086476607352155,0.001125037670135498,-0.0022054286673665047,7857,3277,-8.112500711801913e-05,0.000284717464721773,0.001410067081451416,-0.0018763840198516846,11155.0,4844.0
47,-2.2169788498271474e-05,0.00026655481185636605,0.00026655481185636605,-0.0021245479583740234,9315.0,3435.0,-0.00011315408705629287,0.0003053684739000841,0.0011991262435913086,-0.0018451213836669922,7857,3152,-8.267694300980691e-05,0.00026041399570075457,0.0010497570037841797,-0.0016971826553344727,11155.0,4717.0
48,-1.969822752489436e-05,0.0002645297778621061,0.0002645297778621061,-0.0019911527633666992,9315.0,3409.0,-0.00010824545361390851,0.00031294158113543704,0.0017458200454711914,-0.0018754005432128906,7857,3042,-8.543212838067682e-05,0.0002570952654386423,0.0008984804153442383,-0.0015779733657836914,11155.0,4594.0
49,-1.669899048952319e-05,0.00025958605896900537,0.00025958605896900537,-0.0017991065979003906,9315.0,3450.0,-0.00010372907204901501,0.00032854685459671683,0.0023322105407714844,-0.0021462440490722656,7857,3014,-8.754251110888502e-05,0.00026246342646971447,0.0009860992431640625,-0.0019295215606689453,11155.0,4461.0
50,-1.549250700586524e-05,0.00025914556274737443,0.00025914556274737443,-0.0017168521881103516,9315.0,3526.0,-9.62706396909157e-05,0.00032856217619561047,0.002068758010864258,-0.0022680461406707764,7857,2982,-9.027211358106989e-05,0.0002612737567317405,0.0011309981346130371,-0.0018053054809570312,11155.0,4313.0
51,-2.1861242186950476e-05,0.0002700163260846102,0.0002700163260846102,-0.0019516944885253906,9315.0,3585.0,-8.538823460107066e-05,0.00032385222047526404,0.0015218257904052734,-0.0023839175701141357,7857,2958,-9.518563960042688e-05,0.00026140223360127503,0.0009109377861022949,-0.0019707679748535156,11155.0,4159.0
52,-3.3975127744255494e-05,0.0002749497867887813,0.0002749497867887813,-0.0018134117126464844,9315.0,3601.0,-7.553093059132056e-05,0.0003107488241880251,0.0012857913970947266,-0.0020714998245239258,7857,2953,-0.00010133903566862701,0.00027134222194973733,0.0008829236030578613,-0.0021462440490722656,11155.0,3994.0
53,-4.34485377944552e-05,0.0002736151697787223,0.0002736151697787223,-0.001958101987838745,9315.0,3580.0,-6.745228569006835e-05,0.00029010412042198837,0.0011165142059326172,-0.0019442439079284668,7857,2913,-0.00010640510819820626,0.00028334762082213706,0.0010377764701843262,-0.0024312734603881836,11155.0,3819.0
54,-4.5006152101698914e-05,0.0002726982455596265,0.0002726982455596265,-0.0019401311874389648,9315.0,3558.0,-6.251034161540722e-05,0.0002772693684415802,0.0011970996856689453,-0.001674354076385498,7857,2881,-0.00010651509944823433,0.00028819360909341086,0.001099228858947754,-0.0022649765014648438,11155.0,3640.0
55,-4.237037983627878e-05,0.00027478807717252584,0.00027478807717252584,-0.002079010009765625,9315.0,3552.0,-5.970200673768654e-05,0.0002744940223518592,0.001811981201171875,-0.0015178918838500977,7857,2853,-9.910630620348112e-05,0.0002798979715842415,0.0009306073188781738,-0.002079010009765625,11155.0,3435.0
56,-4.050994044573707e-05,0.00028570173685057033,0.00028570173685057033,-0.0022649765014648438,9315.0,3558.0,-5.4468716284578065e-05,0.0002724382933286534,0.0023027658462524414,-0.0013866350054740906,7857,2846,-8.841215013261301e-05,0.0002656313629314166,0.0007569789886474609,-0.0017664432525634766,11155.0,3223.0
57,-4.1361011568355905e-05,0.00030472259271521285,0.00030472259271521285,-0.0024312734603881836,9315.0,3561.0,-4.897001562397965e-05,0.00026570805817400654,0.0019812285900115967,-0.0013710260391235352,7857,2844,-7.997175764265553e-05,0.0002511320909968646,0.00145721435546875,-0.0015788078308105469,11155.0,3004.0
58,-4.411311587693706e-05,0.0003172541106038416,0.0003172541106038416,-0.002094969153404236,9315.0,3539.0,-5.1440353794551465e-05,0.00026345884712650474,0.0010850876569747925,-0.0016309469938278198,7857,2843,-7.429143866778325e-05,0.00023068747469199218,0.0011017322540283203,-0.0015680789947509766,11155.0,2768.0
59,-4.961260831132491e-05,0.0003183410900023756,0.0003183410900023756,-0.0023839175701141357,9315.0,3511.0,-6.236574772193713e-05,0.00027420980802502756,0.0010398626327514648,-0.0022197961807250977,7857,2835,-6.634148993771081e-05,0.00021201246578051217,0.0006134510040283203,-0.0015250444412231445,11155.0,2519.0
60,-5.582011221428812e-05,0.00031015456116062766,0.00031015456116062766,-0.002326667308807373,9315.0,3482.0,-7.21063696154873e-05,0.0002930383691692377,0.001189887523651123,-0.0024312734603881836,7857,2827,-5.2491636868239206e-05,0.00019384223628647244,0.0005285739898681641,-0.0014276504516601562,11155.0,2278.0
61,-6.586531314574446e-05,0.0003024356593388614,0.0003024356593388614,-0.002254784107208252,9315.0,3463.0,-7.649760209009062e-05,0.0003030797505488,0.0012331008911132812,-0.002087712287902832,7857,2811,-3.6866899296108686e-05,0.00017373302481577498,0.000789642333984375,-0.0016075372695922852,11155.0,2022.0
62,-7.608621349979154e-05,0.00029980882839716823,0.00029980882839716823,-0.002049863338470459,9315.0,3424.0,-7.630249430432932e-05,0.0003051975173981902,0.0013995766639709473,-0.002113848924636841,7857,2803,-2.8127043811476643e-05,0.00016049826293697446,0.000796973705291748,-0.0015643835067749023,11155.0,1753.0
63,-7.956397186626564e-05,0.00029914071951208174,0.00029914071951208174,-0.0017375946044921875,9315.0,3383.0,-8.016149836428917e-05,0.0003123674206617363,0.0016862154006958008,-0.002305150032043457,7857,2785,-2.2991794957359815e-05,0.00014708561718845356,0.0011074244976043701,-0.0015094280242919922,11155.0,1488.0
64,-7.639926588703927e-05,0.0002951931949147191,0.0002951931949147191,-0.0016937702894210815,9315.0,3336.0,-9.132526155873073e-05,0.0003220322561172191,0.001522839069366455,-0.0021554231643676758,7857,2760,-1.9097650590207027e-05,0.00014595736489662244,0.0009845495223999023,-0.001521766185760498,11155.0,1220.0
65,-6.945767878630747e-05,0.00028624954487813293,0.00028624954487813293,-0.0018516778945922852,9315.0,3281.0,-0.00010527550800307206,0.00032957859957316615,0.0016973018646240234,-0.001913994550704956,7857,2725,-1.2783350732723515e-05,0.0001386262149492511,0.0010513663291931152,-0.0015852749347686768,11155.0,967.0
66,-6.147674553417983e-05,0.0002743207999425463,0.0002743207999425463,-0.001967400312423706,9315.0,3207.0,-0.00011208027943057423,0.0003268176517538263,0.0015474557876586914,-0.0017101764678955078,7857,2710,-5.442214606255493e-06,0.00010899113836368272,0.0010241270065307617,-0.0014996528625488281,11155.0,663.0
67,-5.3572690067387884e-05,0.00026341133074551313,0.00026341133074551313,-0.0021208524703979492,9315.0,3116.0,-0.0001098929928819331,0.00031464045191631284,0.001385718584060669,-0.0017830133438110352,7857,2664,-2.592305015356805e-06,9.671748536717091e-05,0.0009263753890991211,-0.0015398859977722168,11155.0,353.0
68,-4.866709670039622e-05,0.00025959797697251735,0.00025959797697251735,-0.001960277557373047,9315.0,3026.0,-0.00010465053690770357,0.00030462256288988173,0.0012058913707733154,-0.0019295215606689453,7857,2634,-2.7880828171394054e-06,5.733114860951909e-05,0.0004177093505859375,-0.0014951229095458984,11155.0,95.0
69,-4.954249155670165e-05,0.00025833212538569223,0.00025833212538569223,-0.002037644386291504,9315.0,2920.0,-9.841459299557658e-05,0.0002962678538816202,0.0014722347259521484,-0.0018085241317749023,7857,2607,0.0,0.0,0.0,0.0,11155.0,0.0
70,-5.112144501426897e-05,0.00025246999311389815,0.00025246999311389815,-0.001824796199798584,9315.0,2804.0,-9.471226730104784e-05,0.00029063556736643,0.0015107393264770508,-0.001682877540588379,7857,2592,0.0,0.0,0.0,0.0,11155.0,0.0
71,-5.0674902187846304e-05,0.0002368076662194529,0.0002368076662194529,-0.001713685691356659,9315.0,2683.0,-8.811584506918477e-05,0.00027800825199243457,0.001287221908569336,-0.0016971826553344727,7857,2559,0.0,0.0,0.0,0.0,11155.0,0.0
72,-4.632006677030573e-05,0.00021599719136834204,0.00021599719136834204,-0.001558750867843628,9315.0,2544.0,-8.036854951594002e-05,0.00026293995113208207,0.0010148286819458008,-0.0017409920692443848,7857,2509,0.0,0.0,0.0,0.0,11155.0,0.0
73,-4.251803455906068e-05,0.0001977838802217479,0.0001977838802217479,-0.0015454292297363281,9315.0,2414.0,-7.25050739162782e-05,0.0002529588805456571,0.0009454637765884399,-0.001792997121810913,7857,2455,0.0,0.0,0.0,0.0,11155.0,0.0
74,-4.1755650273218155e-05,0.0001885010075133523,0.0001885010075133523,-0.001603841781616211,9315.0,2268.0,-6.594454221735274e-05,0.0002480173907782718,0.0009136199951171875,-0.002199888229370117,7857,2386,0.0,0.0,0.0,0.0,11155.0,0.0
75,-4.2147394873964705e-05,0.0001858653139224223,0.0001858653139224223,-0.00136566162109375,9315.0,2093.0,-6.083864332328469e-05,0.00024872672111435774,0.0010050535202026367,-0.0022736191749572754,7857,2320,0.0,0.0,0.0,0.0,11155.0,0.0
76,-3.996636821991868e-05,0.00018273657233778342,0.00018273657233778342,-0.001285448670387268,9315.0,1923.0,-5.359139835473946e-05,0.00024478162143107095,0.0013682842254638672,-0.0017181634902954102,7857,2251,0.0,0.0,0.0,0.0,11155.0,0.0
77,-3.54147321290636e-05,0.00017362731379877487,0.00017362731379877487,-0.0013508796691894531,9315.0,1747.0,-4.789846252091253e-05,0.00024168879031851505,0.0018515586853027344,-0.0014548301696777344,7857,2180,0.0,0.0,0.0,0.0,11155.0,0.0
78,-3.0218106702018092e-05,0.00016583234848724254,0.00016583234848724254,-0.0013391375541687012,9315.0,1568.0,-4.591387744866851e-05,0.00023139625975066862,0.001750946044921875,-0.0015178918838500977,7857,2098,0.0,0.0,0.0,0.0,11155.0,0.0
79,-2.653435774580428e-05,0.00015932176090687318,0.00015932176090687318,-0.001514345407485962,9315.0,1397.0,-4.78195948890163e-05,0.00021415230230442778,0.0011625289916992188,-0.0014222487807273865,7857,2007,0.0,0.0,0.0,0.0,11155.0,0.0
80,-2.237465255106417e-05,0.00014934498456991479,0.00014934498456991479,-0.0018919706344604492,9315.0,1221.0,-5.127969665916425e-05,0.00020591443371791067,0.0011570081114768982,-0.0016113817691802979,7857,1935,0.0,0.0,0.0,0.0,11155.0,0.0
81,-1.876736163202687e-05,0.000134291530503556,0.000134291530503556,-0.0022736191749572754,9315.0,1038.0,-5.337532239400568e-05,0.00021598478789335327,0.0013375282287597656,-0.002098679542541504,7857,1910,,,,,,
82,-1.5146527424358708e-05,0.00011167887221240144,0.00011167887221240144,-0.0016691088676452637,9315.0,865.0,-5.2287450619107115e-05,0.00022582968827127418,0.0013513565063476562,-0.0021245479583740234,7857,1887,,,,,,
83,-1.1058141083356094e-05,9.469708801486896e-05,9.469708801486896e-05,-0.001112431287765503,9315.0,682.0,-5.16091533608517e-05,0.00023181831494919114,0.0011718273162841797,-0.001958101987838745,7857,1872,,,,,,
84,-9.389636589197208e-06,8.121228050186606e-05,8.121228050186606e-05,-0.0008591413497924805,9315.0,492.0,-5.422582725599393e-05,0.00023405190031953787,0.0009772777557373047,-0.0019326210021972656,7857,1851,,,,,,
85,-8.794278810245659e-06,7.459452118265511e-05,7.459452118265511e-05,-0.001149296760559082,9315.0,234.0,-5.744921314706453e-05,0.00023135510748351087,0.0008327960968017578,-0.0017671585083007812,7857,1815,,,,,,
86,-1.9964484584888205e-06,3.70311239858326e-05,3.70311239858326e-05,-0.0009891986846923828,9315.0,30.0,-5.6835394567202716e-05,0.0002276322543115618,0.0008696913719177246,-0.0018413066864013672,7857,1761,,,,,,
87,0.0,0.0,0.0,0.0,9315.0,0.0,-5.549491197355312e-05,0.00022182497025360155,0.0008721649646759033,-0.001674652099609375,7857,1699,,,,,,
88,0.0,0.0,0.0,0.0,9315.0,0.0,-5.63747926906891e-05,0.00022030234795998964,0.0008702278137207031,-0.001443028450012207,7857,1632,,,,,,
89,0.0,0.0,0.0,0.0,9315.0,0.0,-6.0437553360360305e-05,0.0002251999346392233,0.0008436441421508789,-0.0018544197082519531,7857,1555,,,,,,
90,0.0,0.0,0.0,0.0,9315.0,0.0,-6.513375864294405e-05,0.000232832859646986,0.0007843971252441406,-0.0020951032638549805,7857,1490,,,,,,
91,0.0,0.0,0.0,0.0,9315.0,0.0,-6.644763186407087e-05,0.00023252160527003238,0.0008525848388671875,-0.0019436478614807129,7857,1416,,,,,,
92,0.0,0.0,0.0,0.0,9315.0,0.0,-6.41564542586317e-05,0.00022543514085854045,0.0007615089416503906,-0.0017554759979248047,7857,1337,,,,,,
93,0.0,0.0,0.0,0.0,9315.0,0.0,-6.035054507926704e-05,0.0002185609563048278,0.0008689165115356445,-0.0016647577285766602,7857,1264,,,,,,
94,0.0,0.0,0.0,0.0,9315.0,0.0,-5.75622465941615e-05,0.00021749815581722774,0.0009657144546508789,-0.0018780827522277832,7857,1189,,,,,,
95,0.0,0.0,0.0,0.0,9315.0,0.0,-5.58361857175598e-05,0.0002161652942955618,0.0009000301361083984,-0.0019025877118110657,7857,1107,,,,,,
96,0.0,0.0,0.0,0.0,9315.0,0.0,-5.3529265025303205e-05,0.00020692824410962248,0.00066375732421875,-0.0020690560340881348,7857,1024,,,,,,
97,,,,,,,-4.6803681151432905e-05,0.00018366829862973046,0.00070958212018013,-0.0018489360809326172,7857,942,,,,,,
98,,,,,,,-3.353047246254238e-05,0.00014344499829910834,0.0007765591144561768,-0.0013085603713989258,7857,837,,,,,,
99,,,,,,,-1.932293240303823e-05,0.00010926321255231306,0.0006744861602783203,-0.001185297966003418,7857,730,,,,,,
100,,,,,,,-8.592460187386963e-06,9.983349748361423e-05,0.0009181499481201172,-0.0011606216430664062,7857,613,,,,,,
101,,,,,,,-5.34666043338664e-06,0.00010319089437657582,0.0008285045623779297,-0.0011348724365234375,7857,479,,,,,,
102,,,,,,,-4.704078675772953e-06,9.65967683503248e-05,0.0009038448333740234,-0.0011272430419921875,7857,319,,,,,,
103,,,,,,,-2.413605011130041e-06,7.730475799624061e-05,0.0011212825775146484,-0.0010477304458618164,7857,198,,,,,,
104,,,,,,,-3.4288032767698937e-07,3.48154097003022e-05,0.001275777816772461,-0.0006663799285888672,7857,69,,,,,,
105,,,,,,,0.0,0.0,0.0,0.0,7857,0,,,,,,
106,,,,,,,0.0,0.0,0.0,0.0,7857,0,,,,,,
107,,,,,,,0.0,0.0,0.0,0.0,7857,0,,,,,,
108,,,,,,,0.0,0.0,0.0,0.0,7857,0,,,,,,
109,,,,,,,0.0,0.0,0.0,0.0,7857,0,,,,,,
110,,,,,,,0.0,0.0,0.0,0.0,7857,0,,,,,,
111,,,,,,,0.0,0.0,0.0,0.0,7857,0,,,,,,
112,,,,,,,0.0,0.0,0.0,0.0,7857,0,,,,,,
113,,,,,,,0.0,0.0,0.0,0.0,7857,0,,,,,,
114,,,,,,,0.0,0.0,0.0,0.0,7857,0,,,,,,
